IdRun;NameConv;Time(ms);std;NbMicroKernel;AxeFuse;SizeAxeFuse;Schema;Time_search(6.193511962890625)
0;Yolo9000_9;0.7659320999999999;0.025785901479102875;2;axe_yy1_0,axe_xx1_0,axe_yy1_1,axe_xx1_1,axe_out_channels1_0;12;[V f, U (4, f), ULambda y, T (64, c), Hoist_vars [c], T (17, x), T (4, c),  T (2, f), T (2, x), T (4, y), T (2, x),  Lambda_apply y [((Iter 2), (Arg 5)), ((Iter 1), (Arg 7))]];7.531291246414185
1;Yolo9000_9;0.48518219999999995;0.08531989231685655;2;axe_yy1_0,axe_xx1_0,axe_yy1_1,axe_xx1_1,axe_out_channels1_0;24;[V f, U (2, f), ULambda y, T (128, c), Hoist_vars [c], T (4, x), T (2, c),  T (4, f), T (17, x), T (1, y), T (1, x),  Lambda_apply y [((Iter 1), (Arg 8)), ((Iter 4), (Arg 15))]];8.56682562828064
2;Yolo9000_9;1.7726177;0.004975389855076684;1;axe_yy_0;4;[V f, U (4, f), ULambda y, T (256, c), Hoist_vars [c], T (34, x), T (1, c),  T (2, f), T (1, x),  Lambda_apply y [((Iter 1), (Arg 3)), ((Iter 2), (Arg 7))], T (2, x),  T (4, y)];9.502195119857788
3;Yolo9000_9;0.7076594999999999;0.028991469228895575;2;axe_yy1_0,axe_xx1_0,axe_yy1_1,axe_xx1_1,axe_out_channels1_0;12;[V f, U (4, f), ULambda y, T (256, c), Hoist_vars [c], T (34, x), T (1, c),  T (2, f), T (2, x), T (4, y), T (1, x),  Lambda_apply y [((Iter 3), (Arg 3)), ((Iter 2), (Arg 4))]];10.868298768997192
4;Yolo9000_9;0.7900459;0.04865781518409967;2;axe_yy1_0,axe_xx1_0,axe_yy1_1,axe_xx1_1,axe_out_channels1_0;10;[V f, U (4, f), ULambda y, T (256, c), Hoist_vars [c], T (17, x), T (1, c),  T (2, f), T (4, x), T (2, y), T (1, x),  Lambda_apply y [((Iter 1), (Arg 6)), ((Iter 4), (Arg 7))]];11.971202373504639
5;Yolo9000_9;0.7424086000000001;0.11507141122033747;2;axe_yy1_0,axe_xx1_0,axe_yy1_1,axe_xx1_1,axe_out_channels1_0;12;[V f, U (4, f), ULambda y, T (128, c), Hoist_vars [c], T (17, x), T (2, c),  T (2, f), T (2, x), T (4, y), T (2, x),  Lambda_apply y [((Iter 2), (Arg 5)), ((Iter 1), (Arg 7))]];13.333641052246094
6;Yolo9000_9;3.5270598;0.0011699937435731228;1;axe_yy_0;2;[V f, U (4, f), ULambda y, T (256, c), Hoist_vars [c], T (17, x), T (1, c),  T (2, f), T (4, x),  Lambda_apply y [((Iter 1), (Arg 6)), ((Iter 4), (Arg 7))], T (1, x),  T (2, y)];14.37443232536316
7;Yolo9000_9;0.7116282;0.058939198450267384;2;axe_yy1_0,axe_xx1_0,axe_yy1_1,axe_xx1_1,axe_out_channels1_0;13;[V f, U (4, f), ULambda y, T (128, c), Hoist_vars [c], T (17, x), T (2, c),  T (2, f), T (4, x), T (4, y), T (1, x),  Lambda_apply y [((Iter 2), (Arg 5)), ((Iter 1), (Arg 7))]];15.694097518920898
8;Yolo9000_9;1.8186126999999999;0.005810290337840276;1;axe_yy_0;4;[V f, U (4, f), ULambda y, T (128, c), Hoist_vars [c], T (68, x), T (2, c),  T (2, f), T (1, x),  Lambda_apply y [((Iter 1), (Arg 3)), ((Iter 2), (Arg 7))], T (1, x),  T (4, y)];16.652702808380127
9;Yolo9000_9;0.8654651000000001;0.054934305408278365;2;axe_yy1_0,axe_xx1_0,axe_yy1_1,axe_xx1_1,axe_out_channels1_0;11;[V f, U (4, f), ULambda y, T (128, c), Hoist_vars [c], T (17, x), T (2, c),  T (2, f), T (2, x), T (4, y), T (2, x),  Lambda_apply y [((Iter 1), (Arg 3)), ((Iter 2), (Arg 7))]];17.71140170097351
10;Yolo9000_9;3.5152194999999997;0.0008919947589531721;1;axe_yy_0;2;[V f, U (4, f), ULambda y, T (256, c), Hoist_vars [c], T (17, x), T (1, c),  T (2, f), T (2, x),  Lambda_apply y [((Iter 1), (Arg 4)), ((Iter 5), (Arg 6))], T (2, x),  T (2, y)];18.736584186553955
11;Yolo9000_9;0.7931187000000001;0.05986542730165714;2;axe_yy1_0,axe_xx1_0,axe_yy1_1,axe_xx1_1,axe_out_channels1_0;10;[V f, U (4, f), ULambda y, T (64, c), Hoist_vars [c], T (17, x), T (4, c),  T (2, f), T (1, x), T (2, y), T (4, x),  Lambda_apply y [((Iter 1), (Arg 6)), ((Iter 4), (Arg 7))]];19.78540563583374
12;Yolo9000_9;1.7896770999999998;0.005532049953679028;1;axe_yy_0;4;[V f, U (4, f), ULambda y, T (256, c), Hoist_vars [c], T (68, x), T (1, c),  T (2, f), T (1, x),  Lambda_apply y [((Iter 1), (Arg 3)), ((Iter 2), (Arg 7))], T (1, x),  T (4, y)];20.731172800064087
13;Yolo9000_9;1.1416486999999997;0.0035987054908675304;2;axe_yy1_0,axe_xx1_0,axe_yy1_1,axe_xx1_1,axe_out_channels1_0;12;[V f, U (4, f), ULambda y, T (256, c), Hoist_vars [c], T (68, x), T (1, c),  T (2, f), T (1, x), T (4, y), T (1, x),  Lambda_apply y [((Iter 4), (Arg 3)), ((Iter 1), (Arg 5))]];21.960103750228882
14;Yolo9000_9;1.7904703999999998;0.005071548978369456;1;axe_yy_0;4;[V f, U (4, f), ULambda y, T (256, c), Hoist_vars [c], T (68, x), T (1, c),  T (2, f), T (1, x),  Lambda_apply y [((Iter 3), (Arg 3)), ((Iter 2), (Arg 4))], T (1, x),  T (4, y)];22.897948026657104
15;Yolo9000_9;1.1706963;0.010266319272748094;2;axe_yy1_0,axe_xx1_0,axe_yy1_1,axe_xx1_1,axe_out_channels1_0;9;[V f, U (4, f), ULambda y, T (128, c), Hoist_vars [c], T (68, x), T (2, c),  T (2, f), T (1, x), T (4, y), T (1, x),  Lambda_apply y [((Iter 1), (Arg 3)), ((Iter 2), (Arg 7))]];23.86756420135498
16;Yolo9000_9;0.7208186999999999;0.006666289958440117;2;axe_yy1_0,axe_xx1_0,axe_yy1_1,axe_xx1_1,axe_out_channels1_0;13;[V f, U (4, f), ULambda y, T (256, c), Hoist_vars [c], T (34, x), T (1, c),  T (2, f), T (1, x), T (4, y), T (2, x),  Lambda_apply y [((Iter 4), (Arg 3)), ((Iter 1), (Arg 5))]];25.252686977386475
17;Yolo9000_9;3.5939259;0.0016621898477610642;1;axe_yy_0;2;[V f, U (4, f), ULambda y, T (128, c), Hoist_vars [c], T (68, x), T (2, c),  T (2, f), T (1, x),  Lambda_apply y [((Iter 1), (Arg 4)), ((Iter 5), (Arg 6))], T (1, x),  T (2, y)];26.283233404159546
18;Yolo9000_9;0.6289305000000001;0.03449041901238661;2;axe_yy1_0,axe_xx1_0,axe_yy1_1,axe_xx1_1,axe_out_channels1_0;12;[V f, U (4, f), ULambda y, T (64, c), Hoist_vars [c], T (17, x), T (4, c),  T (2, f), T (4, x), T (4, y), T (1, x),  Lambda_apply y [((Iter 1), (Arg 5)), ((Iter 2), (Arg 6))]];27.406689882278442
19;Yolo9000_9;3.6301463999999997;0.0005392304145725;1;axe_yy_0;2;[V f, U (4, f), ULambda y, T (64, c), Hoist_vars [c], T (17, x), T (4, c),  T (2, f), T (1, x),  Lambda_apply y [((Iter 1), (Arg 4)), ((Iter 5), (Arg 6))], T (4, x),  T (2, y)];28.435635328292847
20;Yolo9000_9;0.8690367999999999;0.04958043414654615;2;axe_yy1_0,axe_xx1_0,axe_yy1_1,axe_xx1_1,axe_out_channels1_0;9;[V f, U (4, f), ULambda y, T (256, c), Hoist_vars [c], T (17, x), T (1, c),  T (2, f), T (2, x), T (2, y), T (2, x),  Lambda_apply y [((Iter 1), (Arg 6)), ((Iter 4), (Arg 7))]];29.519734621047974
21;Yolo9000_9;1.0502166000000002;0.0038698106465303943;2;axe_yy1_0,axe_xx1_0,axe_yy1_1,axe_xx1_1,axe_out_channels1_0;8;[V f, U (4, f), ULambda y, T (256, c), Hoist_vars [c], T (34, x), T (1, c),  T (2, f), T (1, x), T (2, y), T (2, x),  Lambda_apply y [((Iter 1), (Arg 6)), ((Iter 4), (Arg 7))]];30.539571523666382
22;Yolo9000_9;3.5227375000000003;0.0008557418126981786;1;axe_yy_0;2;[V f, U (4, f), ULambda y, T (256, c), Hoist_vars [c], T (68, x), T (1, c),  T (2, f), T (1, x),  Lambda_apply y [((Iter 5), (Arg 4)), ((Iter 2), (Arg 7))], T (1, x),  T (2, y)];31.55684542655945
23;Yolo9000_9;1.7726524000000001;0.005347582953073255;1;axe_yy_0;4;[V f, U (4, f), ULambda y, T (256, c), Hoist_vars [c], T (17, x), T (1, c),  T (2, f), T (2, x),  Lambda_apply y [((Iter 1), (Arg 3)), ((Iter 2), (Arg 7))], T (2, x),  T (4, y)];32.581687927246094
24;Yolo9000_9;1.7859282;0.005289061992451957;1;axe_yy_0;4;[V f, U (4, f), ULambda y, T (256, c), Hoist_vars [c], T (34, x), T (1, c),  T (2, f), T (2, x),  Lambda_apply y [((Iter 2), (Arg 5)), ((Iter 1), (Arg 7))], T (1, x),  T (4, y)];33.54094457626343
25;Yolo9000_9;3.6559675;0.0014656780853925465;1;axe_yy_0;2;[V f, U (4, f), ULambda y, T (64, c), Hoist_vars [c], T (17, x), T (4, c),  T (2, f), T (1, x),  Lambda_apply y [((Iter 1), (Arg 6)), ((Iter 4), (Arg 7))], T (4, x),  T (2, y)];34.5782527923584
26;Yolo9000_9;3.6198775;0.0011047334746444191;1;axe_yy_0;2;[V f, U (4, f), ULambda y, T (64, c), Hoist_vars [c], T (17, x), T (4, c),  T (2, f), T (2, x),  Lambda_apply y [((Iter 1), (Arg 4)), ((Iter 5), (Arg 6))], T (2, x),  T (2, y)];35.61658692359924
27;Yolo9000_9;1.3323456999999999;0.007292154935956844;2;axe_yy1_0,axe_xx1_0,axe_yy1_1,axe_xx1_1,axe_out_channels1_0;9;[V f, U (4, f), ULambda y, T (128, c), Hoist_vars [c], T (68, x), T (2, c),  T (2, f), T (1, x), T (4, y), T (1, x),  Lambda_apply y [((Iter 1), (Arg 5)), ((Iter 2), (Arg 6))]];36.663026094436646
28;Yolo9000_9;1.8391171;0.006273445185063773;1;axe_yy_0;4;[V f, U (4, f), ULambda y, T (64, c), Hoist_vars [c], T (17, x), T (4, c),  T (2, f), T (2, x),  Lambda_apply y [((Iter 1), (Arg 3)), ((Iter 2), (Arg 7))], T (2, x),  T (4, y)];37.619046211242676
29;Yolo9000_9;0.5658352;0.007120352909793169;2;axe_yy1_0,axe_xx1_0,axe_yy1_1,axe_xx1_1,axe_out_channels1_0;12;[V f, U (4, f), ULambda y, T (256, c), Hoist_vars [c], T (17, x), T (1, c),  T (2, f), T (4, x), T (4, y), T (1, x),  Lambda_apply y [((Iter 1), (Arg 5)), ((Iter 2), (Arg 6))]];38.73346304893494
30;Yolo9000_9;1.7850676;0.005094218216762972;1;axe_yy_0;4;[V f, U (4, f), ULambda y, T (256, c), Hoist_vars [c], T (34, x), T (1, c),  T (2, f), T (2, x),  Lambda_apply y [((Iter 1), (Arg 5)), ((Iter 2), (Arg 6))], T (1, x),  T (4, y)];39.68726944923401
31;Yolo9000_9;0.6893407999999999;0.014756187202661794;1;axe_yy_0,axe_xx_0,axe_yy_1,axe_xx_1,axe_out_channels_0;22;[V f, U (4, f), U (4, y), T (256, c), Hoist_vars [c], T (68, x), T (1, c),  T (2, f), T (1, x), T (17, y), T (1, x), T (1, y)];40.511332750320435
32;Yolo9000_9;1.816183;0.005917466197622078;1;axe_yy_0;4;[V f, U (4, f), ULambda y, T (128, c), Hoist_vars [c], T (68, x), T (2, c),  T (2, f), T (1, x),  Lambda_apply y [((Iter 2), (Arg 5)), ((Iter 1), (Arg 7))], T (1, x),  T (4, y)];41.460644006729126
33;Yolo9000_9;1.7993707;0.006799710435746471;1;axe_yy_0;4;[V f, U (4, f), ULambda y, T (64, c), Hoist_vars [c], T (34, x), T (4, c),  T (2, f), T (2, x),  Lambda_apply y [((Iter 3), (Arg 3)), ((Iter 2), (Arg 4))], T (1, x),  T (4, y)];42.39303994178772
34;Yolo9000_9;1.8178738000000003;0.005776382151485501;1;axe_yy_0;4;[V f, U (4, f), ULambda y, T (128, c), Hoist_vars [c], T (17, x), T (2, c),  T (2, f), T (1, x),  Lambda_apply y [((Iter 1), (Arg 3)), ((Iter 2), (Arg 7))], T (4, x),  T (4, y)];43.33619427680969
35;Yolo9000_9;1.4704308;0.008176445912497707;2;axe_yy1_0,axe_xx1_0,axe_yy1_1,axe_xx1_1,axe_out_channels1_0;7;[V f, U (4, f), ULambda y, T (128, c), Hoist_vars [c], T (68, x), T (2, c),  T (2, f), T (1, x), T (2, y), T (1, x),  Lambda_apply y [((Iter 1), (Arg 6)), ((Iter 4), (Arg 7))]];44.334495306015015
36;Yolo9000_9;0.7533302;0.03828473212339355;2;axe_yy1_0,axe_xx1_0,axe_yy1_1,axe_xx1_1,axe_out_channels1_0;10;[V f, U (4, f), ULambda y, T (128, c), Hoist_vars [c], T (17, x), T (2, c),  T (2, f), T (1, x), T (2, y), T (4, x),  Lambda_apply y [((Iter 1), (Arg 6)), ((Iter 4), (Arg 7))]];45.414647579193115
37;Yolo9000_9;0.9383277999999999;0.016482361777366724;2;axe_yy1_0,axe_xx1_0,axe_yy1_1,axe_xx1_1,axe_out_channels1_0;12;[V f, U (4, f), ULambda y, T (256, c), Hoist_vars [c], T (34, x), T (1, c),  T (2, f), T (2, x), T (4, y), T (1, x),  Lambda_apply y [((Iter 3), (Arg 4)), ((Iter 1), (Arg 5))]];46.67352914810181
38;Yolo9000_9;1.8068554999999997;0.0050100333980923;1;axe_yy_0;4;[V f, U (4, f), ULambda y, T (64, c), Hoist_vars [c], T (34, x), T (4, c),  T (2, f), T (1, x),  Lambda_apply y [((Iter 3), (Arg 3)), ((Iter 2), (Arg 4))], T (2, x),  T (4, y)];47.633078813552856
39;Yolo9000_9;0.6612983;0.01751204772749322;2;axe_yy1_0,axe_xx1_0,axe_yy1_1,axe_xx1_1,axe_out_channels1_0;11;[V f, U (4, f), ULambda y, T (64, c), Hoist_vars [c], T (17, x), T (4, c),  T (2, f), T (2, x), T (4, y), T (2, x),  Lambda_apply y [((Iter 1), (Arg 5)), ((Iter 2), (Arg 6))]];48.84059929847717
40;Yolo9000_9;0.5715650000000001;0.10155395605982073;2;axe_yy1_0,axe_xx1_0,axe_yy1_1,axe_xx1_1,axe_out_channels1_0;24;[V f, U (2, f), ULambda y, T (64, c), Hoist_vars [c], T (4, x), T (4, c),  T (4, f), T (17, x), T (1, y), T (1, x),  Lambda_apply y [((Iter 1), (Arg 8)), ((Iter 4), (Arg 15))]];49.86683988571167
41;Yolo9000_9;3.5816354999999995;0.0010020527181740701;1;axe_yy_0;2;[V f, U (4, f), ULambda y, T (128, c), Hoist_vars [c], T (17, x), T (2, c),  T (2, f), T (4, x),  Lambda_apply y [((Iter 1), (Arg 6)), ((Iter 4), (Arg 7))], T (1, x),  T (2, y)];50.93034362792969
42;Yolo9000_9;0.8332725;0.005319105324206284;1;axe_yy_0,axe_xx_0,axe_yy_1,axe_xx_1,axe_out_channels_0;23;[V f, U (4, f), U (4, y), T (64, c), Hoist_vars [c], T (34, x), T (4, c),  T (2, f), T (2, x), T (1, y), T (1, x), T (17, y)];51.77059745788574
43;Yolo9000_9;0.7407024;0.014825175150398733;1;axe_yy_0,axe_xx_0,axe_yy_1,axe_xx_1,axe_out_channels_0;22;[V f, U (4, f), U (4, y), T (128, c), Hoist_vars [c], T (68, x), T (2, c),  T (2, f), T (1, x), T (17, y), T (1, x), T (1, y)];52.612713098526
44;Yolo9000_9;0.8737826999999999;0.039618651683392736;1;axe_yy_0,axe_xx_0,axe_yy_1,axe_xx_1,axe_out_channels_0;23;[V f, U (4, f), U (4, y), T (32, c), Hoist_vars [c], T (34, x), T (8, c),  T (2, f), T (2, x), T (1, y), T (1, x), T (17, y)];53.4711549282074
45;Yolo9000_9;3.6226106000000002;0.0008535404149775756;1;axe_yy_0;2;[V f, U (4, f), ULambda y, T (64, c), Hoist_vars [c], T (34, x), T (4, c),  T (2, f), T (1, x),  Lambda_apply y [((Iter 1), (Arg 4)), ((Iter 5), (Arg 6))], T (2, x),  T (2, y)];54.506255865097046
46;Yolo9000_9;3.5748945000000005;0.0010357709447555887;1;axe_yy_0;2;[V f, U (4, f), ULambda y, T (128, c), Hoist_vars [c], T (17, x), T (2, c),  T (2, f), T (2, x),  Lambda_apply y [((Iter 1), (Arg 4)), ((Iter 5), (Arg 6))], T (2, x),  T (2, y)];55.56481337547302
47;Yolo9000_9;1.8132014;0.007037508056123276;1;axe_yy_0;4;[V f, U (4, f), ULambda y, T (128, c), Hoist_vars [c], T (17, x), T (2, c),  T (2, f), T (4, x),  Lambda_apply y [((Iter 2), (Arg 5)), ((Iter 1), (Arg 7))], T (1, x),  T (4, y)];56.515307664871216
48;Yolo9000_9;1.8326391999999998;0.0028297797723497915;1;axe_yy_0;4;[V f, U (4, f), ULambda y, T (64, c), Hoist_vars [c], T (34, x), T (4, c),  T (2, f), T (1, x),  Lambda_apply y [((Iter 1), (Arg 5)), ((Iter 2), (Arg 6))], T (2, x),  T (4, y)];57.48763990402222
49;Yolo9000_9;0.7505197;0.0020737680222242733;2;axe_yy1_0,axe_xx1_0,axe_yy1_1,axe_xx1_1,axe_out_channels1_0;13;[V f, U (4, f), ULambda y, T (256, c), Hoist_vars [c], T (34, x), T (1, c),  T (2, f), T (2, x), T (4, y), T (1, x),  Lambda_apply y [((Iter 4), (Arg 3)), ((Iter 1), (Arg 5))]];58.844462156295776
50;Yolo9000_9;1.3800568;0.008792162109515495;2;axe_yy1_0,axe_xx1_0,axe_yy1_1,axe_xx1_1,axe_out_channels1_0;7;[V f, U (4, f), ULambda y, T (256, c), Hoist_vars [c], T (68, x), T (1, c),  T (2, f), T (1, x), T (2, y), T (1, x),  Lambda_apply y [((Iter 1), (Arg 6)), ((Iter 4), (Arg 7))]];59.82951545715332
51;Yolo9000_9;0.7337434;0.0037448000000000013;1;axe_yy_0,axe_xx_0,axe_yy_1,axe_xx_1,axe_out_channels_0;23;[V f, U (4, f), U (4, y), T (256, c), Hoist_vars [c], T (34, x), T (1, c),  T (2, f), T (2, x), T (17, y), T (1, x), T (1, y)];60.6827507019043
52;Yolo9000_9;1.7944901999999998;0.005195145403162476;1;axe_yy_0;4;[V f, U (4, f), ULambda y, T (128, c), Hoist_vars [c], T (68, x), T (2, c),  T (2, f), T (1, x),  Lambda_apply y [((Iter 1), (Arg 5)), ((Iter 2), (Arg 6))], T (1, x),  T (4, y)];61.63432264328003
53;Yolo9000_9;3.5253;0.0009498989419932997;1;axe_yy_0;2;[V f, U (4, f), ULambda y, T (256, c), Hoist_vars [c], T (17, x), T (1, c),  T (2, f), T (2, x),  Lambda_apply y [((Iter 1), (Arg 6)), ((Iter 4), (Arg 7))], T (2, x),  T (2, y)];62.662473917007446
54;Yolo9000_9;1.7764765;0.004646199247772367;1;axe_yy_0;4;[V f, U (4, f), ULambda y, T (256, c), Hoist_vars [c], T (34, x), T (1, c),  T (2, f), T (2, x),  Lambda_apply y [((Iter 4), (Arg 3)), ((Iter 1), (Arg 5))], T (1, x),  T (4, y)];63.58579134941101
55;Yolo9000_9;0.8429966999999999;0.01745857700988256;1;axe_yy_0,axe_xx_0,axe_yy_1,axe_xx_1,axe_out_channels_0;23;[V f, U (4, f), U (4, y), T (64, c), Hoist_vars [c], T (34, x), T (4, c),  T (2, f), T (2, x), T (17, y), T (1, x), T (1, y)];64.46225762367249
56;Yolo9000_9;3.5302943;0.0019211708955738805;1;axe_yy_0;2;[V f, U (4, f), ULambda y, T (256, c), Hoist_vars [c], T (34, x), T (1, c),  T (2, f), T (1, x),  Lambda_apply y [((Iter 5), (Arg 4)), ((Iter 2), (Arg 7))], T (2, x),  T (2, y)];65.47564792633057
57;Yolo9000_9;1.2972459;0.0046962028161057845;2;axe_yy1_0,axe_xx1_0,axe_yy1_1,axe_xx1_1,axe_out_channels1_0;11;[V f, U (4, f), ULambda y, T (256, c), Hoist_vars [c], T (68, x), T (1, c),  T (2, f), T (1, x), T (4, y), T (1, x),  Lambda_apply y [((Iter 3), (Arg 4)), ((Iter 1), (Arg 5))]];66.7403416633606
58;Yolo9000_9;3.6366340999999998;0.001103733432491725;1;axe_yy_0;2;[V f, U (4, f), ULambda y, T (64, c), Hoist_vars [c], T (17, x), T (4, c),  T (2, f), T (4, x),  Lambda_apply y [((Iter 1), (Arg 6)), ((Iter 4), (Arg 7))], T (1, x),  T (2, y)];67.7849178314209
59;Yolo9000_9;1.7952458999999998;0.006317519393717776;1;axe_yy_0;4;[V f, U (4, f), ULambda y, T (128, c), Hoist_vars [c], T (17, x), T (2, c),  T (2, f), T (2, x),  Lambda_apply y [((Iter 1), (Arg 5)), ((Iter 2), (Arg 6))], T (2, x),  T (4, y)];68.76615190505981
60;Yolo9000_9;1.8387379;0.006206739473346671;1;axe_yy_0;4;[V f, U (4, f), ULambda y, T (64, c), Hoist_vars [c], T (17, x), T (4, c),  T (2, f), T (2, x),  Lambda_apply y [((Iter 1), (Arg 5)), ((Iter 2), (Arg 6))], T (2, x),  T (4, y)];69.74453091621399
61;Yolo9000_9;0.8454105000000001;0.003201389393685178;2;axe_yy1_0,axe_xx1_0,axe_yy1_1,axe_xx1_1,axe_out_channels1_0;12;[V f, U (4, f), ULambda y, T (256, c), Hoist_vars [c], T (34, x), T (1, c),  T (2, f), T (2, x), T (2, y), T (1, x),  Lambda_apply y [((Iter 5), (Arg 4)), ((Iter 2), (Arg 7))]];71.01095342636108
62;Yolo9000_9;3.5246625000000003;0.0009280379571979345;1;axe_yy_0;2;[V f, U (4, f), ULambda y, T (256, c), Hoist_vars [c], T (17, x), T (1, c),  T (2, f), T (1, x),  Lambda_apply y [((Iter 1), (Arg 6)), ((Iter 4), (Arg 7))], T (4, x),  T (2, y)];72.04859709739685
63;Yolo9000_9;0.7311901999999999;0.04856616362201157;2;axe_yy1_0,axe_xx1_0,axe_yy1_1,axe_xx1_1,axe_out_channels1_0;12;[V f, U (4, f), ULambda y, T (128, c), Hoist_vars [c], T (17, x), T (2, c),  T (2, f), T (1, x), T (4, y), T (4, x),  Lambda_apply y [((Iter 1), (Arg 3)), ((Iter 2), (Arg 7))]];73.06704878807068
64;Yolo9000_9;1.8475080000000002;0.0063193028412950455;1;axe_yy_0;4;[V f, U (4, f), ULambda y, T (64, c), Hoist_vars [c], T (17, x), T (4, c),  T (2, f), T (2, x),  Lambda_apply y [((Iter 2), (Arg 5)), ((Iter 1), (Arg 7))], T (2, x),  T (4, y)];74.04028558731079
65;Yolo9000_9;1.7820085999999997;0.002651289127952688;1;axe_yy_0;4;[V f, U (4, f), ULambda y, T (256, c), Hoist_vars [c], T (34, x), T (1, c),  T (2, f), T (1, x),  Lambda_apply y [((Iter 3), (Arg 4)), ((Iter 1), (Arg 5))], T (2, x),  T (4, y)];74.98824048042297
66;Yolo9000_9;0.9532145;0.0020855202348574755;2;axe_yy1_0,axe_xx1_0,axe_yy1_1,axe_xx1_1,axe_out_channels1_0;10;[V f, U (4, f), ULambda y, T (64, c), Hoist_vars [c], T (34, x), T (4, c),  T (2, f), T (2, x), T (4, y), T (1, x),  Lambda_apply y [((Iter 1), (Arg 5)), ((Iter 2), (Arg 6))]];76.01739025115967
67;Yolo9000_9;0.8009175000000001;0.115068317141818;2;axe_yy1_0,axe_xx1_0,axe_yy1_1,axe_xx1_1,axe_out_channels1_0;13;[V f, U (4, f), ULambda y, T (64, c), Hoist_vars [c], T (17, x), T (4, c),  T (2, f), T (1, x), T (4, y), T (4, x),  Lambda_apply y [((Iter 2), (Arg 5)), ((Iter 1), (Arg 7))]];77.3642954826355
68;Yolo9000_9;3.581058399999999;0.0018349035505987777;1;axe_yy_0;2;[V f, U (4, f), ULambda y, T (128, c), Hoist_vars [c], T (17, x), T (2, c),  T (2, f), T (2, x),  Lambda_apply y [((Iter 1), (Arg 6)), ((Iter 4), (Arg 7))], T (2, x),  T (2, y)];78.41688680648804
69;Yolo9000_9;1.7812036;0.005703869286721074;1;axe_yy_0;4;[V f, U (4, f), ULambda y, T (256, c), Hoist_vars [c], T (34, x), T (1, c),  T (2, f), T (2, x),  Lambda_apply y [((Iter 3), (Arg 3)), ((Iter 2), (Arg 4))], T (1, x),  T (4, y)];79.34711027145386
70;Yolo9000_9;0.6945389000000001;0.006753274767844117;2;axe_yy1_0,axe_xx1_0,axe_yy1_1,axe_xx1_1,axe_out_channels1_0;13;[V f, U (4, f), ULambda y, T (64, c), Hoist_vars [c], T (17, x), T (4, c),  T (2, f), T (4, x), T (4, y), T (1, x),  Lambda_apply y [((Iter 2), (Arg 5)), ((Iter 1), (Arg 7))]];80.65668416023254
71;Yolo9000_9;0.6069178;0.10068116401075226;2;axe_yy1_0,axe_xx1_0,axe_yy1_1,axe_xx1_1,axe_out_channels1_0;12;[V f, U (4, f), ULambda y, T (256, c), Hoist_vars [c], T (17, x), T (1, c),  T (2, f), T (1, x), T (4, y), T (4, x),  Lambda_apply y [((Iter 1), (Arg 5)), ((Iter 2), (Arg 6))]];81.80826997756958
72;Yolo9000_9;0.9499125000000002;0.04420149776025689;2;axe_yy1_0,axe_xx1_0,axe_yy1_1,axe_xx1_1,axe_out_channels1_0;11;[V f, U (4, f), ULambda y, T (256, c), Hoist_vars [c], T (34, x), T (1, c),  T (2, f), T (2, x), T (4, y), T (1, x),  Lambda_apply y [((Iter 2), (Arg 5)), ((Iter 1), (Arg 7))]];83.09203028678894
73;Yolo9000_9;3.5730615;0.001214580771295222;1;axe_yy_0;2;[V f, U (4, f), ULambda y, T (128, c), Hoist_vars [c], T (17, x), T (2, c),  T (2, f), T (1, x),  Lambda_apply y [((Iter 1), (Arg 4)), ((Iter 5), (Arg 6))], T (4, x),  T (2, y)];84.13117098808289
74;Yolo9000_9;0.8609819999999999;0.006259661172938987;2;axe_yy1_0,axe_xx1_0,axe_yy1_1,axe_xx1_1,axe_out_channels1_0;13;[V f, U (4, f), ULambda y, T (64, c), Hoist_vars [c], T (34, x), T (4, c),  T (2, f), T (2, x), T (4, y), T (1, x),  Lambda_apply y [((Iter 4), (Arg 3)), ((Iter 1), (Arg 5))]];85.51683473587036
75;Yolo9000_9;1.827317;0.006690941054889069;1;axe_yy_0;4;[V f, U (4, f), ULambda y, T (64, c), Hoist_vars [c], T (34, x), T (4, c),  T (2, f), T (2, x),  Lambda_apply y [((Iter 3), (Arg 4)), ((Iter 1), (Arg 5))], T (1, x),  T (4, y)];86.47783613204956
76;Yolo9000_9;1.8174242;0.00724414004282084;1;axe_yy_0;4;[V f, U (4, f), ULambda y, T (128, c), Hoist_vars [c], T (17, x), T (2, c),  T (2, f), T (2, x),  Lambda_apply y [((Iter 1), (Arg 3)), ((Iter 2), (Arg 7))], T (2, x),  T (4, y)];87.42100358009338
77;Yolo9000_9;1.8110538999999999;0.006975465826021921;1;axe_yy_0;4;[V f, U (4, f), ULambda y, T (128, c), Hoist_vars [c], T (17, x), T (2, c),  T (2, f), T (4, x),  Lambda_apply y [((Iter 1), (Arg 5)), ((Iter 2), (Arg 6))], T (1, x),  T (4, y)];88.38747096061707
78;Yolo9000_9;3.5344610000000003;0.000556215605678203;1;axe_yy_0;2;[V f, U (4, f), ULambda y, T (256, c), Hoist_vars [c], T (34, x), T (1, c),  T (2, f), T (2, x),  Lambda_apply y [((Iter 1), (Arg 6)), ((Iter 4), (Arg 7))], T (1, x),  T (2, y)];89.43277764320374
79;Yolo9000_9;5.496713799999999;0.06043727714713823;1;axe_yy_0;1;[V f, U (2, f), ULambda y, T (256, c), Hoist_vars [c], T (4, x), T (1, c),  T (4, f), T (17, x),  Lambda_apply y [((Iter 1), (Arg 8)), ((Iter 4), (Arg 15))], T (1, x),  T (1, y)];90.47356367111206
80;Yolo9000_9;0.7300906;0.003268441255399888;2;axe_yy1_0,axe_xx1_0,axe_yy1_1,axe_xx1_1,axe_out_channels1_0;12;[V f, U (4, f), ULambda y, T (64, c), Hoist_vars [c], T (34, x), T (4, c),  T (2, f), T (2, x), T (4, y), T (1, x),  Lambda_apply y [((Iter 3), (Arg 3)), ((Iter 2), (Arg 4))]];91.84144067764282
81;Yolo9000_9;0.7853790999999999;0.002028095286223007;2;axe_yy1_0,axe_xx1_0,axe_yy1_1,axe_xx1_1,axe_out_channels1_0;10;[V f, U (4, f), ULambda y, T (128, c), Hoist_vars [c], T (17, x), T (2, c),  T (2, f), T (4, x), T (2, y), T (1, x),  Lambda_apply y [((Iter 1), (Arg 6)), ((Iter 4), (Arg 7))]];92.92077684402466
82;Yolo9000_9;1.7992628999999998;0.004487855199312861;1;axe_yy_0;4;[V f, U (4, f), ULambda y, T (64, c), Hoist_vars [c], T (34, x), T (4, c),  T (2, f), T (1, x),  Lambda_apply y [((Iter 4), (Arg 3)), ((Iter 1), (Arg 5))], T (2, x),  T (4, y)];93.86009621620178
83;Yolo9000_9;0.7048085000000001;0.0030719312899216986;2;axe_yy1_0,axe_xx1_0,axe_yy1_1,axe_xx1_1,axe_out_channels1_0;13;[V f, U (4, f), ULambda y, T (256, c), Hoist_vars [c], T (17, x), T (1, c),  T (2, f), T (1, x), T (4, y), T (4, x),  Lambda_apply y [((Iter 2), (Arg 5)), ((Iter 1), (Arg 7))]];95.190669298172
84;Yolo9000_9;0.8969032;0.0032282380891129987;2;axe_yy1_0,axe_xx1_0,axe_yy1_1,axe_xx1_1,axe_out_channels1_0;8;[V f, U (4, f), ULambda y, T (256, c), Hoist_vars [c], T (34, x), T (1, c),  T (2, f), T (1, x), T (2, y), T (2, x),  Lambda_apply y [((Iter 1), (Arg 4)), ((Iter 5), (Arg 6))]];96.16424822807312
85;Yolo9000_9;1.8009661000000001;0.0038947597987552714;1;axe_yy_0;4;[V f, U (4, f), ULambda y, T (128, c), Hoist_vars [c], T (17, x), T (2, c),  T (2, f), T (1, x),  Lambda_apply y [((Iter 1), (Arg 5)), ((Iter 2), (Arg 6))], T (4, x),  T (4, y)];97.1271026134491
86;Yolo9000_9;1.8248138999999999;0.00525421216644324;1;axe_yy_0;4;[V f, U (4, f), ULambda y, T (64, c), Hoist_vars [c], T (17, x), T (4, c),  T (2, f), T (1, x),  Lambda_apply y [((Iter 1), (Arg 5)), ((Iter 2), (Arg 6))], T (4, x),  T (4, y)];98.09529280662537
87;Yolo9000_9;1.7847802000000001;0.003689884870832676;1;axe_yy_0;4;[V f, U (4, f), ULambda y, T (256, c), Hoist_vars [c], T (17, x), T (1, c),  T (2, f), T (2, x),  Lambda_apply y [((Iter 2), (Arg 5)), ((Iter 1), (Arg 7))], T (2, x),  T (4, y)];99.08020782470703
88;Yolo9000_9;0.9922475000000001;0.00415315177305137;2;axe_yy1_0,axe_xx1_0,axe_yy1_1,axe_xx1_1,axe_out_channels1_0;11;[V f, U (4, f), ULambda y, T (256, c), Hoist_vars [c], T (34, x), T (1, c),  T (2, f), T (1, x), T (4, y), T (2, x),  Lambda_apply y [((Iter 2), (Arg 5)), ((Iter 1), (Arg 7))]];100.36464071273804
89;Yolo9000_9;0.7914765;0.13132514839607073;2;axe_yy1_0,axe_xx1_0,axe_yy1_1,axe_xx1_1,axe_out_channels1_0;10;[V f, U (4, f), ULambda y, T (256, c), Hoist_vars [c], T (34, x), T (1, c),  T (2, f), T (2, x), T (4, y), T (1, x),  Lambda_apply y [((Iter 1), (Arg 3)), ((Iter 2), (Arg 7))]];101.43820595741272
90;Yolo9000_9;0.7548074999999999;0.003027918170955081;2;axe_yy1_0,axe_xx1_0,axe_yy1_1,axe_xx1_1,axe_out_channels1_0;12;[V f, U (4, f), ULambda y, T (256, c), Hoist_vars [c], T (17, x), T (1, c),  T (2, f), T (4, x), T (4, y), T (1, x),  Lambda_apply y [((Iter 1), (Arg 3)), ((Iter 2), (Arg 7))]];102.43775844573975
91;Yolo9000_9;0.49972890000000003;0.08879210448846224;2;axe_yy1_0,axe_xx1_0,axe_yy1_1,axe_xx1_1,axe_out_channels1_0;24;[V f, U (2, f), ULambda y, T (32, c), Hoist_vars [c], T (4, x), T (8, c),  T (4, f), T (17, x), T (1, y), T (1, x),  Lambda_apply y [((Iter 1), (Arg 8)), ((Iter 4), (Arg 15))]];103.47399497032166
92;Yolo9000_9;1.7709512;0.0038697016629192496;1;axe_yy_0;4;[V f, U (4, f), ULambda y, T (256, c), Hoist_vars [c], T (17, x), T (1, c),  T (2, f), T (4, x),  Lambda_apply y [((Iter 1), (Arg 5)), ((Iter 2), (Arg 6))], T (1, x),  T (4, y)];104.43319153785706
93;Yolo9000_9;0.8034084;0.016205947674850743;1;axe_yy_0,axe_xx_0,axe_yy_1,axe_xx_1,axe_out_channels_0;23;[V f, U (4, f), U (4, y), T (64, c), Hoist_vars [c], T (34, x), T (4, c),  T (2, f), T (1, x), T (1, y), T (2, x), T (17, y)];105.3502242565155
94;Yolo9000_9;1.1496282999999998;0.004871395879006325;2;axe_yy1_0,axe_xx1_0,axe_yy1_1,axe_xx1_1,axe_out_channels1_0;7;[V f, U (4, f), ULambda y, T (256, c), Hoist_vars [c], T (68, x), T (1, c),  T (2, f), T (1, x), T (2, y), T (1, x),  Lambda_apply y [((Iter 1), (Arg 4)), ((Iter 5), (Arg 6))]];106.30676627159119
95;Yolo9000_9;0.8752559999999999;0.0019316750244283028;2;axe_yy1_0,axe_xx1_0,axe_yy1_1,axe_xx1_1,axe_out_channels1_0;8;[V f, U (4, f), ULambda y, T (64, c), Hoist_vars [c], T (34, x), T (4, c),  T (2, f), T (2, x), T (2, y), T (1, x),  Lambda_apply y [((Iter 1), (Arg 4)), ((Iter 5), (Arg 6))]];107.28146505355835
96;Yolo9000_9;1.7865255000000002;0.007084070203632934;1;axe_yy_0;4;[V f, U (4, f), ULambda y, T (256, c), Hoist_vars [c], T (34, x), T (1, c),  T (2, f), T (1, x),  Lambda_apply y [((Iter 2), (Arg 5)), ((Iter 1), (Arg 7))], T (2, x),  T (4, y)];108.2454001903534
97;Yolo9000_9;5.6722339;0.05501495593463652;1;axe_yy_0;1;[V f, U (2, f), ULambda y, T (64, c), Hoist_vars [c], T (4, x), T (4, c),  T (4, f), T (17, x),  Lambda_apply y [((Iter 1), (Arg 8)), ((Iter 4), (Arg 15))], T (1, x),  T (1, y)];109.30043458938599
98;Yolo9000_9;0.533627;0.00917959494749087;2;axe_yy1_0,axe_xx1_0,axe_yy1_1,axe_xx1_1,axe_out_channels1_0;10;[V f, U (4, f), ULambda y, T (64, c), Hoist_vars [c], T (17, x), T (4, c),  T (2, f), T (4, x), T (2, y), T (1, x),  Lambda_apply y [((Iter 1), (Arg 4)), ((Iter 5), (Arg 6))]];110.53119444847107
99;Yolo9000_9;1.0207695;0.002990621682861312;2;axe_yy1_0,axe_xx1_0,axe_yy1_1,axe_xx1_1,axe_out_channels1_0;10;[V f, U (4, f), ULambda y, T (64, c), Hoist_vars [c], T (34, x), T (4, c),  T (2, f), T (1, x), T (4, y), T (2, x),  Lambda_apply y [((Iter 1), (Arg 5)), ((Iter 2), (Arg 6))]];111.57653546333313
100;Yolo9000_9;0.7965893;0.042825643476893605;2;axe_yy1_0,axe_xx1_0,axe_yy1_1,axe_xx1_1,axe_out_channels1_0;13;[V f, U (4, f), ULambda y, T (64, c), Hoist_vars [c], T (34, x), T (4, c),  T (2, f), T (1, x), T (4, y), T (2, x),  Lambda_apply y [((Iter 4), (Arg 3)), ((Iter 1), (Arg 5))]];112.94681978225708
101;Yolo9000_9;1.8159104;0.00575569544364531;1;axe_yy_0;4;[V f, U (4, f), ULambda y, T (64, c), Hoist_vars [c], T (34, x), T (4, c),  T (2, f), T (1, x),  Lambda_apply y [((Iter 3), (Arg 4)), ((Iter 1), (Arg 5))], T (2, x),  T (4, y)];113.90117692947388
102;Yolo9000_9;0.8178645999999998;0.005820896927450282;2;axe_yy1_0,axe_xx1_0,axe_yy1_1,axe_xx1_1,axe_out_channels1_0;10;[V f, U (4, f), ULambda y, T (64, c), Hoist_vars [c], T (17, x), T (4, c),  T (2, f), T (4, x), T (2, y), T (1, x),  Lambda_apply y [((Iter 1), (Arg 6)), ((Iter 4), (Arg 7))]];114.9680335521698
103;Yolo9000_9;0.7479695;0.10478155271444495;2;axe_yy1_0,axe_xx1_0,axe_yy1_1,axe_xx1_1,axe_out_channels1_0;12;[V f, U (4, f), ULambda y, T (256, c), Hoist_vars [c], T (17, x), T (1, c),  T (2, f), T (1, x), T (4, y), T (4, x),  Lambda_apply y [((Iter 1), (Arg 3)), ((Iter 2), (Arg 7))]];115.96961879730225
104;Yolo9000_9;0.9329405999999999;0.046275221929667744;2;axe_yy1_0,axe_xx1_0,axe_yy1_1,axe_xx1_1,axe_out_channels1_0;9;[V f, U (4, f), ULambda y, T (64, c), Hoist_vars [c], T (17, x), T (4, c),  T (2, f), T (2, x), T (2, y), T (2, x),  Lambda_apply y [((Iter 1), (Arg 6)), ((Iter 4), (Arg 7))]];117.06336307525635
105;Yolo9000_9;0.7497593;0.058595522745428265;2;axe_yy1_0,axe_xx1_0,axe_yy1_1,axe_xx1_1,axe_out_channels1_0;10;[V f, U (4, f), ULambda y, T (256, c), Hoist_vars [c], T (17, x), T (1, c),  T (2, f), T (1, x), T (2, y), T (4, x),  Lambda_apply y [((Iter 1), (Arg 6)), ((Iter 4), (Arg 7))]];118.15282821655273
106;Yolo9000_9;0.8126996;0.005352839343750202;2;axe_yy1_0,axe_xx1_0,axe_yy1_1,axe_xx1_1,axe_out_channels1_0;10;[V f, U (4, f), ULambda y, T (256, c), Hoist_vars [c], T (34, x), T (1, c),  T (2, f), T (1, x), T (4, y), T (2, x),  Lambda_apply y [((Iter 1), (Arg 3)), ((Iter 2), (Arg 7))]];119.22530746459961
107;Yolo9000_9;3.6225507;0.0011382100025918267;1;axe_yy_0;2;[V f, U (4, f), ULambda y, T (64, c), Hoist_vars [c], T (34, x), T (4, c),  T (2, f), T (2, x),  Lambda_apply y [((Iter 1), (Arg 4)), ((Iter 5), (Arg 6))], T (1, x),  T (2, y)];120.26322650909424
108;Yolo9000_9;1.7888334000000001;0.005776218351135995;1;axe_yy_0;4;[V f, U (4, f), ULambda y, T (256, c), Hoist_vars [c], T (17, x), T (1, c),  T (2, f), T (4, x),  Lambda_apply y [((Iter 1), (Arg 3)), ((Iter 2), (Arg 7))], T (1, x),  T (4, y)];121.21192526817322
109;Yolo9000_9;0.8778942000000001;0.07384954488255158;1;axe_yy_0,axe_xx_0,axe_yy_1,axe_xx_1,axe_out_channels_0;23;[V f, U (4, f), U (4, y), T (32, c), Hoist_vars [c], T (34, x), T (8, c),  T (2, f), T (2, x), T (17, y), T (1, x), T (1, y)];122.07138562202454
110;Yolo9000_9;0.638511;0.042580388448204644;1;axe_yy_0,axe_xx_0,axe_yy_1,axe_xx_1,axe_out_channels_0;23;[V f, U (4, f), U (4, y), T (256, c), Hoist_vars [c], T (34, x), T (1, c),  T (2, f), T (1, x), T (17, y), T (2, x), T (1, y)];122.91774821281433
111;Yolo9000_9;3.5711950999999997;0.00040778780020984235;1;axe_yy_0;2;[V f, U (4, f), ULambda y, T (128, c), Hoist_vars [c], T (17, x), T (2, c),  T (2, f), T (1, x),  Lambda_apply y [((Iter 1), (Arg 6)), ((Iter 4), (Arg 7))], T (4, x),  T (2, y)];123.99254965782166
112;Yolo9000_9;0.7208646;0.04093001829269073;1;axe_yy_0,axe_xx_0,axe_yy_1,axe_xx_1,axe_out_channels_0;23;[V f, U (4, f), U (4, y), T (256, c), Hoist_vars [c], T (34, x), T (1, c),  T (2, f), T (1, x), T (1, y), T (2, x), T (17, y)];124.86096739768982
113;Yolo9000_9;0.6442596;0.0768863779628095;2;axe_yy1_0,axe_xx1_0,axe_yy1_1,axe_xx1_1,axe_out_channels1_0;11;[V f, U (4, f), ULambda y, T (256, c), Hoist_vars [c], T (17, x), T (1, c),  T (2, f), T (2, x), T (4, y), T (2, x),  Lambda_apply y [((Iter 1), (Arg 5)), ((Iter 2), (Arg 6))]];126.05807137489319
114;Yolo9000_9;0.7799048;0.05771133009522478;2;axe_yy1_0,axe_xx1_0,axe_yy1_1,axe_xx1_1,axe_out_channels1_0;12;[V f, U (4, f), ULambda y, T (128, c), Hoist_vars [c], T (17, x), T (2, c),  T (2, f), T (4, x), T (4, y), T (1, x),  Lambda_apply y [((Iter 1), (Arg 3)), ((Iter 2), (Arg 7))]];127.07346725463867
115;Yolo9000_9;0.814722;0.0027042224390756145;2;axe_yy1_0,axe_xx1_0,axe_yy1_1,axe_xx1_1,axe_out_channels1_0;11;[V f, U (4, f), ULambda y, T (256, c), Hoist_vars [c], T (17, x), T (1, c),  T (2, f), T (2, x), T (4, y), T (2, x),  Lambda_apply y [((Iter 1), (Arg 3)), ((Iter 2), (Arg 7))]];128.08583068847656
116;Yolo9000_9;1.7735385999999997;0.005560315264443199;1;axe_yy_0;4;[V f, U (4, f), ULambda y, T (256, c), Hoist_vars [c], T (17, x), T (1, c),  T (2, f), T (2, x),  Lambda_apply y [((Iter 1), (Arg 5)), ((Iter 2), (Arg 6))], T (2, x),  T (4, y)];129.05252814292908
117;Yolo9000_9;1.1230246;0.006802923947832996;2;axe_yy1_0,axe_xx1_0,axe_yy1_1,axe_xx1_1,axe_out_channels1_0;9;[V f, U (4, f), ULambda y, T (256, c), Hoist_vars [c], T (68, x), T (1, c),  T (2, f), T (1, x), T (4, y), T (1, x),  Lambda_apply y [((Iter 1), (Arg 3)), ((Iter 2), (Arg 7))]];130.00975155830383
118;Yolo9000_9;1.8109747999999999;0.005846796640896663;1;axe_yy_0;4;[V f, U (4, f), ULambda y, T (128, c), Hoist_vars [c], T (17, x), T (2, c),  T (2, f), T (1, x),  Lambda_apply y [((Iter 2), (Arg 5)), ((Iter 1), (Arg 7))], T (4, x),  T (4, y)];130.97273421287537
119;Yolo9000_9;1.7776070000000004;0.005112687688486368;1;axe_yy_0;4;[V f, U (4, f), ULambda y, T (256, c), Hoist_vars [c], T (68, x), T (1, c),  T (2, f), T (1, x),  Lambda_apply y [((Iter 3), (Arg 4)), ((Iter 1), (Arg 5))], T (1, x),  T (4, y)];131.9218304157257
120;Yolo9000_9;1.7856015999999997;0.004343189615938944;1;axe_yy_0;4;[V f, U (4, f), ULambda y, T (256, c), Hoist_vars [c], T (34, x), T (1, c),  T (2, f), T (1, x),  Lambda_apply y [((Iter 4), (Arg 3)), ((Iter 1), (Arg 5))], T (2, x),  T (4, y)];132.8595745563507
121;Yolo9000_9;0.9400081;0.004043628530169404;2;axe_yy1_0,axe_xx1_0,axe_yy1_1,axe_xx1_1,axe_out_channels1_0;10;[V f, U (4, f), ULambda y, T (256, c), Hoist_vars [c], T (34, x), T (1, c),  T (2, f), T (1, x), T (4, y), T (2, x),  Lambda_apply y [((Iter 1), (Arg 5)), ((Iter 2), (Arg 6))]];133.864093542099
122;Yolo9000_9;3.5283213000000004;0.0012585139689332313;1;axe_yy_0;2;[V f, U (4, f), ULambda y, T (256, c), Hoist_vars [c], T (68, x), T (1, c),  T (2, f), T (1, x),  Lambda_apply y [((Iter 1), (Arg 4)), ((Iter 5), (Arg 6))], T (1, x),  T (2, y)];134.87381386756897
123;Yolo9000_9;0.6603593000000001;0.0026091125330272706;2;axe_yy1_0,axe_xx1_0,axe_yy1_1,axe_xx1_1,axe_out_channels1_0;13;[V f, U (4, f), ULambda y, T (256, c), Hoist_vars [c], T (17, x), T (1, c),  T (2, f), T (4, x), T (4, y), T (1, x),  Lambda_apply y [((Iter 2), (Arg 5)), ((Iter 1), (Arg 7))]];136.19174337387085
124;Yolo9000_9;0.7580777000000001;0.05747546434792849;2;axe_yy1_0,axe_xx1_0,axe_yy1_1,axe_xx1_1,axe_out_channels1_0;12;[V f, U (4, f), ULambda y, T (64, c), Hoist_vars [c], T (17, x), T (4, c),  T (2, f), T (1, x), T (4, y), T (4, x),  Lambda_apply y [((Iter 1), (Arg 3)), ((Iter 2), (Arg 7))]];137.1934690475464
125;Yolo9000_9;0.582451;0.07501545655396628;2;axe_yy1_0,axe_xx1_0,axe_yy1_1,axe_xx1_1,axe_out_channels1_0;9;[V f, U (4, f), ULambda y, T (64, c), Hoist_vars [c], T (17, x), T (4, c),  T (2, f), T (2, x), T (2, y), T (2, x),  Lambda_apply y [((Iter 1), (Arg 4)), ((Iter 5), (Arg 6))]];138.39078950881958
126;Yolo9000_9;1.8426711;0.006118915205328493;1;axe_yy_0;4;[V f, U (4, f), ULambda y, T (64, c), Hoist_vars [c], T (17, x), T (4, c),  T (2, f), T (1, x),  Lambda_apply y [((Iter 1), (Arg 3)), ((Iter 2), (Arg 7))], T (4, x),  T (4, y)];139.36179780960083
127;Yolo9000_9;5.543389299999999;0.029440636392747757;1;axe_yy_0;1;[V f, U (2, f), ULambda y, T (128, c), Hoist_vars [c], T (4, x), T (2, c),  T (4, f), T (17, x),  Lambda_apply y [((Iter 1), (Arg 8)), ((Iter 4), (Arg 15))], T (1, x),  T (1, y)];140.41813898086548
128;Yolo9000_9;0.9482678;0.005019808916682028;2;axe_yy1_0,axe_xx1_0,axe_yy1_1,axe_xx1_1,axe_out_channels1_0;8;[V f, U (4, f), ULambda y, T (64, c), Hoist_vars [c], T (34, x), T (4, c),  T (2, f), T (1, x), T (2, y), T (2, x),  Lambda_apply y [((Iter 1), (Arg 4)), ((Iter 5), (Arg 6))]];141.41493821144104
129;Yolo9000_9;3.5976711999999997;0.0018468502267373964;1;axe_yy_0;2;[V f, U (4, f), ULambda y, T (128, c), Hoist_vars [c], T (68, x), T (2, c),  T (2, f), T (1, x),  Lambda_apply y [((Iter 1), (Arg 6)), ((Iter 4), (Arg 7))], T (1, x),  T (2, y)];142.44899368286133
130;Yolo9000_9;0.6367542;0.1134094603353706;2;axe_yy1_0,axe_xx1_0,axe_yy1_1,axe_xx1_1,axe_out_channels1_0;12;[V f, U (4, f), ULambda y, T (128, c), Hoist_vars [c], T (17, x), T (2, c),  T (2, f), T (1, x), T (4, y), T (4, x),  Lambda_apply y [((Iter 1), (Arg 5)), ((Iter 2), (Arg 6))]];143.63471627235413
131;Yolo9000_9;1.7826028;0.0050879404241795465;1;axe_yy_0;4;[V f, U (4, f), ULambda y, T (256, c), Hoist_vars [c], T (17, x), T (1, c),  T (2, f), T (1, x),  Lambda_apply y [((Iter 2), (Arg 5)), ((Iter 1), (Arg 7))], T (4, x),  T (4, y)];144.5876898765564
132;Yolo9000_9;1.7824275000000003;0.005585922291797498;1;axe_yy_0;4;[V f, U (4, f), ULambda y, T (256, c), Hoist_vars [c], T (68, x), T (1, c),  T (2, f), T (1, x),  Lambda_apply y [((Iter 1), (Arg 5)), ((Iter 2), (Arg 6))], T (1, x),  T (4, y)];145.5403482913971
133;Yolo9000_9;3.6506414;0.002189649752814336;1;axe_yy_0;2;[V f, U (4, f), ULambda y, T (64, c), Hoist_vars [c], T (17, x), T (4, c),  T (2, f), T (2, x),  Lambda_apply y [((Iter 1), (Arg 6)), ((Iter 4), (Arg 7))], T (2, x),  T (2, y)];146.60018396377563
134;Yolo9000_9;0.5847491;0.10431542006093827;2;axe_yy1_0,axe_xx1_0,axe_yy1_1,axe_xx1_1,axe_out_channels1_0;9;[V f, U (4, f), ULambda y, T (256, c), Hoist_vars [c], T (17, x), T (1, c),  T (2, f), T (2, x), T (2, y), T (2, x),  Lambda_apply y [((Iter 1), (Arg 4)), ((Iter 5), (Arg 6))]];147.7785086631775
135;Yolo9000_9;1.0227968;0.040432960417955986;2;axe_yy1_0,axe_xx1_0,axe_yy1_1,axe_xx1_1,axe_out_channels1_0;12;[V f, U (4, f), ULambda y, T (64, c), Hoist_vars [c], T (34, x), T (4, c),  T (2, f), T (2, x), T (4, y), T (1, x),  Lambda_apply y [((Iter 3), (Arg 4)), ((Iter 1), (Arg 5))]];149.053218126297
136;Yolo9000_9;1.7884571;0.007140989671607165;1;axe_yy_0;4;[V f, U (4, f), ULambda y, T (256, c), Hoist_vars [c], T (34, x), T (1, c),  T (2, f), T (2, x),  Lambda_apply y [((Iter 1), (Arg 3)), ((Iter 2), (Arg 7))], T (1, x),  T (4, y)];149.9908058643341
137;Yolo9000_9;1.8097321000000002;0.0056615736584451366;1;axe_yy_0;4;[V f, U (4, f), ULambda y, T (128, c), Hoist_vars [c], T (17, x), T (2, c),  T (2, f), T (2, x),  Lambda_apply y [((Iter 2), (Arg 5)), ((Iter 1), (Arg 7))], T (2, x),  T (4, y)];150.95826196670532
138;Yolo9000_9;0.5313167;0.046934794794587065;2;axe_yy1_0,axe_xx1_0,axe_yy1_1,axe_xx1_1,axe_out_channels1_0;10;[V f, U (4, f), ULambda y, T (64, c), Hoist_vars [c], T (17, x), T (4, c),  T (2, f), T (1, x), T (2, y), T (4, x),  Lambda_apply y [((Iter 1), (Arg 4)), ((Iter 5), (Arg 6))]];152.11097884178162
139;Yolo9000_9;0.9096162000000001;0.005944702798290266;2;axe_yy1_0,axe_xx1_0,axe_yy1_1,axe_xx1_1,axe_out_channels1_0;12;[V f, U (4, f), ULambda y, T (256, c), Hoist_vars [c], T (34, x), T (1, c),  T (2, f), T (1, x), T (2, y), T (2, x),  Lambda_apply y [((Iter 5), (Arg 4)), ((Iter 2), (Arg 7))]];153.38297581672668
140;Yolo9000_9;0.5675656;0.1393464238509191;2;axe_yy1_0,axe_xx1_0,axe_yy1_1,axe_xx1_1,axe_out_channels1_0;24;[V f, U (2, f), ULambda y, T (256, c), Hoist_vars [c], T (4, x), T (1, c),  T (4, f), T (17, x), T (1, y), T (1, x),  Lambda_apply y [((Iter 1), (Arg 8)), ((Iter 4), (Arg 15))]];154.3788492679596
141;Yolo9000_9;1.7789697999999998;0.005815037692053238;1;axe_yy_0;4;[V f, U (4, f), ULambda y, T (256, c), Hoist_vars [c], T (17, x), T (1, c),  T (2, f), T (1, x),  Lambda_apply y [((Iter 1), (Arg 3)), ((Iter 2), (Arg 7))], T (4, x),  T (4, y)];155.31690287590027
142;Yolo9000_9;5.811754299999999;0.04842149514017511;1;axe_yy_0;1;[V f, U (2, f), ULambda y, T (32, c), Hoist_vars [c], T (4, x), T (8, c),  T (4, f), T (17, x),  Lambda_apply y [((Iter 1), (Arg 8)), ((Iter 4), (Arg 15))], T (1, x),  T (1, y)];156.37685656547546
143;Yolo9000_9;0.7921141;0.0045721329037988374;1;axe_yy_0,axe_xx_0,axe_yy_1,axe_xx_1,axe_out_channels_0;22;[V f, U (4, f), U (4, y), T (32, c), Hoist_vars [c], T (68, x), T (8, c),  T (2, f), T (1, x), T (17, y), T (1, x), T (1, y)];157.2508955001831
144;Yolo9000_9;1.8123783999999996;0.004877997400573322;1;axe_yy_0;4;[V f, U (4, f), ULambda y, T (128, c), Hoist_vars [c], T (17, x), T (2, c),  T (2, f), T (4, x),  Lambda_apply y [((Iter 1), (Arg 3)), ((Iter 2), (Arg 7))], T (1, x),  T (4, y)];158.19632148742676
145;Yolo9000_9;3.5163247000000006;0.0013422116114830149;1;axe_yy_0;2;[V f, U (4, f), ULambda y, T (256, c), Hoist_vars [c], T (17, x), T (1, c),  T (2, f), T (4, x),  Lambda_apply y [((Iter 1), (Arg 4)), ((Iter 5), (Arg 6))], T (1, x),  T (2, y)];159.23071599006653
146;Yolo9000_9;3.5249941;0.0013153201473406063;1;axe_yy_0;2;[V f, U (4, f), ULambda y, T (256, c), Hoist_vars [c], T (34, x), T (1, c),  T (2, f), T (2, x),  Lambda_apply y [((Iter 5), (Arg 4)), ((Iter 2), (Arg 7))], T (1, x),  T (2, y)];160.27496695518494
147;Yolo9000_9;1.3808922;0.009138579548266842;2;axe_yy1_0,axe_xx1_0,axe_yy1_1,axe_xx1_1,axe_out_channels1_0;10;[V f, U (4, f), ULambda y, T (128, c), Hoist_vars [c], T (68, x), T (2, c),  T (2, f), T (1, x), T (4, y), T (1, x),  Lambda_apply y [((Iter 2), (Arg 5)), ((Iter 1), (Arg 7))]];161.56931352615356
148;Yolo9000_9;3.5323447000000003;0.0012061225518163225;1;axe_yy_0;2;[V f, U (4, f), ULambda y, T (256, c), Hoist_vars [c], T (34, x), T (1, c),  T (2, f), T (1, x),  Lambda_apply y [((Iter 1), (Arg 6)), ((Iter 4), (Arg 7))], T (2, x),  T (2, y)];162.6260404586792
149;Yolo9000_9;1.215008;0.006443239045697434;2;axe_yy1_0,axe_xx1_0,axe_yy1_1,axe_xx1_1,axe_out_channels1_0;9;[V f, U (4, f), ULambda y, T (256, c), Hoist_vars [c], T (68, x), T (1, c),  T (2, f), T (1, x), T (4, y), T (1, x),  Lambda_apply y [((Iter 1), (Arg 5)), ((Iter 2), (Arg 6))]];163.61327147483826
150;Yolo9000_9;0.8371997;0.057653902820277506;2;axe_yy1_0,axe_xx1_0,axe_yy1_1,axe_xx1_1,axe_out_channels1_0;12;[V f, U (4, f), ULambda y, T (64, c), Hoist_vars [c], T (34, x), T (4, c),  T (2, f), T (1, x), T (4, y), T (2, x),  Lambda_apply y [((Iter 3), (Arg 3)), ((Iter 2), (Arg 4))]];164.99357557296753
151;Yolo9000_9;1.8092207000000002;0.0044551593248727305;1;axe_yy_0;4;[V f, U (4, f), ULambda y, T (64, c), Hoist_vars [c], T (34, x), T (4, c),  T (2, f), T (2, x),  Lambda_apply y [((Iter 4), (Arg 3)), ((Iter 1), (Arg 5))], T (1, x),  T (4, y)];165.94742107391357
152;Yolo9000_9;1.8451784;0.004015514891019575;1;axe_yy_0;4;[V f, U (4, f), ULambda y, T (64, c), Hoist_vars [c], T (17, x), T (4, c),  T (2, f), T (4, x),  Lambda_apply y [((Iter 1), (Arg 3)), ((Iter 2), (Arg 7))], T (1, x),  T (4, y)];166.89959502220154
153;Yolo9000_9;0.5830537;0.09227119293696165;2;axe_yy1_0,axe_xx1_0,axe_yy1_1,axe_xx1_1,axe_out_channels1_0;9;[V f, U (4, f), ULambda y, T (128, c), Hoist_vars [c], T (17, x), T (2, c),  T (2, f), T (2, x), T (2, y), T (2, x),  Lambda_apply y [((Iter 1), (Arg 4)), ((Iter 5), (Arg 6))]];168.07680249214172
154;Yolo9000_9;0.8730667999999999;0.05028116594869297;2;axe_yy1_0,axe_xx1_0,axe_yy1_1,axe_xx1_1,axe_out_channels1_0;9;[V f, U (4, f), ULambda y, T (128, c), Hoist_vars [c], T (17, x), T (2, c),  T (2, f), T (2, x), T (2, y), T (2, x),  Lambda_apply y [((Iter 1), (Arg 6)), ((Iter 4), (Arg 7))]];169.19121432304382
155;Yolo9000_9;0.6932738;0.12399732825008777;1;axe_yy_0,axe_xx_0,axe_yy_1,axe_xx_1,axe_out_channels_0;23;[V f, U (4, f), U (4, y), T (32, c), Hoist_vars [c], T (34, x), T (8, c),  T (2, f), T (1, x), T (17, y), T (2, x), T (1, y)];170.05060148239136
156;Yolo9000_9;0.7439437999999999;0.11535655773019582;1;axe_yy_0,axe_xx_0,axe_yy_1,axe_xx_1,axe_out_channels_0;22;[V f, U (4, f), U (4, y), T (256, c), Hoist_vars [c], T (68, x), T (1, c),  T (2, f), T (1, x), T (1, y), T (1, x), T (17, y)];170.89649486541748
157;Yolo9000_9;0.6139137;0.10934681651520539;2;axe_yy1_0,axe_xx1_0,axe_yy1_1,axe_xx1_1,axe_out_channels1_0;12;[V f, U (4, f), ULambda y, T (128, c), Hoist_vars [c], T (17, x), T (2, c),  T (2, f), T (4, x), T (4, y), T (1, x),  Lambda_apply y [((Iter 1), (Arg 5)), ((Iter 2), (Arg 6))]];172.08179831504822
158;Yolo9000_9;0.8398538;0.02568786593627426;1;axe_yy_0,axe_xx_0,axe_yy_1,axe_xx_1,axe_out_channels_0;23;[V f, U (4, f), U (4, y), T (32, c), Hoist_vars [c], T (34, x), T (8, c),  T (2, f), T (1, x), T (1, y), T (2, x), T (17, y)];172.96150517463684
159;Yolo9000_9;1.8297338999999997;0.005844695996371404;1;axe_yy_0;4;[V f, U (4, f), ULambda y, T (64, c), Hoist_vars [c], T (17, x), T (4, c),  T (2, f), T (4, x),  Lambda_apply y [((Iter 1), (Arg 5)), ((Iter 2), (Arg 6))], T (1, x),  T (4, y)];173.92960143089294
160;Yolo9000_9;0.7000048;0.004601207989213294;1;axe_yy_0,axe_xx_0,axe_yy_1,axe_xx_1,axe_out_channels_0;23;[V f, U (4, f), U (4, y), T (256, c), Hoist_vars [c], T (34, x), T (1, c),  T (2, f), T (2, x), T (1, y), T (1, x), T (17, y)];174.81326508522034
161;Yolo9000_9;3.5322435999999997;0.0008329754138028104;1;axe_yy_0;2;[V f, U (4, f), ULambda y, T (256, c), Hoist_vars [c], T (68, x), T (1, c),  T (2, f), T (1, x),  Lambda_apply y [((Iter 1), (Arg 6)), ((Iter 4), (Arg 7))], T (1, x),  T (2, y)];175.8525779247284
162;Yolo9000_9;3.511038;0.000964671239334867;1;axe_yy_0;2;[V f, U (4, f), ULambda y, T (256, c), Hoist_vars [c], T (34, x), T (1, c),  T (2, f), T (1, x),  Lambda_apply y [((Iter 1), (Arg 4)), ((Iter 5), (Arg 6))], T (2, x),  T (2, y)];176.86408233642578
163;Yolo9000_9;0.6060238;0.12146783268569505;2;axe_yy1_0,axe_xx1_0,axe_yy1_1,axe_xx1_1,axe_out_channels1_0;10;[V f, U (4, f), ULambda y, T (256, c), Hoist_vars [c], T (17, x), T (1, c),  T (2, f), T (4, x), T (2, y), T (1, x),  Lambda_apply y [((Iter 1), (Arg 4)), ((Iter 5), (Arg 6))]];178.01163578033447
164;Yolo9000_9;1.7934962999999997;0.003959063602671717;1;axe_yy_0;4;[V f, U (4, f), ULambda y, T (256, c), Hoist_vars [c], T (68, x), T (1, c),  T (2, f), T (1, x),  Lambda_apply y [((Iter 2), (Arg 5)), ((Iter 1), (Arg 7))], T (1, x),  T (4, y)];178.9635889530182
165;Yolo9000_9;1.7853043;0.004344394389325186;1;axe_yy_0;4;[V f, U (4, f), ULambda y, T (256, c), Hoist_vars [c], T (34, x), T (1, c),  T (2, f), T (2, x),  Lambda_apply y [((Iter 3), (Arg 4)), ((Iter 1), (Arg 5))], T (1, x),  T (4, y)];179.9200849533081
166;Yolo9000_9;0.7700050999999999;0.0022105519876266153;2;axe_yy1_0,axe_xx1_0,axe_yy1_1,axe_xx1_1,axe_out_channels1_0;12;[V f, U (4, f), ULambda y, T (64, c), Hoist_vars [c], T (17, x), T (4, c),  T (2, f), T (4, x), T (4, y), T (1, x),  Lambda_apply y [((Iter 1), (Arg 3)), ((Iter 2), (Arg 7))]];180.93426942825317
167;Yolo9000_9;0.6467605;0.10482735100273208;2;axe_yy1_0,axe_xx1_0,axe_yy1_1,axe_xx1_1,axe_out_channels1_0;11;[V f, U (4, f), ULambda y, T (128, c), Hoist_vars [c], T (17, x), T (2, c),  T (2, f), T (2, x), T (4, y), T (2, x),  Lambda_apply y [((Iter 1), (Arg 5)), ((Iter 2), (Arg 6))]];182.14455032348633
168;Yolo9000_9;0.6986706;0.11882166252262254;1;axe_yy_0,axe_xx_0,axe_yy_1,axe_xx_1,axe_out_channels_0;23;[V f, U (4, f), U (4, y), T (64, c), Hoist_vars [c], T (34, x), T (4, c),  T (2, f), T (1, x), T (17, y), T (2, x), T (1, y)];182.99758791923523
169;Yolo9000_9;1.7838223;0.005437369622344969;1;axe_yy_0;4;[V f, U (4, f), ULambda y, T (256, c), Hoist_vars [c], T (17, x), T (1, c),  T (2, f), T (4, x),  Lambda_apply y [((Iter 2), (Arg 5)), ((Iter 1), (Arg 7))], T (1, x),  T (4, y)];183.97809219360352
170;Yolo9000_9;0.8957402999999999;0.06250030725052479;2;axe_yy1_0,axe_xx1_0,axe_yy1_1,axe_xx1_1,axe_out_channels1_0;10;[V f, U (4, f), ULambda y, T (256, c), Hoist_vars [c], T (34, x), T (1, c),  T (2, f), T (2, x), T (4, y), T (1, x),  Lambda_apply y [((Iter 1), (Arg 5)), ((Iter 2), (Arg 6))]];184.9814088344574
171;Yolo9000_9;1.7808816;0.005832093692663039;1;axe_yy_0;4;[V f, U (4, f), ULambda y, T (256, c), Hoist_vars [c], T (34, x), T (1, c),  T (2, f), T (1, x),  Lambda_apply y [((Iter 3), (Arg 3)), ((Iter 2), (Arg 4))], T (2, x),  T (4, y)];185.91516423225403
172;Yolo9000_9;3.5137874000000004;0.0008934546658896037;1;axe_yy_0;2;[V f, U (4, f), ULambda y, T (256, c), Hoist_vars [c], T (17, x), T (1, c),  T (2, f), T (1, x),  Lambda_apply y [((Iter 1), (Arg 4)), ((Iter 5), (Arg 6))], T (4, x),  T (2, y)];186.92815589904785
173;Yolo9000_9;0.7511819999999999;0.01931754347736792;2;axe_yy1_0,axe_xx1_0,axe_yy1_1,axe_xx1_1,axe_out_channels1_0;12;[V f, U (4, f), ULambda y, T (256, c), Hoist_vars [c], T (34, x), T (1, c),  T (2, f), T (1, x), T (4, y), T (2, x),  Lambda_apply y [((Iter 3), (Arg 3)), ((Iter 2), (Arg 4))]];188.30647039413452
174;Yolo9000_9;0.6658592999999999;0.12759076187408708;2;axe_yy1_0,axe_xx1_0,axe_yy1_1,axe_xx1_1,axe_out_channels1_0;12;[V f, U (4, f), ULambda y, T (64, c), Hoist_vars [c], T (17, x), T (4, c),  T (2, f), T (1, x), T (4, y), T (4, x),  Lambda_apply y [((Iter 1), (Arg 5)), ((Iter 2), (Arg 6))]];189.46122670173645
175;Yolo9000_9;1.7759675000000001;0.004478821859596581;1;axe_yy_0;4;[V f, U (4, f), ULambda y, T (256, c), Hoist_vars [c], T (17, x), T (1, c),  T (2, f), T (1, x),  Lambda_apply y [((Iter 1), (Arg 5)), ((Iter 2), (Arg 6))], T (4, x),  T (4, y)];190.42035245895386
176;Yolo9000_9;1.8392851000000001;0.0035750962910109565;1;axe_yy_0;4;[V f, U (4, f), ULambda y, T (64, c), Hoist_vars [c], T (17, x), T (4, c),  T (2, f), T (1, x),  Lambda_apply y [((Iter 2), (Arg 5)), ((Iter 1), (Arg 7))], T (4, x),  T (4, y)];191.39019584655762
177;Yolo9000_9;0.8702116999999999;0.004627524177138366;2;axe_yy1_0,axe_xx1_0,axe_yy1_1,axe_xx1_1,axe_out_channels1_0;11;[V f, U (4, f), ULambda y, T (64, c), Hoist_vars [c], T (17, x), T (4, c),  T (2, f), T (2, x), T (4, y), T (2, x),  Lambda_apply y [((Iter 1), (Arg 3)), ((Iter 2), (Arg 7))]];192.40649557113647
178;Yolo9000_9;3.5287751999999997;0.0012012385108712304;1;axe_yy_0;2;[V f, U (4, f), ULambda y, T (256, c), Hoist_vars [c], T (34, x), T (1, c),  T (2, f), T (2, x),  Lambda_apply y [((Iter 1), (Arg 4)), ((Iter 5), (Arg 6))], T (1, x),  T (2, y)];193.45898294448853
179;Yolo9000_9;1.7780896;0.005972178299414705;1;axe_yy_0;4;[V f, U (4, f), ULambda y, T (256, c), Hoist_vars [c], T (34, x), T (1, c),  T (2, f), T (1, x),  Lambda_apply y [((Iter 1), (Arg 5)), ((Iter 2), (Arg 6))], T (2, x),  T (4, y)];194.4156994819641
180;Yolo9000_9;1.0046594999999998;0.005863849200823648;2;axe_yy1_0,axe_xx1_0,axe_yy1_1,axe_xx1_1,axe_out_channels1_0;11;[V f, U (4, f), ULambda y, T (256, c), Hoist_vars [c], T (68, x), T (1, c),  T (2, f), T (1, x), T (4, y), T (1, x),  Lambda_apply y [((Iter 3), (Arg 3)), ((Iter 2), (Arg 4))]];195.65133380889893
181;Yolo9000_9;1.3157605;0.011213737149139907;2;axe_yy1_0,axe_xx1_0,axe_yy1_1,axe_xx1_1,axe_out_channels1_0;10;[V f, U (4, f), ULambda y, T (256, c), Hoist_vars [c], T (68, x), T (1, c),  T (2, f), T (1, x), T (4, y), T (1, x),  Lambda_apply y [((Iter 2), (Arg 5)), ((Iter 1), (Arg 7))]];196.92330527305603
182;Yolo9000_9;3.6345171;0.0016726635914014738;1;axe_yy_0;2;[V f, U (4, f), ULambda y, T (64, c), Hoist_vars [c], T (17, x), T (4, c),  T (2, f), T (4, x),  Lambda_apply y [((Iter 1), (Arg 4)), ((Iter 5), (Arg 6))], T (1, x),  T (2, y)];197.9714229106903
183;Yolo9000_9;0.8002847;0.002808467555447275;1;axe_yy_0,axe_xx_0,axe_yy_1,axe_xx_1,axe_out_channels_0;22;[V f, U (4, f), U (4, y), T (32, c), Hoist_vars [c], T (68, x), T (8, c),  T (2, f), T (1, x), T (1, y), T (1, x), T (17, y)];198.80242347717285
184;Yolo9000_9;1.8306601;0.005098692841307453;1;axe_yy_0;4;[V f, U (4, f), ULambda y, T (64, c), Hoist_vars [c], T (34, x), T (4, c),  T (2, f), T (2, x),  Lambda_apply y [((Iter 1), (Arg 5)), ((Iter 2), (Arg 6))], T (1, x),  T (4, y)];199.75004076957703
185;Yolo9000_9;0.7434196000000001;0.060627495386499364;1;axe_yy_0,axe_xx_0,axe_yy_1,axe_xx_1,axe_out_channels_0;22;[V f, U (4, f), U (4, y), T (128, c), Hoist_vars [c], T (68, x), T (2, c),  T (2, f), T (1, x), T (1, y), T (1, x), T (17, y)];200.59337759017944
186;Yolo9000_9;0.49058250000000003;0.004550300632925257;2;axe_yy1_0,axe_xx1_0,axe_yy1_1,axe_xx1_1,axe_out_channels1_0;10;[V f, U (4, f), ULambda y, T (128, c), Hoist_vars [c], T (17, x), T (2, c),  T (2, f), T (1, x), T (2, y), T (4, x),  Lambda_apply y [((Iter 1), (Arg 4)), ((Iter 5), (Arg 6))]];201.77033042907715
187;Yolo9000_9;1.8398507;0.0022872785597735897;1;axe_yy_0;4;[V f, U (4, f), ULambda y, T (64, c), Hoist_vars [c], T (17, x), T (4, c),  T (2, f), T (4, x),  Lambda_apply y [((Iter 2), (Arg 5)), ((Iter 1), (Arg 7))], T (1, x),  T (4, y)];202.72948360443115
188;Yolo9000_9;0.9398824999999998;0.09122439545675265;2;axe_yy1_0,axe_xx1_0,axe_yy1_1,axe_xx1_1,axe_out_channels1_0;12;[V f, U (4, f), ULambda y, T (256, c), Hoist_vars [c], T (34, x), T (1, c),  T (2, f), T (1, x), T (4, y), T (2, x),  Lambda_apply y [((Iter 3), (Arg 4)), ((Iter 1), (Arg 5))]];203.9850790500641
189;Yolo9000_9;1.0376353;0.04298686406345548;2;axe_yy1_0,axe_xx1_0,axe_yy1_1,axe_xx1_1,axe_out_channels1_0;12;[V f, U (4, f), ULambda y, T (64, c), Hoist_vars [c], T (34, x), T (4, c),  T (2, f), T (1, x), T (4, y), T (2, x),  Lambda_apply y [((Iter 3), (Arg 4)), ((Iter 1), (Arg 5))]];205.25669384002686
190;Yolo9000_9;0.7045608000000001;0.00662320570116917;2;axe_yy1_0,axe_xx1_0,axe_yy1_1,axe_xx1_1,axe_out_channels1_0;13;[V f, U (4, f), ULambda y, T (128, c), Hoist_vars [c], T (17, x), T (2, c),  T (2, f), T (1, x), T (4, y), T (4, x),  Lambda_apply y [((Iter 2), (Arg 5)), ((Iter 1), (Arg 7))]];206.59792852401733
191;Yolo9000_9;0.7339651;0.11411312884103214;2;axe_yy1_0,axe_xx1_0,axe_yy1_1,axe_xx1_1,axe_out_channels1_0;12;[V f, U (4, f), ULambda y, T (256, c), Hoist_vars [c], T (17, x), T (1, c),  T (2, f), T (2, x), T (4, y), T (2, x),  Lambda_apply y [((Iter 2), (Arg 5)), ((Iter 1), (Arg 7))]];207.9398045539856
192;Yolo9000_9;0.5563093;0.11991578069716265;2;axe_yy1_0,axe_xx1_0,axe_yy1_1,axe_xx1_1,axe_out_channels1_0;10;[V f, U (4, f), ULambda y, T (256, c), Hoist_vars [c], T (17, x), T (1, c),  T (2, f), T (1, x), T (2, y), T (4, x),  Lambda_apply y [((Iter 1), (Arg 4)), ((Iter 5), (Arg 6))]];209.0939905643463
193;Yolo9000_9;0.9875451000000002;0.007322978252733023;2;axe_yy1_0,axe_xx1_0,axe_yy1_1,axe_xx1_1,axe_out_channels1_0;8;[V f, U (4, f), ULambda y, T (256, c), Hoist_vars [c], T (34, x), T (1, c),  T (2, f), T (2, x), T (2, y), T (1, x),  Lambda_apply y [((Iter 1), (Arg 6)), ((Iter 4), (Arg 7))]];210.09619450569153
194;Yolo9000_9;0.5854043;0.10860280157716927;2;axe_yy1_0,axe_xx1_0,axe_yy1_1,axe_xx1_1,axe_out_channels1_0;10;[V f, U (4, f), ULambda y, T (128, c), Hoist_vars [c], T (17, x), T (2, c),  T (2, f), T (4, x), T (2, y), T (1, x),  Lambda_apply y [((Iter 1), (Arg 4)), ((Iter 5), (Arg 6))]];211.28412508964539
195;Yolo9000_9;1.1827585;0.007805485753622297;2;axe_yy1_0,axe_xx1_0,axe_yy1_1,axe_xx1_1,axe_out_channels1_0;7;[V f, U (4, f), ULambda y, T (128, c), Hoist_vars [c], T (68, x), T (2, c),  T (2, f), T (1, x), T (2, y), T (1, x),  Lambda_apply y [((Iter 1), (Arg 4)), ((Iter 5), (Arg 6))]];212.2584969997406
196;Yolo9000_9;1.7842482999999998;0.0049011917336501225;1;axe_yy_0;4;[V f, U (4, f), ULambda y, T (256, c), Hoist_vars [c], T (68, x), T (1, c),  T (2, f), T (1, x),  Lambda_apply y [((Iter 4), (Arg 3)), ((Iter 1), (Arg 5))], T (1, x),  T (4, y)];213.21155858039856
197;Yolo9000_9;1.2076536;0.005252182921414645;2;axe_yy1_0,axe_xx1_0,axe_yy1_1,axe_xx1_1,axe_out_channels1_0;11;[V f, U (4, f), ULambda y, T (256, c), Hoist_vars [c], T (68, x), T (1, c),  T (2, f), T (1, x), T (2, y), T (1, x),  Lambda_apply y [((Iter 5), (Arg 4)), ((Iter 2), (Arg 7))]];214.46581292152405
198;Yolo9000_9;0.8173296999999999;0.01132993574606672;2;axe_yy1_0,axe_xx1_0,axe_yy1_1,axe_xx1_1,axe_out_channels1_0;8;[V f, U (4, f), ULambda y, T (256, c), Hoist_vars [c], T (34, x), T (1, c),  T (2, f), T (2, x), T (2, y), T (1, x),  Lambda_apply y [((Iter 1), (Arg 4)), ((Iter 5), (Arg 6))]];215.44050574302673
199;Yolo9000_9;3.5874479;0.0019221089693354126;1;axe_yy_0;2;[V f, U (4, f), ULambda y, T (128, c), Hoist_vars [c], T (17, x), T (2, c),  T (2, f), T (4, x),  Lambda_apply y [((Iter 1), (Arg 4)), ((Iter 5), (Arg 6))], T (1, x),  T (2, y)];216.45826888084412
