perf,CACHE_MISS_L1,CACHE_MISS_L2,scheme
51.96,57653,14497,"[V f; U (2, f); ULambda y; T (3, c); Hoist_vars [c]; T (1, x); T (7, w); T (7, h); T (1, x); Lambda_apply y [((Iter 7), (Arg 12)); ((Iter 2), (Arg 14))]; T (2, f); T (112, x)]"
46.66,57963,16487,"[V f; U (2, f); U (14, y); T (64, c); Hoist_vars [c]; T (28, x); T (4, f); T (1, x); T (2, y); T (1, f)]"
53.15,57655,16946,"[V f; U (2, f); U (14, y); T (64, c); Hoist_vars [c]; T (28, x); T (2, f); T (1, x); T (2, y); T (2, f)]"
53.04,57798,13212,"[V f; U (2, f); U (14, y); T (64, c); Hoist_vars [c]; T (28, x); T (1, f); T (1, x); T (2, y); T (4, f)]"
48.42,57902,15986,"[V f; U (2, f); U (14, y); T (64, c); Hoist_vars [c]; T (14, x); T (4, f); T (2, x); T (2, y); T (1, f)]"
50.50,57717,16551,"[V f; U (2, f); U (14, y); T (64, c); Hoist_vars [c]; T (14, x); T (2, f); T (2, x); T (2, y); T (2, f)]"
52.65,57019,13702,"[V f; U (2, f); U (14, y); T (64, c); Hoist_vars [c]; T (14, x); T (1, f); T (2, x); T (2, y); T (4, f)]"
50.56,57477,15963,"[V f; U (2, f); U (14, y); T (64, c); Hoist_vars [c]; T (7, x); T (4, f); T (4, x); T (2, y); T (1, f)]"
50.50,57851,18155,"[V f; U (2, f); U (14, y); T (64, c); Hoist_vars [c]; T (7, x); T (2, f); T (4, x); T (2, y); T (2, f)]"
51.26,53212,13798,"[V f; U (2, f); U (14, y); T (64, c); Hoist_vars [c]; T (7, x); T (1, f); T (4, x); T (2, y); T (4, f)]"
50.08,54779,16185,"[V f; U (2, f); U (14, y); T (64, c); Hoist_vars [c]; T (4, x); T (4, f); T (7, x); T (2, y); T (1, f)]"
51.14,57720,16651,"[V f; U (2, f); U (14, y); T (64, c); Hoist_vars [c]; T (4, x); T (2, f); T (7, x); T (2, y); T (2, f)]"
51.86,51564,13759,"[V f; U (2, f); U (14, y); T (64, c); Hoist_vars [c]; T (4, x); T (1, f); T (7, x); T (2, y); T (4, f)]"
49.13,53416,16201,"[V f; U (2, f); U (14, y); T (64, c); Hoist_vars [c]; T (2, x); T (4, f); T (14, x); T (2, y); T (1, f)]"
49.05,57830,18129,"[V f; U (2, f); U (14, y); T (64, c); Hoist_vars [c]; T (2, x); T (2, f); T (14, x); T (2, y); T (2, f)]"
51.47,47824,13740,"[V f; U (2, f); U (14, y); T (64, c); Hoist_vars [c]; T (2, x); T (1, f); T (14, x); T (2, y); T (4, f)]"
50.46,51205,15921,"[V f; U (2, f); U (14, y); T (64, c); Hoist_vars [c]; T (1, x); T (4, f); T (28, x); T (2, y); T (1, f)]"
48.66,57751,17239,"[V f; U (2, f); U (14, y); T (64, c); Hoist_vars [c]; T (1, x); T (2, f); T (28, x); T (2, y); T (2, f)]"
53.00,76095,13312,"[V f; U (2, f); U (14, y); T (64, c); Hoist_vars [c]; T (1, x); T (1, f); T (28, x); T (2, y); T (4, f)]"
51.40,76051,15700,"[V f; U (4, f); U (7, y); T (64, c); Hoist_vars [c]; T (28, x); T (2, f); T (1, x); T (4, y); T (1, f)]"
50.50,76237,13248,"[V f; U (4, f); U (7, y); T (64, c); Hoist_vars [c]; T (28, x); T (1, f); T (1, x); T (4, y); T (2, f)]"
49.84,76340,16147,"[V f; U (4, f); U (7, y); T (64, c); Hoist_vars [c]; T (14, x); T (2, f); T (2, x); T (4, y); T (1, f)]"
42.92,77004,13752,"[V f; U (4, f); U (7, y); T (64, c); Hoist_vars [c]; T (14, x); T (1, f); T (2, x); T (4, y); T (2, f)]"
50.24,76107,16085,"[V f; U (4, f); U (7, y); T (64, c); Hoist_vars [c]; T (7, x); T (2, f); T (4, x); T (4, y); T (1, f)]"
50.73,76744,13587,"[V f; U (4, f); U (7, y); T (64, c); Hoist_vars [c]; T (7, x); T (1, f); T (4, x); T (4, y); T (2, f)]"
48.28,76405,16003,"[V f; U (4, f); U (7, y); T (64, c); Hoist_vars [c]; T (4, x); T (2, f); T (7, x); T (4, y); T (1, f)]"
51.07,75542,13387,"[V f; U (4, f); U (7, y); T (64, c); Hoist_vars [c]; T (4, x); T (1, f); T (7, x); T (4, y); T (2, f)]"
50.17,76321,16007,"[V f; U (4, f); U (7, y); T (64, c); Hoist_vars [c]; T (2, x); T (2, f); T (14, x); T (4, y); T (1, f)]"
49.82,72081,13085,"[V f; U (4, f); U (7, y); T (64, c); Hoist_vars [c]; T (2, x); T (1, f); T (14, x); T (4, y); T (2, f)]"
50.22,76079,16195,"[V f; U (4, f); U (7, y); T (64, c); Hoist_vars [c]; T (1, x); T (2, f); T (28, x); T (4, y); T (1, f)]"
51.78,70999,13645,"[V f; U (4, f); U (7, y); T (64, c); Hoist_vars [c]; T (1, x); T (1, f); T (28, x); T (4, y); T (2, f)]"
41.79,71510,15704,"[V f; U (2, f); ULambda y; T (64, c); Hoist_vars [c]; T (28, x); T (4, f); T (1, x); Lambda_apply y [((Iter 1), (Arg 8)); ((Iter 2), (Arg 10))]; T (1, f)]"
48.38,71015,16884,"[V f; U (2, f); ULambda y; T (64, c); Hoist_vars [c]; T (28, x); T (2, f); T (1, x); Lambda_apply y [((Iter 1), (Arg 8)); ((Iter 2), (Arg 10))]; T (2, f)]"
46.31,71431,13575,"[V f; U (2, f); ULambda y; T (64, c); Hoist_vars [c]; T (28, x); T (1, f); T (1, x); Lambda_apply y [((Iter 1), (Arg 8)); ((Iter 2), (Arg 10))]; T (4, f)]"
50.35,71154,15269,"[V f; U (2, f); ULambda y; T (64, c); Hoist_vars [c]; T (14, x); T (4, f); T (2, x); Lambda_apply y [((Iter 1), (Arg 8)); ((Iter 2), (Arg 10))]; T (1, f)]"
47.69,70923,16493,"[V f; U (2, f); ULambda y; T (64, c); Hoist_vars [c]; T (14, x); T (2, f); T (2, x); Lambda_apply y [((Iter 1), (Arg 8)); ((Iter 2), (Arg 10))]; T (2, f)]"
51.66,67721,13831,"[V f; U (2, f); ULambda y; T (64, c); Hoist_vars [c]; T (14, x); T (1, f); T (2, x); Lambda_apply y [((Iter 1), (Arg 8)); ((Iter 2), (Arg 10))]; T (4, f)]"
44.11,69016,16764,"[V f; U (2, f); ULambda y; T (64, c); Hoist_vars [c]; T (7, x); T (4, f); T (4, x); Lambda_apply y [((Iter 1), (Arg 8)); ((Iter 2), (Arg 10))]; T (1, f)]"
50.56,70936,16753,"[V f; U (2, f); ULambda y; T (64, c); Hoist_vars [c]; T (7, x); T (2, f); T (4, x); Lambda_apply y [((Iter 1), (Arg 8)); ((Iter 2), (Arg 10))]; T (2, f)]"
50.21,65999,13670,"[V f; U (2, f); ULambda y; T (64, c); Hoist_vars [c]; T (7, x); T (1, f); T (4, x); Lambda_apply y [((Iter 1), (Arg 8)); ((Iter 2), (Arg 10))]; T (4, f)]"
50.43,67665,16840,"[V f; U (2, f); ULambda y; T (64, c); Hoist_vars [c]; T (4, x); T (4, f); T (7, x); Lambda_apply y [((Iter 1), (Arg 8)); ((Iter 2), (Arg 10))]; T (1, f)]"
51.77,71092,16235,"[V f; U (2, f); ULambda y; T (64, c); Hoist_vars [c]; T (4, x); T (2, f); T (7, x); Lambda_apply y [((Iter 1), (Arg 8)); ((Iter 2), (Arg 10))]; T (2, f)]"
53.78,64496,13567,"[V f; U (2, f); ULambda y; T (64, c); Hoist_vars [c]; T (4, x); T (1, f); T (7, x); Lambda_apply y [((Iter 1), (Arg 8)); ((Iter 2), (Arg 10))]; T (4, f)]"
50.40,67108,16665,"[V f; U (2, f); ULambda y; T (64, c); Hoist_vars [c]; T (2, x); T (4, f); T (14, x); Lambda_apply y [((Iter 1), (Arg 8)); ((Iter 2), (Arg 10))]; T (1, f)]"
51.99,71052,16655,"[V f; U (2, f); ULambda y; T (64, c); Hoist_vars [c]; T (2, x); T (2, f); T (14, x); Lambda_apply y [((Iter 1), (Arg 8)); ((Iter 2), (Arg 10))]; T (2, f)]"
52.27,59960,13429,"[V f; U (2, f); ULambda y; T (64, c); Hoist_vars [c]; T (2, x); T (1, f); T (14, x); Lambda_apply y [((Iter 1), (Arg 8)); ((Iter 2), (Arg 10))]; T (4, f)]"
49.68,63585,16504,"[V f; U (2, f); ULambda y; T (64, c); Hoist_vars [c]; T (1, x); T (4, f); T (28, x); Lambda_apply y [((Iter 1), (Arg 8)); ((Iter 2), (Arg 10))]; T (1, f)]"
50.96,70895,16869,"[V f; U (2, f); ULambda y; T (64, c); Hoist_vars [c]; T (1, x); T (2, f); T (28, x); Lambda_apply y [((Iter 1), (Arg 8)); ((Iter 2), (Arg 10))]; T (2, f)]"
51.66,70744,13439,"[V f; U (2, f); ULambda y; T (64, c); Hoist_vars [c]; T (1, x); T (1, f); T (28, x); Lambda_apply y [((Iter 1), (Arg 8)); ((Iter 2), (Arg 10))]; T (4, f)]"
52.59,70713,15566,"[V f; U (2, f); ULambda y; T (64, c); Hoist_vars [c]; T (28, x); T (4, f); T (1, x); Lambda_apply y [((Iter 2), (Arg 8)); ((Iter 1), (Arg 12))]; T (1, f)]"
51.06,70525,17072,"[V f; U (2, f); ULambda y; T (64, c); Hoist_vars [c]; T (28, x); T (2, f); T (1, x); Lambda_apply y [((Iter 2), (Arg 8)); ((Iter 1), (Arg 12))]; T (2, f)]"
48.00,71399,13369,"[V f; U (2, f); ULambda y; T (64, c); Hoist_vars [c]; T (28, x); T (1, f); T (1, x); Lambda_apply y [((Iter 2), (Arg 8)); ((Iter 1), (Arg 12))]; T (4, f)]"
49.40,71029,15911,"[V f; U (2, f); ULambda y; T (64, c); Hoist_vars [c]; T (14, x); T (4, f); T (2, x); Lambda_apply y [((Iter 2), (Arg 8)); ((Iter 1), (Arg 12))]; T (1, f)]"
51.17,70733,17082,"[V f; U (2, f); ULambda y; T (64, c); Hoist_vars [c]; T (14, x); T (2, f); T (2, x); Lambda_apply y [((Iter 2), (Arg 8)); ((Iter 1), (Arg 12))]; T (2, f)]"
51.68,67490,13551,"[V f; U (2, f); ULambda y; T (64, c); Hoist_vars [c]; T (14, x); T (1, f); T (2, x); Lambda_apply y [((Iter 2), (Arg 8)); ((Iter 1), (Arg 12))]; T (4, f)]"
52.14,68652,15639,"[V f; U (2, f); ULambda y; T (64, c); Hoist_vars [c]; T (7, x); T (4, f); T (4, x); Lambda_apply y [((Iter 2), (Arg 8)); ((Iter 1), (Arg 12))]; T (1, f)]"
51.87,70652,17380,"[V f; U (2, f); ULambda y; T (64, c); Hoist_vars [c]; T (7, x); T (2, f); T (4, x); Lambda_apply y [((Iter 2), (Arg 8)); ((Iter 1), (Arg 12))]; T (2, f)]"
51.38,66059,13662,"[V f; U (2, f); ULambda y; T (64, c); Hoist_vars [c]; T (7, x); T (1, f); T (4, x); Lambda_apply y [((Iter 2), (Arg 8)); ((Iter 1), (Arg 12))]; T (4, f)]"
51.32,67671,16559,"[V f; U (2, f); ULambda y; T (64, c); Hoist_vars [c]; T (4, x); T (4, f); T (7, x); Lambda_apply y [((Iter 2), (Arg 8)); ((Iter 1), (Arg 12))]; T (1, f)]"
45.49,71157,16672,"[V f; U (2, f); ULambda y; T (64, c); Hoist_vars [c]; T (4, x); T (2, f); T (7, x); Lambda_apply y [((Iter 2), (Arg 8)); ((Iter 1), (Arg 12))]; T (2, f)]"
52.40,64408,13527,"[V f; U (2, f); ULambda y; T (64, c); Hoist_vars [c]; T (4, x); T (1, f); T (7, x); Lambda_apply y [((Iter 2), (Arg 8)); ((Iter 1), (Arg 12))]; T (4, f)]"
43.94,67228,16629,"[V f; U (2, f); ULambda y; T (64, c); Hoist_vars [c]; T (2, x); T (4, f); T (14, x); Lambda_apply y [((Iter 2), (Arg 8)); ((Iter 1), (Arg 12))]; T (1, f)]"
50.76,70542,17372,"[V f; U (2, f); ULambda y; T (64, c); Hoist_vars [c]; T (2, x); T (2, f); T (14, x); Lambda_apply y [((Iter 2), (Arg 8)); ((Iter 1), (Arg 12))]; T (2, f)]"
53.83,59734,13353,"[V f; U (2, f); ULambda y; T (64, c); Hoist_vars [c]; T (2, x); T (1, f); T (14, x); Lambda_apply y [((Iter 2), (Arg 8)); ((Iter 1), (Arg 12))]; T (4, f)]"
50.50,63436,16481,"[V f; U (2, f); ULambda y; T (64, c); Hoist_vars [c]; T (1, x); T (4, f); T (28, x); Lambda_apply y [((Iter 2), (Arg 8)); ((Iter 1), (Arg 12))]; T (1, f)]"
50.86,70472,16779,"[V f; U (2, f); ULambda y; T (64, c); Hoist_vars [c]; T (1, x); T (2, f); T (28, x); Lambda_apply y [((Iter 2), (Arg 8)); ((Iter 1), (Arg 12))]; T (2, f)]"
52.13,71386,13683,"[V f; U (2, f); ULambda y; T (64, c); Hoist_vars [c]; T (1, x); T (1, f); T (28, x); Lambda_apply y [((Iter 2), (Arg 8)); ((Iter 1), (Arg 12))]; T (4, f)]"
51.64,71327,15944,"[V f; U (2, f); ULambda y; T (64, c); Hoist_vars [c]; T (28, x); T (4, f); T (1, x); Lambda_apply y [((Iter 2), (Arg 9)); ((Iter 1), (Arg 10))]; T (1, f)]"
52.87,71369,16997,"[V f; U (2, f); ULambda y; T (64, c); Hoist_vars [c]; T (28, x); T (2, f); T (1, x); Lambda_apply y [((Iter 2), (Arg 9)); ((Iter 1), (Arg 10))]; T (2, f)]"
52.83,71916,13592,"[V f; U (2, f); ULambda y; T (64, c); Hoist_vars [c]; T (28, x); T (1, f); T (1, x); Lambda_apply y [((Iter 2), (Arg 9)); ((Iter 1), (Arg 10))]; T (4, f)]"
51.08,71498,15985,"[V f; U (2, f); ULambda y; T (64, c); Hoist_vars [c]; T (14, x); T (4, f); T (2, x); Lambda_apply y [((Iter 2), (Arg 9)); ((Iter 1), (Arg 10))]; T (1, f)]"
49.44,71431,16731,"[V f; U (2, f); ULambda y; T (64, c); Hoist_vars [c]; T (14, x); T (2, f); T (2, x); Lambda_apply y [((Iter 2), (Arg 9)); ((Iter 1), (Arg 10))]; T (2, f)]"
51.47,68043,14335,"[V f; U (2, f); ULambda y; T (64, c); Hoist_vars [c]; T (14, x); T (1, f); T (2, x); Lambda_apply y [((Iter 2), (Arg 9)); ((Iter 1), (Arg 10))]; T (4, f)]"
50.91,69079,16769,"[V f; U (2, f); ULambda y; T (64, c); Hoist_vars [c]; T (7, x); T (4, f); T (4, x); Lambda_apply y [((Iter 2), (Arg 9)); ((Iter 1), (Arg 10))]; T (1, f)]"
51.11,71235,17553,"[V f; U (2, f); ULambda y; T (64, c); Hoist_vars [c]; T (7, x); T (2, f); T (4, x); Lambda_apply y [((Iter 2), (Arg 9)); ((Iter 1), (Arg 10))]; T (2, f)]"
51.39,66056,13921,"[V f; U (2, f); ULambda y; T (64, c); Hoist_vars [c]; T (7, x); T (1, f); T (4, x); Lambda_apply y [((Iter 2), (Arg 9)); ((Iter 1), (Arg 10))]; T (4, f)]"
50.34,67829,16582,"[V f; U (2, f); ULambda y; T (64, c); Hoist_vars [c]; T (4, x); T (4, f); T (7, x); Lambda_apply y [((Iter 2), (Arg 9)); ((Iter 1), (Arg 10))]; T (1, f)]"
51.59,71294,17509,"[V f; U (2, f); ULambda y; T (64, c); Hoist_vars [c]; T (4, x); T (2, f); T (7, x); Lambda_apply y [((Iter 2), (Arg 9)); ((Iter 1), (Arg 10))]; T (2, f)]"
51.25,64407,13845,"[V f; U (2, f); ULambda y; T (64, c); Hoist_vars [c]; T (4, x); T (1, f); T (7, x); Lambda_apply y [((Iter 2), (Arg 9)); ((Iter 1), (Arg 10))]; T (4, f)]"
51.10,66911,16466,"[V f; U (2, f); ULambda y; T (64, c); Hoist_vars [c]; T (2, x); T (4, f); T (14, x); Lambda_apply y [((Iter 2), (Arg 9)); ((Iter 1), (Arg 10))]; T (1, f)]"
40.68,71862,18028,"[V f; U (2, f); ULambda y; T (64, c); Hoist_vars [c]; T (2, x); T (2, f); T (14, x); Lambda_apply y [((Iter 2), (Arg 9)); ((Iter 1), (Arg 10))]; T (2, f)]"
52.19,59840,13478,"[V f; U (2, f); ULambda y; T (64, c); Hoist_vars [c]; T (2, x); T (1, f); T (14, x); Lambda_apply y [((Iter 2), (Arg 9)); ((Iter 1), (Arg 10))]; T (4, f)]"
52.93,63469,16435,"[V f; U (2, f); ULambda y; T (64, c); Hoist_vars [c]; T (1, x); T (4, f); T (28, x); Lambda_apply y [((Iter 2), (Arg 9)); ((Iter 1), (Arg 10))]; T (1, f)]"
50.11,71302,17422,"[V f; U (2, f); ULambda y; T (64, c); Hoist_vars [c]; T (1, x); T (2, f); T (28, x); Lambda_apply y [((Iter 2), (Arg 9)); ((Iter 1), (Arg 10))]; T (2, f)]"
52.94,57443,13838,"[V f; U (2, f); ULambda y; T (64, c); Hoist_vars [c]; T (1, x); T (1, f); T (28, x); Lambda_apply y [((Iter 2), (Arg 9)); ((Iter 1), (Arg 10))]; T (4, f)]"
51.46,57360,15671,"[V f; U (2, f); ULambda y; T (64, c); Hoist_vars [c]; T (28, x); T (4, f); T (1, x); Lambda_apply y [((Iter 1), (Arg 13)); ((Iter 1), (Arg 15))]; T (1, f)]"
47.91,57465,16548,"[V f; U (2, f); ULambda y; T (64, c); Hoist_vars [c]; T (28, x); T (2, f); T (1, x); Lambda_apply y [((Iter 1), (Arg 13)); ((Iter 1), (Arg 15))]; T (2, f)]"
53.85,57386,13099,"[V f; U (2, f); ULambda y; T (64, c); Hoist_vars [c]; T (28, x); T (1, f); T (1, x); Lambda_apply y [((Iter 1), (Arg 13)); ((Iter 1), (Arg 15))]; T (4, f)]"
49.52,57416,16788,"[V f; U (2, f); ULambda y; T (64, c); Hoist_vars [c]; T (14, x); T (4, f); T (2, x); Lambda_apply y [((Iter 1), (Arg 13)); ((Iter 1), (Arg 15))]; T (1, f)]"
50.83,57299,16263,"[V f; U (2, f); ULambda y; T (64, c); Hoist_vars [c]; T (14, x); T (2, f); T (2, x); Lambda_apply y [((Iter 1), (Arg 13)); ((Iter 1), (Arg 15))]; T (2, f)]"
51.26,56654,13802,"[V f; U (2, f); ULambda y; T (64, c); Hoist_vars [c]; T (14, x); T (1, f); T (2, x); Lambda_apply y [((Iter 1), (Arg 13)); ((Iter 1), (Arg 15))]; T (4, f)]"
51.87,56942,15587,"[V f; U (2, f); ULambda y; T (64, c); Hoist_vars [c]; T (7, x); T (4, f); T (4, x); Lambda_apply y [((Iter 1), (Arg 13)); ((Iter 1), (Arg 15))]; T (1, f)]"
51.68,57384,15864,"[V f; U (2, f); ULambda y; T (64, c); Hoist_vars [c]; T (7, x); T (2, f); T (4, x); Lambda_apply y [((Iter 1), (Arg 13)); ((Iter 1), (Arg 15))]; T (2, f)]"
51.72,52436,13696,"[V f; U (2, f); ULambda y; T (64, c); Hoist_vars [c]; T (7, x); T (1, f); T (4, x); Lambda_apply y [((Iter 1), (Arg 13)); ((Iter 1), (Arg 15))]; T (4, f)]"
49.38,54208,15867,"[V f; U (2, f); ULambda y; T (64, c); Hoist_vars [c]; T (4, x); T (4, f); T (7, x); Lambda_apply y [((Iter 1), (Arg 13)); ((Iter 1), (Arg 15))]; T (1, f)]"
48.59,57319,17285,"[V f; U (2, f); ULambda y; T (64, c); Hoist_vars [c]; T (4, x); T (2, f); T (7, x); Lambda_apply y [((Iter 1), (Arg 13)); ((Iter 1), (Arg 15))]; T (2, f)]"
52.59,51038,13740,"[V f; U (2, f); ULambda y; T (64, c); Hoist_vars [c]; T (4, x); T (1, f); T (7, x); Lambda_apply y [((Iter 1), (Arg 13)); ((Iter 1), (Arg 15))]; T (4, f)]"
51.39,52995,16006,"[V f; U (2, f); ULambda y; T (64, c); Hoist_vars [c]; T (2, x); T (4, f); T (14, x); Lambda_apply y [((Iter 1), (Arg 13)); ((Iter 1), (Arg 15))]; T (1, f)]"
51.21,57259,16306,"[V f; U (2, f); ULambda y; T (64, c); Hoist_vars [c]; T (2, x); T (2, f); T (14, x); Lambda_apply y [((Iter 1), (Arg 13)); ((Iter 1), (Arg 15))]; T (2, f)]"
52.59,47210,13458,"[V f; U (2, f); ULambda y; T (64, c); Hoist_vars [c]; T (2, x); T (1, f); T (14, x); Lambda_apply y [((Iter 1), (Arg 13)); ((Iter 1), (Arg 15))]; T (4, f)]"
50.28,50864,15433,"[V f; U (2, f); ULambda y; T (64, c); Hoist_vars [c]; T (1, x); T (4, f); T (28, x); Lambda_apply y [((Iter 1), (Arg 13)); ((Iter 1), (Arg 15))]; T (1, f)]"
47.61,57495,16100,"[V f; U (2, f); ULambda y; T (64, c); Hoist_vars [c]; T (1, x); T (2, f); T (28, x); Lambda_apply y [((Iter 1), (Arg 13)); ((Iter 1), (Arg 15))]; T (2, f)]"
