IdRun;NameConv;Time(ms);std;NbMicroKernel;AxeFuse;SizeAxeFuse;Schema;Time_search(13.900177955627441)
0;Yolo9000_0;1.3786867;0.006442958420632489;2;axe_yy1_0,axe_xx1_0,axe_xx1_1,axe_yy1_1;554;[V f, U (2, f), ULambda y, T (3, c), Hoist_vars [c], T (1, x), T (1, c),  T (3, w), T (3, h), T (8, y), T (1, x), T (544, x),  Lambda_apply y [((Iter 1), (Arg 8)), ((Iter 4), (Arg 15))]];15.106604099273682
4;Yolo9000_0;0.4194026;0.0011957177927922696;1;axe_yy_0,axe_xx_0,axe_xx_1,axe_yy_1;42;[V f, U (2, f), U (8, y), T (3, c), Hoist_vars [c], T (68, x), T (1, c),  T (3, w), T (3, h), T (34, y), T (2, x), T (4, x), T (2, y)];18.386436462402344
5;Yolo9000_0;0.3293858;0.0010815189133806205;1;axe_yy_0,axe_xx_0,axe_xx_1,axe_yy_1;295;[V f, U (2, f), U (8, y), T (3, c), Hoist_vars [c], T (1, x), T (1, c),  T (3, w), T (3, h), T (4, y), T (2, x), T (272, x), T (17, y)];19.320395708084106
9;Yolo9000_0;0.3604238;0.0003989886715183884;1;axe_yy_0,axe_xx_0,axe_xx_1,axe_yy_1;30;[V f, U (2, f), U (8, y), T (3, c), Hoist_vars [c], T (68, x), T (1, c),  T (3, w), T (3, h), T (17, y), T (1, x), T (8, x), T (4, y)];23.70764470100403
10;Yolo9000_0;0.38503990000000005;0.0007150980981655539;1;axe_yy_0,axe_xx_0,axe_xx_1,axe_yy_1;79;[V f, U (2, f), U (8, y), T (3, c), Hoist_vars [c], T (34, x), T (1, c),  T (3, w), T (3, h), T (68, y), T (8, x), T (2, x), T (1, y)];24.64668607711792
12;Yolo9000_0;0.2853171;0.0005640672743565263;1;axe_yy_0,axe_xx_0,axe_xx_1,axe_yy_1;566;[V f, U (2, f), U (8, y), T (3, c), Hoist_vars [c], T (1, x), T (1, c),  T (3, w), T (3, h), T (17, y), T (544, x), T (1, x), T (4, y)];26.738452672958374
15;Yolo9000_0;0.2811836;0.00037990819943771063;1;axe_yy_0,axe_xx_0,axe_xx_1,axe_yy_1;581;[V f, U (2, f), U (8, y), T (3, c), Hoist_vars [c], T (1, x), T (1, c),  T (3, w), T (3, h), T (34, y), T (1, x), T (544, x), T (2, y)];29.95533847808838
21;Yolo9000_0;0.3281721;0.0006685230661690032;1;axe_yy_0,axe_xx_0,axe_xx_1,axe_yy_1;158;[V f, U (2, f), U (8, y), T (3, c), Hoist_vars [c], T (4, x), T (1, c),  T (3, w), T (3, h), T (4, y), T (1, x), T (136, x), T (17, y)];36.65183186531067
29;Yolo9000_0;0.32650060000000003;0.0016971883926070002;1;axe_yy_0,axe_xx_0,axe_xx_1,axe_yy_1;566;[V f, U (2, f), U (8, y), T (3, c), Hoist_vars [c], T (1, x), T (1, c),  T (3, w), T (3, h), T (4, y), T (544, x), T (1, x), T (17, y)];44.438416957855225
34;Yolo9000_0;0.4204358;0.0015537092263354882;1;axe_yy_0,axe_xx_0,axe_xx_1,axe_yy_1;45;[V f, U (2, f), U (8, y), T (3, c), Hoist_vars [c], T (68, x), T (1, c),  T (3, w), T (3, h), T (34, y), T (1, x), T (8, x), T (2, y)];50.016387701034546
36;Yolo9000_0;0.28567390000000004;0.0010007819392854826;1;axe_yy_0,axe_xx_0,axe_xx_1,axe_yy_1;295;[V f, U (2, f), U (8, y), T (3, c), Hoist_vars [c], T (1, x), T (1, c),  T (3, w), T (3, h), T (17, y), T (2, x), T (272, x), T (4, y)];52.1035897731781
37;Yolo9000_0;0.2866488;0.0003418481534248783;1;axe_yy_0,axe_xx_0,axe_xx_1,axe_yy_1;159;[V f, U (2, f), U (8, y), T (3, c), Hoist_vars [c], T (2, x), T (1, c),  T (3, w), T (3, h), T (17, y), T (136, x), T (2, x), T (4, y)];53.040794372558594
38;Yolo9000_0;0.2874008;0.0005280770398341468;1;axe_yy_0,axe_xx_0,axe_xx_1,axe_yy_1;294;[V f, U (2, f), U (8, y), T (3, c), Hoist_vars [c], T (2, x), T (1, c),  T (3, w), T (3, h), T (17, y), T (1, x), T (272, x), T (4, y)];53.97965383529663
39;Yolo9000_0;0.3532837999999999;0.001267361100870613;1;axe_yy_0,axe_xx_0,axe_xx_1,axe_yy_1;90;[V f, U (2, f), U (8, y), T (3, c), Hoist_vars [c], T (8, x), T (1, c),  T (3, w), T (3, h), T (4, y), T (1, x), T (68, x), T (17, y)];54.9230842590332
45;Yolo9000_0;0.290524;0.00042100475056701815;1;axe_yy_0,axe_xx_0,axe_xx_1,axe_yy_1;46;[V f, U (2, f), U (8, y), T (3, c), Hoist_vars [c], T (4, x), T (1, c),  T (3, w), T (3, h), T (17, y), T (17, x), T (8, x), T (4, y)];59.352648973464966
46;Yolo9000_0;0.3230212;0.0008109777802134989;1;axe_yy_0,axe_xx_0,axe_xx_1,axe_yy_1;159;[V f, U (2, f), U (8, y), T (3, c), Hoist_vars [c], T (2, x), T (1, c),  T (3, w), T (3, h), T (4, y), T (2, x), T (136, x), T (17, y)];60.29091715812683
54;Yolo9000_0;0.36176109999999995;0.000844301184412291;1;axe_yy_0,axe_xx_0,axe_xx_1,axe_yy_1;30;[V f, U (2, f), U (8, y), T (3, c), Hoist_vars [c], T (68, x), T (1, c),  T (3, w), T (3, h), T (17, y), T (8, x), T (1, x), T (4, y)];68.12078404426575
55;Yolo9000_0;0.2853909;0.00030358275642729607;1;axe_yy_0,axe_xx_0,axe_xx_1,axe_yy_1;295;[V f, U (2, f), U (8, y), T (3, c), Hoist_vars [c], T (1, x), T (1, c),  T (3, w), T (3, h), T (17, y), T (272, x), T (2, x), T (4, y)];69.05567955970764
58;Yolo9000_0;0.2870078;0.0007852873104794353;1;axe_yy_0,axe_xx_0,axe_xx_1,axe_yy_1;97;[V f, U (2, f), U (8, y), T (3, c), Hoist_vars [c], T (1, x), T (1, c),  T (3, w), T (3, h), T (17, y), T (68, x), T (8, x), T (4, y)];72.30913996696472
60;Yolo9000_0;0.4680264;0.00141998367596251;1;axe_yy_0,axe_xx_0,axe_xx_1,axe_yy_1;54;[V f, U (2, f), U (8, y), T (3, c), Hoist_vars [c], T (17, x), T (1, c),  T (3, w), T (3, h), T (4, y), T (1, x), T (32, x), T (17, y)];74.41764450073242
61;Yolo9000_0;0.3391404;0.00020136494233109146;1;axe_yy_0,axe_xx_0;274;[V f, U (2, f), ULambda y, T (3, c), Hoist_vars [c], T (1, x), T (1, c),  T (3, w), T (3, h),  Lambda_apply y [((Iter 13), (Arg 14)), ((Iter 6), (Arg 15))], T (2, x),  T (272, x), T (2, y)];75.512042760849
62;Yolo9000_0;0.2912686;0.0004699330165034108;1;axe_yy_0,axe_xx_0,axe_xx_1,axe_yy_1;158;[V f, U (2, f), U (8, y), T (3, c), Hoist_vars [c], T (4, x), T (1, c),  T (3, w), T (3, h), T (17, y), T (136, x), T (1, x), T (4, y)];76.47234678268433
67;Yolo9000_0;0.2906599;0.00020876419712202374;1;axe_yy_0,axe_xx_0,axe_xx_1,axe_yy_1;158;[V f, U (2, f), U (8, y), T (3, c), Hoist_vars [c], T (4, x), T (1, c),  T (3, w), T (3, h), T (17, y), T (1, x), T (136, x), T (4, y)];80.83457326889038
77;Yolo9000_0;0.38349279999999997;0.0009593022255785812;1;axe_yy_0,axe_xx_0,axe_xx_1,axe_yy_1;86;[V f, U (2, f), U (8, y), T (3, c), Hoist_vars [c], T (34, x), T (1, c),  T (3, w), T (3, h), T (68, y), T (1, x), T (16, x), T (1, y)];89.85170483589172
80;Yolo9000_0;0.3437965;0.00097928159892853;1;axe_yy_0,axe_xx_0;546;[V f, U (2, f), ULambda y, T (3, c), Hoist_vars [c], T (1, x), T (1, c),  T (3, w), T (3, h),  Lambda_apply y [((Iter 13), (Arg 14)), ((Iter 6), (Arg 15))], T (1, x),  T (544, x), T (2, y)];93.1826593875885
82;Yolo9000_0;0.28902550000000005;0.0006448959993673474;1;axe_yy_0,axe_xx_0,axe_xx_1,axe_yy_1;294;[V f, U (2, f), U (8, y), T (3, c), Hoist_vars [c], T (2, x), T (1, c),  T (3, w), T (3, h), T (17, y), T (272, x), T (1, x), T (4, y)];95.27914714813232
83;Yolo9000_0;0.2776689;0.0002422174436327821;1;axe_yy_0,axe_xx_0,axe_xx_1,axe_yy_1;310;[V f, U (2, f), U (8, y), T (3, c), Hoist_vars [c], T (1, x), T (1, c),  T (3, w), T (3, h), T (34, y), T (272, x), T (2, x), T (2, y)];96.20648741722107
84;Yolo9000_0;0.2777287;0.00014237278532079384;1;axe_yy_0,axe_xx_0,axe_xx_1,axe_yy_1;176;[V f, U (2, f), U (8, y), T (3, c), Hoist_vars [c], T (1, x), T (1, c),  T (3, w), T (3, h), T (34, y), T (136, x), T (4, x), T (2, y)];97.14057397842407
86;Yolo9000_0;2.5444151999999995;0.012121322954199303;1;axe_yy_0,axe_xx_0;4;[V f, U (2, f), ULambda y, T (3, c), Hoist_vars [c], T (2, x), T (1, c),  T (3, w), T (3, h),  Lambda_apply y [((Iter 13), (Arg 14)), ((Iter 6), (Arg 15))], T (136, x),  T (2, x), T (2, y)];99.48031115531921
90;Yolo9000_0;0.3270476;0.0010255475805636682;1;axe_yy_0,axe_xx_0,axe_xx_1,axe_yy_1;59;[V f, U (2, f), U (8, y), T (3, c), Hoist_vars [c], T (4, x), T (1, c),  T (3, w), T (3, h), T (4, y), T (4, x), T (34, x), T (17, y)];102.74892377853394
92;Yolo9000_0;0.4719552;0.0022074876579496468;1;axe_yy_0,axe_xx_0,axe_xx_1,axe_yy_1;56;[V f, U (2, f), U (8, y), T (3, c), Hoist_vars [c], T (16, x), T (1, c),  T (3, w), T (3, h), T (4, y), T (1, x), T (34, x), T (17, y)];104.8351035118103
95;Yolo9000_0;0.2884187;0.0005028258247146752;1;axe_yy_0,axe_xx_0,axe_xx_1,axe_yy_1;63;[V f, U (2, f), U (8, y), T (3, c), Hoist_vars [c], T (2, x), T (1, c),  T (3, w), T (3, h), T (17, y), T (34, x), T (8, x), T (4, y)];106.95519924163818
96;Yolo9000_0;0.421542;0.0019553611942554373;1;axe_yy_0,axe_xx_0,axe_xx_1,axe_yy_1;42;[V f, U (2, f), U (8, y), T (3, c), Hoist_vars [c], T (68, x), T (1, c),  T (3, w), T (3, h), T (34, y), T (4, x), T (2, x), T (2, y)];107.89314556121826
102;Yolo9000_0;0.3282446;0.0007088043735756676;1;axe_yy_0,axe_xx_0,axe_xx_1,axe_yy_1;71;[V f, U (2, f), U (8, y), T (3, c), Hoist_vars [c], T (1, x), T (1, c),  T (3, w), T (3, h), T (4, y), T (16, x), T (34, x), T (17, y)];113.39660406112671
104;Yolo9000_0;0.3992888;0.0007656914260980035;1;axe_yy_0,axe_xx_0,axe_xx_1,axe_yy_1;87;[V f, U (2, f), U (8, y), T (3, c), Hoist_vars [c], T (32, x), T (1, c),  T (3, w), T (3, h), T (68, y), T (17, x), T (1, x), T (1, y)];115.46797394752502
107;Yolo9000_0;0.32211270000000003;0.00036980671978751304;1;axe_yy_0,axe_xx_0,axe_xx_1,axe_yy_1;294;[V f, U (2, f), U (8, y), T (3, c), Hoist_vars [c], T (2, x), T (1, c),  T (3, w), T (3, h), T (4, y), T (1, x), T (272, x), T (17, y)];118.67361640930176
108;Yolo9000_0;0.3514285999999999;0.0008895430512347262;1;axe_yy_0,axe_xx_0,axe_xx_1,axe_yy_1;90;[V f, U (2, f), U (8, y), T (3, c), Hoist_vars [c], T (8, x), T (1, c),  T (3, w), T (3, h), T (4, y), T (68, x), T (1, x), T (17, y)];119.62094044685364
113;Yolo9000_0;0.3224938;0.0006082984136096388;1;axe_yy_0,axe_xx_0,axe_xx_1,axe_yy_1;63;[V f, U (2, f), U (8, y), T (3, c), Hoist_vars [c], T (2, x), T (1, c),  T (3, w), T (3, h), T (4, y), T (8, x), T (34, x), T (17, y)];124.04577612876892
115;Yolo9000_0;0.32969770000000004;0.0006382078109832234;1;axe_yy_0,axe_xx_0,axe_xx_1,axe_yy_1;161;[V f, U (2, f), U (8, y), T (3, c), Hoist_vars [c], T (1, x), T (1, c),  T (3, w), T (3, h), T (4, y), T (4, x), T (136, x), T (17, y)];124.98651003837585
122;Yolo9000_0;0.3957601;0.0008485350257944603;1;axe_yy_0,axe_xx_0,axe_xx_1,axe_yy_1;87;[V f, U (2, f), U (8, y), T (3, c), Hoist_vars [c], T (32, x), T (1, c),  T (3, w), T (3, h), T (68, y), T (1, x), T (17, x), T (1, y)];129.43863439559937
125;Yolo9000_0;0.3229878;0.0009126422957544743;1;axe_yy_0,axe_xx_0,axe_xx_1,axe_yy_1;294;[V f, U (2, f), U (8, y), T (3, c), Hoist_vars [c], T (2, x), T (1, c),  T (3, w), T (3, h), T (4, y), T (272, x), T (1, x), T (17, y)];131.52589178085327
127;Yolo9000_0;0.28619479999999997;0.0005098675906546623;1;axe_yy_0,axe_xx_0,axe_xx_1,axe_yy_1;159;[V f, U (2, f), U (8, y), T (3, c), Hoist_vars [c], T (2, x), T (1, c),  T (3, w), T (3, h), T (17, y), T (2, x), T (136, x), T (4, y)];133.60812425613403
130;Yolo9000_0;2.7141073;0.00742702742757823;1;axe_yy_0,axe_xx_0;4;[V f, U (2, f), ULambda y, T (3, c), Hoist_vars [c], T (1, x), T (1, c),  T (3, w), T (3, h),  Lambda_apply y [((Iter 13), (Arg 14)), ((Iter 6), (Arg 15))], T (272, x),  T (2, x), T (2, y)];137.06836533546448
131;Yolo9000_0;0.28829969999999994;0.0007355659113906667;1;axe_yy_0,axe_xx_0,axe_xx_1,axe_yy_1;93;[V f, U (2, f), U (8, y), T (3, c), Hoist_vars [c], T (2, x), T (1, c),  T (3, w), T (3, h), T (17, y), T (68, x), T (4, x), T (4, y)];138.0231897830963
136;Yolo9000_0;0.32795559999999996;0.000485305305967282;1;axe_yy_0,axe_xx_0,axe_xx_1,axe_yy_1;566;[V f, U (2, f), U (8, y), T (3, c), Hoist_vars [c], T (1, x), T (1, c),  T (3, w), T (3, h), T (4, y), T (1, x), T (544, x), T (17, y)];141.28823161125183
137;Yolo9000_0;5.5210464;0.008860510190728399;1;axe_yy_0,axe_xx_0;3;[V f, U (2, f), ULambda y, T (3, c), Hoist_vars [c], T (2, x), T (1, c),  T (3, w), T (3, h),  Lambda_apply y [((Iter 13), (Arg 14)), ((Iter 6), (Arg 15))], T (272, x),  T (1, x), T (2, y)];142.6048867702484
140;Yolo9000_0;0.3278211;0.0005157502205525407;1;axe_yy_0,axe_xx_0,axe_xx_1,axe_yy_1;70;[V f, U (2, f), U (8, y), T (3, c), Hoist_vars [c], T (1, x), T (1, c),  T (3, w), T (3, h), T (4, y), T (17, x), T (32, x), T (17, y)];145.86096143722534
143;Yolo9000_0;0.46634020000000004;0.0012985987679033078;1;axe_yy_0,axe_xx_0,axe_xx_1,axe_yy_1;54;[V f, U (2, f), U (8, y), T (3, c), Hoist_vars [c], T (17, x), T (1, c),  T (3, w), T (3, h), T (4, y), T (32, x), T (1, x), T (17, y)];147.96362352371216
146;Yolo9000_0;0.3115879;0.0003991845312634237;1;axe_yy_0,axe_xx_0;274;[V f, U (2, f), ULambda y, T (3, c), Hoist_vars [c], T (2, x), T (1, c),  T (3, w), T (3, h),  Lambda_apply y [((Iter 13), (Arg 14)), ((Iter 6), (Arg 15))], T (1, x),  T (272, x), T (2, y)];151.32458019256592
148;Yolo9000_0;0.2779856;0.0003896868486361811;1;axe_yy_0,axe_xx_0,axe_xx_1,axe_yy_1;581;[V f, U (2, f), U (8, y), T (3, c), Hoist_vars [c], T (1, x), T (1, c),  T (3, w), T (3, h), T (34, y), T (544, x), T (1, x), T (2, y)];153.40257215499878
150;Yolo9000_0;0.32308349999999997;0.0009474853297017228;1;axe_yy_0,axe_xx_0,axe_xx_1,axe_yy_1;93;[V f, U (2, f), U (8, y), T (3, c), Hoist_vars [c], T (2, x), T (1, c),  T (3, w), T (3, h), T (4, y), T (4, x), T (68, x), T (17, y)];155.47631692886353
151;Yolo9000_0;0.3608793;0.000523139570286931;1;axe_yy_0,axe_xx_0,axe_xx_1,axe_yy_1;27;[V f, U (2, f), U (8, y), T (3, c), Hoist_vars [c], T (68, x), T (1, c),  T (3, w), T (3, h), T (17, y), T (2, x), T (4, x), T (4, y)];156.412273645401
159;Yolo9000_0;0.3568946;0.000883755192346851;1;axe_yy_0,axe_xx_0,axe_xx_1,axe_yy_1;57;[V f, U (2, f), U (8, y), T (3, c), Hoist_vars [c], T (8, x), T (1, c),  T (3, w), T (3, h), T (4, y), T (2, x), T (34, x), T (17, y)];163.12859725952148
161;Yolo9000_0;0.32746000000000003;0.0004463299228149553;1;axe_yy_0,axe_xx_0,axe_xx_1,axe_yy_1;91;[V f, U (2, f), U (8, y), T (3, c), Hoist_vars [c], T (4, x), T (1, c),  T (3, w), T (3, h), T (4, y), T (2, x), T (68, x), T (17, y)];164.08683347702026
162;Yolo9000_0;5.9456729;0.03123471544755927;1;axe_yy_0,axe_xx_0;3;[V f, U (2, f), ULambda y, T (3, c), Hoist_vars [c], T (1, x), T (1, c),  T (3, w), T (3, h),  Lambda_apply y [((Iter 13), (Arg 14)), ((Iter 6), (Arg 15))], T (544, x),  T (1, x), T (2, y)];165.41531491279602
164;Yolo9000_0;0.2909472;0.0004295769546891467;1;axe_yy_0,axe_xx_0,axe_xx_1,axe_yy_1;59;[V f, U (2, f), U (8, y), T (3, c), Hoist_vars [c], T (4, x), T (1, c),  T (3, w), T (3, h), T (17, y), T (34, x), T (4, x), T (4, y)];167.51105308532715
168;Yolo9000_0;0.3278449;0.0009289668939203348;1;axe_yy_0,axe_xx_0,axe_xx_1,axe_yy_1;97;[V f, U (2, f), U (8, y), T (3, c), Hoist_vars [c], T (1, x), T (1, c),  T (3, w), T (3, h), T (4, y), T (8, x), T (68, x), T (17, y)];171.88309979438782
173;Yolo9000_0;0.32874220000000004;0.0005174946956250022;1;axe_yy_0,axe_xx_0,axe_xx_1,axe_yy_1;158;[V f, U (2, f), U (8, y), T (3, c), Hoist_vars [c], T (4, x), T (1, c),  T (3, w), T (3, h), T (4, y), T (136, x), T (1, x), T (17, y)];177.42834305763245
180;Yolo9000_0;0.2810372;0.0003226099192523327;1;axe_yy_0,axe_xx_0,axe_xx_1,axe_yy_1;112;[V f, U (2, f), U (8, y), T (3, c), Hoist_vars [c], T (1, x), T (1, c),  T (3, w), T (3, h), T (34, y), T (68, x), T (8, x), T (2, y)];185.2251923084259
184;Yolo9000_0;0.4826345999999999;0.004519812367786956;1;axe_yy_0,axe_xx_0,axe_xx_1,axe_yy_1;56;[V f, U (2, f), U (8, y), T (3, c), Hoist_vars [c], T (16, x), T (1, c),  T (3, w), T (3, h), T (4, y), T (34, x), T (1, x), T (17, y)];188.45519256591797
187;Yolo9000_0;0.28601869999999996;0.00020694494436928406;1;axe_yy_0,axe_xx_0,axe_xx_1,axe_yy_1;566;[V f, U (2, f), U (8, y), T (3, c), Hoist_vars [c], T (1, x), T (1, c),  T (3, w), T (3, h), T (17, y), T (1, x), T (544, x), T (4, y)];191.69075775146484
189;Yolo9000_0;0.28765830000000003;0.00025904017062996506;1;axe_yy_0,axe_xx_0,axe_xx_1,axe_yy_1;161;[V f, U (2, f), U (8, y), T (3, c), Hoist_vars [c], T (1, x), T (1, c),  T (3, w), T (3, h), T (17, y), T (136, x), T (4, x), T (4, y)];193.7697172164917
190;Yolo9000_0;0.2861514;0.00031151378781684846;1;axe_yy_0,axe_xx_0,axe_xx_1,axe_yy_1;161;[V f, U (2, f), U (8, y), T (3, c), Hoist_vars [c], T (1, x), T (1, c),  T (3, w), T (3, h), T (17, y), T (4, x), T (136, x), T (4, y)];194.69876909255981
193;Yolo9000_0;0.38683300000000004;0.0010228950092751445;1;axe_yy_0,axe_xx_0,axe_xx_1,axe_yy_1;86;[V f, U (2, f), U (8, y), T (3, c), Hoist_vars [c], T (34, x), T (1, c),  T (3, w), T (3, h), T (68, y), T (16, x), T (1, x), T (1, y)];197.91858649253845
198;Yolo9000_0;0.29127190000000003;0.0003017477257577973;1;axe_yy_0,axe_xx_0,axe_xx_1,axe_yy_1;91;[V f, U (2, f), U (8, y), T (3, c), Hoist_vars [c], T (4, x), T (1, c),  T (3, w), T (3, h), T (17, y), T (68, x), T (2, x), T (4, y)];203.46777200698853
199;Yolo9000_0;0.42169880000000004;0.001619127406969565;1;axe_yy_0,axe_xx_0,axe_xx_1,axe_yy_1;45;[V f, U (2, f), U (8, y), T (3, c), Hoist_vars [c], T (68, x), T (1, c),  T (3, w), T (3, h), T (34, y), T (8, x), T (1, x), T (2, y)];204.40234804153442
