IdRun;NameConv;Time(ms);std;NbMicroKernel;AxeFuse;SizeAxeFuse;Schema;Time_search(7.29116678237915)
0;MobilNet_1;0.11032660000000001;0.00030195734798146655;1;axe_yy_0,axe_out_channels_0,axe_yy_1,axe_xx_0;22;[V f, U (1, f), U (14, y), U (3, h), T (32, c), Hoist_vars [c], T (8, x),  T (1, c), T (3, w), T (14, x), T (4, y), T (2, f), T (2, y)];8.173433065414429
1;MobilNet_1;0.11277580000000001;0.0033285167807899072;1;axe_yy_0,axe_out_channels_0,axe_yy_1,axe_xx_0;36;[V f, U (1, f), U (14, y), U (3, h), T (32, c), Hoist_vars [c], T (4, x),  T (1, c), T (3, w), T (28, x), T (2, y), T (2, f), T (4, y)];9.031574249267578
2;MobilNet_1;0.38769339999999997;0.003502694968163795;2;axe_yy1_1,axe_xx1_0;113;[V f, U (2, f), ULambda y, T (32, c), Hoist_vars [c], T (3, w), T (3, h),  T (112, x), T (1, y), T (1, c),  Lambda_apply y [((Iter 11), (Arg 9)), ((Iter 1), (Arg 13))]];10.059684991836548
3;MobilNet_1;0.33507460000000006;0.0018881034505556053;2;axe_yy1_1,axe_xx1_0;113;[V f, U (2, f), ULambda y, T (32, c), Hoist_vars [c], T (3, w), T (3, h),  T (112, x), T (1, y), T (1, c),  Lambda_apply y [((Iter 9), (Arg 11)), ((Iter 1), (Arg 13))]];11.071860551834106
4;MobilNet_1;0.23597810000000002;0.0015064780416587625;1;axe_yy_0,axe_out_channels_0,axe_yy_1,axe_xx_0;22;[V f, U (1, f), U (14, y), U (3, h), T (8, c), Hoist_vars [c], T (8, x),  T (4, c), T (3, w), T (14, x), T (4, y), T (2, f), T (2, y)];11.936136245727539
5;MobilNet_1;0.105586;0.004838385536519389;1;axe_yy_0,axe_out_channels_0,axe_yy_1,axe_xx_0;67;[V f, U (1, f), U (14, y), U (3, h), T (8, c), Hoist_vars [c], T (2, x),  T (4, c), T (3, w), T (56, x), T (8, y), T (2, f), T (1, y)];12.80307126045227
6;MobilNet_1;0.12094180000000002;0.00020345947999540675;1;axe_yy_0,axe_out_channels_0,axe_yy_1,axe_xx_0;18;[V f, U (1, f), U (14, y), U (3, h), T (32, c), Hoist_vars [c], T (16, x),  T (1, c), T (3, w), T (7, x), T (8, y), T (2, f), T (1, y)];13.650640964508057
7;MobilNet_1;0.15218489999999998;0.0005651620033229419;1;axe_yy_0,axe_out_channels_0,axe_yy_1,axe_xx_0;24;[V f, U (1, f), U (14, y), U (3, h), T (16, c), Hoist_vars [c], T (7, x),  T (2, c), T (3, w), T (16, x), T (4, y), T (2, f), T (2, y)];14.500216007232666
8;MobilNet_1;0.24392429999999998;0.000676316797070722;2;axe_yy1_1,axe_xx1_0;114;[V f, U (2, f), ULambda y, U (3, h), T (32, c), Hoist_vars [c], T (3, w),  T (112, x), T (2, y), T (1, c),  Lambda_apply y [((Iter 2), (Arg 10)), ((Iter 3), (Arg 12))]];15.545702457427979
9;MobilNet_1;2.8534367;0.0010740083845109715;1;axe_yy_0;1;[V f, U (2, f), ULambda y, T (32, c), Hoist_vars [c], T (3, w), T (3, h),  T (112, x), Lambda_apply y [((Iter 5), (Arg 12)), ((Iter 4), (Arg 13))],  T (1, c), T (1, y)];16.59584093093872
10;MobilNet_1;0.11286700000000001;0.0006129004813181333;1;axe_yy_1,axe_xx_0;126;[V f, U (2, f), U (8, y), T (32, c), Hoist_vars [c], T (3, w), T (3, h),  T (112, x), T (14, y), T (1, c), T (1, y)];17.454732418060303
11;MobilNet_1;2.1210833;0.002067891247140518;1;axe_yy_0;1;[V f, U (1, f), ULambda y, U (3, h), T (32, c), Hoist_vars [c], T (8, x),  T (1, c), T (3, w), T (14, x),  Lambda_apply y [((Iter 7), (Arg 12)), ((Iter 2), (Arg 14))], T (2, f),  T (1, y)];18.51675009727478
12;MobilNet_1;0.1510278;0.0005308575703519722;1;axe_yy_0,axe_out_channels_0,axe_yy_1,axe_xx_0;16;[V f, U (1, f), U (14, y), U (3, h), T (16, c), Hoist_vars [c], T (14, x),  T (2, c), T (3, w), T (8, x), T (4, y), T (2, f), T (2, y)];19.390971899032593
13;MobilNet_1;0.2289967;0.003032794224803263;1;axe_yy_0,axe_out_channels_0,axe_yy_1,axe_xx_0;27;[V f, U (1, f), U (14, y), U (3, h), T (8, c), Hoist_vars [c], T (7, x),  T (4, c), T (3, w), T (16, x), T (1, y), T (2, f), T (8, y)];20.23875117301941
14;MobilNet_1;3.0281331;0.0010064016544103168;1;axe_yy_0;1;[V f, U (2, f), ULambda y, T (32, c), Hoist_vars [c], T (3, w), T (3, h),  T (112, x), Lambda_apply y [((Iter 7), (Arg 8)), ((Iter 4), (Arg 14))],  T (1, c), T (1, y)];21.259441137313843
15;MobilNet_1;2.5141151;0.0021851897606386854;1;axe_yy_0;2;[V f, U (2, f), ULambda y, T (32, c), Hoist_vars [c], T (3, w), T (3, h),  T (112, x), Lambda_apply y [((Iter 1), (Arg 11)), ((Iter 3), (Arg 15))],  T (1, c), T (2, y)];22.282352924346924
16;MobilNet_1;2.0844829000000002;0.0013875488063488095;1;axe_yy_0;1;[V f, U (1, f), ULambda y, U (3, h), T (32, c), Hoist_vars [c], T (16, x),  T (1, c), T (3, w), T (7, x),  Lambda_apply y [((Iter 7), (Arg 12)), ((Iter 2), (Arg 14))], T (2, f),  T (1, y)];23.387374877929688
17;MobilNet_1;0.08765170000000001;0.0002870038501483915;1;axe_yy_0,axe_out_channels_0,axe_yy_1,axe_xx_0;123;[V f, U (1, f), U (14, y), U (3, h), T (32, c), Hoist_vars [c], T (1, x),  T (1, c), T (3, w), T (112, x), T (1, y), T (2, f), T (8, y)];24.248693227767944
20;MobilNet_1;2.2107305999999998;0.0018384278718513224;1;axe_yy_0;1;[V f, U (1, f), ULambda y, U (3, h), T (16, c), Hoist_vars [c], T (28, x),  T (2, c), T (3, w), T (4, x),  Lambda_apply y [((Iter 5), (Arg 12)), ((Iter 4), (Arg 13))], T (2, f),  T (1, y)];27.19675898551941
21;MobilNet_1;2.1861758;0.0032592571178107744;1;axe_yy_0;1;[V f, U (1, f), ULambda y, U (3, h), T (16, c), Hoist_vars [c], T (14, x),  T (2, c), T (3, w), T (8, x),  Lambda_apply y [((Iter 7), (Arg 12)), ((Iter 2), (Arg 14))], T (2, f),  T (1, y)];28.262041807174683
22;MobilNet_1;0.1993145;0.0011299506405148894;2;axe_yy1_1,axe_xx1_0;116;[V f, U (2, f), ULambda y, T (32, c), Hoist_vars [c], T (3, w), T (3, h),  T (112, x), T (4, y), T (1, c),  Lambda_apply y [((Iter 1), (Arg 8)), ((Iter 2), (Arg 10))]];29.248218059539795
23;MobilNet_1;0.2450078;0.0028799505481865418;1;axe_yy_0,axe_out_channels_0,axe_yy_1,axe_xx_0;15;[V f, U (1, f), U (14, y), U (3, h), T (8, c), Hoist_vars [c], T (28, x),  T (4, c), T (3, w), T (4, x), T (1, y), T (2, f), T (8, y)];30.10155725479126
24;MobilNet_1;0.1082905;0.00035524505626398194;1;axe_yy_0,axe_out_channels_0,axe_yy_1,axe_xx_0;19;[V f, U (1, f), U (14, y), U (3, h), T (32, c), Hoist_vars [c], T (14, x),  T (1, c), T (3, w), T (8, x), T (1, y), T (2, f), T (8, y)];30.935391187667847
25;MobilNet_1;0.11111039999999998;0.0005990633021643047;1;axe_yy_0,axe_out_channels_0,axe_yy_1,axe_xx_0;36;[V f, U (1, f), U (14, y), U (3, h), T (32, c), Hoist_vars [c], T (4, x),  T (1, c), T (3, w), T (28, x), T (4, y), T (2, f), T (2, y)];31.769790410995483
26;MobilNet_1;0.3519630000000001;0.0016753011072640019;2;axe_yy1_1,axe_xx1_0;113;[V f, U (2, f), ULambda y, T (32, c), Hoist_vars [c], T (3, w), T (3, h),  T (112, x), T (1, y), T (1, c),  Lambda_apply y [((Iter 9), (Arg 10)), ((Iter 2), (Arg 11))]];32.76148796081543
27;MobilNet_1;1.1148150000000001;0.004189815676136612;1;axe_yy_0;2;[V f, U (2, f), ULambda y, U (3, h), T (32, c), Hoist_vars [c], T (3, w),  T (112, x), Lambda_apply y [((Iter 5), (Arg 9)), ((Iter 1), (Arg 11))],  T (1, c), T (2, y)];33.7565815448761
28;MobilNet_1;0.24456630000000001;0.0019409227728067896;1;axe_yy_0,axe_out_channels_0,axe_yy_1,axe_xx_0;19;[V f, U (1, f), U (14, y), U (3, h), T (8, c), Hoist_vars [c], T (14, x),  T (4, c), T (3, w), T (8, x), T (8, y), T (2, f), T (1, y)];34.6042160987854
29;MobilNet_1;0.08552660000000001;0.0002415724322020209;1;axe_yy_0,axe_out_channels_0,axe_yy_1,axe_xx_0;123;[V f, U (1, f), U (14, y), U (3, h), T (32, c), Hoist_vars [c], T (1, x),  T (1, c), T (3, w), T (112, x), T (8, y), T (2, f), T (1, y)];35.435261964797974
30;MobilNet_1;0.14775739999999998;0.0004800256659804728;1;axe_yy_0,axe_out_channels_0,axe_yy_1,axe_xx_0;39;[V f, U (1, f), U (14, y), U (3, h), T (16, c), Hoist_vars [c], T (4, x),  T (2, c), T (3, w), T (28, x), T (1, y), T (2, f), T (8, y)];36.268375635147095
31;MobilNet_1;0.2699312;0.00868971273173056;1;axe_yy_0,axe_out_channels_0,axe_yy_1,axe_xx_0;15;[V f, U (1, f), U (14, y), U (3, h), T (16, c), Hoist_vars [c], T (16, x),  T (2, c), T (3, w), T (7, x), T (4, y), T (2, f), T (2, y)];37.10706329345703
32;MobilNet_1;0.1076686;0.0003818895651886785;1;axe_yy_0,axe_out_channels_0,axe_yy_1,axe_xx_0;27;[V f, U (1, f), U (14, y), U (3, h), T (32, c), Hoist_vars [c], T (7, x),  T (1, c), T (3, w), T (16, x), T (8, y), T (2, f), T (1, y)];37.9399516582489
33;MobilNet_1;0.1448215;0.0026985605514792516;1;axe_yy_0,axe_out_channels_0,axe_yy_1,axe_xx_0;67;[V f, U (1, f), U (14, y), U (3, h), T (8, c), Hoist_vars [c], T (2, x),  T (4, c), T (3, w), T (56, x), T (1, y), T (2, f), T (8, y)];38.77847361564636
34;MobilNet_1;0.1103564;0.00045963924984709746;1;axe_yy_0,axe_out_channels_0,axe_yy_1,axe_xx_0;24;[V f, U (1, f), U (14, y), U (3, h), T (32, c), Hoist_vars [c], T (7, x),  T (1, c), T (3, w), T (16, x), T (2, y), T (2, f), T (4, y)];39.62423491477966
35;MobilNet_1;2.086405;0.001663758335816792;1;axe_yy_0;1;[V f, U (1, f), ULambda y, U (3, h), T (32, c), Hoist_vars [c], T (8, x),  T (1, c), T (3, w), T (14, x),  Lambda_apply y [((Iter 5), (Arg 12)), ((Iter 4), (Arg 13))], T (2, f),  T (1, y)];40.65138626098633
36;MobilNet_1;2.1997489000000003;0.0028965797572309366;1;axe_yy_0;1;[V f, U (1, f), ULambda y, U (3, h), T (16, c), Hoist_vars [c], T (8, x),  T (2, c), T (3, w), T (14, x),  Lambda_apply y [((Iter 5), (Arg 12)), ((Iter 4), (Arg 13))], T (2, f),  T (1, y)];41.70507502555847
37;MobilNet_1;0.1290243;0.002544884871659223;1;axe_yy_0,axe_out_channels_0,axe_yy_1,axe_xx_0;39;[V f, U (1, f), U (14, y), U (3, h), T (16, c), Hoist_vars [c], T (4, x),  T (2, c), T (3, w), T (28, x), T (8, y), T (2, f), T (1, y)];42.5630247592926
38;MobilNet_1;0.15124100000000001;0.0003694652893033363;1;axe_yy_0,axe_out_channels_0,axe_yy_1,axe_xx_0;12;[V f, U (1, f), U (14, y), U (3, h), T (16, c), Hoist_vars [c], T (28, x),  T (2, c), T (3, w), T (4, x), T (4, y), T (2, f), T (2, y)];43.39959120750427
39;MobilNet_1;1.9256608999999998;0.0004738901665997965;1;axe_yy_0;1;[V f, U (2, f), ULambda y, U (3, h), T (32, c), Hoist_vars [c], T (3, w),  T (112, x), Lambda_apply y [((Iter 9), (Arg 10)), ((Iter 2), (Arg 11))],  T (1, c), T (1, y)];44.42832350730896
40;MobilNet_1;0.40833;0.0032959914138237733;2;axe_yy1_1,axe_xx1_0;113;[V f, U (2, f), ULambda y, T (32, c), Hoist_vars [c], T (3, w), T (3, h),  T (112, x), T (1, y), T (1, c),  Lambda_apply y [((Iter 5), (Arg 8)), ((Iter 8), (Arg 9))]];45.49363470077515
41;MobilNet_1;0.2471772;0.0012010595988542843;2;axe_yy1_1,axe_xx1_0;114;[V f, U (2, f), ULambda y, T (32, c), Hoist_vars [c], T (3, w), T (3, h),  T (112, x), T (2, y), T (1, c),  Lambda_apply y [((Iter 1), (Arg 11)), ((Iter 3), (Arg 15))]];46.50075650215149
43;MobilNet_1;0.0975148;0.0014397644807398172;1;axe_yy_0,axe_out_channels_0,axe_yy_1,axe_xx_0;67;[V f, U (1, f), U (14, y), U (3, h), T (32, c), Hoist_vars [c], T (2, x),  T (1, c), T (3, w), T (56, x), T (1, y), T (2, f), T (8, y)];48.283536434173584
44;MobilNet_1;2.173597;0.003762129742579331;1;axe_yy_0;1;[V f, U (1, f), ULambda y, U (3, h), T (16, c), Hoist_vars [c], T (7, x),  T (2, c), T (3, w), T (16, x),  Lambda_apply y [((Iter 5), (Arg 12)), ((Iter 4), (Arg 13))], T (2, f),  T (1, y)];49.31680345535278
45;MobilNet_1;1.8248867999999998;0.005644817743736285;1;axe_yy_0;2;[V f, U (2, f), ULambda y, T (32, c), Hoist_vars [c], T (3, w), T (3, h),  T (112, x), Lambda_apply y [((Iter 3), (Arg 10)), ((Iter 2), (Arg 13))],  T (1, c), T (2, y)];50.32088088989258
46;MobilNet_1;0.10681939999999998;0.00039460060821037827;1;axe_yy_0,axe_out_channels_0,axe_yy_1,axe_xx_0;19;[V f, U (1, f), U (14, y), U (3, h), T (32, c), Hoist_vars [c], T (14, x),  T (1, c), T (3, w), T (8, x), T (8, y), T (2, f), T (1, y)];51.16845345497131
47;MobilNet_1;0.0959814;0.00039560768445519393;1;axe_yy_0,axe_out_channels_0,axe_yy_1,axe_xx_0;120;[V f, U (1, f), U (14, y), U (3, h), T (8, c), Hoist_vars [c], T (1, x),  T (4, c), T (3, w), T (112, x), T (4, y), T (2, f), T (2, y)];52.00857377052307
48;MobilNet_1;0.0880445;0.0003209461792886789;1;axe_yy_0,axe_out_channels_0,axe_yy_1,axe_xx_0;123;[V f, U (1, f), U (14, y), U (3, h), T (16, c), Hoist_vars [c], T (1, x),  T (2, c), T (3, w), T (112, x), T (8, y), T (2, f), T (1, y)];52.85021424293518
49;MobilNet_1;2.4704236;0.00117254332116133;1;axe_yy_0;1;[V f, U (2, f), ULambda y, T (32, c), Hoist_vars [c], T (3, w), T (3, h),  T (112, x), Lambda_apply y [((Iter 9), (Arg 10)), ((Iter 2), (Arg 11))],  T (1, c), T (1, y)];53.82577180862427
50;MobilNet_1;0.10888500000000001;0.0004980851332854657;1;axe_yy_0,axe_out_channels_0,axe_yy_1,axe_xx_0;27;[V f, U (1, f), U (14, y), U (3, h), T (32, c), Hoist_vars [c], T (7, x),  T (1, c), T (3, w), T (16, x), T (1, y), T (2, f), T (8, y)];54.65991568565369
51;MobilNet_1;0.0963661;0.0015347690673192498;1;axe_yy_0,axe_out_channels_0,axe_yy_1,axe_xx_0;64;[V f, U (1, f), U (14, y), U (3, h), T (32, c), Hoist_vars [c], T (2, x),  T (1, c), T (3, w), T (56, x), T (2, y), T (2, f), T (4, y)];55.49122619628906
52;MobilNet_1;0.44454850000000007;0.012226255119618605;1;axe_yy_0,axe_out_channels_0,axe_yy_1,axe_xx_0;15;[V f, U (1, f), U (14, y), U (3, h), T (8, c), Hoist_vars [c], T (16, x),  T (4, c), T (3, w), T (7, x), T (4, y), T (2, f), T (2, y)];56.356955766677856
53;MobilNet_1;0.1857585;0.00176680588916836;1;axe_yy_1,axe_xx_0;114;[V f, U (2, f), U (14, y), T (32, c), Hoist_vars [c], T (3, w), T (3, h),  T (112, x), T (2, y), T (1, c), T (4, y)];57.19884490966797
54;MobilNet_1;2.3990011;0.001939101000463913;1;axe_yy_0;1;[V f, U (2, f), ULambda y, T (32, c), Hoist_vars [c], T (3, w), T (3, h),  T (112, x), Lambda_apply y [((Iter 5), (Arg 8)), ((Iter 8), (Arg 9))],  T (1, c), T (1, y)];58.16578245162964
55;MobilNet_1;0.22353720000000005;0.002228555218072911;1;axe_yy_0,axe_out_channels_0,axe_yy_1,axe_xx_0;27;[V f, U (1, f), U (14, y), U (3, h), T (8, c), Hoist_vars [c], T (7, x),  T (4, c), T (3, w), T (16, x), T (8, y), T (2, f), T (1, y)];59.0149827003479
56;MobilNet_1;0.1498025;0.0008442279609205147;1;axe_yy_0,axe_out_channels_0,axe_yy_1,axe_xx_0;15;[V f, U (1, f), U (14, y), U (3, h), T (16, c), Hoist_vars [c], T (28, x),  T (2, c), T (3, w), T (4, x), T (1, y), T (2, f), T (8, y)];59.862040519714355
57;MobilNet_1;0.09356339999999999;0.0002142368782446193;1;axe_yy_0,axe_out_channels_0,axe_yy_1,axe_xx_0;123;[V f, U (1, f), U (14, y), U (3, h), T (8, c), Hoist_vars [c], T (1, x),  T (4, c), T (3, w), T (112, x), T (8, y), T (2, f), T (1, y)];60.69896697998047
58;MobilNet_1;0.1801387;0.0006870895210960486;2;axe_yy1_1,axe_xx1_0;116;[V f, U (2, f), ULambda y, U (3, h), T (32, c), Hoist_vars [c], T (3, w),  T (112, x), T (4, y), T (1, c),  Lambda_apply y [((Iter 2), (Arg 9)), ((Iter 1), (Arg 10))]];61.717288970947266
59;MobilNet_1;0.1032348;0.002204151709842134;1;axe_yy_0,axe_out_channels_0,axe_yy_1,axe_xx_0;64;[V f, U (1, f), U (14, y), U (3, h), T (16, c), Hoist_vars [c], T (2, x),  T (2, c), T (3, w), T (56, x), T (4, y), T (2, f), T (2, y)];62.55043339729309
60;MobilNet_1;0.0901264;0.0006120880982342349;1;axe_yy_0,axe_out_channels_0,axe_yy_1,axe_xx_0;123;[V f, U (1, f), U (14, y), U (3, h), T (16, c), Hoist_vars [c], T (1, x),  T (2, c), T (3, w), T (112, x), T (1, y), T (2, f), T (8, y)];63.38571238517761
61;MobilNet_1;2.0933943000000004;0.0014445451221750875;1;axe_yy_0;1;[V f, U (1, f), ULambda y, U (3, h), T (32, c), Hoist_vars [c], T (1, x),  T (1, c), T (3, w), T (112, x),  Lambda_apply y [((Iter 5), (Arg 12)), ((Iter 4), (Arg 13))], T (2, f),  T (1, y)];64.40339827537537
62;MobilNet_1;0.1120068;0.0003943289996944173;1;axe_yy_1,axe_xx_0;120;[V f, U (2, f), U (14, y), T (32, c), Hoist_vars [c], T (3, w), T (3, h),  T (112, x), T (8, y), T (1, c), T (1, y)];65.23898386955261
64;MobilNet_1;2.0994336000000002;0.0014248976945731655;1;axe_yy_0;1;[V f, U (1, f), ULambda y, U (3, h), T (16, c), Hoist_vars [c], T (2, x),  T (2, c), T (3, w), T (56, x),  Lambda_apply y [((Iter 5), (Arg 12)), ((Iter 4), (Arg 13))], T (2, f),  T (1, y)];67.20065689086914
65;MobilNet_1;0.15068879999999998;0.0009229346455735594;1;axe_yy_0,axe_out_channels_0,axe_yy_1,axe_xx_0;12;[V f, U (1, f), U (14, y), U (3, h), T (16, c), Hoist_vars [c], T (28, x),  T (2, c), T (3, w), T (4, x), T (2, y), T (2, f), T (4, y)];68.05746579170227
66;MobilNet_1;0.2581694;0.0018119599995584938;1;axe_yy_1,axe_xx_0;114;[V f, U (2, f), U (8, y), T (32, c), Hoist_vars [c], T (3, w), T (3, h),  T (112, x), T (2, y), T (1, c), T (7, y)];68.89217233657837
67;MobilNet_1;0.10744689999999998;0.004177469101022769;1;axe_yy_0,axe_out_channels_0,axe_yy_1,axe_xx_0;64;[V f, U (1, f), U (14, y), U (3, h), T (16, c), Hoist_vars [c], T (2, x),  T (2, c), T (3, w), T (56, x), T (2, y), T (2, f), T (4, y)];69.72488379478455
69;MobilNet_1;0.1922079;0.0022340225356965427;1;axe_yy_0,axe_out_channels_0,axe_yy_1,axe_xx_0;36;[V f, U (1, f), U (14, y), U (3, h), T (8, c), Hoist_vars [c], T (4, x),  T (4, c), T (3, w), T (28, x), T (4, y), T (2, f), T (2, y)];71.51817774772644
70;MobilNet_1;2.1369397;0.002584537523426752;1;axe_yy_0;1;[V f, U (1, f), ULambda y, U (3, h), T (16, c), Hoist_vars [c], T (8, x),  T (2, c), T (3, w), T (14, x),  Lambda_apply y [((Iter 7), (Arg 12)), ((Iter 2), (Arg 14))], T (2, f),  T (1, y)];72.55109214782715
71;MobilNet_1;1.4409229000000003;0.0053250455106036735;1;axe_yy_0;2;[V f, U (2, f), ULambda y, U (3, h), T (32, c), Hoist_vars [c], T (3, w),  T (112, x), Lambda_apply y [((Iter 2), (Arg 10)), ((Iter 3), (Arg 12))],  T (1, c), T (2, y)];73.64585733413696
72;MobilNet_1;0.3377807;0.0023418707073619505;2;axe_yy1_1,axe_xx1_0;113;[V f, U (2, f), ULambda y, T (32, c), Hoist_vars [c], T (3, w), T (3, h),  T (112, x), T (1, y), T (1, c),  Lambda_apply y [((Iter 7), (Arg 10)), ((Iter 3), (Arg 14))]];74.70534014701843
73;MobilNet_1;0.2327014;0.0017106621641925681;1;axe_yy_0,axe_out_channels_0,axe_yy_1,axe_xx_0;22;[V f, U (1, f), U (14, y), U (3, h), T (8, c), Hoist_vars [c], T (8, x),  T (4, c), T (3, w), T (14, x), T (2, y), T (2, f), T (4, y)];75.57022643089294
74;MobilNet_1;2.5103440000000004;0.001713645470918539;1;axe_yy_0;1;[V f, U (2, f), ULambda y, T (32, c), Hoist_vars [c], T (3, w), T (3, h),  T (112, x), Lambda_apply y [((Iter 9), (Arg 11)), ((Iter 1), (Arg 13))],  T (1, c), T (1, y)];76.57249760627747
75;MobilNet_1;0.7139911999999999;0.0007519415934765084;1;axe_yy_0;4;[V f, U (2, f), ULambda y, T (32, c), Hoist_vars [c], T (3, w), T (3, h),  T (112, x), Lambda_apply y [((Iter 1), (Arg 8)), ((Iter 2), (Arg 10))],  T (1, c), T (4, y)];77.48852372169495
76;MobilNet_1;0.25229939999999995;0.0008569428452353106;2;axe_yy1_1,axe_xx1_0;114;[V f, U (2, f), ULambda y, T (32, c), Hoist_vars [c], T (3, w), T (3, h),  T (112, x), T (2, y), T (1, c),  Lambda_apply y [((Iter 3), (Arg 10)), ((Iter 2), (Arg 13))]];78.45345163345337
77;MobilNet_1;0.6980251;0.002092386553674995;1;axe_yy_0;4;[V f, U (2, f), ULambda y, T (32, c), Hoist_vars [c], T (3, w), T (3, h),  T (112, x), Lambda_apply y [((Iter 2), (Arg 9)), ((Iter 1), (Arg 10))],  T (1, c), T (4, y)];79.3752715587616
78;MobilNet_1;0.3641841;0.002282262406034844;2;axe_yy1_1,axe_xx1_0;113;[V f, U (2, f), ULambda y, T (32, c), Hoist_vars [c], T (3, w), T (3, h),  T (112, x), T (1, y), T (1, c),  Lambda_apply y [((Iter 7), (Arg 8)), ((Iter 4), (Arg 14))]];80.38483619689941
79;MobilNet_1;1.5642479999999999;0.005475895305792491;1;axe_yy_0;2;[V f, U (2, f), ULambda y, T (32, c), Hoist_vars [c], T (3, w), T (3, h),  T (112, x), Lambda_apply y [((Iter 4), (Arg 11)), ((Iter 1), (Arg 12))],  T (1, c), T (2, y)];81.35185647010803
80;MobilNet_1;0.2783348;0.0016014997221354748;1;axe_yy_1,axe_xx_0;113;[V f, U (2, f), U (14, y), T (32, c), Hoist_vars [c], T (3, w), T (3, h),  T (112, x), T (1, y), T (1, c), T (8, y)];82.20956659317017
81;MobilNet_1;0.12364590000000002;0.0006448682733706153;1;axe_yy_0,axe_out_channels_0,axe_yy_1,axe_xx_0;18;[V f, U (1, f), U (14, y), U (3, h), T (32, c), Hoist_vars [c], T (16, x),  T (1, c), T (3, w), T (7, x), T (1, y), T (2, f), T (8, y)];83.0405764579773
83;MobilNet_1;0.27243739999999994;0.0007478427909661253;2;axe_yy1_1,axe_xx1_0;114;[V f, U (2, f), ULambda y, T (32, c), Hoist_vars [c], T (3, w), T (3, h),  T (112, x), T (2, y), T (1, c),  Lambda_apply y [((Iter 5), (Arg 9)), ((Iter 1), (Arg 11))]];84.95416617393494
84;MobilNet_1;0.1696249;0.002637134446705363;1;axe_yy_0,axe_out_channels_0,axe_yy_1,axe_xx_0;18;[V f, U (1, f), U (14, y), U (3, h), T (8, c), Hoist_vars [c], T (16, x),  T (4, c), T (3, w), T (7, x), T (1, y), T (2, f), T (8, y)];85.80073690414429
86;MobilNet_1;2.9629716999999998;0.0015329618423169586;1;axe_yy_0;1;[V f, U (2, f), ULambda y, T (32, c), Hoist_vars [c], T (3, w), T (3, h),  T (112, x), Lambda_apply y [((Iter 7), (Arg 10)), ((Iter 3), (Arg 14))],  T (1, c), T (1, y)];87.75670289993286
88;MobilNet_1;2.0651875;0.004769435087093601;1;axe_yy_0;1;[V f, U (1, f), ULambda y, U (3, h), T (32, c), Hoist_vars [c], T (2, x),  T (1, c), T (3, w), T (56, x),  Lambda_apply y [((Iter 5), (Arg 12)), ((Iter 4), (Arg 13))], T (2, f),  T (1, y)];89.75237011909485
90;MobilNet_1;0.2456378;0.0006691300023164451;1;axe_yy_0,axe_out_channels_0,axe_yy_1,axe_xx_0;18;[V f, U (1, f), U (14, y), U (3, h), T (8, c), Hoist_vars [c], T (16, x),  T (4, c), T (3, w), T (7, x), T (8, y), T (2, f), T (1, y)];91.56770372390747
92;MobilNet_1;0.25539560000000006;0.0007350811111707319;2;axe_yy1_1,axe_xx1_0;114;[V f, U (2, f), ULambda y, U (3, h), T (32, c), Hoist_vars [c], T (3, w),  T (112, x), T (2, y), T (1, c),  Lambda_apply y [((Iter 5), (Arg 9)), ((Iter 1), (Arg 11))]];93.51631712913513
93;MobilNet_1;0.1498176;0.0006100123277442785;1;axe_yy_0,axe_out_channels_0,axe_yy_1,axe_xx_0;19;[V f, U (1, f), U (14, y), U (3, h), T (16, c), Hoist_vars [c], T (14, x),  T (2, c), T (3, w), T (8, x), T (8, y), T (2, f), T (1, y)];94.35792183876038
95;MobilNet_1;1.4383638;0.007432559704435606;1;axe_yy_0;2;[V f, U (2, f), ULambda y, T (32, c), Hoist_vars [c], T (3, w), T (3, h),  T (112, x), Lambda_apply y [((Iter 5), (Arg 9)), ((Iter 1), (Arg 11))],  T (1, c), T (2, y)];96.26630353927612
96;MobilNet_1;0.1505227;0.0005829428874255142;1;axe_yy_0,axe_out_channels_0,axe_yy_1,axe_xx_0;27;[V f, U (1, f), U (14, y), U (3, h), T (16, c), Hoist_vars [c], T (7, x),  T (2, c), T (3, w), T (16, x), T (1, y), T (2, f), T (8, y)];97.10280108451843
98;MobilNet_1;0.15079910000000002;0.0003130768116612909;1;axe_yy_0,axe_out_channels_0,axe_yy_1,axe_xx_0;19;[V f, U (1, f), U (14, y), U (3, h), T (16, c), Hoist_vars [c], T (14, x),  T (2, c), T (3, w), T (8, x), T (1, y), T (2, f), T (8, y)];98.90038132667542
99;MobilNet_1;2.1112102;0.0014302506633453705;1;axe_yy_0;1;[V f, U (1, f), ULambda y, U (3, h), T (32, c), Hoist_vars [c], T (14, x),  T (1, c), T (3, w), T (8, x),  Lambda_apply y [((Iter 5), (Arg 12)), ((Iter 4), (Arg 13))], T (2, f),  T (1, y)];99.92594361305237
100;MobilNet_1;2.0851773000000002;0.001840923792556363;1;axe_yy_0;1;[V f, U (1, f), ULambda y, U (3, h), T (32, c), Hoist_vars [c], T (28, x),  T (1, c), T (3, w), T (4, x),  Lambda_apply y [((Iter 7), (Arg 12)), ((Iter 2), (Arg 14))], T (2, f),  T (1, y)];100.9792640209198
101;MobilNet_1;0.0903119;0.00047709945504056294;1;axe_yy_0,axe_out_channels_0,axe_yy_1,axe_xx_0;120;[V f, U (1, f), U (14, y), U (3, h), T (16, c), Hoist_vars [c], T (1, x),  T (2, c), T (3, w), T (112, x), T (2, y), T (2, f), T (4, y)];101.8386914730072
102;MobilNet_1;0.109443;0.0005077485598207017;1;axe_yy_0,axe_out_channels_0,axe_yy_1,axe_xx_0;16;[V f, U (1, f), U (14, y), U (3, h), T (32, c), Hoist_vars [c], T (14, x),  T (1, c), T (3, w), T (8, x), T (2, y), T (2, f), T (4, y)];102.68448567390442
104;MobilNet_1;0.11009739999999998;0.0006172302973769184;1;axe_yy_0,axe_out_channels_0,axe_yy_1,axe_xx_0;15;[V f, U (1, f), U (14, y), U (3, h), T (32, c), Hoist_vars [c], T (28, x),  T (1, c), T (3, w), T (4, x), T (1, y), T (2, f), T (8, y)];104.46044516563416
105;MobilNet_1;0.1950462;0.003398554510376432;1;axe_yy_0,axe_out_channels_0,axe_yy_1,axe_xx_0;39;[V f, U (1, f), U (14, y), U (3, h), T (8, c), Hoist_vars [c], T (4, x),  T (4, c), T (3, w), T (28, x), T (1, y), T (2, f), T (8, y)];105.30294561386108
106;MobilNet_1;0.1505474;0.0003831018663488873;1;axe_yy_0,axe_out_channels_0,axe_yy_1,axe_xx_0;15;[V f, U (1, f), U (14, y), U (3, h), T (16, c), Hoist_vars [c], T (28, x),  T (2, c), T (3, w), T (4, x), T (8, y), T (2, f), T (1, y)];106.13837265968323
107;MobilNet_1;0.243866;0.0024813510029820353;1;axe_yy_0,axe_out_channels_0,axe_yy_1,axe_xx_0;19;[V f, U (1, f), U (14, y), U (3, h), T (8, c), Hoist_vars [c], T (14, x),  T (4, c), T (3, w), T (8, x), T (1, y), T (2, f), T (8, y)];106.98515629768372
109;MobilNet_1;0.1068794;0.00037645403437869875;1;axe_yy_0,axe_out_channels_0,axe_yy_1,axe_xx_0;25;[V f, U (1, f), U (14, y), U (3, h), T (32, c), Hoist_vars [c], T (8, x),  T (1, c), T (3, w), T (14, x), T (8, y), T (2, f), T (1, y)];108.7574942111969
110;MobilNet_1;0.246385;0.0012019376855727576;1;axe_yy_0,axe_out_channels_0,axe_yy_1,axe_xx_0;12;[V f, U (1, f), U (14, y), U (3, h), T (8, c), Hoist_vars [c], T (28, x),  T (4, c), T (3, w), T (4, x), T (4, y), T (2, f), T (2, y)];109.60714983940125
111;MobilNet_1;0.08792069999999999;0.00031322389755572517;1;axe_yy_0,axe_out_channels_0,axe_yy_1,axe_xx_0;67;[V f, U (1, f), U (14, y), U (3, h), T (32, c), Hoist_vars [c], T (2, x),  T (1, c), T (3, w), T (56, x), T (8, y), T (2, f), T (1, y)];110.43419480323792
112;MobilNet_1;0.13440749999999999;0.0009040887401134899;1;axe_yy_0,axe_out_channels_0,axe_yy_1,axe_xx_0;15;[V f, U (1, f), U (14, y), U (3, h), T (16, c), Hoist_vars [c], T (16, x),  T (2, c), T (3, w), T (7, x), T (2, y), T (2, f), T (4, y)];111.26599669456482
113;MobilNet_1;1.7527017;0.005245178015091624;1;axe_yy_0;2;[V f, U (2, f), ULambda y, T (32, c), Hoist_vars [c], T (3, w), T (3, h),  T (112, x), Lambda_apply y [((Iter 2), (Arg 10)), ((Iter 3), (Arg 12))],  T (1, c), T (2, y)];112.23777055740356
115;MobilNet_1;0.311963;0.003773794694998651;2;axe_yy1_1,axe_xx1_0;113;[V f, U (2, f), ULambda y, T (32, c), Hoist_vars [c], T (3, w), T (3, h),  T (112, x), T (1, y), T (1, c),  Lambda_apply y [((Iter 7), (Arg 12)), ((Iter 2), (Arg 14))]];114.21187376976013
116;MobilNet_1;0.13663730000000002;0.0005476915281433507;1;axe_yy_1,axe_xx_0;116;[V f, U (2, f), U (14, y), T (32, c), Hoist_vars [c], T (3, w), T (3, h),  T (112, x), T (4, y), T (1, c), T (2, y)];115.05624198913574
117;MobilNet_1;3.0304496000000003;0.002432190502407101;1;axe_yy_0;1;[V f, U (2, f), ULambda y, T (32, c), Hoist_vars [c], T (3, w), T (3, h),  T (112, x), Lambda_apply y [((Iter 1), (Arg 8)), ((Iter 8), (Arg 13))],  T (1, c), T (1, y)];116.06127071380615
118;MobilNet_1;0.239972;0.002802605073855398;1;axe_yy_0,axe_out_channels_0,axe_yy_1,axe_xx_0;25;[V f, U (1, f), U (14, y), U (3, h), T (8, c), Hoist_vars [c], T (8, x),  T (4, c), T (3, w), T (14, x), T (1, y), T (2, f), T (8, y)];116.90795660018921
119;MobilNet_1;0.15170749999999997;0.0005848424146725399;1;axe_yy_0,axe_out_channels_0,axe_yy_1,axe_xx_0;22;[V f, U (1, f), U (14, y), U (3, h), T (16, c), Hoist_vars [c], T (8, x),  T (2, c), T (3, w), T (14, x), T (2, y), T (2, f), T (4, y)];117.7443630695343
120;MobilNet_1;0.24527330000000003;0.0006870391619114594;1;axe_yy_0,axe_out_channels_0,axe_yy_1,axe_xx_0;12;[V f, U (1, f), U (14, y), U (3, h), T (8, c), Hoist_vars [c], T (28, x),  T (4, c), T (3, w), T (4, x), T (2, y), T (2, f), T (4, y)];118.59519743919373
121;MobilNet_1;0.19628330000000002;0.0019262007709478267;1;axe_yy_0,axe_out_channels_0,axe_yy_1,axe_xx_0;36;[V f, U (1, f), U (14, y), U (3, h), T (8, c), Hoist_vars [c], T (4, x),  T (4, c), T (3, w), T (28, x), T (2, y), T (2, f), T (4, y)];119.43950963020325
122;MobilNet_1;0.0890582;0.0005795035461496324;1;axe_yy_0,axe_out_channels_0,axe_yy_1,axe_xx_0;120;[V f, U (1, f), U (14, y), U (3, h), T (32, c), Hoist_vars [c], T (1, x),  T (1, c), T (3, w), T (112, x), T (2, y), T (2, f), T (4, y)];120.26983404159546
123;MobilNet_1;0.1365936;0.0025347237798229575;1;axe_yy_0,axe_out_channels_0,axe_yy_1,axe_xx_0;64;[V f, U (1, f), U (14, y), U (3, h), T (8, c), Hoist_vars [c], T (2, x),  T (4, c), T (3, w), T (56, x), T (4, y), T (2, f), T (2, y)];121.11365032196045
125;MobilNet_1;0.1505742;0.0010614299600067848;1;axe_yy_1,axe_xx_0;119;[V f, U (2, f), U (8, y), T (32, c), Hoist_vars [c], T (3, w), T (3, h),  T (112, x), T (7, y), T (1, c), T (2, y)];122.87933826446533
126;MobilNet_1;0.24597779999999997;0.0009308929906278123;1;axe_yy_0,axe_out_channels_0,axe_yy_1,axe_xx_0;15;[V f, U (1, f), U (14, y), U (3, h), T (8, c), Hoist_vars [c], T (28, x),  T (4, c), T (3, w), T (4, x), T (8, y), T (2, f), T (1, y)];123.73149371147156
129;MobilNet_1;0.1068881;0.00040056521316759265;1;axe_yy_0,axe_out_channels_0,axe_yy_1,axe_xx_0;16;[V f, U (1, f), U (14, y), U (3, h), T (32, c), Hoist_vars [c], T (14, x),  T (1, c), T (3, w), T (8, x), T (4, y), T (2, f), T (2, y)];126.50013208389282
130;MobilNet_1;1.2862381;0.005675552474429247;1;axe_yy_0;2;[V f, U (2, f), ULambda y, U (3, h), T (32, c), Hoist_vars [c], T (3, w),  T (112, x), Lambda_apply y [((Iter 4), (Arg 11)), ((Iter 1), (Arg 12))],  T (1, c), T (2, y)];127.5332236289978
131;MobilNet_1;0.24170799999999998;0.0019039689073091378;1;axe_yy_0,axe_out_channels_0,axe_yy_1,axe_xx_0;16;[V f, U (1, f), U (14, y), U (3, h), T (8, c), Hoist_vars [c], T (14, x),  T (4, c), T (3, w), T (8, x), T (2, y), T (2, f), T (4, y)];128.40245032310486
132;MobilNet_1;0.2332725;0.0018443330637387615;1;axe_yy_0,axe_out_channels_0,axe_yy_1,axe_xx_0;25;[V f, U (1, f), U (14, y), U (3, h), T (8, c), Hoist_vars [c], T (8, x),  T (4, c), T (3, w), T (14, x), T (8, y), T (2, f), T (1, y)];129.24880075454712
133;MobilNet_1;0.1462169;0.0006181947023389909;1;axe_yy_0,axe_out_channels_0,axe_yy_1,axe_xx_0;27;[V f, U (1, f), U (14, y), U (3, h), T (16, c), Hoist_vars [c], T (7, x),  T (2, c), T (3, w), T (16, x), T (8, y), T (2, f), T (1, y)];130.08365678787231
135;MobilNet_1;0.16468059999999998;0.00047476335157633755;1;axe_yy_0,axe_out_channels_0,axe_yy_1,axe_xx_0;18;[V f, U (1, f), U (14, y), U (3, h), T (16, c), Hoist_vars [c], T (16, x),  T (2, c), T (3, w), T (7, x), T (8, y), T (2, f), T (1, y)];131.86111044883728
136;MobilNet_1;0.1079377;0.0003757323648556239;1;axe_yy_0,axe_out_channels_0,axe_yy_1,axe_xx_0;24;[V f, U (1, f), U (14, y), U (3, h), T (32, c), Hoist_vars [c], T (7, x),  T (1, c), T (3, w), T (16, x), T (4, y), T (2, f), T (2, y)];132.69369959831238
137;MobilNet_1;2.1087040000000004;0.0012516744784487283;1;axe_yy_0;1;[V f, U (1, f), ULambda y, U (3, h), T (32, c), Hoist_vars [c], T (28, x),  T (1, c), T (3, w), T (4, x),  Lambda_apply y [((Iter 5), (Arg 12)), ((Iter 4), (Arg 13))], T (2, f),  T (1, y)];133.72090196609497
138;MobilNet_1;0.1574772;0.0026439001040130085;1;axe_yy_0,axe_out_channels_0,axe_yy_1,axe_xx_0;15;[V f, U (1, f), U (14, y), U (3, h), T (8, c), Hoist_vars [c], T (16, x),  T (4, c), T (3, w), T (7, x), T (2, y), T (2, f), T (4, y)];134.58825659751892
139;MobilNet_1;2.2310261000000002;0.0032592327149193255;1;axe_yy_0;1;[V f, U (1, f), ULambda y, U (3, h), T (16, c), Hoist_vars [c], T (16, x),  T (2, c), T (3, w), T (7, x),  Lambda_apply y [((Iter 5), (Arg 12)), ((Iter 4), (Arg 13))], T (2, f),  T (1, y)];135.62118673324585
140;MobilNet_1;0.14824690000000001;0.0004232118736519513;1;axe_yy_0,axe_out_channels_0,axe_yy_1,axe_xx_0;25;[V f, U (1, f), U (14, y), U (3, h), T (16, c), Hoist_vars [c], T (8, x),  T (2, c), T (3, w), T (14, x), T (8, y), T (2, f), T (1, y)];136.48667216300964
141;MobilNet_1;2.0824455;0.0010366776017644256;1;axe_yy_0;1;[V f, U (1, f), ULambda y, U (3, h), T (32, c), Hoist_vars [c], T (7, x),  T (1, c), T (3, w), T (16, x),  Lambda_apply y [((Iter 5), (Arg 12)), ((Iter 4), (Arg 13))], T (2, f),  T (1, y)];137.51053190231323
143;MobilNet_1;0.415131;0.001257732722004162;1;axe_yy_1,axe_xx_0;113;[V f, U (2, f), U (8, y), T (32, c), Hoist_vars [c], T (3, w), T (3, h),  T (112, x), T (1, y), T (1, c), T (14, y)];139.33706831932068
144;MobilNet_1;0.15058509999999997;0.0003800059078488147;1;axe_yy_0,axe_out_channels_0,axe_yy_1,axe_xx_0;16;[V f, U (1, f), U (14, y), U (3, h), T (16, c), Hoist_vars [c], T (14, x),  T (2, c), T (3, w), T (8, x), T (2, y), T (2, f), T (4, y)];140.1744146347046
145;MobilNet_1;2.0958300999999997;0.0032583540768307984;1;axe_yy_0;1;[V f, U (1, f), ULambda y, U (3, h), T (32, c), Hoist_vars [c], T (14, x),  T (1, c), T (3, w), T (8, x),  Lambda_apply y [((Iter 7), (Arg 12)), ((Iter 2), (Arg 14))], T (2, f),  T (1, y)];141.20851969718933
146;MobilNet_1;0.11039829999999999;0.00043465159610888674;1;axe_yy_0,axe_out_channels_0,axe_yy_1,axe_xx_0;22;[V f, U (1, f), U (14, y), U (3, h), T (32, c), Hoist_vars [c], T (8, x),  T (1, c), T (3, w), T (14, x), T (2, y), T (2, f), T (4, y)];142.06598544120789
147;MobilNet_1;0.2436277;0.0014776850171805917;1;axe_yy_0,axe_out_channels_0,axe_yy_1,axe_xx_0;16;[V f, U (1, f), U (14, y), U (3, h), T (8, c), Hoist_vars [c], T (14, x),  T (4, c), T (3, w), T (8, x), T (4, y), T (2, f), T (2, y)];142.91693663597107
148;MobilNet_1;0.1989233;0.0012534852252818964;2;axe_yy1_1,axe_xx1_0;116;[V f, U (2, f), ULambda y, T (32, c), Hoist_vars [c], T (3, w), T (3, h),  T (112, x), T (4, y), T (1, c),  Lambda_apply y [((Iter 2), (Arg 9)), ((Iter 1), (Arg 10))]];143.912353515625
149;MobilNet_1;0.1889302;0.0012352804377953929;2;axe_yy1_1,axe_xx1_0;116;[V f, U (2, f), ULambda y, T (32, c), Hoist_vars [c], T (3, w), T (3, h),  T (112, x), T (4, y), T (1, c),  Lambda_apply y [((Iter 1), (Arg 13)), ((Iter 1), (Arg 15))]];144.8925895690918
150;MobilNet_1;0.2324767;0.0007777045775871473;1;axe_yy_0,axe_out_channels_0,axe_yy_1,axe_xx_0;24;[V f, U (1, f), U (14, y), U (3, h), T (8, c), Hoist_vars [c], T (7, x),  T (4, c), T (3, w), T (16, x), T (4, y), T (2, f), T (2, y)];145.74603986740112
151;MobilNet_1;0.1057351;0.00034582783288798454;1;axe_yy_0,axe_out_channels_0,axe_yy_1,axe_xx_0;15;[V f, U (1, f), U (14, y), U (3, h), T (32, c), Hoist_vars [c], T (28, x),  T (1, c), T (3, w), T (4, x), T (8, y), T (2, f), T (1, y)];146.57800221443176
152;MobilNet_1;0.2423553;0.0012271697559832644;2;axe_yy1_1,axe_xx1_0;114;[V f, U (2, f), ULambda y, U (3, h), T (32, c), Hoist_vars [c], T (3, w),  T (112, x), T (2, y), T (1, c),  Lambda_apply y [((Iter 4), (Arg 11)), ((Iter 1), (Arg 12))]];147.59770703315735
153;MobilNet_1;1.1003418;0.003308136931869658;1;axe_yy_0;4;[V f, U (2, f), ULambda y, T (32, c), Hoist_vars [c], T (3, w), T (3, h),  T (112, x), Lambda_apply y [((Iter 1), (Arg 13)), ((Iter 1), (Arg 15))],  T (1, c), T (4, y)];148.5641942024231
154;MobilNet_1;0.133386;0.0016097586775662962;1;axe_yy_0,axe_out_channels_0,axe_yy_1,axe_xx_0;18;[V f, U (1, f), U (14, y), U (3, h), T (16, c), Hoist_vars [c], T (16, x),  T (2, c), T (3, w), T (7, x), T (1, y), T (2, f), T (8, y)];149.39761424064636
155;MobilNet_1;0.09153499999999999;0.00030926234817707434;1;axe_yy_0,axe_out_channels_0,axe_yy_1,axe_xx_0;67;[V f, U (1, f), U (14, y), U (3, h), T (16, c), Hoist_vars [c], T (2, x),  T (2, c), T (3, w), T (56, x), T (8, y), T (2, f), T (1, y)];150.2295777797699
156;MobilNet_1;0.14424910000000002;0.0038277035530458717;1;axe_yy_0,axe_out_channels_0,axe_yy_1,axe_xx_0;64;[V f, U (1, f), U (14, y), U (3, h), T (8, c), Hoist_vars [c], T (2, x),  T (4, c), T (3, w), T (56, x), T (2, y), T (2, f), T (4, y)];151.07612490653992
157;MobilNet_1;0.1002032;0.0011457644435048622;1;axe_yy_0,axe_out_channels_0,axe_yy_1,axe_xx_0;39;[V f, U (1, f), U (14, y), U (3, h), T (32, c), Hoist_vars [c], T (4, x),  T (1, c), T (3, w), T (28, x), T (8, y), T (2, f), T (1, y)];151.90773010253906
158;MobilNet_1;0.1006324;0.0008214396143357076;1;axe_yy_0,axe_out_channels_0,axe_yy_1,axe_xx_0;120;[V f, U (1, f), U (14, y), U (3, h), T (8, c), Hoist_vars [c], T (1, x),  T (4, c), T (3, w), T (112, x), T (2, y), T (2, f), T (4, y)];152.7473750114441
160;MobilNet_1;0.1097972;0.00031603474492530214;1;axe_yy_0,axe_out_channels_0,axe_yy_1,axe_xx_0;12;[V f, U (1, f), U (14, y), U (3, h), T (32, c), Hoist_vars [c], T (28, x),  T (1, c), T (3, w), T (4, x), T (2, y), T (2, f), T (4, y)];154.54880285263062
161;MobilNet_1;0.1025134;0.0011674298437165283;1;axe_yy_0,axe_out_channels_0,axe_yy_1,axe_xx_0;123;[V f, U (1, f), U (14, y), U (3, h), T (8, c), Hoist_vars [c], T (1, x),  T (4, c), T (3, w), T (112, x), T (1, y), T (2, f), T (8, y)];155.38645815849304
163;MobilNet_1;0.1522274;0.0006195794057261735;1;axe_yy_0,axe_out_channels_0,axe_yy_1,axe_xx_0;22;[V f, U (1, f), U (14, y), U (3, h), T (16, c), Hoist_vars [c], T (8, x),  T (2, c), T (3, w), T (14, x), T (4, y), T (2, f), T (2, y)];157.18807935714722
164;MobilNet_1;0.11997;0.0004920497942281855;1;axe_yy_0,axe_out_channels_0,axe_yy_1,axe_xx_0;15;[V f, U (1, f), U (14, y), U (3, h), T (32, c), Hoist_vars [c], T (16, x),  T (1, c), T (3, w), T (7, x), T (2, y), T (2, f), T (4, y)];158.02089381217957
165;MobilNet_1;0.8013661000000001;0.0009184774847539867;1;axe_yy_0;4;[V f, U (2, f), ULambda y, T (32, c), Hoist_vars [c], T (3, w), T (3, h),  T (112, x), Lambda_apply y [((Iter 2), (Arg 8)), ((Iter 1), (Arg 12))],  T (1, c), T (4, y)];158.95171856880188
166;MobilNet_1;2.9030595000000003;0.0007460155829472008;1;axe_yy_0;1;[V f, U (2, f), ULambda y, T (32, c), Hoist_vars [c], T (3, w), T (3, h),  T (112, x), Lambda_apply y [((Iter 7), (Arg 12)), ((Iter 2), (Arg 14))],  T (1, c), T (1, y)];159.98361563682556
168;MobilNet_1;0.0916537;0.001385044551630019;1;axe_yy_0,axe_out_channels_0,axe_yy_1,axe_xx_0;64;[V f, U (1, f), U (14, y), U (3, h), T (32, c), Hoist_vars [c], T (2, x),  T (1, c), T (3, w), T (56, x), T (4, y), T (2, f), T (2, y)];161.79205441474915
169;MobilNet_1;2.2206970000000004;0.0019582545799767554;1;axe_yy_0;1;[V f, U (1, f), ULambda y, U (3, h), T (16, c), Hoist_vars [c], T (16, x),  T (2, c), T (3, w), T (7, x),  Lambda_apply y [((Iter 7), (Arg 12)), ((Iter 2), (Arg 14))], T (2, f),  T (1, y)];162.8318636417389
170;MobilNet_1;0.3171802;0.002351381075028035;2;axe_yy1_1,axe_xx1_0;113;[V f, U (2, f), ULambda y, T (32, c), Hoist_vars [c], T (3, w), T (3, h),  T (112, x), T (1, y), T (1, c),  Lambda_apply y [((Iter 1), (Arg 8)), ((Iter 8), (Arg 13))]];163.8436300754547
171;MobilNet_1;2.224502;0.0019517742184997754;1;axe_yy_0;1;[V f, U (1, f), ULambda y, U (3, h), T (16, c), Hoist_vars [c], T (14, x),  T (2, c), T (3, w), T (8, x),  Lambda_apply y [((Iter 5), (Arg 12)), ((Iter 4), (Arg 13))], T (2, f),  T (1, y)];164.87932109832764
172;MobilNet_1;0.1439617;0.0010161867987727457;1;axe_yy_0,axe_out_channels_0,axe_yy_1,axe_xx_0;36;[V f, U (1, f), U (14, y), U (3, h), T (16, c), Hoist_vars [c], T (4, x),  T (2, c), T (3, w), T (28, x), T (4, y), T (2, f), T (2, y)];165.7379276752472
173;MobilNet_1;0.36138450000000005;0.0024373759353042;2;axe_yy1_1,axe_xx1_0;113;[V f, U (2, f), ULambda y, T (32, c), Hoist_vars [c], T (3, w), T (3, h),  T (112, x), T (1, y), T (1, c),  Lambda_apply y [((Iter 3), (Arg 8)), ((Iter 8), (Arg 11))]];166.7421317100525
174;MobilNet_1;0.11030899999999999;0.0006022164062859786;1;axe_yy_0,axe_out_channels_0,axe_yy_1,axe_xx_0;25;[V f, U (1, f), U (14, y), U (3, h), T (32, c), Hoist_vars [c], T (8, x),  T (1, c), T (3, w), T (14, x), T (1, y), T (2, f), T (8, y)];167.5768072605133
175;MobilNet_1;0.1466091;0.0008660555929038327;1;axe_yy_0,axe_out_channels_0,axe_yy_1,axe_xx_0;36;[V f, U (1, f), U (14, y), U (3, h), T (16, c), Hoist_vars [c], T (4, x),  T (2, c), T (3, w), T (28, x), T (2, y), T (2, f), T (4, y)];168.4124050140381
176;MobilNet_1;0.2302726;0.002453406823174663;1;axe_yy_0,axe_out_channels_0,axe_yy_1,axe_xx_0;24;[V f, U (1, f), U (14, y), U (3, h), T (8, c), Hoist_vars [c], T (7, x),  T (4, c), T (3, w), T (16, x), T (2, y), T (2, f), T (4, y)];169.26167464256287
177;MobilNet_1;2.4288912;0.0017810761802910457;1;axe_yy_0;1;[V f, U (2, f), ULambda y, T (32, c), Hoist_vars [c], T (3, w), T (3, h),  T (112, x), Lambda_apply y [((Iter 3), (Arg 8)), ((Iter 8), (Arg 11))],  T (1, c), T (1, y)];170.23981714248657
178;MobilNet_1;2.1288296000000004;0.0016777728213319928;1;axe_yy_0;1;[V f, U (1, f), ULambda y, U (3, h), T (16, c), Hoist_vars [c], T (1, x),  T (2, c), T (3, w), T (112, x),  Lambda_apply y [((Iter 5), (Arg 12)), ((Iter 4), (Arg 13))], T (2, f),  T (1, y)];171.26969504356384
179;MobilNet_1;2.0815533000000004;0.0019983581786056784;1;axe_yy_0;1;[V f, U (1, f), ULambda y, U (3, h), T (32, c), Hoist_vars [c], T (4, x),  T (1, c), T (3, w), T (28, x),  Lambda_apply y [((Iter 5), (Arg 12)), ((Iter 4), (Arg 13))], T (2, f),  T (1, y)];172.3189778327942
180;MobilNet_1;0.24943090000000004;0.0005069813507418262;2;axe_yy1_1,axe_xx1_0;114;[V f, U (2, f), ULambda y, T (32, c), Hoist_vars [c], T (3, w), T (3, h),  T (112, x), T (2, y), T (1, c),  Lambda_apply y [((Iter 2), (Arg 10)), ((Iter 3), (Arg 12))]];173.32957315444946
181;MobilNet_1;0.3422195;0.002415783361562042;2;axe_yy1_1,axe_xx1_0;113;[V f, U (2, f), ULambda y, U (3, h), T (32, c), Hoist_vars [c], T (3, w),  T (112, x), T (1, y), T (1, c),  Lambda_apply y [((Iter 9), (Arg 10)), ((Iter 2), (Arg 11))]];174.36694836616516
182;MobilNet_1;0.15152839999999998;0.0007317577741302091;1;axe_yy_0,axe_out_channels_0,axe_yy_1,axe_xx_0;24;[V f, U (1, f), U (14, y), U (3, h), T (16, c), Hoist_vars [c], T (7, x),  T (2, c), T (3, w), T (16, x), T (2, y), T (2, f), T (4, y)];175.2281675338745
184;MobilNet_1;0.1112547;0.0004185532343681039;1;axe_yy_0,axe_out_channels_0,axe_yy_1,axe_xx_0;12;[V f, U (1, f), U (14, y), U (3, h), T (32, c), Hoist_vars [c], T (28, x),  T (1, c), T (3, w), T (4, x), T (4, y), T (2, f), T (2, y)];177.03426218032837
185;MobilNet_1;2.102155;0.001867781732430251;1;axe_yy_0;1;[V f, U (1, f), ULambda y, U (3, h), T (16, c), Hoist_vars [c], T (4, x),  T (2, c), T (3, w), T (28, x),  Lambda_apply y [((Iter 5), (Arg 12)), ((Iter 4), (Arg 13))], T (2, f),  T (1, y)];178.0620367527008
186;MobilNet_1;0.08875360000000002;0.0002454042379422161;1;axe_yy_0,axe_out_channels_0,axe_yy_1,axe_xx_0;120;[V f, U (1, f), U (14, y), U (3, h), T (16, c), Hoist_vars [c], T (1, x),  T (2, c), T (3, w), T (112, x), T (4, y), T (2, f), T (2, y)];178.92657566070557
187;MobilNet_1;0.17672759999999998;0.0025918314065540597;1;axe_yy_0,axe_out_channels_0,axe_yy_1,axe_xx_0;15;[V f, U (1, f), U (14, y), U (3, h), T (32, c), Hoist_vars [c], T (16, x),  T (1, c), T (3, w), T (7, x), T (4, y), T (2, f), T (2, y)];179.76759481430054
188;MobilNet_1;0.1507355;0.0011856805851493094;1;axe_yy_0,axe_out_channels_0,axe_yy_1,axe_xx_0;25;[V f, U (1, f), U (14, y), U (3, h), T (16, c), Hoist_vars [c], T (8, x),  T (2, c), T (3, w), T (14, x), T (1, y), T (2, f), T (8, y)];180.60409808158875
189;MobilNet_1;0.3138852;0.002153925012622294;2;axe_yy1_1,axe_xx1_0;113;[V f, U (2, f), ULambda y, T (32, c), Hoist_vars [c], T (3, w), T (3, h),  T (112, x), T (1, y), T (1, c),  Lambda_apply y [((Iter 5), (Arg 12)), ((Iter 4), (Arg 13))]];181.59708333015442
190;MobilNet_1;2.0904618000000004;0.0015041558961756192;1;axe_yy_0;1;[V f, U (1, f), ULambda y, U (3, h), T (32, c), Hoist_vars [c], T (16, x),  T (1, c), T (3, w), T (7, x),  Lambda_apply y [((Iter 5), (Arg 12)), ((Iter 4), (Arg 13))], T (2, f),  T (1, y)];182.62520742416382
191;MobilNet_1;0.2508874;0.0012627574747353578;2;axe_yy1_1,axe_xx1_0;114;[V f, U (2, f), ULambda y, T (32, c), Hoist_vars [c], T (3, w), T (3, h),  T (112, x), T (2, y), T (1, c),  Lambda_apply y [((Iter 4), (Arg 11)), ((Iter 1), (Arg 12))]];183.62471556663513
192;MobilNet_1;0.08814090000000001;0.0001899554947875939;1;axe_yy_0,axe_out_channels_0,axe_yy_1,axe_xx_0;120;[V f, U (1, f), U (14, y), U (3, h), T (32, c), Hoist_vars [c], T (1, x),  T (1, c), T (3, w), T (112, x), T (4, y), T (2, f), T (2, y)];184.45770907402039
193;MobilNet_1;0.17433420000000002;0.002386367817416243;1;axe_yy_0,axe_out_channels_0,axe_yy_1,axe_xx_0;39;[V f, U (1, f), U (14, y), U (3, h), T (8, c), Hoist_vars [c], T (4, x),  T (4, c), T (3, w), T (28, x), T (8, y), T (2, f), T (1, y)];185.3009536266327
194;MobilNet_1;0.1970526;0.0011823474277893166;2;axe_yy1_1,axe_xx1_0;116;[V f, U (2, f), ULambda y, T (32, c), Hoist_vars [c], T (3, w), T (3, h),  T (112, x), T (4, y), T (1, c),  Lambda_apply y [((Iter 2), (Arg 8)), ((Iter 1), (Arg 12))]];186.25781917572021
195;MobilNet_1;0.11111579999999999;0.000321272407778821;1;axe_yy_0,axe_out_channels_0,axe_yy_1,axe_xx_0;39;[V f, U (1, f), U (14, y), U (3, h), T (32, c), Hoist_vars [c], T (4, x),  T (1, c), T (3, w), T (28, x), T (1, y), T (2, f), T (8, y)];187.09336590766907
196;MobilNet_1;0.55523;0.0017463661700800339;1;axe_yy_0;4;[V f, U (2, f), ULambda y, U (3, h), T (32, c), Hoist_vars [c], T (3, w),  T (112, x), Lambda_apply y [((Iter 2), (Arg 9)), ((Iter 1), (Arg 10))],  T (1, c), T (4, y)];188.05485796928406
197;MobilNet_1;0.1093316;0.0021979216182566657;1;axe_yy_0,axe_out_channels_0,axe_yy_1,axe_xx_0;67;[V f, U (1, f), U (14, y), U (3, h), T (16, c), Hoist_vars [c], T (2, x),  T (2, c), T (3, w), T (56, x), T (1, y), T (2, f), T (8, y)];188.8868703842163
198;MobilNet_1;2.2785168;0.003557138394833667;1;axe_yy_0;1;[V f, U (1, f), ULambda y, U (3, h), T (16, c), Hoist_vars [c], T (28, x),  T (2, c), T (3, w), T (4, x),  Lambda_apply y [((Iter 7), (Arg 12)), ((Iter 2), (Arg 14))], T (2, f),  T (1, y)];189.92943239212036
199;MobilNet_1;2.4695869000000004;0.0018408190269551166;1;axe_yy_0;1;[V f, U (2, f), ULambda y, T (32, c), Hoist_vars [c], T (3, w), T (3, h),  T (112, x), Lambda_apply y [((Iter 11), (Arg 9)), ((Iter 1), (Arg 13))],  T (1, c), T (1, y)];190.9459090232849
