81.0,382168,60582,5677056,668160,"[V f; U (2, f); U (8, y); T (64, c); Hoist_vars [c]; T (56, x); T (3, w);   T (3, h); T (1, x); T (7, y); T (2, f); T (1, c); T (1, x)]"
82.7,396991,58847,5935104,668160,"[V f; U (2, f); U (8, y); T (64, c); Hoist_vars [c]; T (28, x); T (3, w);   T (3, h); T (2, x); T (7, y); T (2, f); T (1, c); T (1, x)]"
84.1,347359,60941,6451200,668160,"[V f; U (2, f); U (8, y); T (64, c); Hoist_vars [c]; T (14, x); T (3, w);   T (3, h); T (4, x); T (7, y); T (2, f); T (1, c); T (1, x)]"
85.0,382571,63620,7225344,668160,"[V f; U (2, f); U (8, y); T (64, c); Hoist_vars [c]; T (8, x); T (3, w);   T (3, h); T (7, x); T (7, y); T (2, f); T (1, c); T (1, x)]"
84.6,395313,60871,4214784,668160,"[V f; U (2, f); U (8, y); T (64, c); Hoist_vars [c]; T (7, x); T (3, w);   T (3, h); T (8, x); T (7, y); T (2, f); T (1, c); T (1, x)]"
83.6,447023,60946,6021120,668160,"[V f; U (2, f); U (8, y); T (64, c); Hoist_vars [c]; T (4, x); T (3, w);   T (3, h); T (14, x); T (7, y); T (2, f); T (1, c); T (1, x)]"
82.7,583605,57272,10235904,668160,"[V f; U (2, f); U (8, y); T (64, c); Hoist_vars [c]; T (2, x); T (3, w);   T (3, h); T (28, x); T (7, y); T (2, f); T (1, c); T (1, x)]"
76.9,1059202,54742,16156672,668160,"[V f; U (2, f); U (8, y); T (64, c); Hoist_vars [c]; T (1, x); T (3, w);   T (3, h); T (56, x); T (7, y); T (2, f); T (1, c); T (1, x)]"
81.5,397218,41442,5935104,452864,"[V f; U (2, f); U (8, y); T (64, c); Hoist_vars [c]; T (28, x); T (3, w);   T (3, h); T (1, x); T (7, y); T (2, f); T (1, c); T (2, x)]"
81.5,357069,63520,6451200,452864,"[V f; U (2, f); U (8, y); T (64, c); Hoist_vars [c]; T (14, x); T (3, w);   T (3, h); T (2, x); T (7, y); T (2, f); T (1, c); T (2, x)]"
81.8,394551,41154,4214784,452864,"[V f; U (2, f); U (8, y); T (64, c); Hoist_vars [c]; T (7, x); T (3, w);   T (3, h); T (4, x); T (7, y); T (2, f); T (1, c); T (2, x)]"
86.2,448400,42582,6021120,452864,"[V f; U (2, f); U (8, y); T (64, c); Hoist_vars [c]; T (4, x); T (3, w);   T (3, h); T (7, x); T (7, y); T (2, f); T (1, c); T (2, x)]"
83.7,575429,42061,10235904,452864,"[V f; U (2, f); U (8, y); T (64, c); Hoist_vars [c]; T (2, x); T (3, w);   T (3, h); T (14, x); T (7, y); T (2, f); T (1, c); T (2, x)]"
86.8,1059055,38599,16156672,452864,"[V f; U (2, f); U (8, y); T (64, c); Hoist_vars [c]; T (1, x); T (3, w);   T (3, h); T (28, x); T (7, y); T (2, f); T (1, c); T (2, x)]"
79.3,349705,32146,6451200,452864,"[V f; U (2, f); U (8, y); T (64, c); Hoist_vars [c]; T (14, x); T (3, w);   T (3, h); T (1, x); T (7, y); T (2, f); T (1, c); T (4, x)]"
84.6,400168,33514,4214784,452864,"[V f; U (2, f); U (8, y); T (64, c); Hoist_vars [c]; T (7, x); T (3, w);   T (3, h); T (2, x); T (7, y); T (2, f); T (1, c); T (4, x)]"
84.3,577236,31588,10235904,452864,"[V f; U (2, f); U (8, y); T (64, c); Hoist_vars [c]; T (2, x); T (3, w);   T (3, h); T (7, x); T (7, y); T (2, f); T (1, c); T (4, x)]"
85.6,1060799,31637,16156672,452864,"[V f; U (2, f); U (8, y); T (64, c); Hoist_vars [c]; T (1, x); T (3, w);   T (3, h); T (14, x); T (7, y); T (2, f); T (1, c); T (4, x)]"
84.7,384385,30116,7225344,452864,"[V f; U (2, f); U (8, y); T (64, c); Hoist_vars [c]; T (8, x); T (3, w);   T (3, h); T (1, x); T (7, y); T (2, f); T (1, c); T (7, x)]"
86.8,451072,30206,6021120,452864,"[V f; U (2, f); U (8, y); T (64, c); Hoist_vars [c]; T (4, x); T (3, w);   T (3, h); T (2, x); T (7, y); T (2, f); T (1, c); T (7, x)]"
87.0,576989,29936,10235904,452864,"[V f; U (2, f); U (8, y); T (64, c); Hoist_vars [c]; T (2, x); T (3, w);   T (3, h); T (4, x); T (7, y); T (2, f); T (1, c); T (7, x)]"
85.8,1063012,29394,16156672,452864,"[V f; U (2, f); U (8, y); T (64, c); Hoist_vars [c]; T (1, x); T (3, w);   T (3, h); T (8, x); T (7, y); T (2, f); T (1, c); T (7, x)]"
84.2,401011,30228,4214784,452864,"[V f; U (2, f); U (8, y); T (64, c); Hoist_vars [c]; T (7, x); T (3, w);   T (3, h); T (1, x); T (7, y); T (2, f); T (1, c); T (8, x)]"
85.7,1062587,29484,16156672,452864,"[V f; U (2, f); U (8, y); T (64, c); Hoist_vars [c]; T (1, x); T (3, w);   T (3, h); T (7, x); T (7, y); T (2, f); T (1, c); T (8, x)]"
86.7,458414,29185,6021120,452864,"[V f; U (2, f); U (8, y); T (64, c); Hoist_vars [c]; T (4, x); T (3, w);   T (3, h); T (1, x); T (7, y); T (2, f); T (1, c); T (14, x)]"
85.2,589371,28910,10235904,452864,"[V f; U (2, f); U (8, y); T (64, c); Hoist_vars [c]; T (2, x); T (3, w);   T (3, h); T (2, x); T (7, y); T (2, f); T (1, c); T (14, x)]"
85.7,1066861,28977,16156672,452864,"[V f; U (2, f); U (8, y); T (64, c); Hoist_vars [c]; T (1, x); T (3, w);   T (3, h); T (4, x); T (7, y); T (2, f); T (1, c); T (14, x)]"
86.9,597503,28674,10235904,452864,"[V f; U (2, f); U (8, y); T (64, c); Hoist_vars [c]; T (2, x); T (3, w);   T (3, h); T (1, x); T (7, y); T (2, f); T (1, c); T (28, x)]"
86.3,1075169,28739,16156672,452864,"[V f; U (2, f); U (8, y); T (64, c); Hoist_vars [c]; T (1, x); T (3, w);   T (3, h); T (2, x); T (7, y); T (2, f); T (1, c); T (28, x)]"
85.8,1095785,28680,16156672,452864,"[V f; U (2, f); U (8, y); T (64, c); Hoist_vars [c]; T (1, x); T (3, w);   T (3, h); T (1, x); T (7, y); T (2, f); T (1, c); T (56, x)]"
79.0,397208,72006,5566464,668160,"[V f; U (2, f); U (14, y); T (64, c); Hoist_vars [c]; T (56, x); T (3, w);   T (3, h); T (1, x); T (4, y); T (2, f); T (1, c); T (1, x)]"
78.8,410574,59161,5713920,668160,"[V f; U (2, f); U (14, y); T (64, c); Hoist_vars [c]; T (28, x); T (3, w);   T (3, h); T (2, x); T (4, y); T (2, f); T (1, c); T (1, x)]"
80.3,436105,58263,6008832,668160,"[V f; U (2, f); U (14, y); T (64, c); Hoist_vars [c]; T (14, x); T (3, w);   T (3, h); T (4, x); T (4, y); T (2, f); T (1, c); T (1, x)]"
81.2,399776,60615,6451200,668160,"[V f; U (2, f); U (14, y); T (64, c); Hoist_vars [c]; T (8, x); T (3, w);   T (3, h); T (7, x); T (4, y); T (2, f); T (1, c); T (1, x)]"
82.0,396630,61558,6598656,668160,"[V f; U (2, f); U (14, y); T (64, c); Hoist_vars [c]; T (7, x); T (3, w);   T (3, h); T (8, x); T (4, y); T (2, f); T (1, c); T (1, x)]"
81.6,443491,61411,4472832,668160,"[V f; U (2, f); U (14, y); T (64, c); Hoist_vars [c]; T (4, x); T (3, w);   T (3, h); T (14, x); T (4, y); T (2, f); T (1, c); T (1, x)]"
79.4,413588,65493,7139328,668160,"[V f; U (2, f); U (14, y); T (64, c); Hoist_vars [c]; T (2, x); T (3, w);   T (3, h); T (28, x); T (4, y); T (2, f); T (1, c); T (1, x)]"
84.4,666740,55743,12472320,668160,"[V f; U (2, f); U (14, y); T (64, c); Hoist_vars [c]; T (1, x); T (3, w);   T (3, h); T (56, x); T (4, y); T (2, f); T (1, c); T (1, x)]"
82.6,410837,40276,5713920,452864,"[V f; U (2, f); U (14, y); T (64, c); Hoist_vars [c]; T (28, x); T (3, w);   T (3, h); T (1, x); T (4, y); T (2, f); T (1, c); T (2, x)]"
81.6,437548,43155,6008832,452864,"[V f; U (2, f); U (14, y); T (64, c); Hoist_vars [c]; T (14, x); T (3, w);   T (3, h); T (2, x); T (4, y); T (2, f); T (1, c); T (2, x)]"
80.9,397553,44380,6598656,452864,"[V f; U (2, f); U (14, y); T (64, c); Hoist_vars [c]; T (7, x); T (3, w);   T (3, h); T (4, x); T (4, y); T (2, f); T (1, c); T (2, x)]"
81.8,446428,42280,4472832,452864,"[V f; U (2, f); U (14, y); T (64, c); Hoist_vars [c]; T (4, x); T (3, w);   T (3, h); T (7, x); T (4, y); T (2, f); T (1, c); T (2, x)]"
84.6,412513,38145,7139328,452864,"[V f; U (2, f); U (14, y); T (64, c); Hoist_vars [c]; T (2, x); T (3, w);   T (3, h); T (14, x); T (4, y); T (2, f); T (1, c); T (2, x)]"
83.8,668273,37255,12472320,452864,"[V f; U (2, f); U (14, y); T (64, c); Hoist_vars [c]; T (1, x); T (3, w);   T (3, h); T (28, x); T (4, y); T (2, f); T (1, c); T (2, x)]"
81.9,436071,32429,6008832,452864,"[V f; U (2, f); U (14, y); T (64, c); Hoist_vars [c]; T (14, x); T (3, w);   T (3, h); T (1, x); T (4, y); T (2, f); T (1, c); T (4, x)]"
81.5,399584,33526,6598656,452864,"[V f; U (2, f); U (14, y); T (64, c); Hoist_vars [c]; T (7, x); T (3, w);   T (3, h); T (2, x); T (4, y); T (2, f); T (1, c); T (4, x)]"
86.3,415334,31391,7139328,452864,"[V f; U (2, f); U (14, y); T (64, c); Hoist_vars [c]; T (2, x); T (3, w);   T (3, h); T (7, x); T (4, y); T (2, f); T (1, c); T (4, x)]"
85.3,668775,31352,12472320,452864,"[V f; U (2, f); U (14, y); T (64, c); Hoist_vars [c]; T (1, x); T (3, w);   T (3, h); T (14, x); T (4, y); T (2, f); T (1, c); T (4, x)]"
84.0,402573,30573,6451200,452864,"[V f; U (2, f); U (14, y); T (64, c); Hoist_vars [c]; T (8, x); T (3, w);   T (3, h); T (1, x); T (4, y); T (2, f); T (1, c); T (7, x)]"
82.7,448567,30687,4472832,452864,"[V f; U (2, f); U (14, y); T (64, c); Hoist_vars [c]; T (4, x); T (3, w);   T (3, h); T (2, x); T (4, y); T (2, f); T (1, c); T (7, x)]"
86.1,415746,29665,7139328,452864,"[V f; U (2, f); U (14, y); T (64, c); Hoist_vars [c]; T (2, x); T (3, w);   T (3, h); T (4, x); T (4, y); T (2, f); T (1, c); T (7, x)]"
85.6,670630,29967,12472320,452864,"[V f; U (2, f); U (14, y); T (64, c); Hoist_vars [c]; T (1, x); T (3, w);   T (3, h); T (8, x); T (4, y); T (2, f); T (1, c); T (7, x)]"
81.8,397874,30620,6598656,452864,"[V f; U (2, f); U (14, y); T (64, c); Hoist_vars [c]; T (7, x); T (3, w);   T (3, h); T (1, x); T (4, y); T (2, f); T (1, c); T (8, x)]"
84.9,671405,29586,12472320,452864,"[V f; U (2, f); U (14, y); T (64, c); Hoist_vars [c]; T (1, x); T (3, w);   T (3, h); T (7, x); T (4, y); T (2, f); T (1, c); T (8, x)]"
84.0,449434,29245,4472832,452864,"[V f; U (2, f); U (14, y); T (64, c); Hoist_vars [c]; T (4, x); T (3, w);   T (3, h); T (1, x); T (4, y); T (2, f); T (1, c); T (14, x)]"
85.2,420052,28972,7139328,452864,"[V f; U (2, f); U (14, y); T (64, c); Hoist_vars [c]; T (2, x); T (3, w);   T (3, h); T (2, x); T (4, y); T (2, f); T (1, c); T (14, x)]"
86.2,673900,28905,12472320,452864,"[V f; U (2, f); U (14, y); T (64, c); Hoist_vars [c]; T (1, x); T (3, w);   T (3, h); T (4, x); T (4, y); T (2, f); T (1, c); T (14, x)]"
86.5,428203,28636,7139328,452864,"[V f; U (2, f); U (14, y); T (64, c); Hoist_vars [c]; T (2, x); T (3, w);   T (3, h); T (1, x); T (4, y); T (2, f); T (1, c); T (28, x)]"
85.3,680466,28835,12472320,452864,"[V f; U (2, f); U (14, y); T (64, c); Hoist_vars [c]; T (1, x); T (3, w);   T (3, h); T (2, x); T (4, y); T (2, f); T (1, c); T (28, x)]"
85.8,695340,28636,12472320,452864,"[V f; U (2, f); U (14, y); T (64, c); Hoist_vars [c]; T (1, x); T (3, w);   T (3, h); T (1, x); T (4, y); T (2, f); T (1, c); T (56, x)]"
83.6,261832,33289,3907584,452864,"[V f; U (4, f); U (7, y); T (64, c); Hoist_vars [c]; T (56, x); T (3, w);   T (3, h); T (1, c); T (1, x); T (8, y); T (1, c)]"
82.9,280746,32441,4202496,452864,"[V f; U (4, f); U (7, y); T (64, c); Hoist_vars [c]; T (28, x); T (3, w);   T (3, h); T (1, c); T (2, x); T (8, y); T (1, c)]"
83.1,325660,32788,4792320,452864,"[V f; U (4, f); U (7, y); T (64, c); Hoist_vars [c]; T (14, x); T (3, w);   T (3, h); T (1, c); T (4, x); T (8, y); T (1, c)]"
82.8,376461,33328,5677056,452864,"[V f; U (4, f); U (7, y); T (64, c); Hoist_vars [c]; T (8, x); T (3, w);   T (3, h); T (1, c); T (7, x); T (8, y); T (1, c)]"
84.0,391945,34155,5971968,452864,"[V f; U (4, f); U (7, y); T (64, c); Hoist_vars [c]; T (7, x); T (3, w);   T (3, h); T (1, c); T (8, x); T (8, y); T (1, c)]"
85.0,454373,33398,5634048,452864,"[V f; U (4, f); U (7, y); T (64, c); Hoist_vars [c]; T (4, x); T (3, w);   T (3, h); T (1, c); T (14, x); T (8, y); T (1, c)]"
84.6,634466,34755,10063872,452864,"[V f; U (4, f); U (7, y); T (64, c); Hoist_vars [c]; T (2, x); T (3, w);   T (3, h); T (1, c); T (28, x); T (8, y); T (1, c)]"
84.0,1173317,32715,18923520,452864,"[V f; U (4, f); U (7, y); T (64, c); Hoist_vars [c]; T (1, x); T (3, w);   T (3, h); T (1, c); T (56, x); T (8, y); T (1, c)]"
81.5,761193,96131,3502080,1098752,"[V f; U (1, f); U (14, y); U (3, h); T (64, c); Hoist_vars [c]; T (56, x);   T (3, w); T (1, x); T (4, y); T (4, f); T (1, c); T (1, x)]"
82.6,760529,90056,3649536,1098752,"[V f; U (1, f); U (14, y); U (3, h); T (64, c); Hoist_vars [c]; T (28, x);   T (3, w); T (2, x); T (4, y); T (4, f); T (1, c); T (1, x)]"
81.7,759719,91587,3944448,1098752,"[V f; U (1, f); U (14, y); U (3, h); T (64, c); Hoist_vars [c]; T (14, x);   T (3, w); T (4, x); T (4, y); T (4, f); T (1, c); T (1, x)]"
77.8,681942,102222,4386816,1098752,"[V f; U (1, f); U (14, y); U (3, h); T (64, c); Hoist_vars [c]; T (8, x);   T (3, w); T (7, x); T (4, y); T (4, f); T (1, c); T (1, x)]"
77.2,685372,107964,4534272,1098752,"[V f; U (1, f); U (14, y); U (3, h); T (64, c); Hoist_vars [c]; T (7, x);   T (3, w); T (8, x); T (4, y); T (4, f); T (1, c); T (1, x)]"
81.2,677796,100152,3641344,1098752,"[V f; U (1, f); U (14, y); U (3, h); T (64, c); Hoist_vars [c]; T (4, x);   T (3, w); T (14, x); T (4, y); T (4, f); T (1, c); T (1, x)]"
79.7,673179,98248,6164480,1098752,"[V f; U (1, f); U (14, y); U (3, h); T (64, c); Hoist_vars [c]; T (2, x);   T (3, w); T (28, x); T (4, y); T (4, f); T (1, c); T (1, x)]"
84.7,659898,91207,11210752,1098752,"[V f; U (1, f); U (14, y); U (3, h); T (64, c); Hoist_vars [c]; T (1, x);   T (3, w); T (56, x); T (4, y); T (4, f); T (1, c); T (1, x)]"
83.4,761572,49768,3649536,452864,"[V f; U (1, f); U (14, y); U (3, h); T (64, c); Hoist_vars [c]; T (28, x);   T (3, w); T (1, x); T (4, y); T (4, f); T (1, c); T (2, x)]"
84.0,760626,55889,3944448,452864,"[V f; U (1, f); U (14, y); U (3, h); T (64, c); Hoist_vars [c]; T (14, x);   T (3, w); T (2, x); T (4, y); T (4, f); T (1, c); T (2, x)]"
85.2,680448,52067,4534272,452864,"[V f; U (1, f); U (14, y); U (3, h); T (64, c); Hoist_vars [c]; T (7, x);   T (3, w); T (4, x); T (4, y); T (4, f); T (1, c); T (2, x)]"
85.1,679976,49028,3641344,452864,"[V f; U (1, f); U (14, y); U (3, h); T (64, c); Hoist_vars [c]; T (4, x);   T (3, w); T (7, x); T (4, y); T (4, f); T (1, c); T (2, x)]"
84.9,675488,50363,6164480,452864,"[V f; U (1, f); U (14, y); U (3, h); T (64, c); Hoist_vars [c]; T (2, x);   T (3, w); T (14, x); T (4, y); T (4, f); T (1, c); T (2, x)]"
86.3,659728,43444,11210752,452864,"[V f; U (1, f); U (14, y); U (3, h); T (64, c); Hoist_vars [c]; T (1, x);   T (3, w); T (28, x); T (4, y); T (4, f); T (1, c); T (2, x)]"
85.4,762868,33410,3944448,452864,"[V f; U (1, f); U (14, y); U (3, h); T (64, c); Hoist_vars [c]; T (14, x);   T (3, w); T (1, x); T (4, y); T (4, f); T (1, c); T (4, x)]"
87.1,685474,33501,4534272,452864,"[V f; U (1, f); U (14, y); U (3, h); T (64, c); Hoist_vars [c]; T (7, x);   T (3, w); T (2, x); T (4, y); T (4, f); T (1, c); T (4, x)]"
86.9,678123,34790,6164480,452864,"[V f; U (1, f); U (14, y); U (3, h); T (64, c); Hoist_vars [c]; T (2, x);   T (3, w); T (7, x); T (4, y); T (4, f); T (1, c); T (4, x)]"
88.5,664923,32718,11210752,452864,"[V f; U (1, f); U (14, y); U (3, h); T (64, c); Hoist_vars [c]; T (1, x);   T (3, w); T (14, x); T (4, y); T (4, f); T (1, c); T (4, x)]"
87.8,692029,30399,4386816,452864,"[V f; U (1, f); U (14, y); U (3, h); T (64, c); Hoist_vars [c]; T (8, x);   T (3, w); T (1, x); T (4, y); T (4, f); T (1, c); T (7, x)]"
87.2,689453,30956,3641344,452864,"[V f; U (1, f); U (14, y); U (3, h); T (64, c); Hoist_vars [c]; T (4, x);   T (3, w); T (2, x); T (4, y); T (4, f); T (1, c); T (7, x)]"
84.4,683840,29828,6164480,452864,"[V f; U (1, f); U (14, y); U (3, h); T (64, c); Hoist_vars [c]; T (2, x);   T (3, w); T (4, x); T (4, y); T (4, f); T (1, c); T (7, x)]"
88.4,668878,29907,11210752,452864,"[V f; U (1, f); U (14, y); U (3, h); T (64, c); Hoist_vars [c]; T (1, x);   T (3, w); T (8, x); T (4, y); T (4, f); T (1, c); T (7, x)]"
87.0,690464,29982,4534272,452864,"[V f; U (1, f); U (14, y); U (3, h); T (64, c); Hoist_vars [c]; T (7, x);   T (3, w); T (1, x); T (4, y); T (4, f); T (1, c); T (8, x)]"
87.7,673048,29868,11210752,452864,"[V f; U (1, f); U (14, y); U (3, h); T (64, c); Hoist_vars [c]; T (1, x);   T (3, w); T (7, x); T (4, y); T (4, f); T (1, c); T (8, x)]"
81.1,700465,41046,3641344,452864,"[V f; U (1, f); U (14, y); U (3, h); T (64, c); Hoist_vars [c]; T (4, x);   T (3, w); T (1, x); T (4, y); T (4, f); T (1, c); T (14, x)]"
87.2,687539,28884,6164480,452864,"[V f; U (1, f); U (14, y); U (3, h); T (64, c); Hoist_vars [c]; T (2, x);   T (3, w); T (2, x); T (4, y); T (4, f); T (1, c); T (14, x)]"
86.3,674137,28813,11210752,452864,"[V f; U (1, f); U (14, y); U (3, h); T (64, c); Hoist_vars [c]; T (1, x);   T (3, w); T (4, x); T (4, y); T (4, f); T (1, c); T (14, x)]"
85.6,707112,28686,6164480,452864,"[V f; U (1, f); U (14, y); U (3, h); T (64, c); Hoist_vars [c]; T (2, x);   T (3, w); T (1, x); T (4, y); T (4, f); T (1, c); T (28, x)]"
85.2,693634,28739,11210752,452864,"[V f; U (1, f); U (14, y); U (3, h); T (64, c); Hoist_vars [c]; T (1, x);   T (3, w); T (2, x); T (4, y); T (4, f); T (1, c); T (28, x)]"
85.6,726435,28563,11210752,452864,"[V f; U (1, f); U (14, y); U (3, h); T (64, c); Hoist_vars [c]; T (1, x);   T (3, w); T (1, x); T (4, y); T (4, f); T (1, c); T (56, x)]"
81.3,1138233,32927,17891328,452864,"[V f; U (4, f); U (7, y); U (3, h); T (64, c); Hoist_vars [c]; T (56, x);   T (3, w); T (1, c); T (1, x); T (8, y); T (1, c)]"
82.3,1143137,32693,17891328,452864,"[V f; U (4, f); U (7, y); U (3, h); T (64, c); Hoist_vars [c]; T (28, x);   T (3, w); T (1, c); T (2, x); T (8, y); T (1, c)]"
81.8,1144357,32706,17891328,452864,"[V f; U (4, f); U (7, y); U (3, h); T (64, c); Hoist_vars [c]; T (14, x);   T (3, w); T (1, c); T (4, x); T (8, y); T (1, c)]"
82.4,1149603,33046,17891328,452864,"[V f; U (4, f); U (7, y); U (3, h); T (64, c); Hoist_vars [c]; T (8, x);   T (3, w); T (1, c); T (7, x); T (8, y); T (1, c)]"
82.1,1149728,32969,17891328,452864,"[V f; U (4, f); U (7, y); U (3, h); T (64, c); Hoist_vars [c]; T (7, x);   T (3, w); T (1, c); T (8, x); T (8, y); T (1, c)]"
81.8,1157962,33281,17891328,452864,"[V f; U (4, f); U (7, y); U (3, h); T (64, c); Hoist_vars [c]; T (4, x);   T (3, w); T (1, c); T (14, x); T (8, y); T (1, c)]"
81.2,1152555,34056,17891328,452864,"[V f; U (4, f); U (7, y); U (3, h); T (64, c); Hoist_vars [c]; T (2, x);   T (3, w); T (1, c); T (28, x); T (8, y); T (1, c)]"
81.8,1148919,33121,17891328,452864,"[V f; U (4, f); U (7, y); U (3, h); T (64, c); Hoist_vars [c]; T (1, x);   T (3, w); T (1, c); T (56, x); T (8, y); T (1, c)]"
86.6,1961063,33169,31309824,452864,"[V f; U (4, f); U (4, y); U (3, w); T (64, c); Hoist_vars [c]; T (56, x);   T (3, h); T (1, c); T (1, x); T (14, y); T (1, c)]"
86.7,1962877,32487,31309824,452864,"[V f; U (4, f); U (4, y); U (3, w); T (64, c); Hoist_vars [c]; T (28, x);   T (3, h); T (1, c); T (2, x); T (14, y); T (1, c)]"
86.1,1963834,33195,31309824,452864,"[V f; U (4, f); U (4, y); U (3, w); T (64, c); Hoist_vars [c]; T (14, x);   T (3, h); T (1, c); T (4, x); T (14, y); T (1, c)]"
87.0,1966800,33312,31309824,452864,"[V f; U (4, f); U (4, y); U (3, w); T (64, c); Hoist_vars [c]; T (8, x);   T (3, h); T (1, c); T (7, x); T (14, y); T (1, c)]"
86.7,1963091,33207,31309824,452864,"[V f; U (4, f); U (4, y); U (3, w); T (64, c); Hoist_vars [c]; T (7, x);   T (3, h); T (1, c); T (8, x); T (14, y); T (1, c)]"
84.6,1975380,33066,31309824,452864,"[V f; U (4, f); U (4, y); U (3, w); T (64, c); Hoist_vars [c]; T (4, x);   T (3, h); T (1, c); T (14, x); T (14, y); T (1, c)]"
87.3,1975411,33806,31309824,452864,"[V f; U (4, f); U (4, y); U (3, w); T (64, c); Hoist_vars [c]; T (2, x);   T (3, h); T (1, c); T (28, x); T (14, y); T (1, c)]"
87.9,1958742,32969,31309824,452864,"[V f; U (4, f); U (4, y); U (3, w); T (64, c); Hoist_vars [c]; T (1, x);   T (3, h); T (1, c); T (56, x); T (14, y); T (1, c)]"
83.0,1212158,33966,18923520,452864,"[V f; U (4, f); U (7, y); U (3, w); T (64, c); Hoist_vars [c]; T (56, x);   T (3, h); T (1, c); T (1, x); T (8, y); T (1, c)]"
84.0,1207445,33887,18923520,452864,"[V f; U (4, f); U (7, y); U (3, w); T (64, c); Hoist_vars [c]; T (28, x);   T (3, h); T (1, c); T (2, x); T (8, y); T (1, c)]"
85.8,1214480,34355,18923520,452864,"[V f; U (4, f); U (7, y); U (3, w); T (64, c); Hoist_vars [c]; T (14, x);   T (3, h); T (1, c); T (4, x); T (8, y); T (1, c)]"
85.2,1212245,35343,18923520,452864,"[V f; U (4, f); U (7, y); U (3, w); T (64, c); Hoist_vars [c]; T (8, x);   T (3, h); T (1, c); T (7, x); T (8, y); T (1, c)]"
85.8,1214444,36007,18923520,452864,"[V f; U (4, f); U (7, y); U (3, w); T (64, c); Hoist_vars [c]; T (7, x);   T (3, h); T (1, c); T (8, x); T (8, y); T (1, c)]"
85.4,1215300,34615,18923520,452864,"[V f; U (4, f); U (7, y); U (3, w); T (64, c); Hoist_vars [c]; T (4, x);   T (3, h); T (1, c); T (14, x); T (8, y); T (1, c)]"
82.3,1213814,35443,18923520,452864,"[V f; U (4, f); U (7, y); U (3, w); T (64, c); Hoist_vars [c]; T (2, x);   T (3, h); T (1, c); T (28, x); T (8, y); T (1, c)]"
86.9,1167143,33876,18923520,452864,"[V f; U (4, f); U (7, y); U (3, w); T (64, c); Hoist_vars [c]; T (1, x);   T (3, h); T (1, c); T (56, x); T (8, y); T (1, c)]"
80.3,386043,60336,6607872,668160,"[V f; U (2, f); ULambda y; T (64, c); Hoist_vars [c]; T (56, x); T (3, w);   T (3, h); T (1, x);   Lambda_apply y [((Iter 5), (Arg 9)); ((Iter 1), (Arg 11))]; T (2, f);   T (1, c); T (1, x)]"
81.6,400188,58603,6829056,668160,"[V f; U (2, f); ULambda y; T (64, c); Hoist_vars [c]; T (28, x); T (3, w);   T (3, h); T (2, x);   Lambda_apply y [((Iter 5), (Arg 9)); ((Iter 1), (Arg 11))]; T (2, f);   T (1, c); T (1, x)]"
83.7,380244,59820,7271424,668160,"[V f; U (2, f); ULambda y; T (64, c); Hoist_vars [c]; T (14, x); T (3, w);   T (3, h); T (4, x);   Lambda_apply y [((Iter 5), (Arg 9)); ((Iter 1), (Arg 11))]; T (2, f);   T (1, c); T (1, x)]"
82.8,378706,61037,7934976,668160,"[V f; U (2, f); ULambda y; T (64, c); Hoist_vars [c]; T (8, x); T (3, w);   T (3, h); T (7, x);   Lambda_apply y [((Iter 5), (Arg 9)); ((Iter 1), (Arg 11))]; T (2, f);   T (1, c); T (1, x)]"
83.4,389212,62514,8156160,668160,"[V f; U (2, f); ULambda y; T (64, c); Hoist_vars [c]; T (7, x); T (3, w);   T (3, h); T (8, x);   Lambda_apply y [((Iter 5), (Arg 9)); ((Iter 1), (Arg 11))]; T (2, f);   T (1, c); T (1, x)]"
84.2,436734,60492,5935104,668160,"[V f; U (2, f); ULambda y; T (64, c); Hoist_vars [c]; T (4, x); T (3, w);   T (3, h); T (14, x);   Lambda_apply y [((Iter 5), (Arg 9)); ((Iter 1), (Arg 11))]; T (2, f);   T (1, c); T (1, x)]"
84.7,515386,57618,9741312,668160,"[V f; U (2, f); ULambda y; T (64, c); Hoist_vars [c]; T (2, x); T (3, w);   T (3, h); T (28, x);   Lambda_apply y [((Iter 5), (Arg 9)); ((Iter 1), (Arg 11))]; T (2, f);   T (1, c); T (1, x)]"
81.6,928293,56208,17353728,668160,"[V f; U (2, f); ULambda y; T (64, c); Hoist_vars [c]; T (1, x); T (3, w);   T (3, h); T (56, x);   Lambda_apply y [((Iter 5), (Arg 9)); ((Iter 1), (Arg 11))]; T (2, f);   T (1, c); T (1, x)]"
83.6,401410,42073,6829056,452864,"[V f; U (2, f); ULambda y; T (64, c); Hoist_vars [c]; T (28, x); T (3, w);   T (3, h); T (1, x);   Lambda_apply y [((Iter 5), (Arg 9)); ((Iter 1), (Arg 11))]; T (2, f);   T (1, c); T (2, x)]"
84.2,381257,41001,7271424,452864,"[V f; U (2, f); ULambda y; T (64, c); Hoist_vars [c]; T (14, x); T (3, w);   T (3, h); T (2, x);   Lambda_apply y [((Iter 5), (Arg 9)); ((Iter 1), (Arg 11))]; T (2, f);   T (1, c); T (2, x)]"
84.7,392702,42668,8156160,452864,"[V f; U (2, f); ULambda y; T (64, c); Hoist_vars [c]; T (7, x); T (3, w);   T (3, h); T (4, x);   Lambda_apply y [((Iter 5), (Arg 9)); ((Iter 1), (Arg 11))]; T (2, f);   T (1, c); T (2, x)]"
85.2,439012,45812,5935104,452864,"[V f; U (2, f); ULambda y; T (64, c); Hoist_vars [c]; T (4, x); T (3, w);   T (3, h); T (7, x);   Lambda_apply y [((Iter 5), (Arg 9)); ((Iter 1), (Arg 11))]; T (2, f);   T (1, c); T (2, x)]"
86.5,519161,39787,9741312,452864,"[V f; U (2, f); ULambda y; T (64, c); Hoist_vars [c]; T (2, x); T (3, w);   T (3, h); T (14, x);   Lambda_apply y [((Iter 5), (Arg 9)); ((Iter 1), (Arg 11))]; T (2, f);   T (1, c); T (2, x)]"
82.8,927856,40295,17353728,452864,"[V f; U (2, f); ULambda y; T (64, c); Hoist_vars [c]; T (1, x); T (3, w);   T (3, h); T (28, x);   Lambda_apply y [((Iter 5), (Arg 9)); ((Iter 1), (Arg 11))]; T (2, f);   T (1, c); T (2, x)]"
85.0,381692,32215,7271424,452864,"[V f; U (2, f); ULambda y; T (64, c); Hoist_vars [c]; T (14, x); T (3, w);   T (3, h); T (1, x);   Lambda_apply y [((Iter 5), (Arg 9)); ((Iter 1), (Arg 11))]; T (2, f);   T (1, c); T (4, x)]"
85.8,395265,32829,8156160,452864,"[V f; U (2, f); ULambda y; T (64, c); Hoist_vars [c]; T (7, x); T (3, w);   T (3, h); T (2, x);   Lambda_apply y [((Iter 5), (Arg 9)); ((Iter 1), (Arg 11))]; T (2, f);   T (1, c); T (4, x)]"
86.7,519808,31876,9741312,452864,"[V f; U (2, f); ULambda y; T (64, c); Hoist_vars [c]; T (2, x); T (3, w);   T (3, h); T (7, x);   Lambda_apply y [((Iter 5), (Arg 9)); ((Iter 1), (Arg 11))]; T (2, f);   T (1, c); T (4, x)]"
87.5,928651,31356,17353728,452864,"[V f; U (2, f); ULambda y; T (64, c); Hoist_vars [c]; T (1, x); T (3, w);   T (3, h); T (14, x);   Lambda_apply y [((Iter 5), (Arg 9)); ((Iter 1), (Arg 11))]; T (2, f);   T (1, c); T (4, x)]"
86.3,383334,30249,7934976,452864,"[V f; U (2, f); ULambda y; T (64, c); Hoist_vars [c]; T (8, x); T (3, w);   T (3, h); T (1, x);   Lambda_apply y [((Iter 5), (Arg 9)); ((Iter 1), (Arg 11))]; T (2, f);   T (1, c); T (7, x)]"
86.3,444094,30138,5935104,452864,"[V f; U (2, f); ULambda y; T (64, c); Hoist_vars [c]; T (4, x); T (3, w);   T (3, h); T (2, x);   Lambda_apply y [((Iter 5), (Arg 9)); ((Iter 1), (Arg 11))]; T (2, f);   T (1, c); T (7, x)]"
83.8,519383,38013,9741312,452864,"[V f; U (2, f); ULambda y; T (64, c); Hoist_vars [c]; T (2, x); T (3, w);   T (3, h); T (4, x);   Lambda_apply y [((Iter 5), (Arg 9)); ((Iter 1), (Arg 11))]; T (2, f);   T (1, c); T (7, x)]"
87.1,931095,29908,17353728,452864,"[V f; U (2, f); ULambda y; T (64, c); Hoist_vars [c]; T (1, x); T (3, w);   T (3, h); T (8, x);   Lambda_apply y [((Iter 5), (Arg 9)); ((Iter 1), (Arg 11))]; T (2, f);   T (1, c); T (7, x)]"
86.9,395968,29995,8156160,452864,"[V f; U (2, f); ULambda y; T (64, c); Hoist_vars [c]; T (7, x); T (3, w);   T (3, h); T (1, x);   Lambda_apply y [((Iter 5), (Arg 9)); ((Iter 1), (Arg 11))]; T (2, f);   T (1, c); T (8, x)]"
84.6,933543,29788,17353728,452864,"[V f; U (2, f); ULambda y; T (64, c); Hoist_vars [c]; T (1, x); T (3, w);   T (3, h); T (7, x);   Lambda_apply y [((Iter 5), (Arg 9)); ((Iter 1), (Arg 11))]; T (2, f);   T (1, c); T (8, x)]"
87.4,451329,29067,5935104,452864,"[V f; U (2, f); ULambda y; T (64, c); Hoist_vars [c]; T (4, x); T (3, w);   T (3, h); T (1, x);   Lambda_apply y [((Iter 5), (Arg 9)); ((Iter 1), (Arg 11))]; T (2, f);   T (1, c); T (14, x)]"
85.1,524668,28894,9741312,452864,"[V f; U (2, f); ULambda y; T (64, c); Hoist_vars [c]; T (2, x); T (3, w);   T (3, h); T (2, x);   Lambda_apply y [((Iter 5), (Arg 9)); ((Iter 1), (Arg 11))]; T (2, f);   T (1, c); T (14, x)]"
83.0,936435,28972,17353728,452864,"[V f; U (2, f); ULambda y; T (64, c); Hoist_vars [c]; T (1, x); T (3, w);   T (3, h); T (4, x);   Lambda_apply y [((Iter 5), (Arg 9)); ((Iter 1), (Arg 11))]; T (2, f);   T (1, c); T (14, x)]"
86.8,534649,28686,9741312,452864,"[V f; U (2, f); ULambda y; T (64, c); Hoist_vars [c]; T (2, x); T (3, w);   T (3, h); T (1, x);   Lambda_apply y [((Iter 5), (Arg 9)); ((Iter 1), (Arg 11))]; T (2, f);   T (1, c); T (28, x)]"
86.5,946792,28677,17353728,452864,"[V f; U (2, f); ULambda y; T (64, c); Hoist_vars [c]; T (1, x); T (3, w);   T (3, h); T (2, x);   Lambda_apply y [((Iter 5), (Arg 9)); ((Iter 1), (Arg 11))]; T (2, f);   T (1, c); T (28, x)]"
88.0,962655,28577,17353728,452864,"[V f; U (2, f); ULambda y; T (64, c); Hoist_vars [c]; T (1, x); T (3, w);   T (3, h); T (1, x);   Lambda_apply y [((Iter 5), (Arg 9)); ((Iter 1), (Arg 11))]; T (2, f);   T (1, c); T (56, x)]"
81.7,384481,63171,5990400,668160,"[V f; U (2, f); ULambda y; T (64, c); Hoist_vars [c]; T (56, x); T (3, w);   T (3, h); T (1, x);   Lambda_apply y [((Iter 2), (Arg 10)); ((Iter 3), (Arg 12))]; T (2, f);   T (1, c); T (1, x)]"
82.1,399067,57839,6174720,668160,"[V f; U (2, f); ULambda y; T (64, c); Hoist_vars [c]; T (28, x); T (3, w);   T (3, h); T (2, x);   Lambda_apply y [((Iter 2), (Arg 10)); ((Iter 3), (Arg 12))]; T (2, f);   T (1, c); T (1, x)]"
81.8,413830,60610,6543360,668160,"[V f; U (2, f); ULambda y; T (64, c); Hoist_vars [c]; T (14, x); T (3, w);   T (3, h); T (4, x);   Lambda_apply y [((Iter 2), (Arg 10)); ((Iter 3), (Arg 12))]; T (2, f);   T (1, c); T (1, x)]"
81.3,372819,61855,7096320,668160,"[V f; U (2, f); ULambda y; T (64, c); Hoist_vars [c]; T (8, x); T (3, w);   T (3, h); T (7, x);   Lambda_apply y [((Iter 2), (Arg 10)); ((Iter 3), (Arg 12))]; T (2, f);   T (1, c); T (1, x)]"
81.0,382147,60972,7280640,668160,"[V f; U (2, f); ULambda y; T (64, c); Hoist_vars [c]; T (7, x); T (3, w);   T (3, h); T (8, x);   Lambda_apply y [((Iter 2), (Arg 10)); ((Iter 3), (Arg 12))]; T (2, f);   T (1, c); T (1, x)]"
81.4,427324,61217,5160960,668160,"[V f; U (2, f); ULambda y; T (64, c); Hoist_vars [c]; T (4, x); T (3, w);   T (3, h); T (14, x);   Lambda_apply y [((Iter 2), (Arg 10)); ((Iter 3), (Arg 12))]; T (2, f);   T (1, c); T (1, x)]"
84.5,459899,58359,8386560,668160,"[V f; U (2, f); ULambda y; T (64, c); Hoist_vars [c]; T (2, x); T (3, w);   T (3, h); T (28, x);   Lambda_apply y [((Iter 2), (Arg 10)); ((Iter 3), (Arg 12))]; T (2, f);   T (1, c); T (1, x)]"
83.7,797408,58192,14837760,668160,"[V f; U (2, f); ULambda y; T (64, c); Hoist_vars [c]; T (1, x); T (3, w);   T (3, h); T (56, x);   Lambda_apply y [((Iter 2), (Arg 10)); ((Iter 3), (Arg 12))]; T (2, f);   T (1, c); T (1, x)]"
79.9,405521,42365,6174720,452864,"[V f; U (2, f); ULambda y; T (64, c); Hoist_vars [c]; T (28, x); T (3, w);   T (3, h); T (1, x);   Lambda_apply y [((Iter 2), (Arg 10)); ((Iter 3), (Arg 12))]; T (2, f);   T (1, c); T (2, x)]"
82.8,416942,40865,6543360,452864,"[V f; U (2, f); ULambda y; T (64, c); Hoist_vars [c]; T (14, x); T (3, w);   T (3, h); T (2, x);   Lambda_apply y [((Iter 2), (Arg 10)); ((Iter 3), (Arg 12))]; T (2, f);   T (1, c); T (2, x)]"
81.7,382803,42148,7280640,452864,"[V f; U (2, f); ULambda y; T (64, c); Hoist_vars [c]; T (7, x); T (3, w);   T (3, h); T (4, x);   Lambda_apply y [((Iter 2), (Arg 10)); ((Iter 3), (Arg 12))]; T (2, f);   T (1, c); T (2, x)]"
82.4,421943,41239,5160960,452864,"[V f; U (2, f); ULambda y; T (64, c); Hoist_vars [c]; T (4, x); T (3, w);   T (3, h); T (7, x);   Lambda_apply y [((Iter 2), (Arg 10)); ((Iter 3), (Arg 12))]; T (2, f);   T (1, c); T (2, x)]"
85.4,460471,40385,8386560,452864,"[V f; U (2, f); ULambda y; T (64, c); Hoist_vars [c]; T (2, x); T (3, w);   T (3, h); T (14, x);   Lambda_apply y [((Iter 2), (Arg 10)); ((Iter 3), (Arg 12))]; T (2, f);   T (1, c); T (2, x)]"
84.8,798714,39895,14837760,452864,"[V f; U (2, f); ULambda y; T (64, c); Hoist_vars [c]; T (1, x); T (3, w);   T (3, h); T (28, x);   Lambda_apply y [((Iter 2), (Arg 10)); ((Iter 3), (Arg 12))]; T (2, f);   T (1, c); T (2, x)]"
84.1,416147,32405,6543360,452864,"[V f; U (2, f); ULambda y; T (64, c); Hoist_vars [c]; T (14, x); T (3, w);   T (3, h); T (1, x);   Lambda_apply y [((Iter 2), (Arg 10)); ((Iter 3), (Arg 12))]; T (2, f);   T (1, c); T (4, x)]"
84.0,385542,32593,7280640,452864,"[V f; U (2, f); ULambda y; T (64, c); Hoist_vars [c]; T (7, x); T (3, w);   T (3, h); T (2, x);   Lambda_apply y [((Iter 2), (Arg 10)); ((Iter 3), (Arg 12))]; T (2, f);   T (1, c); T (4, x)]"
86.1,459944,31657,8386560,452864,"[V f; U (2, f); ULambda y; T (64, c); Hoist_vars [c]; T (2, x); T (3, w);   T (3, h); T (7, x);   Lambda_apply y [((Iter 2), (Arg 10)); ((Iter 3), (Arg 12))]; T (2, f);   T (1, c); T (4, x)]"
85.7,800595,32180,14837760,452864,"[V f; U (2, f); ULambda y; T (64, c); Hoist_vars [c]; T (1, x); T (3, w);   T (3, h); T (14, x);   Lambda_apply y [((Iter 2), (Arg 10)); ((Iter 3), (Arg 12))]; T (2, f);   T (1, c); T (4, x)]"
84.9,374143,29883,7096320,452864,"[V f; U (2, f); ULambda y; T (64, c); Hoist_vars [c]; T (8, x); T (3, w);   T (3, h); T (1, x);   Lambda_apply y [((Iter 2), (Arg 10)); ((Iter 3), (Arg 12))]; T (2, f);   T (1, c); T (7, x)]"
83.0,432320,29985,5160960,452864,"[V f; U (2, f); ULambda y; T (64, c); Hoist_vars [c]; T (4, x); T (3, w);   T (3, h); T (2, x);   Lambda_apply y [((Iter 2), (Arg 10)); ((Iter 3), (Arg 12))]; T (2, f);   T (1, c); T (7, x)]"
87.3,462523,30191,8386560,452864,"[V f; U (2, f); ULambda y; T (64, c); Hoist_vars [c]; T (2, x); T (3, w);   T (3, h); T (4, x);   Lambda_apply y [((Iter 2), (Arg 10)); ((Iter 3), (Arg 12))]; T (2, f);   T (1, c); T (7, x)]"
85.8,801184,29706,14837760,452864,"[V f; U (2, f); ULambda y; T (64, c); Hoist_vars [c]; T (1, x); T (3, w);   T (3, h); T (8, x);   Lambda_apply y [((Iter 2), (Arg 10)); ((Iter 3), (Arg 12))]; T (2, f);   T (1, c); T (7, x)]"
81.1,386278,29664,7280640,452864,"[V f; U (2, f); ULambda y; T (64, c); Hoist_vars [c]; T (7, x); T (3, w);   T (3, h); T (1, x);   Lambda_apply y [((Iter 2), (Arg 10)); ((Iter 3), (Arg 12))]; T (2, f);   T (1, c); T (8, x)]"
86.0,800778,29399,14837760,452864,"[V f; U (2, f); ULambda y; T (64, c); Hoist_vars [c]; T (1, x); T (3, w);   T (3, h); T (7, x);   Lambda_apply y [((Iter 2), (Arg 10)); ((Iter 3), (Arg 12))]; T (2, f);   T (1, c); T (8, x)]"
85.6,436056,29215,5160960,452864,"[V f; U (2, f); ULambda y; T (64, c); Hoist_vars [c]; T (4, x); T (3, w);   T (3, h); T (1, x);   Lambda_apply y [((Iter 2), (Arg 10)); ((Iter 3), (Arg 12))]; T (2, f);   T (1, c); T (14, x)]"
84.9,465521,28801,8386560,452864,"[V f; U (2, f); ULambda y; T (64, c); Hoist_vars [c]; T (2, x); T (3, w);   T (3, h); T (2, x);   Lambda_apply y [((Iter 2), (Arg 10)); ((Iter 3), (Arg 12))]; T (2, f);   T (1, c); T (14, x)]"
86.6,803570,28921,14837760,452864,"[V f; U (2, f); ULambda y; T (64, c); Hoist_vars [c]; T (1, x); T (3, w);   T (3, h); T (4, x);   Lambda_apply y [((Iter 2), (Arg 10)); ((Iter 3), (Arg 12))]; T (2, f);   T (1, c); T (14, x)]"
86.4,475400,28629,8386560,452864,"[V f; U (2, f); ULambda y; T (64, c); Hoist_vars [c]; T (2, x); T (3, w);   T (3, h); T (1, x);   Lambda_apply y [((Iter 2), (Arg 10)); ((Iter 3), (Arg 12))]; T (2, f);   T (1, c); T (28, x)]"
85.9,813346,28950,14837760,452864,"[V f; U (2, f); ULambda y; T (64, c); Hoist_vars [c]; T (1, x); T (3, w);   T (3, h); T (2, x);   Lambda_apply y [((Iter 2), (Arg 10)); ((Iter 3), (Arg 12))]; T (2, f);   T (1, c); T (28, x)]"
88.1,824629,28587,14837760,452864,"[V f; U (2, f); ULambda y; T (64, c); Hoist_vars [c]; T (1, x); T (3, w);   T (3, h); T (1, x);   Lambda_apply y [((Iter 2), (Arg 10)); ((Iter 3), (Arg 12))]; T (2, f);   T (1, c); T (56, x)]"
79.1,397875,64760,6474240,668160,"[V f; U (2, f); ULambda y; T (64, c); Hoist_vars [c]; T (56, x); T (3, w);   T (3, h); T (1, x);   Lambda_apply y [((Iter 3), (Arg 10)); ((Iter 2), (Arg 13))]; T (2, f);   T (1, c); T (1, x)]"
81.3,405322,58955,6658560,668160,"[V f; U (2, f); ULambda y; T (64, c); Hoist_vars [c]; T (28, x); T (3, w);   T (3, h); T (2, x);   Lambda_apply y [((Iter 3), (Arg 10)); ((Iter 2), (Arg 13))]; T (2, f);   T (1, c); T (1, x)]"
82.0,412842,59660,7027200,668160,"[V f; U (2, f); ULambda y; T (64, c); Hoist_vars [c]; T (14, x); T (3, w);   T (3, h); T (4, x);   Lambda_apply y [((Iter 3), (Arg 10)); ((Iter 2), (Arg 13))]; T (2, f);   T (1, c); T (1, x)]"
82.1,384483,61975,7580160,668160,"[V f; U (2, f); ULambda y; T (64, c); Hoist_vars [c]; T (8, x); T (3, w);   T (3, h); T (7, x);   Lambda_apply y [((Iter 3), (Arg 10)); ((Iter 2), (Arg 13))]; T (2, f);   T (1, c); T (1, x)]"
83.3,390297,61987,7764480,668160,"[V f; U (2, f); ULambda y; T (64, c); Hoist_vars [c]; T (7, x); T (3, w);   T (3, h); T (8, x);   Lambda_apply y [((Iter 3), (Arg 10)); ((Iter 2), (Arg 13))]; T (2, f);   T (1, c); T (1, x)]"
81.7,441878,62069,5376000,668160,"[V f; U (2, f); ULambda y; T (64, c); Hoist_vars [c]; T (4, x); T (3, w);   T (3, h); T (14, x);   Lambda_apply y [((Iter 3), (Arg 10)); ((Iter 2), (Arg 13))]; T (2, f);   T (1, c); T (1, x)]"
84.0,462057,57572,8655360,668160,"[V f; U (2, f); ULambda y; T (64, c); Hoist_vars [c]; T (2, x); T (3, w);   T (3, h); T (28, x);   Lambda_apply y [((Iter 3), (Arg 10)); ((Iter 2), (Arg 13))]; T (2, f);   T (1, c); T (1, x)]"
84.4,804358,58252,15214080,668160,"[V f; U (2, f); ULambda y; T (64, c); Hoist_vars [c]; T (1, x); T (3, w);   T (3, h); T (56, x);   Lambda_apply y [((Iter 3), (Arg 10)); ((Iter 2), (Arg 13))]; T (2, f);   T (1, c); T (1, x)]"
82.3,406416,41714,6658560,452864,"[V f; U (2, f); ULambda y; T (64, c); Hoist_vars [c]; T (28, x); T (3, w);   T (3, h); T (1, x);   Lambda_apply y [((Iter 3), (Arg 10)); ((Iter 2), (Arg 13))]; T (2, f);   T (1, c); T (2, x)]"
83.5,413907,41427,7027200,452864,"[V f; U (2, f); ULambda y; T (64, c); Hoist_vars [c]; T (14, x); T (3, w);   T (3, h); T (2, x);   Lambda_apply y [((Iter 3), (Arg 10)); ((Iter 2), (Arg 13))]; T (2, f);   T (1, c); T (2, x)]"
83.6,391482,41006,7764480,452864,"[V f; U (2, f); ULambda y; T (64, c); Hoist_vars [c]; T (7, x); T (3, w);   T (3, h); T (4, x);   Lambda_apply y [((Iter 3), (Arg 10)); ((Iter 2), (Arg 13))]; T (2, f);   T (1, c); T (2, x)]"
83.2,439972,42560,5376000,452864,"[V f; U (2, f); ULambda y; T (64, c); Hoist_vars [c]; T (4, x); T (3, w);   T (3, h); T (7, x);   Lambda_apply y [((Iter 3), (Arg 10)); ((Iter 2), (Arg 13))]; T (2, f);   T (1, c); T (2, x)]"
84.2,462788,40774,8655360,452864,"[V f; U (2, f); ULambda y; T (64, c); Hoist_vars [c]; T (2, x); T (3, w);   T (3, h); T (14, x);   Lambda_apply y [((Iter 3), (Arg 10)); ((Iter 2), (Arg 13))]; T (2, f);   T (1, c); T (2, x)]"
84.2,804930,38113,15214080,452864,"[V f; U (2, f); ULambda y; T (64, c); Hoist_vars [c]; T (1, x); T (3, w);   T (3, h); T (28, x);   Lambda_apply y [((Iter 3), (Arg 10)); ((Iter 2), (Arg 13))]; T (2, f);   T (1, c); T (2, x)]"
83.3,412752,33213,7027200,452864,"[V f; U (2, f); ULambda y; T (64, c); Hoist_vars [c]; T (14, x); T (3, w);   T (3, h); T (1, x);   Lambda_apply y [((Iter 3), (Arg 10)); ((Iter 2), (Arg 13))]; T (2, f);   T (1, c); T (4, x)]"
84.3,393103,32830,7764480,452864,"[V f; U (2, f); ULambda y; T (64, c); Hoist_vars [c]; T (7, x); T (3, w);   T (3, h); T (2, x);   Lambda_apply y [((Iter 3), (Arg 10)); ((Iter 2), (Arg 13))]; T (2, f);   T (1, c); T (4, x)]"
85.3,466502,31781,8655360,452864,"[V f; U (2, f); ULambda y; T (64, c); Hoist_vars [c]; T (2, x); T (3, w);   T (3, h); T (7, x);   Lambda_apply y [((Iter 3), (Arg 10)); ((Iter 2), (Arg 13))]; T (2, f);   T (1, c); T (4, x)]"
84.8,807905,31901,15214080,452864,"[V f; U (2, f); ULambda y; T (64, c); Hoist_vars [c]; T (1, x); T (3, w);   T (3, h); T (14, x);   Lambda_apply y [((Iter 3), (Arg 10)); ((Iter 2), (Arg 13))]; T (2, f);   T (1, c); T (4, x)]"
83.9,388013,30209,7580160,452864,"[V f; U (2, f); ULambda y; T (64, c); Hoist_vars [c]; T (8, x); T (3, w);   T (3, h); T (1, x);   Lambda_apply y [((Iter 3), (Arg 10)); ((Iter 2), (Arg 13))]; T (2, f);   T (1, c); T (7, x)]"
85.6,443985,30168,5376000,452864,"[V f; U (2, f); ULambda y; T (64, c); Hoist_vars [c]; T (4, x); T (3, w);   T (3, h); T (2, x);   Lambda_apply y [((Iter 3), (Arg 10)); ((Iter 2), (Arg 13))]; T (2, f);   T (1, c); T (7, x)]"
85.8,466742,29816,8655360,452864,"[V f; U (2, f); ULambda y; T (64, c); Hoist_vars [c]; T (2, x); T (3, w);   T (3, h); T (4, x);   Lambda_apply y [((Iter 3), (Arg 10)); ((Iter 2), (Arg 13))]; T (2, f);   T (1, c); T (7, x)]"
85.2,807906,30103,15214080,452864,"[V f; U (2, f); ULambda y; T (64, c); Hoist_vars [c]; T (1, x); T (3, w);   T (3, h); T (8, x);   Lambda_apply y [((Iter 3), (Arg 10)); ((Iter 2), (Arg 13))]; T (2, f);   T (1, c); T (7, x)]"
85.6,396905,30057,7764480,452864,"[V f; U (2, f); ULambda y; T (64, c); Hoist_vars [c]; T (7, x); T (3, w);   T (3, h); T (1, x);   Lambda_apply y [((Iter 3), (Arg 10)); ((Iter 2), (Arg 13))]; T (2, f);   T (1, c); T (8, x)]"
85.9,806593,29464,15214080,452864,"[V f; U (2, f); ULambda y; T (64, c); Hoist_vars [c]; T (1, x); T (3, w);   T (3, h); T (7, x);   Lambda_apply y [((Iter 3), (Arg 10)); ((Iter 2), (Arg 13))]; T (2, f);   T (1, c); T (8, x)]"
85.3,451625,29358,5376000,452864,"[V f; U (2, f); ULambda y; T (64, c); Hoist_vars [c]; T (4, x); T (3, w);   T (3, h); T (1, x);   Lambda_apply y [((Iter 3), (Arg 10)); ((Iter 2), (Arg 13))]; T (2, f);   T (1, c); T (14, x)]"
85.7,471478,28938,8655360,452864,"[V f; U (2, f); ULambda y; T (64, c); Hoist_vars [c]; T (2, x); T (3, w);   T (3, h); T (2, x);   Lambda_apply y [((Iter 3), (Arg 10)); ((Iter 2), (Arg 13))]; T (2, f);   T (1, c); T (14, x)]"
85.2,814239,28978,15214080,452864,"[V f; U (2, f); ULambda y; T (64, c); Hoist_vars [c]; T (1, x); T (3, w);   T (3, h); T (4, x);   Lambda_apply y [((Iter 3), (Arg 10)); ((Iter 2), (Arg 13))]; T (2, f);   T (1, c); T (14, x)]"
