36.7,1222834,602637,18547200,2716160,"[V f; U (4, f); U (7, y); T (512, c); Hoist_vars [c]; T (7, x); T (3, w);   T (3, h); T (1, c); T (8, f); T (1, y); T (1, c)]"
26.9,1196495,1066113,17364480,2716160,"[V f; U (4, f); U (7, y); U (3, h); T (512, c); Hoist_vars [c]; T (7, x);   T (3, w); T (1, c); T (8, f); T (1, y); T (1, c)]"
26.6,2905682,1100956,18396672,2716160,"[V f; U (4, f); U (7, y); U (3, w); T (512, c); Hoist_vars [c]; T (7, x);   T (3, h); T (1, c); T (8, f); T (1, y); T (1, c)]"
