IdRun;NameConv;Time(ms);std;NbMicroKernel;AxeFuse;SizeAxeFuse;Schema;Time_search(3.836081027984619)
0;MobilNet_9;5.2413585;0.04806481184660993;1;axe_out_channels_0,axe_yy_0;17;[V f, U (4, f), U (7, y), T (32, c), Hoist_vars [c], T (3, w), T (3, h),  T (7, x), T (8, c), T (1, y), T (16, f), T (4, c), T (1, c)];9.72355341911316
1;MobilNet_9;4.1136431;0.2129175279898065;1;axe_out_channels_0,axe_yy_0;17;[V f, U (4, f), U (7, y), T (32, c), Hoist_vars [c], T (3, w), T (3, h),  T (7, x), T (2, c), T (1, y), T (16, f), T (4, c), T (4, c)];15.580277681350708
2;MobilNet_9;3.9664271999999996;0.02678562679050087;1;axe_out_channels_0,axe_yy_0;17;[V f, U (4, f), U (7, y), T (8, c), Hoist_vars [c], T (3, w), T (3, h),  T (7, x), T (4, c), T (1, y), T (16, f), T (2, c), T (16, c)];21.545223712921143
3;MobilNet_9;2.8588953;0.06526803920151117;1;axe_out_channels_0,axe_yy_0;17;[V f, U (4, f), U (7, y), T (16, c), Hoist_vars [c], T (3, w), T (3, h),  T (7, x), T (64, c), T (1, y), T (16, f), T (1, c), T (1, c)];27.32160258293152
4;MobilNet_9;5.052672800000001;0.46389285817628184;1;axe_out_channels_0,axe_yy_0;17;[V f, U (4, f), U (7, y), U (3, w), T (32, c), Hoist_vars [c], T (3, h),  T (7, x), T (1, c), T (1, y), T (16, f), T (16, c), T (2, c)];33.245924949645996
5;MobilNet_9;3.8485631;0.019259370480106563;1;axe_out_channels_0,axe_yy_0;17;[V f, U (4, f), U (7, y), U (3, h), T (8, c), Hoist_vars [c], T (3, w),  T (7, x), T (16, c), T (1, y), T (16, f), T (4, c), T (2, c)];39.17721390724182
6;MobilNet_9;5.7449136;0.11875133174596397;1;axe_out_channels_0,axe_yy_0;17;[V f, U (4, f), U (7, y), U (3, w), T (32, c), Hoist_vars [c], T (3, h),  T (7, x), T (4, c), T (1, y), T (16, f), T (1, c), T (8, c)];45.105538845062256
7;MobilNet_9;3.1220444;0.022373186488294512;1;axe_out_channels_0,axe_yy_0;17;[V f, U (4, f), U (7, y), U (3, w), T (8, c), Hoist_vars [c], T (3, h),  T (7, x), T (64, c), T (1, y), T (16, f), T (1, c), T (2, c)];51.008352279663086
8;MobilNet_9;3.958896;0.03992059865783571;1;axe_out_channels_0,axe_yy_0;17;[V f, U (4, f), U (7, y), T (8, c), Hoist_vars [c], T (3, w), T (3, h),  T (7, x), T (4, c), T (1, y), T (16, f), T (1, c), T (32, c)];57.04891848564148
9;MobilNet_9;3.4863920999999998;0.022154499504389618;1;axe_out_channels_0,axe_yy_0;17;[V f, U (4, f), U (7, y), U (3, w), T (8, c), Hoist_vars [c], T (3, h),  T (7, x), T (32, c), T (1, y), T (16, f), T (2, c), T (2, c)];63.05386424064636
10;MobilNet_9;5.8751543999999996;0.21603837755047137;1;axe_out_channels_0,axe_yy_0;17;[V f, U (4, f), U (7, y), U (3, w), T (32, c), Hoist_vars [c], T (3, h),  T (7, x), T (1, c), T (1, y), T (16, f), T (1, c), T (32, c)];68.95576524734497
11;MobilNet_9;3.1278131;0.01380373257093881;1;axe_out_channels_0,axe_yy_0;17;[V f, U (4, f), U (7, y), U (3, w), T (16, c), Hoist_vars [c], T (3, h),  T (7, x), T (4, c), T (1, y), T (16, f), T (1, c), T (16, c)];74.76722764968872
12;MobilNet_9;3.6694235999999996;0.013812241427082095;1;axe_out_channels_0,axe_yy_0;17;[V f, U (4, f), U (7, y), U (3, h), T (8, c), Hoist_vars [c], T (3, w),  T (7, x), T (32, c), T (1, y), T (16, f), T (1, c), T (4, c)];80.6728675365448
13;MobilNet_9;3.5724757999999994;0.03276457898340833;1;axe_out_channels_0,axe_yy_0;17;[V f, U (4, f), U (7, y), U (3, h), T (16, c), Hoist_vars [c], T (3, w),  T (7, x), T (2, c), T (1, y), T (16, f), T (8, c), T (4, c)];86.51636385917664
14;MobilNet_9;3.9446225;0.0459893297434307;1;axe_out_channels_0,axe_yy_0;17;[V f, U (4, f), U (7, y), T (8, c), Hoist_vars [c], T (3, w), T (3, h),  T (7, x), T (4, c), T (1, y), T (16, f), T (32, c), T (1, c)];92.45791554450989
15;MobilNet_9;3.0487146999999997;0.02018301149506686;1;axe_out_channels_0,axe_yy_0;17;[V f, U (4, f), U (7, y), U (3, h), T (16, c), Hoist_vars [c], T (3, w),  T (7, x), T (64, c), T (1, y), T (16, f), T (1, c), T (1, c)];98.2472312450409
16;MobilNet_9;3.4462330999999997;0.016221029316600053;1;axe_out_channels_0,axe_yy_0;17;[V f, U (4, f), U (7, y), U (3, w), T (8, c), Hoist_vars [c], T (3, h),  T (7, x), T (16, c), T (1, y), T (16, f), T (4, c), T (2, c)];104.12644267082214
17;MobilNet_9;4.0798335;0.38220791013432714;1;axe_out_channels_0,axe_yy_0;17;[V f, U (4, f), U (7, y), T (32, c), Hoist_vars [c], T (3, w), T (3, h),  T (7, x), T (2, c), T (1, y), T (16, f), T (2, c), T (8, c)];109.94799661636353
18;MobilNet_9;3.6536044000000003;0.03712184836777387;1;axe_out_channels_0,axe_yy_0;17;[V f, U (4, f), U (7, y), U (3, h), T (16, c), Hoist_vars [c], T (3, w),  T (7, x), T (4, c), T (1, y), T (16, f), T (8, c), T (2, c)];115.79506373405457
19;MobilNet_9;3.8959312000000006;0.025636815347464623;1;axe_out_channels_0,axe_yy_0;17;[V f, U (4, f), U (7, y), U (3, h), T (8, c), Hoist_vars [c], T (3, w),  T (7, x), T (16, c), T (1, y), T (16, f), T (2, c), T (4, c)];121.7859628200531
20;MobilNet_9;3.9344063;0.014092682527113275;1;axe_out_channels_0,axe_yy_0;17;[V f, U (4, f), U (7, y), U (3, h), T (8, c), Hoist_vars [c], T (3, w),  T (7, x), T (4, c), T (1, y), T (16, f), T (32, c), T (1, c)];127.77019810676575
21;MobilNet_9;3.5050841;0.01695622425807112;1;axe_out_channels_0,axe_yy_0;17;[V f, U (4, f), U (7, y), U (3, h), T (16, c), Hoist_vars [c], T (3, w),  T (7, x), T (8, c), T (1, y), T (16, f), T (1, c), T (8, c)];133.58856225013733
22;MobilNet_9;3.1169917;0.024392947944231743;1;axe_out_channels_0,axe_yy_0;17;[V f, U (4, f), U (7, y), U (3, w), T (16, c), Hoist_vars [c], T (3, h),  T (7, x), T (8, c), T (1, y), T (16, f), T (8, c), T (1, c)];139.41371870040894
23;MobilNet_9;6.4655808;0.05315394863563771;1;axe_out_channels_0,axe_yy_0;17;[V f, U (4, f), U (7, y), U (3, h), T (32, c), Hoist_vars [c], T (3, w),  T (7, x), T (1, c), T (1, y), T (16, f), T (16, c), T (2, c)];145.4133780002594
24;MobilNet_9;3.9251600000000004;0.012071421101096502;1;axe_out_channels_0,axe_yy_0;17;[V f, U (4, f), U (7, y), T (8, c), Hoist_vars [c], T (3, w), T (3, h),  T (7, x), T (32, c), T (1, y), T (16, f), T (2, c), T (2, c)];151.24945187568665
25;MobilNet_9;5.0822026;0.7860251669449522;1;axe_out_channels_0,axe_yy_0;17;[V f, U (4, f), U (7, y), T (32, c), Hoist_vars [c], T (3, w), T (3, h),  T (7, x), T (16, c), T (1, y), T (16, f), T (2, c), T (1, c)];157.1644470691681
26;MobilNet_9;3.3309213;0.025973916813026115;1;axe_out_channels_0,axe_yy_0;17;[V f, U (4, f), U (7, y), U (3, h), T (8, c), Hoist_vars [c], T (3, w),  T (7, x), T (64, c), T (1, y), T (16, f), T (2, c), T (1, c)];163.00863361358643
27;MobilNet_9;3.5024898999999996;0.02163773307650316;1;axe_out_channels_0,axe_yy_0;17;[V f, U (4, f), U (7, y), U (3, h), T (16, c), Hoist_vars [c], T (3, w),  T (7, x), T (8, c), T (1, y), T (16, f), T (8, c), T (1, c)];168.8299560546875
28;MobilNet_9;5.4086182;0.36518791685755436;1;axe_out_channels_0,axe_yy_0;17;[V f, U (4, f), U (7, y), U (3, w), T (32, c), Hoist_vars [c], T (3, h),  T (7, x), T (4, c), T (1, y), T (16, f), T (4, c), T (2, c)];174.78096222877502
29;MobilNet_9;3.2251302;0.03973406798655278;1;axe_out_channels_0,axe_yy_0;17;[V f, U (4, f), U (7, y), T (16, c), Hoist_vars [c], T (3, w), T (3, h),  T (7, x), T (4, c), T (1, y), T (16, f), T (4, c), T (4, c)];180.55037307739258
30;MobilNet_9;5.5232118;0.04664111195029571;1;axe_out_channels_0,axe_yy_0;17;[V f, U (4, f), U (7, y), T (32, c), Hoist_vars [c], T (3, w), T (3, h),  T (7, x), T (4, c), T (1, y), T (16, f), T (4, c), T (2, c)];186.42662382125854
31;MobilNet_9;4.1810168999999995;0.06821419150799922;1;axe_out_channels_0,axe_yy_0;17;[V f, U (4, f), U (7, y), T (32, c), Hoist_vars [c], T (3, w), T (3, h),  T (7, x), T (2, c), T (1, y), T (16, f), T (8, c), T (2, c)];192.24065017700195
32;MobilNet_9;6.2257929;0.028333829065094664;1;axe_out_channels_0,axe_yy_0;17;[V f, U (4, f), U (7, y), U (3, h), T (32, c), Hoist_vars [c], T (3, w),  T (7, x), T (16, c), T (1, y), T (16, f), T (1, c), T (2, c)];198.18548393249512
33;MobilNet_9;5.0881397999999995;0.2976900991268603;1;axe_out_channels_0,axe_yy_0;17;[V f, U (4, f), U (7, y), U (3, w), T (32, c), Hoist_vars [c], T (3, h),  T (7, x), T (16, c), T (1, y), T (16, f), T (1, c), T (2, c)];204.1034381389618
34;MobilNet_9;3.6038248999999993;0.013727963683299966;1;axe_out_channels_0,axe_yy_0;17;[V f, U (4, f), U (7, y), U (3, h), T (16, c), Hoist_vars [c], T (3, w),  T (7, x), T (4, c), T (1, y), T (16, f), T (1, c), T (16, c)];209.95290803909302
35;MobilNet_9;5.765874;0.08588205949789521;1;axe_out_channels_0,axe_yy_0;17;[V f, U (4, f), U (7, y), T (32, c), Hoist_vars [c], T (3, w), T (3, h),  T (7, x), T (8, c), T (1, y), T (16, f), T (2, c), T (2, c)];215.84530329704285
36;MobilNet_9;3.8560075999999994;0.010015600932545252;1;axe_out_channels_0,axe_yy_0;17;[V f, U (4, f), U (7, y), U (3, h), T (8, c), Hoist_vars [c], T (3, w),  T (7, x), T (16, c), T (1, y), T (16, f), T (1, c), T (8, c)];221.83775186538696
37;MobilNet_9;3.2321811000000005;0.02707938629455998;1;axe_out_channels_0,axe_yy_0;17;[V f, U (4, f), U (7, y), T (16, c), Hoist_vars [c], T (3, w), T (3, h),  T (7, x), T (2, c), T (1, y), T (16, f), T (8, c), T (4, c)];227.6058132648468
38;MobilNet_9;3.2520004;0.08599174894162802;1;axe_out_channels_0,axe_yy_0;17;[V f, U (4, f), U (7, y), T (16, c), Hoist_vars [c], T (3, w), T (3, h),  T (7, x), T (4, c), T (1, y), T (16, f), T (8, c), T (2, c)];233.37814927101135
39;MobilNet_9;3.2220309;0.026257361072468812;1;axe_out_channels_0,axe_yy_0;17;[V f, U (4, f), U (7, y), T (16, c), Hoist_vars [c], T (3, w), T (3, h),  T (7, x), T (16, c), T (1, y), T (16, f), T (2, c), T (2, c)];239.13750171661377
40;MobilNet_9;3.4140655000000004;0.017755187964366984;1;axe_out_channels_0,axe_yy_0;17;[V f, U (4, f), U (7, y), U (3, w), T (8, c), Hoist_vars [c], T (3, h),  T (7, x), T (16, c), T (1, y), T (16, f), T (2, c), T (4, c)];245.0569372177124
41;MobilNet_9;3.1557443;0.02373774333861589;1;axe_out_channels_0,axe_yy_0;17;[V f, U (4, f), U (7, y), U (3, w), T (16, c), Hoist_vars [c], T (3, h),  T (7, x), T (8, c), T (1, y), T (16, f), T (4, c), T (2, c)];250.89209413528442
42;MobilNet_9;4.9959801;0.2020596874809276;1;axe_out_channels_0,axe_yy_0;17;[V f, U (4, f), U (7, y), U (3, h), T (32, c), Hoist_vars [c], T (3, w),  T (7, x), T (1, c), T (1, y), T (16, f), T (32, c), T (1, c)];256.79300355911255
43;MobilNet_9;4.3276678;0.14696781576372417;1;axe_out_channels_0,axe_yy_0;17;[V f, U (4, f), U (7, y), U (3, h), T (32, c), Hoist_vars [c], T (3, w),  T (7, x), T (2, c), T (1, y), T (16, f), T (8, c), T (2, c)];262.6521599292755
44;MobilNet_9;3.6032098999999995;0.014028762101126394;1;axe_out_channels_0,axe_yy_0;17;[V f, U (4, f), U (7, y), U (3, w), T (8, c), Hoist_vars [c], T (3, h),  T (7, x), T (4, c), T (1, y), T (16, f), T (16, c), T (2, c)];268.6590619087219
45;MobilNet_9;4.110702300000001;0.09532966012217838;1;axe_out_channels_0,axe_yy_0;17;[V f, U (4, f), U (7, y), T (32, c), Hoist_vars [c], T (3, w), T (3, h),  T (7, x), T (2, c), T (1, y), T (16, f), T (16, c), T (1, c)];274.4710192680359
46;MobilNet_9;3.3245986000000003;0.02154648257233658;1;axe_out_channels_0,axe_yy_0;17;[V f, U (4, f), U (7, y), U (3, h), T (16, c), Hoist_vars [c], T (3, w),  T (7, x), T (16, c), T (1, y), T (16, f), T (2, c), T (2, c)];280.30208563804626
47;MobilNet_9;3.4631224000000005;0.01863123086755127;1;axe_out_channels_0,axe_yy_0;17;[V f, U (4, f), U (7, y), U (3, w), T (8, c), Hoist_vars [c], T (3, h),  T (7, x), T (32, c), T (1, y), T (16, f), T (4, c), T (1, c)];286.1894860267639
48;MobilNet_9;5.002585099999999;0.6604042900185386;1;axe_out_channels_0,axe_yy_0;17;[V f, U (4, f), U (7, y), T (32, c), Hoist_vars [c], T (3, w), T (3, h),  T (7, x), T (1, c), T (1, y), T (16, f), T (32, c), T (1, c)];292.0704069137573
49;MobilNet_9;6.2425908;0.07470811244543679;1;axe_out_channels_0,axe_yy_0;17;[V f, U (4, f), U (7, y), U (3, h), T (32, c), Hoist_vars [c], T (3, w),  T (7, x), T (2, c), T (1, y), T (16, f), T (4, c), T (4, c)];298.02763986587524
50;MobilNet_9;4.7438963;0.11171768620325968;1;axe_out_channels_0,axe_yy_0;17;[V f, U (4, f), U (7, y), U (3, w), T (32, c), Hoist_vars [c], T (3, h),  T (7, x), T (8, c), T (1, y), T (16, f), T (1, c), T (4, c)];303.91879177093506
51;MobilNet_9;3.4974704;0.027134095526477348;1;axe_out_channels_0,axe_yy_0;17;[V f, U (4, f), U (7, y), T (8, c), Hoist_vars [c], T (3, w), T (3, h),  T (7, x), T (64, c), T (1, y), T (16, f), T (2, c), T (1, c)];309.7611436843872
52;MobilNet_9;2.9933037;0.022686891871959904;1;axe_out_channels_0,axe_yy_0;17;[V f, U (4, f), U (7, y), T (16, c), Hoist_vars [c], T (3, w), T (3, h),  T (7, x), T (32, c), T (1, y), T (16, f), T (1, c), T (2, c)];315.5302529335022
53;MobilNet_9;3.2917609999999997;0.03884783771331417;1;axe_out_channels_0,axe_yy_0;17;[V f, U (4, f), U (7, y), T (16, c), Hoist_vars [c], T (3, w), T (3, h),  T (7, x), T (2, c), T (1, y), T (16, f), T (2, c), T (16, c)];321.27951884269714
54;MobilNet_9;3.9708006999999994;0.007869855666401984;1;axe_out_channels_0,axe_yy_0;17;[V f, U (4, f), U (7, y), U (3, h), T (8, c), Hoist_vars [c], T (3, w),  T (7, x), T (8, c), T (1, y), T (16, f), T (16, c), T (1, c)];327.28496384620667
55;MobilNet_9;5.7139365;0.03853903210837027;1;axe_out_channels_0,axe_yy_0;17;[V f, U (4, f), U (7, y), U (3, w), T (32, c), Hoist_vars [c], T (3, h),  T (7, x), T (2, c), T (1, y), T (16, f), T (16, c), T (1, c)];333.212198972702
56;MobilNet_9;5.6026601;0.5960851908766817;1;axe_out_channels_0,axe_yy_0;17;[V f, U (4, f), U (7, y), U (3, h), T (32, c), Hoist_vars [c], T (3, w),  T (7, x), T (4, c), T (1, y), T (16, f), T (2, c), T (4, c)];339.1448538303375
57;MobilNet_9;3.1287436;0.032432995943020765;1;axe_out_channels_0,axe_yy_0;17;[V f, U (4, f), U (7, y), U (3, w), T (16, c), Hoist_vars [c], T (3, h),  T (7, x), T (8, c), T (1, y), T (16, f), T (1, c), T (8, c)];344.9409317970276
58;MobilNet_9;5.9863906;0.2757828996700848;1;axe_out_channels_0,axe_yy_0;17;[V f, U (4, f), U (7, y), U (3, w), T (32, c), Hoist_vars [c], T (3, h),  T (7, x), T (8, c), T (1, y), T (16, f), T (4, c), T (1, c)];350.85634326934814
59;MobilNet_9;3.4932983;0.02422980460527902;1;axe_out_channels_0,axe_yy_0;17;[V f, U (4, f), U (7, y), U (3, h), T (16, c), Hoist_vars [c], T (3, w),  T (7, x), T (8, c), T (1, y), T (16, f), T (2, c), T (4, c)];356.7433910369873
60;MobilNet_9;3.9955073999999997;0.030757563935396616;1;axe_out_channels_0,axe_yy_0;17;[V f, U (4, f), U (7, y), U (3, h), T (8, c), Hoist_vars [c], T (3, w),  T (7, x), T (8, c), T (1, y), T (16, f), T (1, c), T (16, c)];362.772221326828
61;MobilNet_9;3.5060778;0.02492537527019413;1;axe_out_channels_0,axe_yy_0;17;[V f, U (4, f), U (7, y), T (8, c), Hoist_vars [c], T (3, w), T (3, h),  T (7, x), T (64, c), T (1, y), T (16, f), T (1, c), T (2, c)];368.6258850097656
62;MobilNet_9;6.1311026;0.10093084446213643;1;axe_out_channels_0,axe_yy_0;17;[V f, U (4, f), U (7, y), U (3, h), T (32, c), Hoist_vars [c], T (3, w),  T (7, x), T (16, c), T (1, y), T (16, f), T (2, c), T (1, c)];374.59767723083496
63;MobilNet_9;3.6710309000000003;0.01595393740397639;1;axe_out_channels_0,axe_yy_0;17;[V f, U (4, f), U (7, y), U (3, h), T (8, c), Hoist_vars [c], T (3, w),  T (7, x), T (32, c), T (1, y), T (16, f), T (2, c), T (2, c)];380.5016870498657
64;MobilNet_9;3.2596587;0.01591623965043253;1;axe_out_channels_0,axe_yy_0;17;[V f, U (4, f), U (7, y), U (3, w), T (16, c), Hoist_vars [c], T (3, h),  T (7, x), T (2, c), T (1, y), T (16, f), T (32, c), T (1, c)];386.28876066207886
65;MobilNet_9;5.2331701;0.6484193178706892;1;axe_out_channels_0,axe_yy_0;17;[V f, U (4, f), U (7, y), U (3, h), T (32, c), Hoist_vars [c], T (3, w),  T (7, x), T (2, c), T (1, y), T (16, f), T (16, c), T (1, c)];392.2217347621918
66;MobilNet_9;3.1793321;0.07075236587627307;1;axe_out_channels_0,axe_yy_0;17;[V f, U (4, f), U (7, y), T (16, c), Hoist_vars [c], T (3, w), T (3, h),  T (7, x), T (4, c), T (1, y), T (16, f), T (16, c), T (1, c)];397.98548698425293
67;MobilNet_9;3.7724355000000003;0.03438486547378074;1;axe_out_channels_0,axe_yy_0;17;[V f, U (4, f), U (7, y), T (8, c), Hoist_vars [c], T (3, w), T (3, h),  T (7, x), T (16, c), T (1, y), T (16, f), T (4, c), T (2, c)];403.9246916770935
68;MobilNet_9;3.1612301;0.02143982742677745;1;axe_out_channels_0,axe_yy_0;17;[V f, U (4, f), U (7, y), U (3, w), T (8, c), Hoist_vars [c], T (3, h),  T (7, x), T (64, c), T (1, y), T (16, f), T (2, c), T (1, c)];409.7905504703522
69;MobilNet_9;3.4049429999999994;0.04810941341359297;1;axe_out_channels_0,axe_yy_0;17;[V f, U (4, f), U (7, y), T (16, c), Hoist_vars [c], T (3, w), T (3, h),  T (7, x), T (2, c), T (1, y), T (16, f), T (32, c), T (1, c)];415.5686659812927
70;MobilNet_9;4.457519;0.200746470914933;1;axe_out_channels_0,axe_yy_0;17;[V f, U (4, f), U (7, y), U (3, h), T (32, c), Hoist_vars [c], T (3, w),  T (7, x), T (4, c), T (1, y), T (16, f), T (1, c), T (8, c)];421.45021080970764
71;MobilNet_9;3.8924901;0.11887785983138323;1;axe_out_channels_0,axe_yy_0;17;[V f, U (4, f), U (7, y), T (32, c), Hoist_vars [c], T (3, w), T (3, h),  T (7, x), T (4, c), T (1, y), T (16, f), T (1, c), T (8, c)];427.2687304019928
72;MobilNet_9;3.1764546;0.026061182748294373;1;axe_out_channels_0,axe_yy_0;17;[V f, U (4, f), U (7, y), T (16, c), Hoist_vars [c], T (3, w), T (3, h),  T (7, x), T (8, c), T (1, y), T (16, f), T (2, c), T (4, c)];433.03315830230713
73;MobilNet_9;3.1384857000000004;0.01496198364555992;1;axe_out_channels_0,axe_yy_0;17;[V f, U (4, f), U (7, y), U (3, w), T (8, c), Hoist_vars [c], T (3, h),  T (7, x), T (128, c), T (1, y), T (16, f), T (1, c), T (1, c)];438.8478055000305
74;MobilNet_9;5.349098099999999;0.2715394165083405;1;axe_out_channels_0,axe_yy_0;17;[V f, U (4, f), U (7, y), U (3, w), T (32, c), Hoist_vars [c], T (3, h),  T (7, x), T (2, c), T (1, y), T (16, f), T (4, c), T (4, c)];444.79371762275696
75;MobilNet_9;2.9012786;0.030327090471062305;1;axe_out_channels_0,axe_yy_0;17;[V f, U (4, f), U (7, y), T (16, c), Hoist_vars [c], T (3, w), T (3, h),  T (7, x), T (32, c), T (1, y), T (16, f), T (2, c), T (1, c)];450.6217999458313
76;MobilNet_9;3.7853669000000005;0.03266628206714074;1;axe_out_channels_0,axe_yy_0;17;[V f, U (4, f), U (7, y), T (8, c), Hoist_vars [c], T (3, w), T (3, h),  T (7, x), T (16, c), T (1, y), T (16, f), T (1, c), T (8, c)];456.5343222618103
77;MobilNet_9;3.9548954000000003;0.047817944634206015;1;axe_out_channels_0,axe_yy_0;17;[V f, U (4, f), U (7, y), T (8, c), Hoist_vars [c], T (3, w), T (3, h),  T (7, x), T (4, c), T (1, y), T (16, f), T (8, c), T (4, c)];462.50548791885376
78;MobilNet_9;3.4518154;0.02087232427019092;1;axe_out_channels_0,axe_yy_0;17;[V f, U (4, f), U (7, y), U (3, w), T (8, c), Hoist_vars [c], T (3, h),  T (7, x), T (8, c), T (1, y), T (16, f), T (8, c), T (2, c)];468.54236221313477
79;MobilNet_9;4.4909936;0.11899342789851869;1;axe_out_channels_0,axe_yy_0;17;[V f, U (4, f), U (7, y), U (3, w), T (32, c), Hoist_vars [c], T (3, h),  T (7, x), T (1, c), T (1, y), T (16, f), T (8, c), T (4, c)];474.4172055721283
80;MobilNet_9;3.1426831;0.05881983253197855;1;axe_out_channels_0,axe_yy_0;17;[V f, U (4, f), U (7, y), T (16, c), Hoist_vars [c], T (3, w), T (3, h),  T (7, x), T (8, c), T (1, y), T (16, f), T (1, c), T (8, c)];480.23512291908264
81;MobilNet_9;3.0807094999999998;0.019614744363615853;1;axe_out_channels_0,axe_yy_0;17;[V f, U (4, f), U (7, y), U (3, h), T (16, c), Hoist_vars [c], T (3, w),  T (7, x), T (32, c), T (1, y), T (16, f), T (2, c), T (1, c)];486.03124237060547
82;MobilNet_9;3.8030052;0.0272317493077474;1;axe_out_channels_0,axe_yy_0;17;[V f, U (4, f), U (7, y), T (8, c), Hoist_vars [c], T (3, w), T (3, h),  T (7, x), T (8, c), T (1, y), T (16, f), T (16, c), T (1, c)];491.93808007240295
83;MobilNet_9;5.177947600000001;0.3441062887641549;1;axe_out_channels_0,axe_yy_0;17;[V f, U (4, f), U (7, y), U (3, w), T (32, c), Hoist_vars [c], T (3, h),  T (7, x), T (32, c), T (1, y), T (16, f), T (1, c), T (1, c)];497.8387362957001
84;MobilNet_9;5.8982459;0.11650609381611776;1;axe_out_channels_0,axe_yy_0;17;[V f, U (4, f), U (7, y), U (3, h), T (32, c), Hoist_vars [c], T (3, w),  T (7, x), T (8, c), T (1, y), T (16, f), T (4, c), T (1, c)];503.73235726356506
85;MobilNet_9;3.6205654000000003;0.008414635098446014;1;axe_out_channels_0,axe_yy_0;17;[V f, U (4, f), U (7, y), U (3, h), T (16, c), Hoist_vars [c], T (3, w),  T (7, x), T (4, c), T (1, y), T (16, f), T (4, c), T (4, c)];509.56929302215576
86;MobilNet_9;5.9614141;0.14237213055190967;1;axe_out_channels_0,axe_yy_0;17;[V f, U (4, f), U (7, y), U (3, h), T (32, c), Hoist_vars [c], T (3, w),  T (7, x), T (8, c), T (1, y), T (16, f), T (1, c), T (4, c)];515.4799618721008
87;MobilNet_9;3.1505953;0.010587486359377337;1;axe_out_channels_0,axe_yy_0;17;[V f, U (4, f), U (7, y), U (3, w), T (16, c), Hoist_vars [c], T (3, h),  T (7, x), T (4, c), T (1, y), T (16, f), T (4, c), T (4, c)];521.2668900489807
88;MobilNet_9;4.5036791;0.4388922419413337;1;axe_out_channels_0,axe_yy_0;17;[V f, U (4, f), U (7, y), T (32, c), Hoist_vars [c], T (3, w), T (3, h),  T (7, x), T (32, c), T (1, y), T (16, f), T (1, c), T (1, c)];527.1107306480408
89;MobilNet_9;3.2220525;0.01997007270517561;1;axe_out_channels_0,axe_yy_0;17;[V f, U (4, f), U (7, y), T (16, c), Hoist_vars [c], T (3, w), T (3, h),  T (7, x), T (16, c), T (1, y), T (16, f), T (1, c), T (4, c)];532.9045419692993
90;MobilNet_9;5.0494627;0.18555087694918085;1;axe_out_channels_0,axe_yy_0;17;[V f, U (4, f), U (7, y), U (3, h), T (32, c), Hoist_vars [c], T (3, w),  T (7, x), T (1, c), T (1, y), T (16, f), T (2, c), T (16, c)];538.8608989715576
91;MobilNet_9;5.069375299999999;0.3063896796574747;1;axe_out_channels_0,axe_yy_0;17;[V f, U (4, f), U (7, y), U (3, w), T (32, c), Hoist_vars [c], T (3, h),  T (7, x), T (4, c), T (1, y), T (16, f), T (8, c), T (1, c)];544.8100316524506
92;MobilNet_9;3.4538031000000005;0.022530666374743633;1;axe_out_channels_0,axe_yy_0;17;[V f, U (4, f), U (7, y), U (3, w), T (8, c), Hoist_vars [c], T (3, h),  T (7, x), T (8, c), T (1, y), T (16, f), T (4, c), T (4, c)];550.8103737831116
93;MobilNet_9;4.0711398;0.11767694289180015;1;axe_out_channels_0,axe_yy_0;17;[V f, U (4, f), U (7, y), T (32, c), Hoist_vars [c], T (3, w), T (3, h),  T (7, x), T (4, c), T (1, y), T (16, f), T (2, c), T (4, c)];556.6237914562225
94;MobilNet_9;3.9832795000000005;0.030990740456626746;1;axe_out_channels_0,axe_yy_0;17;[V f, U (4, f), U (7, y), U (3, h), T (8, c), Hoist_vars [c], T (3, w),  T (7, x), T (8, c), T (1, y), T (16, f), T (8, c), T (2, c)];562.6707394123077
95;MobilNet_9;5.0999135;0.706753734565478;1;axe_out_channels_0,axe_yy_0;17;[V f, U (4, f), U (7, y), T (32, c), Hoist_vars [c], T (3, w), T (3, h),  T (7, x), T (2, c), T (1, y), T (16, f), T (1, c), T (16, c)];568.5308556556702
96;MobilNet_9;4.566833400000001;0.0866038951528165;1;axe_out_channels_0,axe_yy_0;17;[V f, U (4, f), U (7, y), U (3, h), T (32, c), Hoist_vars [c], T (3, w),  T (7, x), T (8, c), T (1, y), T (16, f), T (2, c), T (2, c)];574.3942036628723
97;MobilNet_9;3.6679562000000003;0.02101273319585062;1;axe_out_channels_0,axe_yy_0;17;[V f, U (4, f), U (7, y), U (3, h), T (8, c), Hoist_vars [c], T (3, w),  T (7, x), T (32, c), T (1, y), T (16, f), T (4, c), T (1, c)];580.2706604003906
98;MobilNet_9;4.3935449;0.06871478633372878;1;axe_out_channels_0,axe_yy_0;17;[V f, U (4, f), U (7, y), U (3, w), T (32, c), Hoist_vars [c], T (3, h),  T (7, x), T (1, c), T (1, y), T (16, f), T (32, c), T (1, c)];586.147120475769
99;MobilNet_9;3.9013926;0.016449544973645844;1;axe_out_channels_0,axe_yy_0;17;[V f, U (4, f), U (7, y), U (3, h), T (8, c), Hoist_vars [c], T (3, w),  T (7, x), T (4, c), T (1, y), T (16, f), T (1, c), T (32, c)];592.168952703476
100;MobilNet_9;3.2797919999999996;0.02905688242396278;1;axe_out_channels_0,axe_yy_0;17;[V f, U (4, f), U (7, y), U (3, w), T (16, c), Hoist_vars [c], T (3, h),  T (7, x), T (2, c), T (1, y), T (16, f), T (1, c), T (32, c)];597.9625215530396
101;MobilNet_9;4.399336799999999;0.23401851108226449;1;axe_out_channels_0,axe_yy_0;17;[V f, U (4, f), U (7, y), T (32, c), Hoist_vars [c], T (3, w), T (3, h),  T (7, x), T (1, c), T (1, y), T (16, f), T (2, c), T (16, c)];603.7506229877472
102;MobilNet_9;3.2333746000000003;0.04261400786408152;1;axe_out_channels_0,axe_yy_0;17;[V f, U (4, f), U (7, y), T (16, c), Hoist_vars [c], T (3, w), T (3, h),  T (7, x), T (16, c), T (1, y), T (16, f), T (4, c), T (1, c)];609.5108957290649
103;MobilNet_9;3.3224393999999995;0.012443516988375907;1;axe_out_channels_0,axe_yy_0;17;[V f, U (4, f), U (7, y), U (3, h), T (16, c), Hoist_vars [c], T (3, w),  T (7, x), T (16, c), T (1, y), T (16, f), T (4, c), T (1, c)];615.2521390914917
104;MobilNet_9;3.3095033999999997;0.023234514887124275;1;axe_out_channels_0,axe_yy_0;17;[V f, U (4, f), U (7, y), U (3, w), T (16, c), Hoist_vars [c], T (3, h),  T (7, x), T (2, c), T (1, y), T (16, f), T (16, c), T (2, c)];621.0331339836121
105;MobilNet_9;4.5048167;0.14914136279922466;1;axe_out_channels_0,axe_yy_0;17;[V f, U (4, f), U (7, y), U (3, h), T (32, c), Hoist_vars [c], T (3, w),  T (7, x), T (4, c), T (1, y), T (16, f), T (8, c), T (1, c)];626.9441719055176
106;MobilNet_9;3.2158155;0.022988330201430505;1;axe_out_channels_0,axe_yy_0;17;[V f, U (4, f), U (7, y), U (3, w), T (16, c), Hoist_vars [c], T (3, h),  T (7, x), T (4, c), T (1, y), T (16, f), T (16, c), T (1, c)];632.7834651470184
107;MobilNet_9;3.5612934000000003;0.023446903497903453;1;axe_out_channels_0,axe_yy_0;17;[V f, U (4, f), U (7, y), U (3, h), T (16, c), Hoist_vars [c], T (3, w),  T (7, x), T (2, c), T (1, y), T (16, f), T (32, c), T (1, c)];638.5733501911163
108;MobilNet_9;3.439152800000001;0.011307932709385864;1;axe_out_channels_0,axe_yy_0;17;[V f, U (4, f), U (7, y), U (3, w), T (8, c), Hoist_vars [c], T (3, h),  T (7, x), T (8, c), T (1, y), T (16, f), T (16, c), T (1, c)];644.6048517227173
109;MobilNet_9;3.5078754000000005;0.026966799673672756;1;axe_out_channels_0,axe_yy_0;17;[V f, U (4, f), U (7, y), U (3, w), T (8, c), Hoist_vars [c], T (3, h),  T (7, x), T (32, c), T (1, y), T (16, f), T (1, c), T (4, c)];650.5600695610046
110;MobilNet_9;5.3464315;0.32980623144150867;1;axe_out_channels_0,axe_yy_0;17;[V f, U (4, f), U (7, y), U (3, w), T (32, c), Hoist_vars [c], T (3, h),  T (7, x), T (2, c), T (1, y), T (16, f), T (1, c), T (16, c)];656.5091125965118
111;MobilNet_9;5.9248901;0.1714811352665066;1;axe_out_channels_0,axe_yy_0;17;[V f, U (4, f), U (7, y), U (3, w), T (32, c), Hoist_vars [c], T (3, h),  T (7, x), T (16, c), T (1, y), T (16, f), T (2, c), T (1, c)];662.523369550705
112;MobilNet_9;5.698708300000001;0.08495827315812149;1;axe_out_channels_0,axe_yy_0;17;[V f, U (4, f), U (7, y), U (3, w), T (32, c), Hoist_vars [c], T (3, h),  T (7, x), T (2, c), T (1, y), T (16, f), T (8, c), T (2, c)];668.4548115730286
113;MobilNet_9;3.9022705;0.040158116545102096;1;axe_out_channels_0,axe_yy_0;17;[V f, U (4, f), U (7, y), T (8, c), Hoist_vars [c], T (3, w), T (3, h),  T (7, x), T (32, c), T (1, y), T (16, f), T (1, c), T (4, c)];674.3036448955536
114;MobilNet_9;4.983340999999999;0.39582891411037685;1;axe_out_channels_0,axe_yy_0;17;[V f, U (4, f), U (7, y), U (3, w), T (32, c), Hoist_vars [c], T (3, h),  T (7, x), T (8, c), T (1, y), T (16, f), T (2, c), T (2, c)];680.1425929069519
115;MobilNet_9;2.8973494;0.01887670155615119;1;axe_out_channels_0,axe_yy_0;17;[V f, U (4, f), U (7, y), U (3, w), T (16, c), Hoist_vars [c], T (3, h),  T (7, x), T (32, c), T (1, y), T (16, f), T (1, c), T (2, c)];685.9159114360809
116;MobilNet_9;4.0057717;0.02008274752144242;1;axe_out_channels_0,axe_yy_0;17;[V f, U (4, f), U (7, y), T (8, c), Hoist_vars [c], T (3, w), T (3, h),  T (7, x), T (4, c), T (1, y), T (16, f), T (16, c), T (2, c)];691.8476614952087
117;MobilNet_9;3.1690743;0.08341903446462322;1;axe_out_channels_0,axe_yy_0;17;[V f, U (4, f), U (7, y), T (16, c), Hoist_vars [c], T (3, w), T (3, h),  T (7, x), T (8, c), T (1, y), T (16, f), T (8, c), T (1, c)];697.6545734405518
118;MobilNet_9;5.9806962;0.16338254771596644;1;axe_out_channels_0,axe_yy_0;17;[V f, U (4, f), U (7, y), U (3, w), T (32, c), Hoist_vars [c], T (3, h),  T (7, x), T (1, c), T (1, y), T (16, f), T (2, c), T (16, c)];703.5675044059753
119;MobilNet_9;6.1453216;0.4239754978335895;1;axe_out_channels_0,axe_yy_0;17;[V f, U (4, f), U (7, y), U (3, h), T (32, c), Hoist_vars [c], T (3, w),  T (7, x), T (1, c), T (1, y), T (16, f), T (8, c), T (4, c)];709.503014087677
120;MobilNet_9;3.5032423;0.03353979439725288;1;axe_out_channels_0,axe_yy_0;17;[V f, U (4, f), U (7, y), U (3, w), T (8, c), Hoist_vars [c], T (3, h),  T (7, x), T (16, c), T (1, y), T (16, f), T (8, c), T (1, c)];715.5078012943268
121;MobilNet_9;3.5729638;0.011390963293769351;1;axe_out_channels_0,axe_yy_0;17;[V f, U (4, f), U (7, y), U (3, w), T (8, c), Hoist_vars [c], T (3, h),  T (7, x), T (4, c), T (1, y), T (16, f), T (8, c), T (4, c)];721.576165676117
122;MobilNet_9;3.5697409;0.017564798225143372;1;axe_out_channels_0,axe_yy_0;17;[V f, U (4, f), U (7, y), U (3, w), T (8, c), Hoist_vars [c], T (3, h),  T (7, x), T (4, c), T (1, y), T (16, f), T (32, c), T (1, c)];727.6478250026703
123;MobilNet_9;3.7127229;0.030808410917962062;1;axe_out_channels_0,axe_yy_0;17;[V f, U (4, f), U (7, y), U (3, h), T (16, c), Hoist_vars [c], T (3, w),  T (7, x), T (2, c), T (1, y), T (16, f), T (16, c), T (2, c)];733.4513916969299
124;MobilNet_9;2.9468951;0.02318191872753423;1;axe_out_channels_0,axe_yy_0;17;[V f, U (4, f), U (7, y), U (3, w), T (16, c), Hoist_vars [c], T (3, h),  T (7, x), T (64, c), T (1, y), T (16, f), T (1, c), T (1, c)];739.2695541381836
125;MobilNet_9;3.1096747;0.04866406820447704;1;axe_out_channels_0,axe_yy_0;17;[V f, U (4, f), U (7, y), T (16, c), Hoist_vars [c], T (3, w), T (3, h),  T (7, x), T (8, c), T (1, y), T (16, f), T (4, c), T (2, c)];745.0531249046326
126;MobilNet_9;4.9657949;0.6591420240018763;1;axe_out_channels_0,axe_yy_0;17;[V f, U (4, f), U (7, y), U (3, h), T (32, c), Hoist_vars [c], T (3, w),  T (7, x), T (32, c), T (1, y), T (16, f), T (1, c), T (1, c)];750.8966093063354
127;MobilNet_9;4.2530328;0.3292182261700588;1;axe_out_channels_0,axe_yy_0;17;[V f, U (4, f), U (7, y), T (32, c), Hoist_vars [c], T (3, w), T (3, h),  T (7, x), T (4, c), T (1, y), T (16, f), T (8, c), T (1, c)];756.73228764534
128;MobilNet_9;3.3218283;0.010759330704555954;1;axe_out_channels_0,axe_yy_0;17;[V f, U (4, f), U (7, y), U (3, h), T (16, c), Hoist_vars [c], T (3, w),  T (7, x), T (16, c), T (1, y), T (16, f), T (1, c), T (4, c)];762.4896011352539
129;MobilNet_9;3.1663618000000002;0.01688052427384895;1;axe_out_channels_0,axe_yy_0;17;[V f, U (4, f), U (7, y), U (3, w), T (16, c), Hoist_vars [c], T (3, h),  T (7, x), T (16, c), T (1, y), T (16, f), T (1, c), T (4, c)];768.2811992168427
130;MobilNet_9;3.2637724000000006;0.031240795694732253;1;axe_out_channels_0,axe_yy_0;17;[V f, U (4, f), U (7, y), T (16, c), Hoist_vars [c], T (3, w), T (3, h),  T (7, x), T (2, c), T (1, y), T (16, f), T (1, c), T (32, c)];774.0308680534363
131;MobilNet_9;3.819516600000001;0.02356848403779931;1;axe_out_channels_0,axe_yy_0;17;[V f, U (4, f), U (7, y), T (8, c), Hoist_vars [c], T (3, w), T (3, h),  T (7, x), T (8, c), T (1, y), T (16, f), T (4, c), T (4, c)];779.9865417480469
132;MobilNet_9;4.9588664;0.7344393463429366;1;axe_out_channels_0,axe_yy_0;17;[V f, U (4, f), U (7, y), T (32, c), Hoist_vars [c], T (3, w), T (3, h),  T (7, x), T (1, c), T (1, y), T (16, f), T (8, c), T (4, c)];785.8905024528503
133;MobilNet_9;3.0439312999999997;0.01857928366783817;1;axe_out_channels_0,axe_yy_0;17;[V f, U (4, f), U (7, y), U (3, h), T (16, c), Hoist_vars [c], T (3, w),  T (7, x), T (32, c), T (1, y), T (16, f), T (1, c), T (2, c)];791.6937770843506
134;MobilNet_9;3.9103188;0.01934211505911396;1;axe_out_channels_0,axe_yy_0;17;[V f, U (4, f), U (7, y), T (8, c), Hoist_vars [c], T (3, w), T (3, h),  T (7, x), T (32, c), T (1, y), T (16, f), T (4, c), T (1, c)];797.5511622428894
135;MobilNet_9;3.1725743;0.020137310307238088;1;axe_out_channels_0,axe_yy_0;17;[V f, U (4, f), U (7, y), U (3, w), T (16, c), Hoist_vars [c], T (3, h),  T (7, x), T (4, c), T (1, y), T (16, f), T (8, c), T (2, c)];803.3891925811768
136;MobilNet_9;3.2789367999999994;0.012429820174081375;1;axe_out_channels_0,axe_yy_0;17;[V f, U (4, f), U (7, y), U (3, w), T (16, c), Hoist_vars [c], T (3, h),  T (7, x), T (2, c), T (1, y), T (16, f), T (8, c), T (4, c)];809.2026500701904
137;MobilNet_9;3.1880934000000005;0.0172141942489331;1;axe_out_channels_0,axe_yy_0;17;[V f, U (4, f), U (7, y), U (3, w), T (16, c), Hoist_vars [c], T (3, h),  T (7, x), T (16, c), T (1, y), T (16, f), T (2, c), T (2, c)];814.9594202041626
138;MobilNet_9;5.6225217999999995;0.40488324245461194;1;axe_out_channels_0,axe_yy_0;17;[V f, U (4, f), U (7, y), T (32, c), Hoist_vars [c], T (3, w), T (3, h),  T (7, x), T (1, c), T (1, y), T (16, f), T (1, c), T (32, c)];820.8017218112946
139;MobilNet_9;5.389813800000001;0.33007003804489743;1;axe_out_channels_0,axe_yy_0;17;[V f, U (4, f), U (7, y), T (32, c), Hoist_vars [c], T (3, w), T (3, h),  T (7, x), T (8, c), T (1, y), T (16, f), T (1, c), T (4, c)];826.6928708553314
140;MobilNet_9;3.8000403000000005;0.022911186124031174;1;axe_out_channels_0,axe_yy_0;17;[V f, U (4, f), U (7, y), T (8, c), Hoist_vars [c], T (3, w), T (3, h),  T (7, x), T (8, c), T (1, y), T (16, f), T (1, c), T (16, c)];832.5855121612549
141;MobilNet_9;6.5121093000000005;0.03936988458212698;1;axe_out_channels_0,axe_yy_0;17;[V f, U (4, f), U (7, y), U (3, h), T (32, c), Hoist_vars [c], T (3, w),  T (7, x), T (1, c), T (1, y), T (16, f), T (1, c), T (32, c)];838.522839307785
142;MobilNet_9;2.8722277;0.008654584381124212;1;axe_out_channels_0,axe_yy_0;17;[V f, U (4, f), U (7, y), U (3, w), T (16, c), Hoist_vars [c], T (3, h),  T (7, x), T (32, c), T (1, y), T (16, f), T (2, c), T (1, c)];844.307354927063
143;MobilNet_9;5.386994199999999;0.29737276824780035;1;axe_out_channels_0,axe_yy_0;17;[V f, U (4, f), U (7, y), U (3, w), T (32, c), Hoist_vars [c], T (3, h),  T (7, x), T (4, c), T (1, y), T (16, f), T (2, c), T (4, c)];850.2082300186157
144;MobilNet_9;4.0817574;0.023479748180932437;1;axe_out_channels_0,axe_yy_0;17;[V f, U (4, f), U (7, y), U (3, h), T (8, c), Hoist_vars [c], T (3, w),  T (7, x), T (4, c), T (1, y), T (16, f), T (16, c), T (2, c)];856.2137320041656
145;MobilNet_9;5.6369308;0.2515883506773714;1;axe_out_channels_0,axe_yy_0;17;[V f, U (4, f), U (7, y), T (32, c), Hoist_vars [c], T (3, w), T (3, h),  T (7, x), T (1, c), T (1, y), T (16, f), T (16, c), T (2, c)];862.1420829296112
146;MobilNet_9;5.831754800000001;0.6149977009473774;1;axe_out_channels_0,axe_yy_0;17;[V f, U (4, f), U (7, y), U (3, h), T (32, c), Hoist_vars [c], T (3, w),  T (7, x), T (4, c), T (1, y), T (16, f), T (4, c), T (2, c)];868.0390803813934
147;MobilNet_9;3.8298116;0.167728230228665;1;axe_out_channels_0,axe_yy_0;17;[V f, U (4, f), U (7, y), T (32, c), Hoist_vars [c], T (3, w), T (3, h),  T (7, x), T (16, c), T (1, y), T (16, f), T (1, c), T (2, c)];873.8775210380554
148;MobilNet_9;3.8590986999999997;0.017563616467288226;1;axe_out_channels_0,axe_yy_0;17;[V f, U (4, f), U (7, y), U (3, h), T (8, c), Hoist_vars [c], T (3, w),  T (7, x), T (16, c), T (1, y), T (16, f), T (8, c), T (1, c)];879.8546433448792
149;MobilNet_9;3.8107842999999995;0.03095946178165894;1;axe_out_channels_0,axe_yy_0;17;[V f, U (4, f), U (7, y), U (3, h), T (16, c), Hoist_vars [c], T (3, w),  T (7, x), T (2, c), T (1, y), T (16, f), T (2, c), T (16, c)];885.6985371112823
150;MobilNet_9;3.8288640000000003;0.025324875877287108;1;axe_out_channels_0,axe_yy_0;17;[V f, U (4, f), U (7, y), T (8, c), Hoist_vars [c], T (3, w), T (3, h),  T (7, x), T (16, c), T (1, y), T (16, f), T (8, c), T (1, c)];891.6285824775696
151;MobilNet_9;6.169417;0.05097128576757716;1;axe_out_channels_0,axe_yy_0;17;[V f, U (4, f), U (7, y), U (3, h), T (32, c), Hoist_vars [c], T (3, w),  T (7, x), T (2, c), T (1, y), T (16, f), T (1, c), T (16, c)];897.5688118934631
152;MobilNet_9;4.140984200000001;0.03541808141557095;1;axe_out_channels_0,axe_yy_0;17;[V f, U (4, f), U (7, y), U (3, h), T (8, c), Hoist_vars [c], T (3, w),  T (7, x), T (4, c), T (1, y), T (16, f), T (2, c), T (16, c)];903.5788447856903
153;MobilNet_9;3.5362827;0.0405970805749625;1;axe_out_channels_0,axe_yy_0;17;[V f, U (4, f), U (7, y), T (8, c), Hoist_vars [c], T (3, w), T (3, h),  T (7, x), T (128, c), T (1, y), T (16, f), T (1, c), T (1, c)];909.3502750396729
154;MobilNet_9;3.5973642;0.014766112730167067;1;axe_out_channels_0,axe_yy_0;17;[V f, U (4, f), U (7, y), U (3, h), T (16, c), Hoist_vars [c], T (3, w),  T (7, x), T (4, c), T (1, y), T (16, f), T (16, c), T (1, c)];915.1580708026886
155;MobilNet_9;3.4981165000000005;0.013942128117687023;1;axe_out_channels_0,axe_yy_0;17;[V f, U (4, f), U (7, y), U (3, h), T (16, c), Hoist_vars [c], T (3, w),  T (7, x), T (8, c), T (1, y), T (16, f), T (4, c), T (2, c)];920.961991071701
156;MobilNet_9;3.1224394999999996;0.011425732048757275;1;axe_out_channels_0,axe_yy_0;17;[V f, U (4, f), U (7, y), U (3, w), T (16, c), Hoist_vars [c], T (3, h),  T (7, x), T (8, c), T (1, y), T (16, f), T (2, c), T (4, c)];926.783970117569
157;MobilNet_9;3.3987784000000003;0.08173959735550453;1;axe_out_channels_0,axe_yy_0;17;[V f, U (4, f), U (7, y), T (16, c), Hoist_vars [c], T (3, w), T (3, h),  T (7, x), T (2, c), T (1, y), T (16, f), T (16, c), T (2, c)];932.5950286388397
158;MobilNet_9;3.3421484999999995;0.02564087038401773;1;axe_out_channels_0,axe_yy_0;17;[V f, U (4, f), U (7, y), U (3, h), T (8, c), Hoist_vars [c], T (3, w),  T (7, x), T (128, c), T (1, y), T (16, f), T (1, c), T (1, c)];938.4648494720459
159;MobilNet_9;3.821107;0.02432653253959552;1;axe_out_channels_0,axe_yy_0;17;[V f, U (4, f), U (7, y), T (8, c), Hoist_vars [c], T (3, w), T (3, h),  T (7, x), T (8, c), T (1, y), T (16, f), T (8, c), T (2, c)];944.4474866390228
160;MobilNet_9;3.3253733;0.021421264780820043;1;axe_out_channels_0,axe_yy_0;17;[V f, U (4, f), U (7, y), U (3, w), T (16, c), Hoist_vars [c], T (3, h),  T (7, x), T (2, c), T (1, y), T (16, f), T (2, c), T (16, c)];950.264128446579
161;MobilNet_9;3.9099787;0.017460226138569814;1;axe_out_channels_0,axe_yy_0;17;[V f, U (4, f), U (7, y), U (3, h), T (8, c), Hoist_vars [c], T (3, w),  T (7, x), T (4, c), T (1, y), T (16, f), T (8, c), T (4, c)];956.2602400779724
162;MobilNet_9;3.1536630000000003;0.08286480458433483;1;axe_out_channels_0,axe_yy_0;17;[V f, U (4, f), U (7, y), T (16, c), Hoist_vars [c], T (3, w), T (3, h),  T (7, x), T (4, c), T (1, y), T (16, f), T (1, c), T (16, c)];962.0486657619476
163;MobilNet_9;3.8244898;0.038859769458400056;1;axe_out_channels_0,axe_yy_0;17;[V f, U (4, f), U (7, y), T (8, c), Hoist_vars [c], T (3, w), T (3, h),  T (7, x), T (16, c), T (1, y), T (16, f), T (2, c), T (4, c)];968.0094199180603
164;MobilNet_9;3.3181936;0.01857630679763878;1;axe_out_channels_0,axe_yy_0;17;[V f, U (4, f), U (7, y), U (3, h), T (8, c), Hoist_vars [c], T (3, w),  T (7, x), T (64, c), T (1, y), T (16, f), T (1, c), T (2, c)];973.8927516937256
165;MobilNet_9;3.5530829000000006;0.013986718596225531;1;axe_out_channels_0,axe_yy_0;17;[V f, U (4, f), U (7, y), U (3, h), T (16, c), Hoist_vars [c], T (3, w),  T (7, x), T (2, c), T (1, y), T (16, f), T (1, c), T (32, c)];979.697790145874
166;MobilNet_9;3.2389378;0.009033542702616745;1;axe_out_channels_0,axe_yy_0;17;[V f, U (4, f), U (7, y), U (3, w), T (16, c), Hoist_vars [c], T (3, h),  T (7, x), T (16, c), T (1, y), T (16, f), T (4, c), T (1, c)];985.5278263092041
167;MobilNet_9;3.9922636999999996;0.009697277566925656;1;axe_out_channels_0,axe_yy_0;17;[V f, U (4, f), U (7, y), U (3, h), T (8, c), Hoist_vars [c], T (3, w),  T (7, x), T (8, c), T (1, y), T (16, f), T (4, c), T (4, c)];991.6236038208008
