L1 volume, L2 volume
22995968, 1518592
23152640, 1518592
23465984, 1518592
7315456, 1518592
8568832, 1518592
11075584, 1518592
6218752, 1518592
6218752, 1518592
6218752, 1518592
6218752, 1518592
6218752, 1518592
23152640, 1675264
23465984, 1675264
7315456, 1675264
8568832, 1675264
11075584, 1675264
6375424, 1675264
6375424, 1675264
6375424, 1675264
6375424, 1675264
6375424, 1675264
23465984, 1412096
7315456, 1412096
8568832, 1412096
11075584, 1412096
6688768, 1412096
6688768, 1412096
6688768, 1412096
6688768, 1412096
6688768, 1412096
7315456, 968192
8568832, 968192
11075584, 968192
7315456, 968192
7315456, 968192
7315456, 968192
7315456, 968192
7315456, 968192
8568832, 968192
11075584, 968192
8568832, 968192
8568832, 968192
8568832, 968192
8568832, 968192
8568832, 968192
11075584, 968192
11075584, 968192
11075584, 968192
11075584, 968192
11075584, 968192
11075584, 968192
11388928, 968192
11388928, 968192
11388928, 968192
11388928, 968192
11388928, 968192
21415936, 968192
21415936, 968192
21415936, 968192
21415936, 968192
41469952, 968192
41469952, 968192
41469952, 968192
81577984, 968192
81577984, 968192
161794048, 968192
22995968, 18295808
23152640, 18295808
23465984, 18295808
22995968, 18295808
22995968, 18295808
22995968, 18295808
22995968, 18295808
22995968, 18295808
22995968, 18295808
22995968, 18295808
22995968, 18295808
23152640, 18452480
23465984, 18452480
23152640, 18452480
23152640, 18452480
23152640, 18452480
23152640, 18452480
23152640, 18452480
23152640, 18452480
23152640, 18452480
23152640, 18452480
23465984, 1412096
23465984, 1412096
23465984, 1412096
23465984, 1412096
23465984, 1412096
23465984, 1412096
23465984, 1412096
23465984, 1412096
23465984, 1412096
19392512, 968192
19392512, 968192
19392512, 968192
19392512, 968192
19392512, 968192
19392512, 968192
19392512, 968192
19392512, 968192
20645888, 968192
20645888, 968192
20645888, 968192
20645888, 968192
20645888, 968192
20645888, 968192
20645888, 968192
23152640, 968192
23152640, 968192
23152640, 968192
23152640, 968192
23152640, 968192
23152640, 968192
28166144, 968192
28166144, 968192
28166144, 968192
28166144, 968192
28166144, 968192
38193152, 968192
38193152, 968192
38193152, 968192
38193152, 968192
41469952, 968192
41469952, 968192
41469952, 968192
81577984, 968192
81577984, 968192
161794048, 968192
