L1 volume, L2 volume
7354368, 826496
10967040, 1227904
18192384, 2030720
32643072, 3636352
61544448, 6847616
119347200, 13270144
7483392, 826496
11096064, 1227904
18321408, 2030720
32772096, 3636352
61673472, 6847616
119476224, 13270144
7741440, 826496
11354112, 1227904
18579456, 2030720
33030144, 3636352
7476224, 6847616
13484800, 13270144
8128512, 826496
2270464, 1227904
2245376, 2030720
3851008, 3636352
7062272, 6847616
13484800, 13270144
8257536, 826496
2408448, 1227904
2245376, 2030720
3851008, 3636352
7062272, 6847616
13484800, 13270144
2834944, 826496
3236352, 1227904
2245376, 2030720
3851008, 3636352
7062272, 6847616
13484800, 13270144
3110912, 826496
1442560, 1227904
2245376, 2030720
3851008, 3636352
7062272, 6847616
13484800, 13270144
4766720, 826496
1442560, 1227904
2245376, 2030720
3851008, 3636352
7062272, 6847616
13484800, 13270144
8630272, 826496
1442560, 1227904
2245376, 2030720
3851008, 3636352
7062272, 6847616
13484800, 13270144
16357376, 826496
1442560, 1227904
2245376, 2030720
3851008, 3636352
7062272, 6847616
13484800, 13270144
7483392, 843008
11096064, 1244416
18321408, 843008
32772096, 843008
61673472, 843008
119476224, 843008
7741440, 843008
11354112, 1244416
18579456, 843008
33030144, 843008
7476224, 843008
13622784, 843008
8257536, 843008
2408448, 1244416
2383360, 843008
3988992, 843008
7200256, 843008
13622784, 843008
2834944, 843008
3236352, 1244416
2383360, 843008
3988992, 843008
7200256, 843008
13622784, 843008
3110912, 843008
1580544, 1244416
2383360, 843008
3988992, 843008
7200256, 843008
13622784, 843008
4766720, 843008
1580544, 1244416
2383360, 843008
3988992, 843008
7200256, 843008
13622784, 843008
8630272, 843008
1580544, 1244416
2383360, 843008
3988992, 843008
7200256, 843008
13622784, 843008
16357376, 843008
1580544, 1244416
2383360, 843008
3988992, 843008
7200256, 843008
13622784, 843008
7741440, 826496
11354112, 826496
18579456, 826496
33030144, 826496
7476224, 826496
13319680, 826496
8257536, 826496
2408448, 826496
2659328, 826496
4264960, 826496
7476224, 826496
13319680, 826496
3110912, 826496
1856512, 826496
2659328, 826496
4264960, 826496
7476224, 826496
13319680, 826496
4766720, 826496
1856512, 826496
2659328, 826496
4264960, 826496
7476224, 826496
13319680, 826496
8630272, 826496
1856512, 826496
2659328, 826496
4264960, 826496
7476224, 826496
13319680, 826496
16357376, 826496
1856512, 826496
2659328, 826496
4264960, 826496
7476224, 826496
13319680, 826496
8128512, 826496
2270464, 826496
2129792, 826496
3735424, 826496
6946688, 826496
13369216, 826496
2834944, 826496
3236352, 826496
2129792, 826496
3735424, 826496
6946688, 826496
13369216, 826496
4766720, 826496
2270464, 826496
2129792, 826496
3735424, 826496
6946688, 826496
13369216, 826496
8630272, 826496
2270464, 826496
2129792, 826496
3735424, 826496
6946688, 826496
13369216, 826496
16357376, 826496
2270464, 826496
2129792, 826496
3735424, 826496
6946688, 826496
13369216, 826496
8257536, 826496
2408448, 826496
2146304, 826496
3751936, 826496
6963200, 826496
13385728, 826496
3110912, 826496
2408448, 826496
2146304, 826496
3751936, 826496
6963200, 826496
13385728, 826496
8630272, 826496
2408448, 826496
2146304, 826496
3751936, 826496
6963200, 826496
13385728, 826496
16357376, 826496
2408448, 826496
2146304, 826496
3751936, 826496
6963200, 826496
13385728, 826496
2834944, 826496
3236352, 826496
2245376, 826496
3851008, 826496
7062272, 826496
13484800, 826496
4766720, 826496
3236352, 826496
2245376, 826496
3851008, 826496
7062272, 826496
13484800, 826496
8630272, 826496
3236352, 826496
2245376, 826496
3851008, 826496
7062272, 826496
13484800, 826496
16357376, 826496
3236352, 826496
2245376, 826496
3851008, 826496
7062272, 826496
13484800, 826496
3110912, 826496
1475584, 826496
2278400, 826496
3884032, 826496
7095296, 826496
13517824, 826496
16357376, 826496
1475584, 826496
2278400, 826496
3884032, 826496
7095296, 826496
13517824, 826496
4766720, 826496
1673728, 826496
2476544, 826496
4082176, 826496
7293440, 826496
13715968, 826496
8630272, 826496
1673728, 826496
2476544, 826496
4082176, 826496
7293440, 826496
13715968, 826496
16357376, 826496
1673728, 826496
2476544, 826496
4082176, 826496
7293440, 826496
13715968, 826496
8630272, 826496
2136064, 826496
2938880, 826496
4544512, 826496
7755776, 826496
1734656, 826496
16357376, 826496
2136064, 826496
2938880, 826496
4544512, 826496
7755776, 826496
1734656, 826496
16357376, 826496
3060736, 826496
3863552, 826496
2659328, 826496
2659328, 826496
2659328, 826496
7299072, 826496
10911744, 1227904
18137088, 2030720
32587776, 3636352
61489152, 6847616
119291904, 13270144
7372800, 826496
10985472, 1227904
18210816, 2030720
32661504, 3636352
61562880, 6847616
119365632, 13270144
7520256, 826496
11132928, 1227904
18358272, 2030720
32808960, 3636352
61710336, 6847616
119513088, 13270144
7741440, 826496
11354112, 1227904
18579456, 2030720
33030144, 3636352
7454720, 6847616
13385728, 13270144
7815168, 826496
11427840, 1227904
6782976, 2030720
4325376, 3636352
6963200, 6847616
13385728, 13270144
8257536, 826496
2408448, 1227904
2146304, 2030720
3751936, 3636352
6963200, 6847616
13385728, 13270144
3932160, 826496
2572288, 1227904
2146304, 2030720
3751936, 3636352
6963200, 6847616
13385728, 13270144
3153920, 826496
1343488, 1227904
2146304, 2030720
3751936, 3636352
6963200, 6847616
13385728, 13270144
5447680, 826496
1343488, 1227904
2146304, 2030720
3751936, 3636352
6963200, 6847616
13385728, 13270144
10035200, 826496
1343488, 1227904
2146304, 2030720
3751936, 3636352
6963200, 6847616
13385728, 13270144
7372800, 843008
10985472, 1244416
18210816, 843008
32661504, 843008
61562880, 843008
119365632, 843008
7520256, 843008
11132928, 1244416
18358272, 843008
32808960, 843008
61710336, 843008
119513088, 843008
7815168, 843008
11427840, 1244416
6782976, 843008
4325376, 843008
7045120, 843008
13467648, 843008
8257536, 843008
2408448, 1244416
2228224, 843008
3833856, 843008
7045120, 843008
13467648, 843008
3932160, 843008
2572288, 1244416
2228224, 843008
3833856, 843008
7045120, 843008
13467648, 843008
3153920, 843008
1425408, 1244416
2228224, 843008
3833856, 843008
7045120, 843008
13467648, 843008
5447680, 843008
1425408, 1244416
2228224, 843008
3833856, 843008
7045120, 843008
13467648, 843008
10035200, 843008
1425408, 1244416
2228224, 843008
3833856, 843008
7045120, 843008
13467648, 843008
7520256, 826496
11132928, 826496
18358272, 826496
32808960, 826496
61710336, 826496
119513088, 826496
7815168, 826496
11427840, 826496
6782976, 826496
4325376, 826496
7208960, 826496
13631488, 826496
3932160, 826496
2572288, 826496
2392064, 826496
3997696, 826496
7208960, 826496
13631488, 826496
3153920, 826496
1589248, 826496
2392064, 826496
3997696, 826496
7208960, 826496
13631488, 826496
5447680, 826496
1589248, 826496
2392064, 826496
3997696, 826496
7208960, 826496
13631488, 826496
10035200, 826496
1589248, 826496
2392064, 826496
3997696, 826496
7208960, 826496
13631488, 826496
7741440, 826496
11354112, 826496
18579456, 826496
33030144, 826496
7454720, 826496
13369216, 826496
8257536, 826496
2408448, 826496
2637824, 826496
4243456, 826496
7454720, 826496
13369216, 826496
3153920, 826496
1835008, 826496
2637824, 826496
4243456, 826496
7454720, 826496
13369216, 826496
5447680, 826496
1835008, 826496
2637824, 826496
4243456, 826496
7454720, 826496
13369216, 826496
10035200, 826496
1835008, 826496
2637824, 826496
4243456, 826496
7454720, 826496
13369216, 826496
7815168, 826496
11427840, 826496
6782976, 826496
4325376, 826496
6963200, 826496
13385728, 826496
3932160, 826496
2572288, 826496
2719744, 826496
4325376, 826496
6963200, 826496
13385728, 826496
5447680, 826496
1916928, 826496
2719744, 826496
4325376, 826496
6963200, 826496
13385728, 826496
10035200, 826496
1916928, 826496
2719744, 826496
4325376, 826496
6963200, 826496
13385728, 826496
8257536, 826496
2408448, 826496
2245376, 826496
3851008, 826496
7062272, 826496
13484800, 826496
3153920, 826496
2408448, 826496
2245376, 826496
3851008, 826496
7062272, 826496
13484800, 826496
5447680, 826496
2408448, 826496
2245376, 826496
3851008, 826496
7062272, 826496
13484800, 826496
10035200, 826496
2408448, 826496
2245376, 826496
3851008, 826496
7062272, 826496
13484800, 826496
3932160, 826496
2572288, 826496
2278400, 826496
3884032, 826496
7095296, 826496
13517824, 826496
10035200, 826496
2572288, 826496
2278400, 826496
3884032, 826496
7095296, 826496
13517824, 826496
3153920, 826496
1673728, 826496
2476544, 826496
4082176, 826496
7293440, 826496
13715968, 826496
5447680, 826496
1673728, 826496
2476544, 826496
4082176, 826496
7293440, 826496
13715968, 826496
10035200, 826496
1673728, 826496
2476544, 826496
4082176, 826496
7293440, 826496
13715968, 826496
5447680, 826496
2136064, 826496
2938880, 826496
4544512, 826496
7755776, 826496
1734656, 826496
10035200, 826496
2136064, 826496
2938880, 826496
4544512, 826496
7755776, 826496
1734656, 826496
10035200, 826496
3060736, 826496
3863552, 826496
2659328, 826496
2659328, 826496
2659328, 826496
4030464, 1242368
5234688, 1643776
7643136, 2446592
12460032, 3636352
22093824, 6847616
41361408, 13270144
4104192, 1242368
5308416, 1643776
7716864, 2446592
12533760, 3636352
22167552, 6847616
41435136, 13270144
4251648, 1242368
5455872, 1643776
7864320, 2446592
12681216, 3636352
7430144, 6847616
13852672, 13270144
4472832, 1242368
5677056, 1643776
2613248, 2446592
4218880, 3636352
7430144, 6847616
13852672, 13270144
4546560, 1242368
2441216, 1643776
2613248, 2446592
4218880, 3636352
7430144, 6847616
13852672, 13270144
2580480, 1242368
1810432, 1643776
2613248, 2446592
4218880, 3636352
7430144, 6847616
13852672, 13270144
2760704, 1242368
1810432, 1643776
2613248, 2446592
4218880, 3636352
7430144, 6847616
13852672, 13270144
3842048, 1242368
1810432, 1643776
2613248, 2446592
4218880, 3636352
7430144, 6847616
13852672, 13270144
1409024, 1242368
1810432, 1643776
2613248, 2446592
4218880, 3636352
7430144, 6847616
13852672, 13270144
1409024, 1242368
1810432, 1643776
2613248, 2446592
4218880, 3636352
7430144, 6847616
13852672, 13270144
4104192, 1266176
5308416, 1244416
7716864, 843008
12533760, 843008
22167552, 843008
41435136, 843008
4251648, 1266176
5455872, 1244416
7864320, 843008
12681216, 843008
7520256, 843008
13942784, 843008
4546560, 1266176
2441216, 1244416
2703360, 843008
4308992, 843008
7520256, 843008
13942784, 843008
2580480, 1266176
1900544, 1244416
2703360, 843008
4308992, 843008
7520256, 843008
13942784, 843008
2760704, 1266176
1900544, 1244416
2703360, 843008
4308992, 843008
7520256, 843008
13942784, 843008
3842048, 1266176
1900544, 1244416
2703360, 843008
4308992, 843008
7520256, 843008
13942784, 843008
1499136, 1266176
1900544, 1244416
2703360, 843008
4308992, 843008
7520256, 843008
13942784, 843008
1499136, 1266176
1900544, 1244416
2703360, 843008
4308992, 843008
7520256, 843008
13942784, 843008
4251648, 826496
5455872, 826496
7864320, 826496
12681216, 826496
7334912, 826496
13757440, 826496
4546560, 826496
2441216, 826496
2883584, 826496
4489216, 826496
7334912, 826496
13757440, 826496
2760704, 826496
2080768, 826496
2883584, 826496
4489216, 826496
7334912, 826496
13757440, 826496
3842048, 826496
2080768, 826496
2883584, 826496
4489216, 826496
7334912, 826496
13757440, 826496
1679360, 826496
2080768, 826496
2883584, 826496
4489216, 826496
7334912, 826496
13757440, 826496
1679360, 826496
2080768, 826496
2883584, 826496
4489216, 826496
7334912, 826496
13757440, 826496
4472832, 826496
5677056, 826496
2589440, 826496
4195072, 826496
7406336, 826496
13828864, 826496
2580480, 826496
2351104, 826496
2589440, 826496
4195072, 826496
7406336, 826496
13828864, 826496
3842048, 826496
2351104, 826496
2589440, 826496
4195072, 826496
7406336, 826496
13828864, 826496
1949696, 826496
2351104, 826496
2589440, 826496
4195072, 826496
7406336, 826496
13828864, 826496
1949696, 826496
2351104, 826496
2589440, 826496
4195072, 826496
7406336, 826496
13828864, 826496
4546560, 826496
2441216, 826496
2613248, 826496
4218880, 826496
7430144, 826496
13852672, 826496
2760704, 826496
2441216, 826496
2613248, 826496
4218880, 826496
7430144, 826496
13852672, 826496
2039808, 826496
2441216, 826496
2613248, 826496
4218880, 826496
7430144, 826496
13852672, 826496
2039808, 826496
2441216, 826496
2613248, 826496
4218880, 826496
7430144, 826496
13852672, 826496
2580480, 826496
1953280, 826496
2756096, 826496
4361728, 826496
7572992, 826496
13995520, 826496
3842048, 826496
1953280, 826496
2756096, 826496
4361728, 826496
7572992, 826496
13995520, 826496
2580480, 826496
1953280, 826496
2756096, 826496
4361728, 826496
7572992, 826496
13995520, 826496
2580480, 826496
1953280, 826496
2756096, 826496
4361728, 826496
7572992, 826496
13995520, 826496
2760704, 826496
2000896, 826496
2803712, 826496
4409344, 826496
7620608, 826496
14043136, 826496
2760704, 826496
2000896, 826496
2803712, 826496
4409344, 826496
7620608, 826496
14043136, 826496
3842048, 826496
2286592, 826496
3089408, 826496
4695040, 826496
7906304, 826496
13715968, 826496
3842048, 826496
2286592, 826496
3089408, 826496
4695040, 826496
7906304, 826496
13715968, 826496
3842048, 826496
2286592, 826496
3089408, 826496
4695040, 826496
7906304, 826496
13715968, 826496
2551808, 826496
2953216, 826496
3756032, 826496
4544512, 826496
7755776, 826496
1734656, 826496
2551808, 826496
2953216, 826496
3756032, 826496
4544512, 826496
7755776, 826496
1734656, 826496
3885056, 826496
4286464, 826496
3863552, 826496
2659328, 826496
2659328, 826496
2659328, 826496
8257536, 826496
12321792, 1227904
20450304, 2030720
36707328, 3636352
69221376, 6847616
134249472, 13270144
8386560, 826496
12450816, 1227904
20579328, 2030720
36836352, 3636352
69350400, 6847616
134378496, 13270144
8644608, 826496
12708864, 1227904
20837376, 2030720
37094400, 3636352
69608448, 6847616
134636544, 13270144
9031680, 826496
5136768, 1227904
3330432, 2030720
4303488, 3636352
7916160, 6847616
15141504, 13270144
9160704, 826496
2566144, 1227904
2497152, 2030720
4303488, 3636352
7916160, 6847616
15141504, 13270144
4854528, 826496
3399424, 1227904
2497152, 2030720
4303488, 3636352
7916160, 6847616
15141504, 13270144
3225600, 826496
3677184, 1227904
2497152, 2030720
4303488, 3636352
7916160, 6847616
15141504, 13270144
4892160, 826496
1593984, 1227904
2497152, 2030720
4303488, 3636352
7916160, 6847616
15141504, 13270144
8780800, 826496
1593984, 1227904
2497152, 2030720
4303488, 3636352
7916160, 6847616
15141504, 13270144
16558080, 826496
1593984, 1227904
2497152, 2030720
4303488, 3636352
7916160, 6847616
15141504, 13270144
8386560, 843008
12450816, 1244416
20579328, 843008
36836352, 843008
69350400, 843008
134378496, 843008
8644608, 843008
12708864, 1244416
20837376, 843008
37094400, 843008
69608448, 843008
134636544, 843008
9160704, 843008
2566144, 1244416
2636032, 843008
4442368, 843008
8055040, 843008
15280384, 843008
4854528, 843008
3399424, 1244416
2636032, 843008
4442368, 843008
8055040, 843008
15280384, 843008
3225600, 843008
3677184, 1244416
2636032, 843008
4442368, 843008
8055040, 843008
15280384, 843008
4892160, 843008
1732864, 1244416
2636032, 843008
4442368, 843008
8055040, 843008
15280384, 843008
8780800, 843008
1732864, 1244416
2636032, 843008
4442368, 843008
8055040, 843008
15280384, 843008
16558080, 843008
1732864, 1244416
2636032, 843008
4442368, 843008
8055040, 843008
15280384, 843008
8644608, 826496
12708864, 826496
20837376, 826496
37094400, 826496
69608448, 826496
134636544, 826496
9160704, 826496
2566144, 826496
2913792, 826496
4720128, 826496
8332800, 826496
15558144, 826496
3225600, 826496
3677184, 826496
2913792, 826496
4720128, 826496
8332800, 826496
15558144, 826496
4892160, 826496
2010624, 826496
2913792, 826496
4720128, 826496
8332800, 826496
15558144, 826496
8780800, 826496
2010624, 826496
2913792, 826496
4720128, 826496
8332800, 826496
15558144, 826496
16558080, 826496
2010624, 826496
2913792, 826496
4720128, 826496
8332800, 826496
15558144, 826496
9031680, 826496
5136768, 826496
3330432, 826496
3735424, 826496
6946688, 826496
13369216, 826496
4854528, 826496
3399424, 826496
3330432, 826496
3735424, 826496
6946688, 826496
13369216, 826496
4892160, 826496
2427264, 826496
3330432, 826496
3735424, 826496
6946688, 826496
13369216, 826496
8780800, 826496
2427264, 826496
3330432, 826496
3735424, 826496
6946688, 826496
13369216, 826496
16558080, 826496
2427264, 826496
3330432, 826496
3735424, 826496
6946688, 826496
13369216, 826496
9160704, 826496
2566144, 826496
2146304, 826496
3751936, 826496
6963200, 826496
13385728, 826496
3225600, 826496
3677184, 826496
2146304, 826496
3751936, 826496
6963200, 826496
13385728, 826496
8780800, 826496
2566144, 826496
2146304, 826496
3751936, 826496
6963200, 826496
13385728, 826496
16558080, 826496
2566144, 826496
2146304, 826496
3751936, 826496
6963200, 826496
13385728, 826496
4854528, 826496
3399424, 826496
2245376, 826496
3851008, 826496
7062272, 826496
13484800, 826496
4892160, 826496
3399424, 826496
2245376, 826496
3851008, 826496
7062272, 826496
13484800, 826496
8780800, 826496
3399424, 826496
2245376, 826496
3851008, 826496
7062272, 826496
13484800, 826496
16558080, 826496
3399424, 826496
2245376, 826496
3851008, 826496
7062272, 826496
13484800, 826496
3225600, 826496
3677184, 826496
2278400, 826496
3884032, 826496
7095296, 826496
13517824, 826496
16558080, 826496
3677184, 826496
2278400, 826496
3884032, 826496
7095296, 826496
13517824, 826496
4892160, 826496
1673728, 826496
2476544, 826496
4082176, 826496
7293440, 826496
13715968, 826496
8780800, 826496
1673728, 826496
2476544, 826496
4082176, 826496
7293440, 826496
13715968, 826496
16558080, 826496
1673728, 826496
2476544, 826496
4082176, 826496
7293440, 826496
13715968, 826496
8780800, 826496
2136064, 826496
2938880, 826496
4544512, 826496
7755776, 826496
1734656, 826496
16558080, 826496
2136064, 826496
2938880, 826496
4544512, 826496
7755776, 826496
1734656, 826496
16558080, 826496
3060736, 826496
3863552, 826496
2659328, 826496
2659328, 826496
2659328, 826496
10063872, 826496
15031296, 1227904
24966144, 2030720
44835840, 3636352
84575232, 6847616
164054016, 13270144
10192896, 826496
15160320, 1227904
25095168, 2030720
44964864, 3636352
84704256, 6847616
164183040, 13270144
10450944, 826496
15418368, 1227904
25353216, 2030720
45222912, 3636352
84962304, 6847616
164441088, 13270144
10838016, 826496
15805440, 1227904
3844736, 2030720
5208448, 3636352
9623936, 6847616
18454912, 13270144
10967040, 826496
6236160, 1227904
3985408, 2030720
5208448, 3636352
9623936, 6847616
18454912, 13270144
5531904, 826496
3725568, 1227904
3000704, 2030720
5208448, 3636352
9623936, 6847616
18454912, 13270144
5849088, 826496
4006912, 1227904
3000704, 2030720
5208448, 3636352
9623936, 6847616
18454912, 13270144
5143040, 826496
1896832, 1227904
3000704, 2030720
5208448, 3636352
9623936, 6847616
18454912, 13270144
9081856, 826496
1896832, 1227904
3000704, 2030720
5208448, 3636352
9623936, 6847616
18454912, 13270144
16959488, 826496
1896832, 1227904
3000704, 2030720
5208448, 3636352
9623936, 6847616
18454912, 13270144
10192896, 843008
15160320, 1244416
25095168, 843008
44964864, 843008
84704256, 843008
164183040, 843008
10450944, 843008
15418368, 1244416
25353216, 843008
45222912, 843008
84962304, 843008
164441088, 843008
10967040, 843008
6236160, 1244416
3985408, 843008
5349120, 843008
9764608, 843008
18595584, 843008
5531904, 843008
3725568, 1244416
3141376, 843008
5349120, 843008
9764608, 843008
18595584, 843008
5849088, 843008
4006912, 1244416
3141376, 843008
5349120, 843008
9764608, 843008
18595584, 843008
5143040, 843008
2037504, 1244416
3141376, 843008
5349120, 843008
9764608, 843008
18595584, 843008
9081856, 843008
2037504, 1244416
3141376, 843008
5349120, 843008
9764608, 843008
18595584, 843008
16959488, 843008
2037504, 1244416
3141376, 843008
5349120, 843008
9764608, 843008
18595584, 843008
10450944, 826496
15418368, 826496
25353216, 826496
45222912, 826496
84962304, 826496
164441088, 826496
10967040, 826496
6236160, 826496
3985408, 826496
5630464, 826496
10045952, 826496
18876928, 826496
5849088, 826496
4006912, 826496
3422720, 826496
5630464, 826496
10045952, 826496
18876928, 826496
5143040, 826496
2318848, 826496
3422720, 826496
5630464, 826496
10045952, 826496
18876928, 826496
9081856, 826496
2318848, 826496
3422720, 826496
5630464, 826496
10045952, 826496
18876928, 826496
16959488, 826496
2318848, 826496
3422720, 826496
5630464, 826496
10045952, 826496
18876928, 826496
10838016, 826496
15805440, 826496
3844736, 826496
3735424, 826496
6946688, 826496
13369216, 826496
5531904, 826496
3725568, 826496
3844736, 826496
3735424, 826496
6946688, 826496
13369216, 826496
5143040, 826496
2740864, 826496
3844736, 826496
3735424, 826496
6946688, 826496
13369216, 826496
9081856, 826496
2740864, 826496
3844736, 826496
3735424, 826496
6946688, 826496
13369216, 826496
16959488, 826496
2740864, 826496
3844736, 826496
3735424, 826496
6946688, 826496
13369216, 826496
10967040, 826496
6236160, 826496
3985408, 826496
3751936, 826496
6963200, 826496
13385728, 826496
5849088, 826496
4006912, 826496
3985408, 826496
3751936, 826496
6963200, 826496
13385728, 826496
9081856, 826496
2881536, 826496
3985408, 826496
3751936, 826496
6963200, 826496
13385728, 826496
16959488, 826496
2881536, 826496
3985408, 826496
3751936, 826496
6963200, 826496
13385728, 826496
5531904, 826496
3725568, 826496
2245376, 826496
3851008, 826496
7062272, 826496
13484800, 826496
5143040, 826496
3725568, 826496
2245376, 826496
3851008, 826496
7062272, 826496
13484800, 826496
9081856, 826496
3725568, 826496
2245376, 826496
3851008, 826496
7062272, 826496
13484800, 826496
16959488, 826496
3725568, 826496
2245376, 826496
3851008, 826496
7062272, 826496
13484800, 826496
5849088, 826496
4006912, 826496
2278400, 826496
3884032, 826496
7095296, 826496
13517824, 826496
16959488, 826496
4006912, 826496
2278400, 826496
3884032, 826496
7095296, 826496
13517824, 826496
5143040, 826496
1673728, 826496
2476544, 826496
4082176, 826496
7293440, 826496
13715968, 826496
9081856, 826496
1673728, 826496
2476544, 826496
4082176, 826496
7293440, 826496
13715968, 826496
16959488, 826496
1673728, 826496
2476544, 826496
4082176, 826496
7293440, 826496
13715968, 826496
9081856, 826496
2136064, 826496
2938880, 826496
4544512, 826496
7755776, 826496
1734656, 826496
16959488, 826496
2136064, 826496
2938880, 826496
4544512, 826496
7755776, 826496
1734656, 826496
16959488, 826496
3060736, 826496
3863552, 826496
2659328, 826496
2659328, 826496
2659328, 826496
11870208, 826496
17740800, 1227904
29481984, 2030720
52964352, 3636352
99929088, 6847616
193858560, 13270144
11999232, 826496
17869824, 1227904
29611008, 2030720
53093376, 3636352
100058112, 6847616
193987584, 13270144
12257280, 826496
18127872, 1227904
29869056, 2030720
53351424, 3636352
100316160, 6847616
194245632, 13270144
12644352, 826496
18514944, 1227904
30256128, 2030720
6968192, 3636352
11331712, 6847616
21768320, 13270144
12773376, 826496
18643968, 1227904
11096064, 2030720
6113408, 3636352
11331712, 6847616
21768320, 13270144
6209280, 826496
4051712, 1227904
3504256, 2030720
6113408, 3636352
11331712, 6847616
21768320, 13270144
6537216, 826496
4336640, 1227904
3504256, 2030720
6113408, 3636352
11331712, 6847616
21768320, 13270144
5393920, 826496
2199680, 1227904
3504256, 2030720
6113408, 3636352
11331712, 6847616
21768320, 13270144
9382912, 826496
2199680, 1227904
3504256, 2030720
6113408, 3636352
11331712, 6847616
21768320, 13270144
17360896, 826496
2199680, 1227904
3504256, 2030720
6113408, 3636352
11331712, 6847616
21768320, 13270144
11999232, 843008
17869824, 1244416
29611008, 843008
53093376, 843008
100058112, 843008
193987584, 843008
12257280, 843008
18127872, 1244416
29869056, 843008
53351424, 843008
100316160, 843008
194245632, 843008
12773376, 843008
18643968, 1244416
11096064, 843008
6255872, 843008
11474176, 843008
21910784, 843008
6209280, 843008
4051712, 1244416
3646720, 843008
6255872, 843008
11474176, 843008
21910784, 843008
6537216, 843008
4336640, 1244416
3646720, 843008
6255872, 843008
11474176, 843008
21910784, 843008
5393920, 843008
2342144, 1244416
3646720, 843008
6255872, 843008
11474176, 843008
21910784, 843008
9382912, 843008
2342144, 1244416
3646720, 843008
6255872, 843008
11474176, 843008
21910784, 843008
17360896, 843008
2342144, 1244416
3646720, 843008
6255872, 843008
11474176, 843008
21910784, 843008
12257280, 826496
18127872, 826496
29869056, 826496
53351424, 826496
100316160, 826496
194245632, 826496
12773376, 826496
18643968, 826496
11096064, 826496
6540800, 826496
11759104, 826496
22195712, 826496
6537216, 826496
4336640, 826496
3931648, 826496
6540800, 826496
11759104, 826496
22195712, 826496
5393920, 826496
2627072, 826496
3931648, 826496
6540800, 826496
11759104, 826496
22195712, 826496
9382912, 826496
2627072, 826496
3931648, 826496
6540800, 826496
11759104, 826496
22195712, 826496
17360896, 826496
2627072, 826496
3931648, 826496
6540800, 826496
11759104, 826496
22195712, 826496
12644352, 826496
18514944, 826496
30256128, 826496
6968192, 826496
6946688, 826496
13369216, 826496
6209280, 826496
4051712, 826496
4359040, 826496
6968192, 826496
6946688, 826496
13369216, 826496
5393920, 826496
3054464, 826496
4359040, 826496
6968192, 826496
6946688, 826496
13369216, 826496
9382912, 826496
3054464, 826496
4359040, 826496
6968192, 826496
6946688, 826496
13369216, 826496
17360896, 826496
3054464, 826496
4359040, 826496
6968192, 826496
6946688, 826496
13369216, 826496
12773376, 826496
18643968, 826496
11096064, 826496
3751936, 826496
6963200, 826496
13385728, 826496
6537216, 826496
4336640, 826496
4501504, 826496
3751936, 826496
6963200, 826496
13385728, 826496
9382912, 826496
3196928, 826496
4501504, 826496
3751936, 826496
6963200, 826496
13385728, 826496
17360896, 826496
3196928, 826496
4501504, 826496
3751936, 826496
6963200, 826496
13385728, 826496
6209280, 826496
4051712, 826496
2245376, 826496
3851008, 826496
7062272, 826496
13484800, 826496
5393920, 826496
4051712, 826496
2245376, 826496
3851008, 826496
7062272, 826496
13484800, 826496
9382912, 826496
4051712, 826496
2245376, 826496
3851008, 826496
7062272, 826496
13484800, 826496
17360896, 826496
4051712, 826496
2245376, 826496
3851008, 826496
7062272, 826496
13484800, 826496
6537216, 826496
4336640, 826496
2278400, 826496
3884032, 826496
7095296, 826496
13517824, 826496
17360896, 826496
4336640, 826496
2278400, 826496
3884032, 826496
7095296, 826496
13517824, 826496
5393920, 826496
1673728, 826496
2476544, 826496
4082176, 826496
7293440, 826496
13715968, 826496
9382912, 826496
1673728, 826496
2476544, 826496
4082176, 826496
7293440, 826496
13715968, 826496
17360896, 826496
1673728, 826496
2476544, 826496
4082176, 826496
7293440, 826496
13715968, 826496
9382912, 826496
2136064, 826496
2938880, 826496
4544512, 826496
7755776, 826496
1734656, 826496
17360896, 826496
2136064, 826496
2938880, 826496
4544512, 826496
7755776, 826496
1734656, 826496
17360896, 826496
3060736, 826496
3863552, 826496
2659328, 826496
2659328, 826496
2659328, 826496
12773376, 826496
19095552, 1227904
31739904, 2030720
57028608, 3636352
107606016, 6847616
208760832, 13270144
12902400, 826496
19224576, 1227904
31868928, 2030720
57157632, 3636352
107735040, 6847616
208889856, 13270144
13160448, 826496
19482624, 1227904
32126976, 2030720
57415680, 3636352
107993088, 6847616
209147904, 13270144
13547520, 826496
19869696, 1227904
32514048, 2030720
57802752, 3636352
13045760, 6847616
23425024, 13270144
13676544, 826496
19998720, 1227904
11870208, 2030720
7569408, 3636352
12185600, 6847616
23425024, 13270144
14450688, 826496
4214784, 1227904
3756032, 2030720
6565888, 3636352
12185600, 6847616
23425024, 13270144
6881280, 826496
4501504, 1227904
3756032, 2030720
6565888, 3636352
12185600, 6847616
23425024, 13270144
5519360, 826496
2351104, 1227904
3756032, 2030720
6565888, 3636352
12185600, 6847616
23425024, 13270144
9533440, 826496
2351104, 1227904
3756032, 2030720
6565888, 3636352
12185600, 6847616
23425024, 13270144
17561600, 826496
2351104, 1227904
3756032, 2030720
6565888, 3636352
12185600, 6847616
23425024, 13270144
12902400, 843008
19224576, 1244416
31868928, 843008
57157632, 843008
107735040, 843008
208889856, 843008
13160448, 843008
19482624, 1244416
32126976, 843008
57415680, 843008
107993088, 843008
209147904, 843008
13676544, 843008
19998720, 1244416
11870208, 843008
7569408, 843008
12328960, 843008
23568384, 843008
14450688, 843008
4214784, 1244416
3899392, 843008
6709248, 843008
12328960, 843008
23568384, 843008
6881280, 843008
4501504, 1244416
3899392, 843008
6709248, 843008
12328960, 843008
23568384, 843008
5519360, 843008
2494464, 1244416
3899392, 843008
6709248, 843008
12328960, 843008
23568384, 843008
9533440, 843008
2494464, 1244416
3899392, 843008
6709248, 843008
12328960, 843008
23568384, 843008
17561600, 843008
2494464, 1244416
3899392, 843008
6709248, 843008
12328960, 843008
23568384, 843008
13160448, 826496
19482624, 826496
32126976, 826496
57415680, 826496
107993088, 826496
209147904, 826496
13676544, 826496
19998720, 826496
11870208, 826496
7569408, 826496
12615680, 826496
23855104, 826496
6881280, 826496
4501504, 826496
4186112, 826496
6995968, 826496
12615680, 826496
23855104, 826496
5519360, 826496
2781184, 826496
4186112, 826496
6995968, 826496
12615680, 826496
23855104, 826496
9533440, 826496
2781184, 826496
4186112, 826496
6995968, 826496
12615680, 826496
23855104, 826496
17561600, 826496
2781184, 826496
4186112, 826496
6995968, 826496
12615680, 826496
23855104, 826496
13547520, 826496
19869696, 826496
32514048, 826496
57802752, 826496
13045760, 826496
13369216, 826496
14450688, 826496
4214784, 826496
4616192, 826496
7426048, 826496
13045760, 826496
13369216, 826496
5519360, 826496
3211264, 826496
4616192, 826496
7426048, 826496
13045760, 826496
13369216, 826496
9533440, 826496
3211264, 826496
4616192, 826496
7426048, 826496
13045760, 826496
13369216, 826496
17561600, 826496
3211264, 826496
4616192, 826496
7426048, 826496
13045760, 826496
13369216, 826496
13676544, 826496
19998720, 826496
11870208, 826496
7569408, 826496
6963200, 826496
13385728, 826496
6881280, 826496
4501504, 826496
4759552, 826496
7569408, 826496
6963200, 826496
13385728, 826496
9533440, 826496
3354624, 826496
4759552, 826496
7569408, 826496
6963200, 826496
13385728, 826496
17561600, 826496
3354624, 826496
4759552, 826496
7569408, 826496
6963200, 826496
13385728, 826496
14450688, 826496
4214784, 826496
2245376, 826496
3851008, 826496
7062272, 826496
13484800, 826496
5519360, 826496
4214784, 826496
2245376, 826496
3851008, 826496
7062272, 826496
13484800, 826496
9533440, 826496
4214784, 826496
2245376, 826496
3851008, 826496
7062272, 826496
13484800, 826496
17561600, 826496
4214784, 826496
2245376, 826496
3851008, 826496
7062272, 826496
13484800, 826496
6881280, 826496
4501504, 826496
2278400, 826496
3884032, 826496
7095296, 826496
13517824, 826496
17561600, 826496
4501504, 826496
2278400, 826496
3884032, 826496
7095296, 826496
13517824, 826496
5519360, 826496
1673728, 826496
2476544, 826496
4082176, 826496
7293440, 826496
13715968, 826496
9533440, 826496
1673728, 826496
2476544, 826496
4082176, 826496
7293440, 826496
13715968, 826496
17561600, 826496
1673728, 826496
2476544, 826496
4082176, 826496
7293440, 826496
13715968, 826496
9533440, 826496
2136064, 826496
2938880, 826496
4544512, 826496
7755776, 826496
1734656, 826496
17561600, 826496
2136064, 826496
2938880, 826496
4544512, 826496
7755776, 826496
1734656, 826496
17561600, 826496
3060736, 826496
3863552, 826496
2659328, 826496
2659328, 826496
2659328, 826496
10174464, 826496
15206400, 1227904
25270272, 2030720
45398016, 3636352
85653504, 6847616
166164480, 13270144
10285056, 826496
15316992, 1227904
25380864, 2030720
45508608, 3636352
85764096, 6847616
166275072, 13270144
10506240, 826496
15538176, 1227904
25602048, 2030720
45729792, 3636352
85985280, 6847616
166496256, 13270144
10838016, 826496
15869952, 1227904
25933824, 2030720
5972736, 3636352
9712896, 6847616
18658560, 13270144
10948608, 826496
15980544, 1227904
9510912, 2030720
5240064, 3636352
9712896, 6847616
18658560, 13270144
5322240, 826496
3472896, 1227904
3003648, 2030720
5240064, 3636352
9712896, 6847616
18658560, 13270144
5603328, 826496
3717120, 1227904
3003648, 2030720
5240064, 3636352
9712896, 6847616
18658560, 13270144
4623360, 826496
1885440, 1227904
3003648, 2030720
5240064, 3636352
9712896, 6847616
18658560, 13270144
8042496, 826496
1885440, 1227904
3003648, 2030720
5240064, 3636352
9712896, 6847616
18658560, 13270144
14880768, 826496
1885440, 1227904
3003648, 2030720
5240064, 3636352
9712896, 6847616
18658560, 13270144
10285056, 843008
15316992, 1244416
25380864, 843008
45508608, 843008
85764096, 843008
166275072, 843008
10506240, 843008
15538176, 1244416
25602048, 843008
45729792, 843008
85985280, 843008
166496256, 843008
10948608, 843008
15980544, 1244416
9510912, 843008
5362176, 843008
9835008, 843008
18780672, 843008
5322240, 843008
3472896, 1244416
3125760, 843008
5362176, 843008
9835008, 843008
18780672, 843008
5603328, 843008
3717120, 1244416
3125760, 843008
5362176, 843008
9835008, 843008
18780672, 843008
4623360, 843008
2007552, 1244416
3125760, 843008
5362176, 843008
9835008, 843008
18780672, 843008
8042496, 843008
2007552, 1244416
3125760, 843008
5362176, 843008
9835008, 843008
18780672, 843008
14880768, 843008
2007552, 1244416
3125760, 843008
5362176, 843008
9835008, 843008
18780672, 843008
10506240, 826496
15538176, 826496
25602048, 826496
45729792, 826496
85985280, 826496
166496256, 826496
10948608, 826496
15980544, 826496
9510912, 826496
5606400, 826496
10079232, 826496
19024896, 826496
5603328, 826496
3717120, 826496
3369984, 826496
5606400, 826496
10079232, 826496
19024896, 826496
4623360, 826496
2251776, 826496
3369984, 826496
5606400, 826496
10079232, 826496
19024896, 826496
8042496, 826496
2251776, 826496
3369984, 826496
5606400, 826496
10079232, 826496
19024896, 826496
14880768, 826496
2251776, 826496
3369984, 826496
5606400, 826496
10079232, 826496
19024896, 826496
10838016, 826496
15869952, 826496
25933824, 826496
5972736, 826496
6946688, 826496
13369216, 826496
5322240, 826496
3472896, 826496
3736320, 826496
5972736, 826496
6946688, 826496
13369216, 826496
4623360, 826496
2618112, 826496
3736320, 826496
5972736, 826496
6946688, 826496
13369216, 826496
8042496, 826496
2618112, 826496
3736320, 826496
5972736, 826496
6946688, 826496
13369216, 826496
14880768, 826496
2618112, 826496
3736320, 826496
5972736, 826496
6946688, 826496
13369216, 826496
10948608, 826496
15980544, 826496
9510912, 826496
3751936, 826496
6963200, 826496
13385728, 826496
5603328, 826496
3717120, 826496
3858432, 826496
3751936, 826496
6963200, 826496
13385728, 826496
8042496, 826496
2740224, 826496
3858432, 826496
3751936, 826496
6963200, 826496
13385728, 826496
14880768, 826496
2740224, 826496
3858432, 826496
3751936, 826496
6963200, 826496
13385728, 826496
5322240, 826496
3472896, 826496
2245376, 826496
3851008, 826496
7062272, 826496
13484800, 826496
4623360, 826496
3472896, 826496
2245376, 826496
3851008, 826496
7062272, 826496
13484800, 826496
8042496, 826496
3472896, 826496
2245376, 826496
3851008, 826496
7062272, 826496
13484800, 826496
14880768, 826496
3472896, 826496
2245376, 826496
3851008, 826496
7062272, 826496
13484800, 826496
5603328, 826496
3717120, 826496
2278400, 826496
3884032, 826496
7095296, 826496
13517824, 826496
14880768, 826496
3717120, 826496
2278400, 826496
3884032, 826496
7095296, 826496
13517824, 826496
4623360, 826496
1673728, 826496
2476544, 826496
4082176, 826496
7293440, 826496
13715968, 826496
8042496, 826496
1673728, 826496
2476544, 826496
4082176, 826496
7293440, 826496
13715968, 826496
14880768, 826496
1673728, 826496
2476544, 826496
4082176, 826496
7293440, 826496
13715968, 826496
8042496, 826496
2136064, 826496
2938880, 826496
4544512, 826496
7755776, 826496
1734656, 826496
14880768, 826496
2136064, 826496
2938880, 826496
4544512, 826496
7755776, 826496
1734656, 826496
14880768, 826496
3060736, 826496
3863552, 826496
2659328, 826496
2659328, 826496
2659328, 826496
7907328, 826496
11810304, 1227904
19616256, 2030720
35228160, 3636352
66451968, 6847616
128899584, 13270144
8008704, 826496
11911680, 1227904
19717632, 2030720
35329536, 3636352
66553344, 6847616
129000960, 13270144
8211456, 826496
12114432, 1227904
19920384, 2030720
35532288, 3636352
66756096, 6847616
129203712, 13270144
8515584, 826496
12418560, 1227904
3020864, 2030720
4092352, 3636352
7561664, 6847616
14500288, 13270144
8616960, 826496
4899840, 1227904
3131392, 2030720
4092352, 3636352
7561664, 6847616
14500288, 13270144
4346496, 826496
2927232, 1227904
2357696, 2030720
4092352, 3636352
7561664, 6847616
14500288, 13270144
4595712, 826496
3148288, 1227904
2357696, 2030720
4092352, 3636352
7561664, 6847616
14500288, 13270144
4040960, 826496
1490368, 1227904
2357696, 2030720
4092352, 3636352
7561664, 6847616
14500288, 13270144
7135744, 826496
1490368, 1227904
2357696, 2030720
4092352, 3636352
7561664, 6847616
14500288, 13270144
13325312, 826496
1490368, 1227904
2357696, 2030720
4092352, 3636352
7561664, 6847616
14500288, 13270144
8008704, 843008
11911680, 1244416
19717632, 843008
35329536, 843008
66553344, 843008
129000960, 843008
8211456, 843008
12114432, 1244416
19920384, 843008
35532288, 843008
66756096, 843008
129203712, 843008
8616960, 843008
4899840, 1244416
3131392, 843008
4202880, 843008
7672192, 843008
14610816, 843008
4346496, 843008
2927232, 1244416
2468224, 843008
4202880, 843008
7672192, 843008
14610816, 843008
4595712, 843008
3148288, 1244416
2468224, 843008
4202880, 843008
7672192, 843008
14610816, 843008
4040960, 843008
1600896, 1244416
2468224, 843008
4202880, 843008
7672192, 843008
14610816, 843008
7135744, 843008
1600896, 1244416
2468224, 843008
4202880, 843008
7672192, 843008
14610816, 843008
13325312, 843008
1600896, 1244416
2468224, 843008
4202880, 843008
7672192, 843008
14610816, 843008
8211456, 826496
12114432, 826496
19920384, 826496
35532288, 826496
66756096, 826496
129203712, 826496
8616960, 826496
4899840, 826496
3131392, 826496
4423936, 826496
7893248, 826496
14831872, 826496
4595712, 826496
3148288, 826496
2689280, 826496
4423936, 826496
7893248, 826496
14831872, 826496
4040960, 826496
1821952, 826496
2689280, 826496
4423936, 826496
7893248, 826496
14831872, 826496
7135744, 826496
1821952, 826496
2689280, 826496
4423936, 826496
7893248, 826496
14831872, 826496
13325312, 826496
1821952, 826496
2689280, 826496
4423936, 826496
7893248, 826496
14831872, 826496
8515584, 826496
12418560, 826496
3020864, 826496
3735424, 826496
6946688, 826496
13369216, 826496
4346496, 826496
2927232, 826496
3020864, 826496
3735424, 826496
6946688, 826496
13369216, 826496
4040960, 826496
2153536, 826496
3020864, 826496
3735424, 826496
6946688, 826496
13369216, 826496
7135744, 826496
2153536, 826496
3020864, 826496
3735424, 826496
6946688, 826496
13369216, 826496
13325312, 826496
2153536, 826496
3020864, 826496
3735424, 826496
6946688, 826496
13369216, 826496
8616960, 826496
4899840, 826496
3131392, 826496
3751936, 826496
6963200, 826496
13385728, 826496
4595712, 826496
3148288, 826496
3131392, 826496
3751936, 826496
6963200, 826496
13385728, 826496
7135744, 826496
2264064, 826496
3131392, 826496
3751936, 826496
6963200, 826496
13385728, 826496
13325312, 826496
2264064, 826496
3131392, 826496
3751936, 826496
6963200, 826496
13385728, 826496
4346496, 826496
2927232, 826496
2245376, 826496
3851008, 826496
7062272, 826496
13484800, 826496
4040960, 826496
2927232, 826496
2245376, 826496
3851008, 826496
7062272, 826496
13484800, 826496
7135744, 826496
2927232, 826496
2245376, 826496
3851008, 826496
7062272, 826496
13484800, 826496
13325312, 826496
2927232, 826496
2245376, 826496
3851008, 826496
7062272, 826496
13484800, 826496
4595712, 826496
3148288, 826496
2278400, 826496
3884032, 826496
7095296, 826496
13517824, 826496
13325312, 826496
3148288, 826496
2278400, 826496
3884032, 826496
7095296, 826496
13517824, 826496
4040960, 826496
1673728, 826496
2476544, 826496
4082176, 826496
7293440, 826496
13715968, 826496
7135744, 826496
1673728, 826496
2476544, 826496
4082176, 826496
7293440, 826496
13715968, 826496
13325312, 826496
1673728, 826496
2476544, 826496
4082176, 826496
7293440, 826496
13715968, 826496
7135744, 826496
2136064, 826496
2938880, 826496
4544512, 826496
7755776, 826496
1734656, 826496
13325312, 826496
2136064, 826496
2938880, 826496
4544512, 826496
7755776, 826496
1734656, 826496
13325312, 826496
3060736, 826496
3863552, 826496
2659328, 826496
2659328, 826496
2659328, 826496
10036224, 826496
15003648, 1227904
24938496, 2030720
44808192, 3636352
84547584, 6847616
164026368, 13270144
10137600, 826496
15105024, 1227904
25039872, 2030720
44909568, 3636352
84648960, 6847616
164127744, 13270144
10340352, 826496
15307776, 1227904
25242624, 2030720
45112320, 3636352
84851712, 6847616
164330496, 13270144
10644480, 826496
15611904, 1227904
25546752, 2030720
45416448, 3636352
10250240, 6847616
18405376, 13270144
10745856, 826496
15713280, 1227904
9326592, 2030720
5947392, 3636352
9574400, 6847616
18405376, 13270144
11354112, 826496
3311616, 1227904
2951168, 2030720
5158912, 3636352
9574400, 6847616
18405376, 13270144
5406720, 826496
3536896, 1227904
2951168, 2030720
5158912, 3636352
9574400, 6847616
18405376, 13270144
4336640, 826496
1847296, 1227904
2951168, 2030720
5158912, 3636352
9574400, 6847616
18405376, 13270144
7490560, 826496
1847296, 1227904
2951168, 2030720
5158912, 3636352
9574400, 6847616
18405376, 13270144
13798400, 826496
1847296, 1227904
2951168, 2030720
5158912, 3636352
9574400, 6847616
18405376, 13270144
10137600, 843008
15105024, 1244416
25039872, 843008
44909568, 843008
84648960, 843008
164127744, 843008
10340352, 843008
15307776, 1244416
25242624, 843008
45112320, 843008
84851712, 843008
164330496, 843008
10745856, 843008
15713280, 1244416
9326592, 843008
5947392, 843008
9687040, 843008
18518016, 843008
11354112, 843008
3311616, 1244416
3063808, 843008
5271552, 843008
9687040, 843008
18518016, 843008
5406720, 843008
3536896, 1244416
3063808, 843008
5271552, 843008
9687040, 843008
18518016, 843008
4336640, 843008
1959936, 1244416
3063808, 843008
5271552, 843008
9687040, 843008
18518016, 843008
7490560, 843008
1959936, 1244416
3063808, 843008
5271552, 843008
9687040, 843008
18518016, 843008
13798400, 843008
1959936, 1244416
3063808, 843008
5271552, 843008
9687040, 843008
18518016, 843008
10340352, 826496
15307776, 826496
25242624, 826496
45112320, 826496
84851712, 826496
164330496, 826496
10745856, 826496
15713280, 826496
9326592, 826496
5947392, 826496
9912320, 826496
18743296, 826496
5406720, 826496
3536896, 826496
3289088, 826496
5496832, 826496
9912320, 826496
18743296, 826496
4336640, 826496
2185216, 826496
3289088, 826496
5496832, 826496
9912320, 826496
18743296, 826496
7490560, 826496
2185216, 826496
3289088, 826496
5496832, 826496
9912320, 826496
18743296, 826496
13798400, 826496
2185216, 826496
3289088, 826496
5496832, 826496
9912320, 826496
18743296, 826496
10644480, 826496
15611904, 826496
25546752, 826496
45416448, 826496
10250240, 826496
13369216, 826496
11354112, 826496
3311616, 826496
3627008, 826496
5834752, 826496
10250240, 826496
13369216, 826496
4336640, 826496
2523136, 826496
3627008, 826496
5834752, 826496
10250240, 826496
13369216, 826496
7490560, 826496
2523136, 826496
3627008, 826496
5834752, 826496
10250240, 826496
13369216, 826496
13798400, 826496
2523136, 826496
3627008, 826496
5834752, 826496
10250240, 826496
13369216, 826496
10745856, 826496
15713280, 826496
9326592, 826496
5947392, 826496
6963200, 826496
13385728, 826496
5406720, 826496
3536896, 826496
3739648, 826496
5947392, 826496
6963200, 826496
13385728, 826496
7490560, 826496
2635776, 826496
3739648, 826496
5947392, 826496
6963200, 826496
13385728, 826496
13798400, 826496
2635776, 826496
3739648, 826496
5947392, 826496
6963200, 826496
13385728, 826496
11354112, 826496
3311616, 826496
2245376, 826496
3851008, 826496
7062272, 826496
13484800, 826496
4336640, 826496
3311616, 826496
2245376, 826496
3851008, 826496
7062272, 826496
13484800, 826496
7490560, 826496
3311616, 826496
2245376, 826496
3851008, 826496
7062272, 826496
13484800, 826496
13798400, 826496
3311616, 826496
2245376, 826496
3851008, 826496
7062272, 826496
13484800, 826496
5406720, 826496
3536896, 826496
2278400, 826496
3884032, 826496
7095296, 826496
13517824, 826496
13798400, 826496
3536896, 826496
2278400, 826496
3884032, 826496
7095296, 826496
13517824, 826496
4336640, 826496
1673728, 826496
2476544, 826496
4082176, 826496
7293440, 826496
13715968, 826496
7490560, 826496
1673728, 826496
2476544, 826496
4082176, 826496
7293440, 826496
13715968, 826496
13798400, 826496
1673728, 826496
2476544, 826496
4082176, 826496
7293440, 826496
13715968, 826496
7490560, 826496
2136064, 826496
2938880, 826496
4544512, 826496
7755776, 826496
1734656, 826496
13798400, 826496
2136064, 826496
2938880, 826496
4544512, 826496
7755776, 826496
1734656, 826496
13798400, 826496
3060736, 826496
3863552, 826496
2659328, 826496
2659328, 826496
2659328, 826496
8478720, 826496
12672000, 1227904
21058560, 2030720
37831680, 3636352
71377920, 6847616
138470400, 13270144
8570880, 826496
12764160, 1227904
21150720, 2030720
37923840, 3636352
71470080, 6847616
138562560, 13270144
8755200, 826496
12948480, 1227904
21335040, 2030720
38108160, 3636352
71654400, 6847616
138746880, 13270144
9031680, 826496
13224960, 1227904
21611520, 2030720
4977280, 3636352
8094080, 6847616
15548800, 13270144
9123840, 826496
13317120, 1227904
7925760, 2030720
4366720, 3636352
8094080, 6847616
15548800, 13270144
4435200, 826496
2894080, 1227904
2503040, 2030720
4366720, 3636352
8094080, 6847616
15548800, 13270144
4669440, 826496
3097600, 1227904
2503040, 2030720
4366720, 3636352
8094080, 6847616
15548800, 13270144
3852800, 826496
1571200, 1227904
2503040, 2030720
4366720, 3636352
8094080, 6847616
15548800, 13270144
6702080, 826496
1571200, 1227904
2503040, 2030720
4366720, 3636352
8094080, 6847616
15548800, 13270144
12400640, 826496
1571200, 1227904
2503040, 2030720
4366720, 3636352
8094080, 6847616
15548800, 13270144
8570880, 843008
12764160, 1244416
21150720, 843008
37923840, 843008
71470080, 843008
138562560, 843008
8755200, 843008
12948480, 1244416
21335040, 843008
38108160, 843008
71654400, 843008
138746880, 843008
9123840, 843008
13317120, 1244416
7925760, 843008
4468480, 843008
8195840, 843008
15650560, 843008
4435200, 843008
2894080, 1244416
2604800, 843008
4468480, 843008
8195840, 843008
15650560, 843008
4669440, 843008
3097600, 1244416
2604800, 843008
4468480, 843008
8195840, 843008
15650560, 843008
3852800, 843008
1672960, 1244416
2604800, 843008
4468480, 843008
8195840, 843008
15650560, 843008
6702080, 843008
1672960, 1244416
2604800, 843008
4468480, 843008
8195840, 843008
15650560, 843008
12400640, 843008
1672960, 1244416
2604800, 843008
4468480, 843008
8195840, 843008
15650560, 843008
8755200, 826496
12948480, 826496
21335040, 826496
38108160, 826496
71654400, 826496
138746880, 826496
9123840, 826496
13317120, 826496
7925760, 826496
4672000, 826496
8399360, 826496
15854080, 826496
4669440, 826496
3097600, 826496
2808320, 826496
4672000, 826496
8399360, 826496
15854080, 826496
3852800, 826496
1876480, 826496
2808320, 826496
4672000, 826496
8399360, 826496
15854080, 826496
6702080, 826496
1876480, 826496
2808320, 826496
4672000, 826496
8399360, 826496
15854080, 826496
12400640, 826496
1876480, 826496
2808320, 826496
4672000, 826496
8399360, 826496
15854080, 826496
9031680, 826496
13224960, 826496
21611520, 826496
4977280, 826496
6946688, 826496
13369216, 826496
4435200, 826496
2894080, 826496
3113600, 826496
4977280, 826496
6946688, 826496
13369216, 826496
3852800, 826496
2181760, 826496
3113600, 826496
4977280, 826496
6946688, 826496
13369216, 826496
6702080, 826496
2181760, 826496
3113600, 826496
4977280, 826496
6946688, 826496
13369216, 826496
12400640, 826496
2181760, 826496
3113600, 826496
4977280, 826496
6946688, 826496
13369216, 826496
9123840, 826496
13317120, 826496
7925760, 826496
3751936, 826496
6963200, 826496
13385728, 826496
4669440, 826496
3097600, 826496
3215360, 826496
3751936, 826496
6963200, 826496
13385728, 826496
6702080, 826496
2283520, 826496
3215360, 826496
3751936, 826496
6963200, 826496
13385728, 826496
12400640, 826496
2283520, 826496
3215360, 826496
3751936, 826496
6963200, 826496
13385728, 826496
4435200, 826496
2894080, 826496
2245376, 826496
3851008, 826496
7062272, 826496
13484800, 826496
3852800, 826496
2894080, 826496
2245376, 826496
3851008, 826496
7062272, 826496
13484800, 826496
6702080, 826496
2894080, 826496
2245376, 826496
3851008, 826496
7062272, 826496
13484800, 826496
12400640, 826496
2894080, 826496
2245376, 826496
3851008, 826496
7062272, 826496
13484800, 826496
4669440, 826496
3097600, 826496
2278400, 826496
3884032, 826496
7095296, 826496
13517824, 826496
12400640, 826496
3097600, 826496
2278400, 826496
3884032, 826496
7095296, 826496
13517824, 826496
3852800, 826496
1673728, 826496
2476544, 826496
4082176, 826496
7293440, 826496
13715968, 826496
6702080, 826496
1673728, 826496
2476544, 826496
4082176, 826496
7293440, 826496
13715968, 826496
12400640, 826496
1673728, 826496
2476544, 826496
4082176, 826496
7293440, 826496
13715968, 826496
6702080, 826496
2136064, 826496
2938880, 826496
4544512, 826496
7755776, 826496
1734656, 826496
12400640, 826496
2136064, 826496
2938880, 826496
4544512, 826496
7755776, 826496
1734656, 826496
12400640, 826496
3060736, 826496
3863552, 826496
2659328, 826496
2659328, 826496
2659328, 826496
7630848, 826496
11404800, 1227904
18952704, 2030720
34048512, 3636352
64240128, 6847616
124623360, 13270144
7713792, 826496
11487744, 1227904
19035648, 2030720
34131456, 3636352
64323072, 6847616
124706304, 13270144
7879680, 826496
11653632, 1227904
19201536, 2030720
34297344, 3636352
64488960, 6847616
124872192, 13270144
8128512, 826496
11902464, 1227904
19450368, 2030720
4479552, 3636352
7284672, 6847616
13993920, 13270144
8211456, 826496
11985408, 1227904
7133184, 2030720
3930048, 3636352
7284672, 6847616
13993920, 13270144
3991680, 826496
2604672, 1227904
2252736, 2030720
3930048, 3636352
7284672, 6847616
13993920, 13270144
4202496, 826496
2787840, 1227904
2252736, 2030720
3930048, 3636352
7284672, 6847616
13993920, 13270144
3467520, 826496
1414080, 1227904
2252736, 2030720
3930048, 3636352
7284672, 6847616
13993920, 13270144
6031872, 826496
1414080, 1227904
2252736, 2030720
3930048, 3636352
7284672, 6847616
13993920, 13270144
11160576, 826496
1414080, 1227904
2252736, 2030720
3930048, 3636352
7284672, 6847616
13993920, 13270144
7713792, 843008
11487744, 1244416
19035648, 843008
34131456, 843008
64323072, 843008
124706304, 843008
7879680, 843008
11653632, 1244416
19201536, 843008
34297344, 843008
64488960, 843008
124872192, 843008
8211456, 843008
11985408, 1244416
7133184, 843008
4021632, 843008
7376256, 843008
14085504, 843008
3991680, 843008
2604672, 1244416
2344320, 843008
4021632, 843008
7376256, 843008
14085504, 843008
4202496, 843008
2787840, 1244416
2344320, 843008
4021632, 843008
7376256, 843008
14085504, 843008
3467520, 843008
1505664, 1244416
2344320, 843008
4021632, 843008
7376256, 843008
14085504, 843008
6031872, 843008
1505664, 1244416
2344320, 843008
4021632, 843008
7376256, 843008
14085504, 843008
11160576, 843008
1505664, 1244416
2344320, 843008
4021632, 843008
7376256, 843008
14085504, 843008
7879680, 826496
11653632, 826496
19201536, 826496
34297344, 826496
64488960, 826496
124872192, 826496
8211456, 826496
11985408, 826496
7133184, 826496
4204800, 826496
7559424, 826496
14268672, 826496
4202496, 826496
2787840, 826496
2527488, 826496
4204800, 826496
7559424, 826496
14268672, 826496
3467520, 826496
1688832, 826496
2527488, 826496
4204800, 826496
7559424, 826496
14268672, 826496
6031872, 826496
1688832, 826496
2527488, 826496
4204800, 826496
7559424, 826496
14268672, 826496
11160576, 826496
1688832, 826496
2527488, 826496
4204800, 826496
7559424, 826496
14268672, 826496
8128512, 826496
11902464, 826496
19450368, 826496
4479552, 826496
6946688, 826496
13369216, 826496
3991680, 826496
2604672, 826496
2802240, 826496
4479552, 826496
6946688, 826496
13369216, 826496
3467520, 826496
1963584, 826496
2802240, 826496
4479552, 826496
6946688, 826496
13369216, 826496
6031872, 826496
1963584, 826496
2802240, 826496
4479552, 826496
6946688, 826496
13369216, 826496
11160576, 826496
1963584, 826496
2802240, 826496
4479552, 826496
6946688, 826496
13369216, 826496
8211456, 826496
11985408, 826496
7133184, 826496
3751936, 826496
6963200, 826496
13385728, 826496
4202496, 826496
2787840, 826496
2893824, 826496
3751936, 826496
6963200, 826496
13385728, 826496
6031872, 826496
2055168, 826496
2893824, 826496
3751936, 826496
6963200, 826496
13385728, 826496
11160576, 826496
2055168, 826496
2893824, 826496
3751936, 826496
6963200, 826496
13385728, 826496
3991680, 826496
2604672, 826496
2245376, 826496
3851008, 826496
7062272, 826496
13484800, 826496
3467520, 826496
2604672, 826496
2245376, 826496
3851008, 826496
7062272, 826496
13484800, 826496
6031872, 826496
2604672, 826496
2245376, 826496
3851008, 826496
7062272, 826496
13484800, 826496
11160576, 826496
2604672, 826496
2245376, 826496
3851008, 826496
7062272, 826496
13484800, 826496
4202496, 826496
2787840, 826496
2278400, 826496
3884032, 826496
7095296, 826496
13517824, 826496
11160576, 826496
2787840, 826496
2278400, 826496
3884032, 826496
7095296, 826496
13517824, 826496
3467520, 826496
1673728, 826496
2476544, 826496
4082176, 826496
7293440, 826496
13715968, 826496
6031872, 826496
1673728, 826496
2476544, 826496
4082176, 826496
7293440, 826496
13715968, 826496
11160576, 826496
1673728, 826496
2476544, 826496
4082176, 826496
7293440, 826496
13715968, 826496
6031872, 826496
2136064, 826496
2938880, 826496
4544512, 826496
7755776, 826496
1734656, 826496
11160576, 826496
2136064, 826496
2938880, 826496
4544512, 826496
7755776, 826496
1734656, 826496
11160576, 826496
3060736, 826496
3863552, 826496
2659328, 826496
2659328, 826496
2659328, 826496
8211456, 826496
12275712, 1227904
20404224, 2030720
36661248, 3636352
69175296, 6847616
134203392, 13270144
8294400, 826496
12358656, 1227904
20487168, 2030720
36744192, 3636352
69258240, 6847616
134286336, 13270144
8460288, 826496
12524544, 1227904
20653056, 2030720
36910080, 3636352
69424128, 6847616
134452224, 13270144
8709120, 826496
12773376, 1227904
20901888, 2030720
37158912, 3636352
8386560, 6847616
15058944, 13270144
8792064, 826496
12856320, 1227904
7630848, 2030720
4866048, 3636352
7833600, 6847616
15058944, 13270144
9289728, 826496
2709504, 1227904
2414592, 2030720
4220928, 3636352
7833600, 6847616
15058944, 13270144
4423680, 826496
2893824, 1227904
2414592, 2030720
4220928, 3636352
7833600, 6847616
15058944, 13270144
3548160, 826496
1511424, 1227904
2414592, 2030720
4220928, 3636352
7833600, 6847616
15058944, 13270144
6128640, 826496
1511424, 1227904
2414592, 2030720
4220928, 3636352
7833600, 6847616
15058944, 13270144
11289600, 826496
1511424, 1227904
2414592, 2030720
4220928, 3636352
7833600, 6847616
15058944, 13270144
8294400, 843008
12358656, 1244416
20487168, 843008
36744192, 843008
69258240, 843008
134286336, 843008
8460288, 843008
12524544, 1244416
20653056, 843008
36910080, 843008
69424128, 843008
134452224, 843008
8792064, 843008
12856320, 1244416
7630848, 843008
4866048, 843008
7925760, 843008
15151104, 843008
9289728, 843008
2709504, 1244416
2506752, 843008
4313088, 843008
7925760, 843008
15151104, 843008
4423680, 843008
2893824, 1244416
2506752, 843008
4313088, 843008
7925760, 843008
15151104, 843008
3548160, 843008
1603584, 1244416
2506752, 843008
4313088, 843008
7925760, 843008
15151104, 843008
6128640, 843008
1603584, 1244416
2506752, 843008
4313088, 843008
7925760, 843008
15151104, 843008
11289600, 843008
1603584, 1244416
2506752, 843008
4313088, 843008
7925760, 843008
15151104, 843008
8460288, 826496
12524544, 826496
20653056, 826496
36910080, 826496
69424128, 826496
134452224, 826496
8792064, 826496
12856320, 826496
7630848, 826496
4866048, 826496
8110080, 826496
15335424, 826496
4423680, 826496
2893824, 826496
2691072, 826496
4497408, 826496
8110080, 826496
15335424, 826496
3548160, 826496
1787904, 826496
2691072, 826496
4497408, 826496
8110080, 826496
15335424, 826496
6128640, 826496
1787904, 826496
2691072, 826496
4497408, 826496
8110080, 826496
15335424, 826496
11289600, 826496
1787904, 826496
2691072, 826496
4497408, 826496
8110080, 826496
15335424, 826496
8709120, 826496
12773376, 826496
20901888, 826496
37158912, 826496
8386560, 826496
13369216, 826496
9289728, 826496
2709504, 826496
2967552, 826496
4773888, 826496
8386560, 826496
13369216, 826496
3548160, 826496
2064384, 826496
2967552, 826496
4773888, 826496
8386560, 826496
13369216, 826496
6128640, 826496
2064384, 826496
2967552, 826496
4773888, 826496
8386560, 826496
13369216, 826496
11289600, 826496
2064384, 826496
2967552, 826496
4773888, 826496
8386560, 826496
13369216, 826496
8792064, 826496
12856320, 826496
7630848, 826496
4866048, 826496
6963200, 826496
13385728, 826496
4423680, 826496
2893824, 826496
3059712, 826496
4866048, 826496
6963200, 826496
13385728, 826496
6128640, 826496
2156544, 826496
3059712, 826496
4866048, 826496
6963200, 826496
13385728, 826496
11289600, 826496
2156544, 826496
3059712, 826496
4866048, 826496
6963200, 826496
13385728, 826496
9289728, 826496
2709504, 826496
2245376, 826496
3851008, 826496
7062272, 826496
13484800, 826496
3548160, 826496
2709504, 826496
2245376, 826496
3851008, 826496
7062272, 826496
13484800, 826496
6128640, 826496
2709504, 826496
2245376, 826496
3851008, 826496
7062272, 826496
13484800, 826496
11289600, 826496
2709504, 826496
2245376, 826496
3851008, 826496
7062272, 826496
13484800, 826496
4423680, 826496
2893824, 826496
2278400, 826496
3884032, 826496
7095296, 826496
13517824, 826496
11289600, 826496
2893824, 826496
2278400, 826496
3884032, 826496
7095296, 826496
13517824, 826496
3548160, 826496
1673728, 826496
2476544, 826496
4082176, 826496
7293440, 826496
13715968, 826496
6128640, 826496
1673728, 826496
2476544, 826496
4082176, 826496
7293440, 826496
13715968, 826496
11289600, 826496
1673728, 826496
2476544, 826496
4082176, 826496
7293440, 826496
13715968, 826496
6128640, 826496
2136064, 826496
2938880, 826496
4544512, 826496
7755776, 826496
1734656, 826496
11289600, 826496
2136064, 826496
2938880, 826496
4544512, 826496
7755776, 826496
1734656, 826496
11289600, 826496
3060736, 826496
3863552, 826496
2659328, 826496
2659328, 826496
2659328, 826496
5658624, 1242368
7335936, 1643776
10690560, 2446592
17399808, 3636352
30818304, 6847616
57655296, 13270144
5769216, 1242368
7446528, 1643776
10801152, 2446592
17510400, 3636352
30928896, 6847616
57765888, 13270144
5990400, 1242368
7667712, 1643776
11022336, 2446592
6297600, 3636352
10369536, 6847616
19315200, 13270144
6322176, 1242368
3343872, 1643776
3660288, 2446592
5896704, 3636352
10369536, 6847616
19315200, 13270144
6432768, 1242368
3477504, 1643776
3660288, 2446592
5896704, 3636352
10369536, 6847616
19315200, 13270144
3720192, 1242368
2542080, 1643776
3660288, 2446592
5896704, 3636352
10369536, 6847616
19315200, 13270144
3987456, 1242368
2542080, 1643776
3660288, 2446592
5896704, 3636352
10369536, 6847616
19315200, 13270144
5591040, 1242368
2542080, 1643776
3660288, 2446592
5896704, 3636352
10369536, 6847616
19315200, 13270144
1982976, 1242368
2542080, 1643776
3660288, 2446592
5896704, 3636352
10369536, 6847616
19315200, 13270144
1982976, 1242368
2542080, 1643776
3660288, 2446592
5896704, 3636352
10369536, 6847616
19315200, 13270144
5769216, 1266176
7446528, 1244416
10801152, 843008
17510400, 843008
30928896, 843008
57765888, 843008
5990400, 1266176
7667712, 1244416
11022336, 843008
6297600, 843008
10503168, 843008
19448832, 843008
6432768, 1266176
3477504, 1244416
3793920, 843008
6030336, 843008
10503168, 843008
19448832, 843008
3720192, 1266176
2675712, 1244416
3793920, 843008
6030336, 843008
10503168, 843008
19448832, 843008
3987456, 1266176
2675712, 1244416
3793920, 843008
6030336, 843008
10503168, 843008
19448832, 843008
5591040, 1266176
2675712, 1244416
3793920, 843008
6030336, 843008
10503168, 843008
19448832, 843008
2116608, 1266176
2675712, 1244416
3793920, 843008
6030336, 843008
10503168, 843008
19448832, 843008
2116608, 1266176
2675712, 1244416
3793920, 843008
6030336, 843008
10503168, 843008
19448832, 843008
5990400, 826496
7667712, 826496
11022336, 826496
6297600, 826496
7334912, 826496
13757440, 826496
6432768, 826496
3477504, 826496
4061184, 826496
6297600, 826496
7334912, 826496
13757440, 826496
3987456, 826496
2942976, 826496
4061184, 826496
6297600, 826496
7334912, 826496
13757440, 826496
5591040, 826496
2942976, 826496
4061184, 826496
6297600, 826496
7334912, 826496
13757440, 826496
2383872, 826496
2942976, 826496
4061184, 826496
6297600, 826496
7334912, 826496
13757440, 826496
2383872, 826496
2942976, 826496
4061184, 826496
6297600, 826496
7334912, 826496
13757440, 826496
6322176, 826496
3343872, 826496
2589440, 826496
4195072, 826496
7406336, 826496
13828864, 826496
3720192, 826496
3343872, 826496
2589440, 826496
4195072, 826496
7406336, 826496
13828864, 826496
5591040, 826496
3343872, 826496
2589440, 826496
4195072, 826496
7406336, 826496
13828864, 826496
2784768, 826496
3343872, 826496
2589440, 826496
4195072, 826496
7406336, 826496
13828864, 826496
2784768, 826496
3343872, 826496
2589440, 826496
4195072, 826496
7406336, 826496
13828864, 826496
6432768, 826496
3477504, 826496
2613248, 826496
4218880, 826496
7430144, 826496
13852672, 826496
3987456, 826496
3477504, 826496
2613248, 826496
4218880, 826496
7430144, 826496
13852672, 826496
2918400, 826496
3477504, 826496
2613248, 826496
4218880, 826496
7430144, 826496
13852672, 826496
2918400, 826496
3477504, 826496
2613248, 826496
4218880, 826496
7430144, 826496
13852672, 826496
3720192, 826496
1953280, 826496
2756096, 826496
4361728, 826496
7572992, 826496
13995520, 826496
5591040, 826496
1953280, 826496
2756096, 826496
4361728, 826496
7572992, 826496
13995520, 826496
3720192, 826496
1953280, 826496
2756096, 826496
4361728, 826496
7572992, 826496
13995520, 826496
3720192, 826496
1953280, 826496
2756096, 826496
4361728, 826496
7572992, 826496
13995520, 826496
3987456, 826496
2000896, 826496
2803712, 826496
4409344, 826496
7620608, 826496
14043136, 826496
3987456, 826496
2000896, 826496
2803712, 826496
4409344, 826496
7620608, 826496
14043136, 826496
5591040, 826496
2286592, 826496
3089408, 826496
4695040, 826496
7906304, 826496
13715968, 826496
5591040, 826496
2286592, 826496
3089408, 826496
4695040, 826496
7906304, 826496
13715968, 826496
5591040, 826496
2286592, 826496
3089408, 826496
4695040, 826496
7906304, 826496
13715968, 826496
2551808, 826496
2953216, 826496
3756032, 826496
4544512, 826496
7755776, 826496
1734656, 826496
2551808, 826496
2953216, 826496
3756032, 826496
4544512, 826496
7755776, 826496
1734656, 826496
3885056, 826496
4286464, 826496
3863552, 826496
2659328, 826496
2659328, 826496
2659328, 826496
4477440, 1242368
5778432, 1643776
8380416, 2446592
13584384, 3636352
23992320, 6847616
44808192, 13270144
4578816, 1242368
5879808, 1643776
8481792, 2446592
13685760, 3636352
24093696, 6847616
44909568, 13270144
4781568, 1242368
6082560, 1643776
8684544, 2446592
4614016, 3636352
8083328, 6847616
15021952, 13270144
5085696, 1242368
2730112, 1643776
2879360, 2446592
4614016, 3636352
8083328, 6847616
15021952, 13270144
5187072, 1242368
2012032, 1643776
2879360, 2446592
4614016, 3636352
8083328, 6847616
15021952, 13270144
3134208, 1242368
2012032, 1643776
2879360, 2446592
4614016, 3636352
8083328, 6847616
15021952, 13270144
3373568, 1242368
2012032, 1643776
2879360, 2446592
4614016, 3636352
8083328, 6847616
15021952, 13270144
1578368, 1242368
2012032, 1643776
2879360, 2446592
4614016, 3636352
8083328, 6847616
15021952, 13270144
1578368, 1242368
2012032, 1643776
2879360, 2446592
4614016, 3636352
8083328, 6847616
15021952, 13270144
1578368, 1242368
2012032, 1643776
2879360, 2446592
4614016, 3636352
8083328, 6847616
15021952, 13270144
4578816, 1266176
5879808, 1244416
8481792, 843008
13685760, 843008
24093696, 843008
44909568, 843008
4781568, 1266176
6082560, 1244416
8684544, 843008
4733696, 843008
8203008, 843008
15141632, 843008
5187072, 1266176
2131712, 1244416
2999040, 843008
4733696, 843008
8203008, 843008
15141632, 843008
3134208, 1266176
2131712, 1244416
2999040, 843008
4733696, 843008
8203008, 843008
15141632, 843008
3373568, 1266176
2131712, 1244416
2999040, 843008
4733696, 843008
8203008, 843008
15141632, 843008
1698048, 1266176
2131712, 1244416
2999040, 843008
4733696, 843008
8203008, 843008
15141632, 843008
1698048, 1266176
2131712, 1244416
2999040, 843008
4733696, 843008
8203008, 843008
15141632, 843008
1698048, 1266176
2131712, 1244416
2999040, 843008
4733696, 843008
8203008, 843008
15141632, 843008
4781568, 826496
6082560, 826496
8684544, 826496
4123648, 826496
7334912, 826496
13757440, 826496
5187072, 826496
2371072, 826496
3238400, 826496
4123648, 826496
7334912, 826496
13757440, 826496
3373568, 826496
2371072, 826496
3238400, 826496
4123648, 826496
7334912, 826496
13757440, 826496
1937408, 826496
2371072, 826496
3238400, 826496
4123648, 826496
7334912, 826496
13757440, 826496
1937408, 826496
2371072, 826496
3238400, 826496
4123648, 826496
7334912, 826496
13757440, 826496
1937408, 826496
2371072, 826496
3238400, 826496
4123648, 826496
7334912, 826496
13757440, 826496
5085696, 826496
2730112, 826496
2589440, 826496
4195072, 826496
7406336, 826496
13828864, 826496
3134208, 826496
2730112, 826496
2589440, 826496
4195072, 826496
7406336, 826496
13828864, 826496
2296448, 826496
2730112, 826496
2589440, 826496
4195072, 826496
7406336, 826496
13828864, 826496
2296448, 826496
2730112, 826496
2589440, 826496
4195072, 826496
7406336, 826496
13828864, 826496
2296448, 826496
2730112, 826496
2589440, 826496
4195072, 826496
7406336, 826496
13828864, 826496
5187072, 826496
1810432, 826496
2613248, 826496
4218880, 826496
7430144, 826496
13852672, 826496
3373568, 826496
1810432, 826496
2613248, 826496
4218880, 826496
7430144, 826496
13852672, 826496
2416128, 826496
1810432, 826496
2613248, 826496
4218880, 826496
7430144, 826496
13852672, 826496
2416128, 826496
1810432, 826496
2613248, 826496
4218880, 826496
7430144, 826496
13852672, 826496
3134208, 826496
1953280, 826496
2756096, 826496
4361728, 826496
7572992, 826496
13995520, 826496
3134208, 826496
1953280, 826496
2756096, 826496
4361728, 826496
7572992, 826496
13995520, 826496
3134208, 826496
1953280, 826496
2756096, 826496
4361728, 826496
7572992, 826496
13995520, 826496
3134208, 826496
1953280, 826496
2756096, 826496
4361728, 826496
7572992, 826496
13995520, 826496
3373568, 826496
2000896, 826496
2803712, 826496
4409344, 826496
7620608, 826496
14043136, 826496
3373568, 826496
2000896, 826496
2803712, 826496
4409344, 826496
7620608, 826496
14043136, 826496
1885184, 826496
2286592, 826496
3089408, 826496
4695040, 826496
7906304, 826496
13715968, 826496
1885184, 826496
2286592, 826496
3089408, 826496
4695040, 826496
7906304, 826496
13715968, 826496
1885184, 826496
2286592, 826496
3089408, 826496
4695040, 826496
7906304, 826496
13715968, 826496
2551808, 826496
2953216, 826496
3756032, 826496
4544512, 826496
7755776, 826496
1734656, 826496
2551808, 826496
2953216, 826496
3756032, 826496
4544512, 826496
7755776, 826496
1734656, 826496
3885056, 826496
4286464, 826496
3863552, 826496
2659328, 826496
2659328, 826496
2659328, 826496
5541888, 1242368
7197696, 1643776
10509312, 2446592
17132544, 3636352
30379008, 6847616
56871936, 13270144
5643264, 1242368
7299072, 1643776
10610688, 2446592
17233920, 3636352
30480384, 6847616
56973312, 13270144
5846016, 1242368
7501824, 1643776
10813440, 2446592
17436672, 3636352
10216448, 6847616
19047424, 13270144
6150144, 1242368
7805952, 1643776
3593216, 2446592
5800960, 3636352
10216448, 6847616
19047424, 13270144
6251520, 1242368
3356672, 1643776
3593216, 2446592
5800960, 3636352
10216448, 6847616
19047424, 13270144
3548160, 1242368
2489344, 1643776
3593216, 2446592
5800960, 3636352
10216448, 6847616
19047424, 13270144
3795968, 1242368
2489344, 1643776
3593216, 2446592
5800960, 3636352
10216448, 6847616
19047424, 13270144
5282816, 1242368
2489344, 1643776
3593216, 2446592
5800960, 3636352
10216448, 6847616
19047424, 13270144
1937408, 1242368
2489344, 1643776
3593216, 2446592
5800960, 3636352
10216448, 6847616
19047424, 13270144
1937408, 1242368
2489344, 1643776
3593216, 2446592
5800960, 3636352
10216448, 6847616
19047424, 13270144
5643264, 1266176
7299072, 1244416
10610688, 843008
17233920, 843008
30480384, 843008
56973312, 843008
5846016, 1266176
7501824, 1244416
10813440, 843008
17436672, 843008
10340352, 843008
19171328, 843008
6251520, 1266176
3356672, 1244416
3717120, 843008
5924864, 843008
10340352, 843008
19171328, 843008
3548160, 1266176
2613248, 1244416
3717120, 843008
5924864, 843008
10340352, 843008
19171328, 843008
3795968, 1266176
2613248, 1244416
3717120, 843008
5924864, 843008
10340352, 843008
19171328, 843008
5282816, 1266176
2613248, 1244416
3717120, 843008
5924864, 843008
10340352, 843008
19171328, 843008
2061312, 1266176
2613248, 1244416
3717120, 843008
5924864, 843008
10340352, 843008
19171328, 843008
2061312, 1266176
2613248, 1244416
3717120, 843008
5924864, 843008
10340352, 843008
19171328, 843008
5846016, 826496
7501824, 826496
10813440, 826496
17436672, 826496
7334912, 826496
13757440, 826496
6251520, 826496
3356672, 826496
3964928, 826496
6172672, 826496
7334912, 826496
13757440, 826496
3795968, 826496
2861056, 826496
3964928, 826496
6172672, 826496
7334912, 826496
13757440, 826496
5282816, 826496
2861056, 826496
3964928, 826496
6172672, 826496
7334912, 826496
13757440, 826496
2309120, 826496
2861056, 826496
3964928, 826496
6172672, 826496
7334912, 826496
13757440, 826496
2309120, 826496
2861056, 826496
3964928, 826496
6172672, 826496
7334912, 826496
13757440, 826496
6150144, 826496
7805952, 826496
2589440, 826496
4195072, 826496
7406336, 826496
13828864, 826496
3548160, 826496
3232768, 826496
2589440, 826496
4195072, 826496
7406336, 826496
13828864, 826496
5282816, 826496
3232768, 826496
2589440, 826496
4195072, 826496
7406336, 826496
13828864, 826496
2680832, 826496
3232768, 826496
2589440, 826496
4195072, 826496
7406336, 826496
13828864, 826496
2680832, 826496
3232768, 826496
2589440, 826496
4195072, 826496
7406336, 826496
13828864, 826496
6251520, 826496
3356672, 826496
2613248, 826496
4218880, 826496
7430144, 826496
13852672, 826496
3795968, 826496
3356672, 826496
2613248, 826496
4218880, 826496
7430144, 826496
13852672, 826496
2804736, 826496
3356672, 826496
2613248, 826496
4218880, 826496
7430144, 826496
13852672, 826496
2804736, 826496
3356672, 826496
2613248, 826496
4218880, 826496
7430144, 826496
13852672, 826496
3548160, 826496
1953280, 826496
2756096, 826496
4361728, 826496
7572992, 826496
13995520, 826496
5282816, 826496
1953280, 826496
2756096, 826496
4361728, 826496
7572992, 826496
13995520, 826496
3548160, 826496
1953280, 826496
2756096, 826496
4361728, 826496
7572992, 826496
13995520, 826496
3548160, 826496
1953280, 826496
2756096, 826496
4361728, 826496
7572992, 826496
13995520, 826496
3795968, 826496
2000896, 826496
2803712, 826496
4409344, 826496
7620608, 826496
14043136, 826496
3795968, 826496
2000896, 826496
2803712, 826496
4409344, 826496
7620608, 826496
14043136, 826496
5282816, 826496
2286592, 826496
3089408, 826496
4695040, 826496
7906304, 826496
13715968, 826496
5282816, 826496
2286592, 826496
3089408, 826496
4695040, 826496
7906304, 826496
13715968, 826496
5282816, 826496
2286592, 826496
3089408, 826496
4695040, 826496
7906304, 826496
13715968, 826496
2551808, 826496
2953216, 826496
3756032, 826496
4544512, 826496
7755776, 826496
1734656, 826496
2551808, 826496
2953216, 826496
3756032, 826496
4544512, 826496
7755776, 826496
1734656, 826496
3885056, 826496
4286464, 826496
3863552, 826496
2659328, 826496
2659328, 826496
2659328, 826496
4715520, 1242368
6113280, 1643776
8908800, 2446592
14499840, 3636352
25681920, 6847616
48046080, 13270144
4807680, 1242368
6205440, 1643776
9000960, 2446592
14592000, 3636352
25774080, 6847616
48138240, 13270144
4992000, 1242368
6389760, 1643776
9185280, 2446592
5248000, 3636352
8641280, 6847616
16096000, 13270144
5268480, 1242368
2786560, 1643776
3050240, 2446592
4913920, 3636352
8641280, 6847616
16096000, 13270144
5360640, 1242368
2897920, 1643776
3050240, 2446592
4913920, 3636352
8641280, 6847616
16096000, 13270144
3100160, 1242368
2118400, 1643776
3050240, 2446592
4913920, 3636352
8641280, 6847616
16096000, 13270144
3322880, 1242368
2118400, 1643776
3050240, 2446592
4913920, 3636352
8641280, 6847616
16096000, 13270144
4659200, 1242368
2118400, 1643776
3050240, 2446592
4913920, 3636352
8641280, 6847616
16096000, 13270144
1652480, 1242368
2118400, 1643776
3050240, 2446592
4913920, 3636352
8641280, 6847616
16096000, 13270144
1652480, 1242368
2118400, 1643776
3050240, 2446592
4913920, 3636352
8641280, 6847616
16096000, 13270144
4807680, 1266176
6205440, 1244416
9000960, 843008
14592000, 843008
25774080, 843008
48138240, 843008
4992000, 1266176
6389760, 1244416
9185280, 843008
5248000, 843008
8752640, 843008
16207360, 843008
5360640, 1266176
2897920, 1244416
3161600, 843008
5025280, 843008
8752640, 843008
16207360, 843008
3100160, 1266176
2229760, 1244416
3161600, 843008
5025280, 843008
8752640, 843008
16207360, 843008
3322880, 1266176
2229760, 1244416
3161600, 843008
5025280, 843008
8752640, 843008
16207360, 843008
4659200, 1266176
2229760, 1244416
3161600, 843008
5025280, 843008
8752640, 843008
16207360, 843008
1763840, 1266176
2229760, 1244416
3161600, 843008
5025280, 843008
8752640, 843008
16207360, 843008
1763840, 1266176
2229760, 1244416
3161600, 843008
5025280, 843008
8752640, 843008
16207360, 843008
4992000, 826496
6389760, 826496
9185280, 826496
5248000, 826496
7334912, 826496
13757440, 826496
5360640, 826496
2897920, 826496
3384320, 826496
5248000, 826496
7334912, 826496
13757440, 826496
3322880, 826496
2452480, 826496
3384320, 826496
5248000, 826496
7334912, 826496
13757440, 826496
4659200, 826496
2452480, 826496
3384320, 826496
5248000, 826496
7334912, 826496
13757440, 826496
1986560, 826496
2452480, 826496
3384320, 826496
5248000, 826496
7334912, 826496
13757440, 826496
1986560, 826496
2452480, 826496
3384320, 826496
5248000, 826496
7334912, 826496
13757440, 826496
5268480, 826496
2786560, 826496
2589440, 826496
4195072, 826496
7406336, 826496
13828864, 826496
3100160, 826496
2786560, 826496
2589440, 826496
4195072, 826496
7406336, 826496
13828864, 826496
4659200, 826496
2786560, 826496
2589440, 826496
4195072, 826496
7406336, 826496
13828864, 826496
2320640, 826496
2786560, 826496
2589440, 826496
4195072, 826496
7406336, 826496
13828864, 826496
2320640, 826496
2786560, 826496
2589440, 826496
4195072, 826496
7406336, 826496
13828864, 826496
5360640, 826496
2897920, 826496
2613248, 826496
4218880, 826496
7430144, 826496
13852672, 826496
3322880, 826496
2897920, 826496
2613248, 826496
4218880, 826496
7430144, 826496
13852672, 826496
2432000, 826496
2897920, 826496
2613248, 826496
4218880, 826496
7430144, 826496
13852672, 826496
2432000, 826496
2897920, 826496
2613248, 826496
4218880, 826496
7430144, 826496
13852672, 826496
3100160, 826496
1953280, 826496
2756096, 826496
4361728, 826496
7572992, 826496
13995520, 826496
4659200, 826496
1953280, 826496
2756096, 826496
4361728, 826496
7572992, 826496
13995520, 826496
3100160, 826496
1953280, 826496
2756096, 826496
4361728, 826496
7572992, 826496
13995520, 826496
3100160, 826496
1953280, 826496
2756096, 826496
4361728, 826496
7572992, 826496
13995520, 826496
3322880, 826496
2000896, 826496
2803712, 826496
4409344, 826496
7620608, 826496
14043136, 826496
3322880, 826496
2000896, 826496
2803712, 826496
4409344, 826496
7620608, 826496
14043136, 826496
4659200, 826496
2286592, 826496
3089408, 826496
4695040, 826496
7906304, 826496
13715968, 826496
4659200, 826496
2286592, 826496
3089408, 826496
4695040, 826496
7906304, 826496
13715968, 826496
4659200, 826496
2286592, 826496
3089408, 826496
4695040, 826496
7906304, 826496
13715968, 826496
2551808, 826496
2953216, 826496
3756032, 826496
4544512, 826496
7755776, 826496
1734656, 826496
2551808, 826496
2953216, 826496
3756032, 826496
4544512, 826496
7755776, 826496
1734656, 826496
3885056, 826496
4286464, 826496
3863552, 826496
2659328, 826496
2659328, 826496
2659328, 826496
4243968, 1242368
5501952, 1643776
8017920, 2446592
13049856, 3636352
23113728, 6847616
43241472, 13270144
4326912, 1242368
5584896, 1643776
8100864, 2446592
13132800, 3636352
23196672, 6847616
43324416, 13270144
4492800, 1242368
5750784, 1643776
8266752, 2446592
4723200, 3636352
7777152, 6847616
14486400, 13270144
4741632, 1242368
2507904, 1643776
2745216, 2446592
4422528, 3636352
7777152, 6847616
14486400, 13270144
4824576, 1242368
2608128, 1643776
2745216, 2446592
4422528, 3636352
7777152, 6847616
14486400, 13270144
2790144, 1242368
1906560, 1643776
2745216, 2446592
4422528, 3636352
7777152, 6847616
14486400, 13270144
2990592, 1242368
1906560, 1643776
2745216, 2446592
4422528, 3636352
7777152, 6847616
14486400, 13270144
4193280, 1242368
1906560, 1643776
2745216, 2446592
4422528, 3636352
7777152, 6847616
14486400, 13270144
1487232, 1242368
1906560, 1643776
2745216, 2446592
4422528, 3636352
7777152, 6847616
14486400, 13270144
1487232, 1242368
1906560, 1643776
2745216, 2446592
4422528, 3636352
7777152, 6847616
14486400, 13270144
4326912, 1266176
5584896, 1244416
8100864, 843008
13132800, 843008
23196672, 843008
43324416, 843008
4492800, 1266176
5750784, 1244416
8266752, 843008
4723200, 843008
7877376, 843008
14586624, 843008
4824576, 1266176
2608128, 1244416
2845440, 843008
4522752, 843008
7877376, 843008
14586624, 843008
2790144, 1266176
2006784, 1244416
2845440, 843008
4522752, 843008
7877376, 843008
14586624, 843008
2990592, 1266176
2006784, 1244416
2845440, 843008
4522752, 843008
7877376, 843008
14586624, 843008
4193280, 1266176
2006784, 1244416
2845440, 843008
4522752, 843008
7877376, 843008
14586624, 843008
1587456, 1266176
2006784, 1244416
2845440, 843008
4522752, 843008
7877376, 843008
14586624, 843008
1587456, 1266176
2006784, 1244416
2845440, 843008
4522752, 843008
7877376, 843008
14586624, 843008
4492800, 826496
5750784, 826496
8266752, 826496
4723200, 826496
7334912, 826496
13757440, 826496
4824576, 826496
2608128, 826496
3045888, 826496
4723200, 826496
7334912, 826496
13757440, 826496
2990592, 826496
2207232, 826496
3045888, 826496
4723200, 826496
7334912, 826496
13757440, 826496
4193280, 826496
2207232, 826496
3045888, 826496
4723200, 826496
7334912, 826496
13757440, 826496
1787904, 826496
2207232, 826496
3045888, 826496
4723200, 826496
7334912, 826496
13757440, 826496
1787904, 826496
2207232, 826496
3045888, 826496
4723200, 826496
7334912, 826496
13757440, 826496
4741632, 826496
2507904, 826496
2589440, 826496
4195072, 826496
7406336, 826496
13828864, 826496
2790144, 826496
2507904, 826496
2589440, 826496
4195072, 826496
7406336, 826496
13828864, 826496
4193280, 826496
2507904, 826496
2589440, 826496
4195072, 826496
7406336, 826496
13828864, 826496
2088576, 826496
2507904, 826496
2589440, 826496
4195072, 826496
7406336, 826496
13828864, 826496
2088576, 826496
2507904, 826496
2589440, 826496
4195072, 826496
7406336, 826496
13828864, 826496
4824576, 826496
2608128, 826496
2613248, 826496
4218880, 826496
7430144, 826496
13852672, 826496
2990592, 826496
2608128, 826496
2613248, 826496
4218880, 826496
7430144, 826496
13852672, 826496
2188800, 826496
2608128, 826496
2613248, 826496
4218880, 826496
7430144, 826496
13852672, 826496
2188800, 826496
2608128, 826496
2613248, 826496
4218880, 826496
7430144, 826496
13852672, 826496
2790144, 826496
1953280, 826496
2756096, 826496
4361728, 826496
7572992, 826496
13995520, 826496
4193280, 826496
1953280, 826496
2756096, 826496
4361728, 826496
7572992, 826496
13995520, 826496
2790144, 826496
1953280, 826496
2756096, 826496
4361728, 826496
7572992, 826496
13995520, 826496
2790144, 826496
1953280, 826496
2756096, 826496
4361728, 826496
7572992, 826496
13995520, 826496
2990592, 826496
2000896, 826496
2803712, 826496
4409344, 826496
7620608, 826496
14043136, 826496
2990592, 826496
2000896, 826496
2803712, 826496
4409344, 826496
7620608, 826496
14043136, 826496
4193280, 826496
2286592, 826496
3089408, 826496
4695040, 826496
7906304, 826496
13715968, 826496
4193280, 826496
2286592, 826496
3089408, 826496
4695040, 826496
7906304, 826496
13715968, 826496
4193280, 826496
2286592, 826496
3089408, 826496
4695040, 826496
7906304, 826496
13715968, 826496
2551808, 826496
2953216, 826496
3756032, 826496
4544512, 826496
7755776, 826496
1734656, 826496
2551808, 826496
2953216, 826496
3756032, 826496
4544512, 826496
7755776, 826496
1734656, 826496
3885056, 826496
4286464, 826496
3863552, 826496
2659328, 826496
2659328, 826496
2659328, 826496
4534272, 1242368
5889024, 1643776
8598528, 2446592
14017536, 3636352
24855552, 6847616
46531584, 13270144
4617216, 1242368
5971968, 1643776
8681472, 2446592
14100480, 3636352
24938496, 6847616
46614528, 13270144
4783104, 1242368
6137856, 1643776
8847360, 2446592
14266368, 3636352
8358912, 6847616
15584256, 13270144
5031936, 1242368
6386688, 1643776
2939904, 2446592
4746240, 3636352
8358912, 6847616
15584256, 13270144
5114880, 1242368
2746368, 1643776
2939904, 2446592
4746240, 3636352
8358912, 6847616
15584256, 13270144
2903040, 1242368
2036736, 1643776
2939904, 2446592
4746240, 3636352
8358912, 6847616
15584256, 13270144
3105792, 1242368
2036736, 1643776
2939904, 2446592
4746240, 3636352
8358912, 6847616
15584256, 13270144
4322304, 1242368
2036736, 1643776
2939904, 2446592
4746240, 3636352
8358912, 6847616
15584256, 13270144
1585152, 1242368
2036736, 1643776
2939904, 2446592
4746240, 3636352
8358912, 6847616
15584256, 13270144
1585152, 1242368
2036736, 1643776
2939904, 2446592
4746240, 3636352
8358912, 6847616
15584256, 13270144
4617216, 1266176
5971968, 1244416
8681472, 843008
14100480, 843008
24938496, 843008
46614528, 843008
4783104, 1266176
6137856, 1244416
8847360, 843008
14266368, 843008
8460288, 843008
15685632, 843008
5114880, 1266176
2746368, 1244416
3041280, 843008
4847616, 843008
8460288, 843008
15685632, 843008
2903040, 1266176
2138112, 1244416
3041280, 843008
4847616, 843008
8460288, 843008
15685632, 843008
3105792, 1266176
2138112, 1244416
3041280, 843008
4847616, 843008
8460288, 843008
15685632, 843008
4322304, 1266176
2138112, 1244416
3041280, 843008
4847616, 843008
8460288, 843008
15685632, 843008
1686528, 1266176
2138112, 1244416
3041280, 843008
4847616, 843008
8460288, 843008
15685632, 843008
1686528, 1266176
2138112, 1244416
3041280, 843008
4847616, 843008
8460288, 843008
15685632, 843008
4783104, 826496
6137856, 826496
8847360, 826496
14266368, 826496
7334912, 826496
13757440, 826496
5114880, 826496
2746368, 826496
3244032, 826496
5050368, 826496
7334912, 826496
13757440, 826496
3105792, 826496
2340864, 826496
3244032, 826496
5050368, 826496
7334912, 826496
13757440, 826496
4322304, 826496
2340864, 826496
3244032, 826496
5050368, 826496
7334912, 826496
13757440, 826496
1889280, 826496
2340864, 826496
3244032, 826496
5050368, 826496
7334912, 826496
13757440, 826496
1889280, 826496
2340864, 826496
3244032, 826496
5050368, 826496
7334912, 826496
13757440, 826496
5031936, 826496
6386688, 826496
2589440, 826496
4195072, 826496
7406336, 826496
13828864, 826496
2903040, 826496
2644992, 826496
2589440, 826496
4195072, 826496
7406336, 826496
13828864, 826496
4322304, 826496
2644992, 826496
2589440, 826496
4195072, 826496
7406336, 826496
13828864, 826496
2193408, 826496
2644992, 826496
2589440, 826496
4195072, 826496
7406336, 826496
13828864, 826496
2193408, 826496
2644992, 826496
2589440, 826496
4195072, 826496
7406336, 826496
13828864, 826496
5114880, 826496
2746368, 826496
2613248, 826496
4218880, 826496
7430144, 826496
13852672, 826496
3105792, 826496
2746368, 826496
2613248, 826496
4218880, 826496
7430144, 826496
13852672, 826496
2294784, 826496
2746368, 826496
2613248, 826496
4218880, 826496
7430144, 826496
13852672, 826496
2294784, 826496
2746368, 826496
2613248, 826496
4218880, 826496
7430144, 826496
13852672, 826496
2903040, 826496
1953280, 826496
2756096, 826496
4361728, 826496
7572992, 826496
13995520, 826496
4322304, 826496
1953280, 826496
2756096, 826496
4361728, 826496
7572992, 826496
13995520, 826496
2903040, 826496
1953280, 826496
2756096, 826496
4361728, 826496
7572992, 826496
13995520, 826496
2903040, 826496
1953280, 826496
2756096, 826496
4361728, 826496
7572992, 826496
13995520, 826496
3105792, 826496
2000896, 826496
2803712, 826496
4409344, 826496
7620608, 826496
14043136, 826496
3105792, 826496
2000896, 826496
2803712, 826496
4409344, 826496
7620608, 826496
14043136, 826496
4322304, 826496
2286592, 826496
3089408, 826496
4695040, 826496
7906304, 826496
13715968, 826496
4322304, 826496
2286592, 826496
3089408, 826496
4695040, 826496
7906304, 826496
13715968, 826496
4322304, 826496
2286592, 826496
3089408, 826496
4695040, 826496
7906304, 826496
13715968, 826496
2551808, 826496
2953216, 826496
3756032, 826496
4544512, 826496
7755776, 826496
1734656, 826496
2551808, 826496
2953216, 826496
3756032, 826496
4544512, 826496
7755776, 826496
1734656, 826496
3885056, 826496
4286464, 826496
3863552, 826496
2659328, 826496
2659328, 826496
2659328, 826496
2939904, 826496
4240896, 1227904
6842880, 2030720
12046848, 3636352
22454784, 6847616
43270656, 13270144
3041280, 826496
4342272, 1227904
6944256, 2030720
12148224, 3636352
22556160, 6847616
43372032, 13270144
3244032, 826496
4545024, 1227904
7147008, 2030720
12350976, 3636352
22758912, 6847616
43574784, 13270144
3548160, 826496
4849152, 1227904
3020864, 2030720
4092352, 3636352
7561664, 6847616
14500288, 13270144
3649536, 826496
4950528, 1227904
3131392, 2030720
4092352, 3636352
7561664, 6847616
14500288, 13270144
4257792, 826496
2927232, 1227904
2357696, 2030720
4092352, 3636352
7561664, 6847616
14500288, 13270144
4460544, 826496
3148288, 1227904
2357696, 2030720
4092352, 3636352
7561664, 6847616
14500288, 13270144
4040960, 826496
1490368, 1227904
2357696, 2030720
4092352, 3636352
7561664, 6847616
14500288, 13270144
7135744, 826496
1490368, 1227904
2357696, 2030720
4092352, 3636352
7561664, 6847616
14500288, 13270144
13325312, 826496
1490368, 1227904
2357696, 2030720
4092352, 3636352
7561664, 6847616
14500288, 13270144
3041280, 843008
4342272, 1244416
6944256, 843008
12148224, 843008
22556160, 843008
43372032, 843008
3244032, 843008
4545024, 1244416
7147008, 843008
12350976, 843008
22758912, 843008
43574784, 843008
3649536, 843008
4950528, 1244416
3131392, 843008
4202880, 843008
7672192, 843008
14610816, 843008
4257792, 843008
2927232, 1244416
2468224, 843008
4202880, 843008
7672192, 843008
14610816, 843008
4460544, 843008
3148288, 1244416
2468224, 843008
4202880, 843008
7672192, 843008
14610816, 843008
4040960, 843008
1600896, 1244416
2468224, 843008
4202880, 843008
7672192, 843008
14610816, 843008
7135744, 843008
1600896, 1244416
2468224, 843008
4202880, 843008
7672192, 843008
14610816, 843008
13325312, 843008
1600896, 1244416
2468224, 843008
4202880, 843008
7672192, 843008
14610816, 843008
3244032, 826496
4545024, 826496
7147008, 826496
12350976, 826496
22758912, 826496
43574784, 826496
3649536, 826496
4950528, 826496
3131392, 826496
4423936, 826496
7893248, 826496
14831872, 826496
4460544, 826496
3148288, 826496
2689280, 826496
4423936, 826496
7893248, 826496
14831872, 826496
4040960, 826496
1821952, 826496
2689280, 826496
4423936, 826496
7893248, 826496
14831872, 826496
7135744, 826496
1821952, 826496
2689280, 826496
4423936, 826496
7893248, 826496
14831872, 826496
13325312, 826496
1821952, 826496
2689280, 826496
4423936, 826496
7893248, 826496
14831872, 826496
3548160, 826496
4849152, 826496
3020864, 826496
3735424, 826496
6946688, 826496
13369216, 826496
4257792, 826496
2927232, 826496
3020864, 826496
3735424, 826496
6946688, 826496
13369216, 826496
4040960, 826496
2153536, 826496
3020864, 826496
3735424, 826496
6946688, 826496
13369216, 826496
7135744, 826496
2153536, 826496
3020864, 826496
3735424, 826496
6946688, 826496
13369216, 826496
13325312, 826496
2153536, 826496
3020864, 826496
3735424, 826496
6946688, 826496
13369216, 826496
3649536, 826496
4950528, 826496
3131392, 826496
3751936, 826496
6963200, 826496
13385728, 826496
4460544, 826496
3148288, 826496
3131392, 826496
3751936, 826496
6963200, 826496
13385728, 826496
7135744, 826496
2264064, 826496
3131392, 826496
3751936, 826496
6963200, 826496
13385728, 826496
13325312, 826496
2264064, 826496
3131392, 826496
3751936, 826496
6963200, 826496
13385728, 826496
4257792, 826496
2927232, 826496
2245376, 826496
3851008, 826496
7062272, 826496
13484800, 826496
4040960, 826496
2927232, 826496
2245376, 826496
3851008, 826496
7062272, 826496
13484800, 826496
7135744, 826496
2927232, 826496
2245376, 826496
3851008, 826496
7062272, 826496
13484800, 826496
13325312, 826496
2927232, 826496
2245376, 826496
3851008, 826496
7062272, 826496
13484800, 826496
4460544, 826496
3148288, 826496
2278400, 826496
3884032, 826496
7095296, 826496
13517824, 826496
13325312, 826496
3148288, 826496
2278400, 826496
3884032, 826496
7095296, 826496
13517824, 826496
4040960, 826496
1673728, 826496
2476544, 826496
4082176, 826496
7293440, 826496
13715968, 826496
7135744, 826496
1673728, 826496
2476544, 826496
4082176, 826496
7293440, 826496
13715968, 826496
13325312, 826496
1673728, 826496
2476544, 826496
4082176, 826496
7293440, 826496
13715968, 826496
7135744, 826496
2136064, 826496
2938880, 826496
4544512, 826496
7755776, 826496
1734656, 826496
13325312, 826496
2136064, 826496
2938880, 826496
4544512, 826496
7755776, 826496
1734656, 826496
13325312, 826496
3060736, 826496
3863552, 826496
2659328, 826496
2659328, 826496
2659328, 826496
