IdRun;NameConv;Time(ms);std;NbMicroKernel;AxeFuse;SizeAxeFuse;Schema;Time_search
-1;ttile;5.517428874969482;0;0;0;0;0;5.517428874969482
0;MobilNet_5;1.0866633;0.010059006094540385;2;axe_yy1_0,axe_xx1_0,axe_out_channels1_0,axe_yy1_1,axe_xx1_1;13;[V f, U (2, f), ULambda y, T (32, c), Hoist_vars [c], T (3, h), T (14, x),  T (3, w), T (8, c), T (1, x), T (1, y), T (8, f), T (2, x),  Lambda_apply y [((Iter 1), (Arg 8)), ((Iter 2), (Arg 10))]];8.074047803878784
1;MobilNet_5;0.7354242;0.0030664468624125828;1;axe_yy_0,axe_xx_0,axe_out_channels_0,axe_yy_1,axe_xx_1;16;[V f, U (2, f), U (14, y), T (32, c), Hoist_vars [c], T (3, h), T (7, x),  T (3, w), T (8, c), T (1, x), T (1, y), T (8, f), T (4, x), T (2, y)];10.35678243637085
2;MobilNet_5;1.1596279;0.007271169747021444;1;axe_out_channels_0,axe_out_channels_1,axe_xx_0,axe_yy_0,axe_out_channels_2;11;[V f, U (4, f), U (7, y), U (3, w), T (64, c), Hoist_vars [c], T (28, x),  T (3, h), T (4, c), T (4, f), T (4, y), T (1, x), T (1, f), T (1, f)];12.673436880111694
3;MobilNet_5;0.8863175999999999;0.008521929337890565;1;axe_out_channels_0,axe_out_channels_1,axe_xx_0,axe_yy_0,axe_out_channels_2;14;[V f, U (4, f), U (7, y), U (3, w), T (256, c), Hoist_vars [c], T (7, x),  T (3, h), T (1, c), T (1, f), T (4, y), T (4, x), T (1, f), T (4, f)];14.98111867904663
4;MobilNet_5;9.8613915;0.04560902819234367;1;axe_yy_0,axe_xx_0;2;[V f, U (2, f), ULambda y, T (32, c), Hoist_vars [c], T (3, h), T (14, x),  T (3, w), T (8, c), T (2, x),  Lambda_apply y [((Iter 1), (Arg 8)), ((Iter 2), (Arg 10))], T (8, f),  T (1, x), T (1, y)];18.20850443840027
5;MobilNet_5;0.8559032;0.007940051710159055;1;axe_out_channels_0,axe_out_channels_1,axe_xx_0,axe_yy_0,axe_out_channels_2;13;[V f, U (4, f), U (7, y), U (3, w), T (32, c), Hoist_vars [c], T (7, x),  T (3, h), T (8, c), T (2, f), T (4, y), T (4, x), T (1, f), T (2, f)];20.557252883911133
6;MobilNet_5;1.3503804000000001;0.009803564190640013;2;axe_out_channels1_0,axe_out_channels1_1,axe_xx1_0,axe_yy1_0,axe_out_channels1_2;9;[V f, U (4, f), ULambda y, U (3, w), T (64, c), Hoist_vars [c], T (28, x),  T (3, h), T (4, c), T (1, f),  Lambda_apply y [((Iter 2), (Arg 5)), ((Iter 3), (Arg 6))], T (1, x),  T (4, f), T (1, f)];23.3066623210907
7;MobilNet_5;0.9609206;0.013200448872670937;1;axe_out_channels_0,axe_out_channels_1,axe_xx_0,axe_yy_0,axe_out_channels_2;11;[V f, U (4, f), U (7, y), U (3, w), T (256, c), Hoist_vars [c], T (28, x),  T (3, h), T (1, c), T (4, f), T (4, y), T (1, x), T (1, f), T (1, f)];25.61483383178711
8;MobilNet_5;0.9547616000000001;0.018078030137158207;1;axe_out_channels_0,axe_out_channels_1,axe_xx_0,axe_yy_0,axe_out_channels_2;14;[V f, U (4, f), U (4, y), U (3, w), T (256, c), Hoist_vars [c], T (28, x),  T (3, h), T (1, c), T (1, f), T (7, y), T (1, x), T (4, f), T (1, f)];27.823076963424683
9;MobilNet_5;0.8780833999999998;0.021546921878542173;1;axe_out_channels_0,axe_out_channels_1,axe_xx_0,axe_yy_0,axe_out_channels_2;14;[V f, U (4, f), U (4, y), U (3, w), T (256, c), Hoist_vars [c], T (14, x),  T (3, h), T (1, c), T (2, f), T (7, y), T (2, x), T (1, f), T (2, f)];30.128368616104126
10;MobilNet_5;0.9600757;0.03658503086249889;1;axe_out_channels_0,axe_out_channels_1,axe_xx_0,axe_yy_0,axe_out_channels_2;14;[V f, U (4, f), U (4, y), U (3, w), T (32, c), Hoist_vars [c], T (28, x),  T (3, h), T (8, c), T (4, f), T (7, y), T (1, x), T (1, f), T (1, f)];32.344128370285034
11;MobilNet_5;1.2925695;0.029543497485064317;2;axe_out_channels1_0,axe_out_channels1_1,axe_xx1_0,axe_yy1_0,axe_out_channels1_2;9;[V f, U (4, f), ULambda y, U (3, w), T (256, c), Hoist_vars [c], T (28, x),  T (3, h), T (1, c), T (1, f),  Lambda_apply y [((Iter 2), (Arg 5)), ((Iter 3), (Arg 6))], T (1, x),  T (1, f), T (4, f)];35.03891658782959
12;MobilNet_5;0.8180982;0.008365839393629336;1;axe_out_channels_0,axe_out_channels_1,axe_xx_0,axe_yy_0,axe_out_channels_2;13;[V f, U (4, f), U (4, y), U (3, w), T (128, c), Hoist_vars [c], T (28, x),  T (3, h), T (2, c), T (2, f), T (7, y), T (1, x), T (1, f), T (2, f)];37.342907667160034
13;MobilNet_5;1.0722813;0.010475010492118852;1;axe_out_channels_0,axe_out_channels_1,axe_xx_0,axe_yy_0,axe_out_channels_2;11;[V f, U (4, f), U (7, y), U (3, w), T (32, c), Hoist_vars [c], T (28, x),  T (3, h), T (8, c), T (1, f), T (4, y), T (1, x), T (1, f), T (4, f)];39.637224197387695
14;MobilNet_5;0.9138652;0.024647056367039052;1;axe_out_channels_0,axe_out_channels_1,axe_xx_0,axe_yy_0,axe_out_channels_2;13;[V f, U (4, f), U (4, y), U (3, w), T (256, c), Hoist_vars [c], T (28, x),  T (3, h), T (1, c), T (1, f), T (7, y), T (1, x), T (2, f), T (2, f)];41.843894958496094
15;MobilNet_5;1.1665831999999998;0.003290408418418569;1;axe_out_channels_0,axe_out_channels_1,axe_xx_0,axe_yy_0,axe_out_channels_2;10;[V f, U (4, f), U (7, y), U (3, w), T (64, c), Hoist_vars [c], T (28, x),  T (3, h), T (4, c), T (2, f), T (4, y), T (1, x), T (1, f), T (2, f)];44.54177117347717
16;MobilNet_5;1.0721914000000001;0.17207604292823564;1;axe_yy_0,axe_xx_0,axe_out_channels_0,axe_yy_1,axe_xx_1;14;[V f, U (2, f), U (14, y), T (32, c), Hoist_vars [c], T (3, h), T (14, x),  T (3, w), T (8, c), T (1, x), T (2, y), T (8, f), T (2, x), T (1, y)];46.77787733078003
17;MobilNet_5;0.8551315;0.00835011493633473;1;axe_out_channels_0,axe_out_channels_1,axe_xx_0,axe_yy_0,axe_out_channels_2;13;[V f, U (4, f), U (7, y), U (3, w), T (256, c), Hoist_vars [c], T (7, x),  T (3, h), T (1, c), T (2, f), T (4, y), T (4, x), T (2, f), T (1, f)];49.06979537010193
18;MobilNet_5;0.8674842;0.011331800720097374;1;axe_out_channels_0,axe_out_channels_1,axe_xx_0,axe_yy_0,axe_out_channels_2;14;[V f, U (4, f), U (4, y), U (3, w), T (64, c), Hoist_vars [c], T (28, x),  T (3, h), T (4, c), T (1, f), T (7, y), T (1, x), T (1, f), T (4, f)];51.27925658226013
19;MobilNet_5;15.9421961;0.09260380939297268;1;axe_yy_0;1;[V f, U (1, f), ULambda y, U (3, h), T (128, c), Hoist_vars [c], T (3, w),  T (28, x), T (2, c),  Lambda_apply y [((Iter 2), (Arg 9)), ((Iter 1), (Arg 10))], T (16, f),  T (1, y)];54.737765312194824
20;MobilNet_5;0.9067704000000001;0.012931205776724793;1;axe_out_channels_0,axe_out_channels_1,axe_xx_0,axe_yy_0,axe_out_channels_2;13;[V f, U (4, f), U (4, y), U (3, w), T (256, c), Hoist_vars [c], T (28, x),  T (3, h), T (1, c), T (2, f), T (7, y), T (1, x), T (2, f), T (1, f)];56.95144248008728
21;MobilNet_5;0.9245388999999999;0.007586946967654394;1;axe_out_channels_0,axe_out_channels_1,axe_xx_0,axe_yy_0,axe_out_channels_2;11;[V f, U (4, f), U (7, y), U (3, w), T (64, c), Hoist_vars [c], T (28, x),  T (3, h), T (4, c), T (1, f), T (4, y), T (1, x), T (4, f), T (1, f)];59.23387551307678
22;MobilNet_5;0.8342225000000001;0.013373046042319618;1;axe_out_channels_0,axe_out_channels_1,axe_xx_0,axe_yy_0,axe_out_channels_2;12;[V f, U (4, f), U (7, y), U (3, w), T (256, c), Hoist_vars [c], T (14, x),  T (3, h), T (1, c), T (4, f), T (4, y), T (2, x), T (1, f), T (1, f)];61.59076261520386
23;MobilNet_5;0.9607523;0.006400021610119761;1;axe_out_channels_0,axe_out_channels_1,axe_xx_0,axe_yy_0,axe_out_channels_2;10;[V f, U (4, f), U (7, y), U (3, w), T (128, c), Hoist_vars [c], T (28, x),  T (3, h), T (2, c), T (2, f), T (4, y), T (1, x), T (2, f), T (1, f)];63.86307120323181
24;MobilNet_5;0.8471043;0.003600824462536337;1;axe_out_channels_0,axe_out_channels_1,axe_xx_0,axe_yy_0,axe_out_channels_2;10;[V f, U (4, f), U (7, y), U (3, w), T (128, c), Hoist_vars [c], T (28, x),  T (3, h), T (2, c), T (1, f), T (4, y), T (1, x), T (2, f), T (2, f)];66.12088990211487
25;MobilNet_5;1.6924927;0.006260991040562204;1;axe_out_channels_0,axe_out_channels_1,axe_xx_0,axe_yy_0,axe_out_channels_2;13;[V f, U (4, f), U (7, y), U (3, h), T (32, c), Hoist_vars [c], T (7, x),  T (3, w), T (8, c), T (1, f), T (4, y), T (4, x), T (2, f), T (2, f)];68.43939852714539
26;MobilNet_5;0.8812004;0.01773277912905928;1;axe_out_channels_0,axe_out_channels_1,axe_xx_0,axe_yy_0,axe_out_channels_2;12;[V f, U (4, f), U (7, y), U (3, w), T (32, c), Hoist_vars [c], T (14, x),  T (3, h), T (8, c), T (4, f), T (4, y), T (2, x), T (1, f), T (1, f)];70.83249020576477
27;MobilNet_5;0.8927855000000001;0.015684805974254222;1;axe_out_channels_0,axe_out_channels_1,axe_xx_0,axe_yy_0,axe_out_channels_2;10;[V f, U (4, f), U (7, y), U (3, w), T (256, c), Hoist_vars [c], T (28, x),  T (3, h), T (1, c), T (1, f), T (4, y), T (1, x), T (2, f), T (2, f)];73.0970675945282
28;MobilNet_5;0.8497816;0.009150376726670876;1;axe_out_channels_0,axe_out_channels_1,axe_xx_0,axe_yy_0,axe_out_channels_2;13;[V f, U (4, f), U (4, y), U (3, w), T (128, c), Hoist_vars [c], T (28, x),  T (3, h), T (2, c), T (2, f), T (7, y), T (1, x), T (2, f), T (1, f)];75.30108523368835
29;MobilNet_5;1.7409584000000002;0.005528811340604771;1;axe_out_channels_0,axe_out_channels_1,axe_xx_0,axe_yy_0,axe_out_channels_2;11;[V f, U (4, f), U (7, y), U (3, h), T (32, c), Hoist_vars [c], T (14, x),  T (3, w), T (8, c), T (1, f), T (4, y), T (2, x), T (2, f), T (2, f)];77.80015754699707
30;MobilNet_5;1.0224460999999998;0.011737184095429327;2;axe_yy1_0,axe_xx1_0,axe_out_channels1_0,axe_yy1_1,axe_xx1_1;14;[V f, U (2, f), ULambda y, T (32, c), Hoist_vars [c], T (3, h), T (14, x),  T (3, w), T (8, c), T (2, x), T (1, y), T (8, f), T (1, x),  Lambda_apply y [((Iter 2), (Arg 8)), ((Iter 1), (Arg 12))]];80.41305828094482
31;MobilNet_5;0.8139578000000001;0.0072600739087147;1;axe_out_channels_0,axe_out_channels_1,axe_xx_0,axe_yy_0,axe_out_channels_2;12;[V f, U (4, f), U (7, y), U (3, w), T (128, c), Hoist_vars [c], T (14, x),  T (3, h), T (2, c), T (4, f), T (4, y), T (2, x), T (1, f), T (1, f)];82.7963719367981
32;MobilNet_5;4.9693539;0.017768922125159913;1;axe_yy_0,axe_xx_0;3;[V f, U (2, f), ULambda y, T (64, c), Hoist_vars [c], T (3, h), T (7, x),  T (3, w), T (4, c), T (2, x),  Lambda_apply y [((Iter 1), (Arg 13)), ((Iter 1), (Arg 15))], T (8, f),  T (2, x), T (1, y)];85.3061683177948
33;MobilNet_5;0.9029524;0.0393465620078807;1;axe_out_channels_0,axe_out_channels_1,axe_xx_0,axe_yy_0,axe_out_channels_2;13;[V f, U (4, f), U (7, y), T (32, c), Hoist_vars [c], T (3, h), T (7, x),  T (3, w), T (8, c), T (2, f), T (4, y), T (4, x), T (1, f), T (2, f)];87.58784222602844
34;MobilNet_5;0.8056722000000001;0.00893212770620755;1;axe_out_channels_0,axe_out_channels_1,axe_xx_0,axe_yy_0,axe_out_channels_2;11;[V f, U (4, f), U (7, y), U (3, w), T (256, c), Hoist_vars [c], T (14, x),  T (3, h), T (1, c), T (2, f), T (4, y), T (2, x), T (1, f), T (2, f)];89.97950434684753
35;MobilNet_5;1.7690882999999995;0.005171591303457764;1;axe_xx_0;28;[V f, U (1, f), U (14, y), U (3, h), T (64, c), Hoist_vars [c], T (3, w),  T (28, x), T (4, c), T (2, y), T (16, f), T (1, y)];92.24597835540771
36;MobilNet_5;0.9088967;0.025046484883312473;1;axe_out_channels_0,axe_out_channels_1,axe_xx_0,axe_yy_0,axe_out_channels_2;14;[V f, U (4, f), U (4, y), U (3, w), T (256, c), Hoist_vars [c], T (28, x),  T (3, h), T (1, c), T (1, f), T (7, y), T (1, x), T (1, f), T (4, f)];94.45227599143982
37;MobilNet_5;0.7921761;0.0030681541502994942;1;axe_out_channels_0,axe_out_channels_1,axe_xx_0,axe_yy_0,axe_out_channels_2;12;[V f, U (4, f), U (7, y), U (3, w), T (128, c), Hoist_vars [c], T (14, x),  T (3, h), T (2, c), T (1, f), T (4, y), T (2, x), T (1, f), T (4, f)];96.87375617027283
38;MobilNet_5;1.0622322;0.012787780298394216;2;axe_yy1_0,axe_xx1_0,axe_out_channels1_0,axe_yy1_1,axe_xx1_1;14;[V f, U (2, f), ULambda y, T (32, c), Hoist_vars [c], T (3, h), T (14, x),  T (3, w), T (8, c), T (1, x), T (1, y), T (8, f), T (2, x),  Lambda_apply y [((Iter 2), (Arg 8)), ((Iter 1), (Arg 12))]];99.46140670776367
39;MobilNet_5;1.3104564;0.007498690421666949;2;axe_out_channels1_0,axe_out_channels1_1,axe_xx1_0,axe_yy1_0,axe_out_channels1_2;9;[V f, U (4, f), ULambda y, U (3, w), T (128, c), Hoist_vars [c], T (28, x),  T (3, h), T (2, c), T (4, f),  Lambda_apply y [((Iter 2), (Arg 5)), ((Iter 3), (Arg 6))], T (1, x),  T (1, f), T (1, f)];102.1515781879425
40;MobilNet_5;0.8933844000000001;0.01966934735165356;1;axe_out_channels_0,axe_out_channels_1,axe_xx_0,axe_yy_0,axe_out_channels_2;15;[V f, U (4, f), U (4, y), U (3, w), T (256, c), Hoist_vars [c], T (14, x),  T (3, h), T (1, c), T (1, f), T (7, y), T (2, x), T (4, f), T (1, f)];104.46049404144287
41;MobilNet_5;1.2768920000000001;0.02914338656710985;2;axe_out_channels1_0,axe_out_channels1_1,axe_xx1_0,axe_yy1_0,axe_out_channels1_2;9;[V f, U (4, f), ULambda y, U (3, w), T (256, c), Hoist_vars [c], T (28, x),  T (3, h), T (1, c), T (1, f),  Lambda_apply y [((Iter 2), (Arg 5)), ((Iter 3), (Arg 6))], T (1, x),  T (4, f), T (1, f)];107.12419652938843
42;MobilNet_5;0.7774418999999999;0.00780159158697761;1;axe_out_channels_0,axe_out_channels_1,axe_xx_0,axe_yy_0,axe_out_channels_2;14;[V f, U (4, f), U (4, y), U (3, w), T (64, c), Hoist_vars [c], T (14, x),  T (3, h), T (4, c), T (2, f), T (7, y), T (2, x), T (1, f), T (2, f)];109.43603730201721
43;MobilNet_5;0.6992238;0.00503270855106869;1;axe_yy_0,axe_xx_0,axe_out_channels_0,axe_yy_1,axe_xx_1;16;[V f, U (2, f), U (14, y), T (64, c), Hoist_vars [c], T (3, h), T (7, x),  T (3, w), T (4, c), T (1, x), T (1, y), T (8, f), T (4, x), T (2, y)];111.76414060592651
44;MobilNet_5;0.8139287;0.003288997842808658;1;axe_yy_0,axe_xx_0,axe_out_channels_0,axe_yy_1,axe_xx_1;16;[V f, U (2, f), U (14, y), T (64, c), Hoist_vars [c], T (3, h), T (7, x),  T (3, w), T (4, c), T (4, x), T (2, y), T (8, f), T (1, x), T (1, y)];113.98173069953918
45;MobilNet_5;9.9780349;0.04851699636508801;1;axe_yy_0,axe_xx_0;2;[V f, U (2, f), ULambda y, T (32, c), Hoist_vars [c], T (3, h), T (28, x),  T (3, w), T (8, c), T (1, x),  Lambda_apply y [((Iter 1), (Arg 8)), ((Iter 2), (Arg 10))], T (8, f),  T (1, x), T (1, y)];117.18088364601135
46;MobilNet_5;1.1639731;0.009828274685314844;1;axe_out_channels_0,axe_out_channels_1,axe_xx_0,axe_yy_0,axe_out_channels_2;10;[V f, U (4, f), U (7, y), U (3, w), T (64, c), Hoist_vars [c], T (28, x),  T (3, h), T (4, c), T (2, f), T (4, y), T (1, x), T (2, f), T (1, f)];119.50558948516846
47;MobilNet_5;0.8175391999999999;0.020221250232366914;1;axe_out_channels_0,axe_out_channels_1,axe_xx_0,axe_yy_0,axe_out_channels_2;12;[V f, U (4, f), U (7, y), U (3, w), T (256, c), Hoist_vars [c], T (14, x),  T (3, h), T (1, c), T (1, f), T (4, y), T (2, x), T (1, f), T (4, f)];121.90501546859741
48;MobilNet_5;1.7315716;0.005843616931319097;1;axe_out_channels_0,axe_out_channels_1,axe_xx_0,axe_yy_0,axe_out_channels_2;12;[V f, U (4, f), U (7, y), U (3, h), T (32, c), Hoist_vars [c], T (14, x),  T (3, w), T (8, c), T (1, f), T (4, y), T (2, x), T (4, f), T (1, f)];124.3415355682373
49;MobilNet_5;0.8401618000000001;0.004860610780550103;1;axe_yy_0,axe_xx_0,axe_out_channels_0,axe_yy_1,axe_xx_1;19;[V f, U (2, f), U (14, y), T (32, c), Hoist_vars [c], T (3, h), T (4, x),  T (3, w), T (8, c), T (7, x), T (2, y), T (8, f), T (1, x), T (1, y)];126.59136986732483
50;MobilNet_5;0.9509072999999999;0.009342497161358949;1;axe_out_channels_0,axe_out_channels_1,axe_xx_0,axe_yy_0,axe_out_channels_2;10;[V f, U (4, f), U (7, y), U (3, w), T (128, c), Hoist_vars [c], T (28, x),  T (3, h), T (2, c), T (2, f), T (4, y), T (1, x), T (1, f), T (2, f)];128.86020016670227
51;MobilNet_5;2.5121941999999997;0.014002233770366765;1;axe_yy_0,axe_xx_0;5;[V f, U (2, f), ULambda y, T (64, c), Hoist_vars [c], T (3, h), T (7, x),  T (3, w), T (4, c), T (1, x),  Lambda_apply y [((Iter 1), (Arg 13)), ((Iter 1), (Arg 15))], T (8, f),  T (4, x), T (1, y)];131.24806833267212
52;MobilNet_5;0.8632263;0.011394258414218978;1;axe_out_channels_0,axe_out_channels_1,axe_xx_0,axe_yy_0,axe_out_channels_2;14;[V f, U (4, f), U (4, y), U (3, w), T (32, c), Hoist_vars [c], T (14, x),  T (3, h), T (8, c), T (2, f), T (7, y), T (2, x), T (1, f), T (2, f)];133.54249119758606
53;MobilNet_5;1.1701688;0.007187697653630156;2;axe_yy1_0,axe_xx1_0,axe_out_channels1_0,axe_yy1_1,axe_xx1_1;14;[V f, U (2, f), ULambda y, T (64, c), Hoist_vars [c], T (3, h), T (7, x),  T (3, w), T (4, c), T (2, x), T (1, y), T (8, f), T (2, x),  Lambda_apply y [((Iter 1), (Arg 13)), ((Iter 1), (Arg 15))]];136.16459774971008
54;MobilNet_5;0.761913;0.0058223938204144355;1;axe_out_channels_0,axe_out_channels_1,axe_xx_0,axe_yy_0,axe_out_channels_2;11;[V f, U (4, f), U (7, y), T (32, c), Hoist_vars [c], T (3, h), T (14, x),  T (3, w), T (8, c), T (2, f), T (4, y), T (2, x), T (2, f), T (1, f)];138.58062887191772
55;MobilNet_5;0.8091828;0.008437006955075967;1;axe_yy_0,axe_xx_0,axe_out_channels_0,axe_yy_1,axe_xx_1;14;[V f, U (2, f), U (14, y), T (32, c), Hoist_vars [c], T (3, h), T (14, x),  T (3, w), T (8, c), T (2, x), T (2, y), T (8, f), T (1, x), T (1, y)];140.80219078063965
56;MobilNet_5;0.8975399000000002;0.00988703720484555;1;axe_out_channels_0,axe_out_channels_1,axe_xx_0,axe_yy_0,axe_out_channels_2;13;[V f, U (4, f), U (7, y), U (3, w), T (256, c), Hoist_vars [c], T (7, x),  T (3, h), T (1, c), T (2, f), T (4, y), T (4, x), T (1, f), T (2, f)];143.11271476745605
57;MobilNet_5;9.3820647;0.08984240394607655;1;axe_yy_0;1;[V f, U (1, f), ULambda y, U (3, h), T (64, c), Hoist_vars [c], T (3, w),  T (28, x), T (4, c),  Lambda_apply y [((Iter 2), (Arg 9)), ((Iter 1), (Arg 10))], T (16, f),  T (1, y)];146.3094139099121
58;MobilNet_5;0.8775014000000001;0.014065952695782804;1;axe_out_channels_0,axe_out_channels_1,axe_xx_0,axe_yy_0,axe_out_channels_2;14;[V f, U (4, f), U (7, y), U (3, w), T (256, c), Hoist_vars [c], T (7, x),  T (3, h), T (1, c), T (1, f), T (4, y), T (4, x), T (4, f), T (1, f)];148.64537811279297
59;MobilNet_5;0.9777992;0.008151342880777348;1;axe_yy_0,axe_xx_0,axe_out_channels_0,axe_yy_1,axe_xx_1;16;[V f, U (2, f), U (14, y), T (64, c), Hoist_vars [c], T (3, h), T (7, x),  T (3, w), T (4, c), T (4, x), T (1, y), T (8, f), T (1, x), T (2, y)];150.85775470733643
60;MobilNet_5;0.8274436;0.0026362683930131626;1;axe_out_channels_0,axe_out_channels_1,axe_xx_0,axe_yy_0,axe_out_channels_2;11;[V f, U (4, f), U (7, y), U (3, w), T (64, c), Hoist_vars [c], T (14, x),  T (3, h), T (4, c), T (1, f), T (4, y), T (2, x), T (2, f), T (2, f)];153.29407954216003
61;MobilNet_5;1.2597623999999998;0.00969517871109141;1;axe_yy_0,axe_xx_0,axe_out_channels_0,axe_yy_1,axe_xx_1;16;[V f, U (2, f), U (14, y), T (32, c), Hoist_vars [c], T (3, h), T (7, x),  T (3, w), T (8, c), T (4, x), T (1, y), T (8, f), T (1, x), T (2, y)];155.5211145877838
62;MobilNet_5;0.9362025;0.026130770820050442;1;axe_out_channels_0,axe_out_channels_1,axe_xx_0,axe_yy_0,axe_out_channels_2;14;[V f, U (4, f), U (4, y), U (3, w), T (32, c), Hoist_vars [c], T (28, x),  T (3, h), T (8, c), T (1, f), T (7, y), T (1, x), T (4, f), T (1, f)];157.7051079273224
63;MobilNet_5;0.7964437;0.006024752609858768;1;axe_yy_0,axe_xx_0,axe_out_channels_0,axe_yy_1,axe_xx_1;14;[V f, U (2, f), U (14, y), T (32, c), Hoist_vars [c], T (3, h), T (14, x),  T (3, w), T (8, c), T (1, x), T (1, y), T (8, f), T (2, x), T (2, y)];159.90732216835022
64;MobilNet_5;0.8509914999999999;0.008214084857730643;1;axe_out_channels_0,axe_out_channels_1,axe_xx_0,axe_yy_0,axe_out_channels_2;12;[V f, U (4, f), U (7, y), U (3, w), T (64, c), Hoist_vars [c], T (14, x),  T (3, h), T (4, c), T (4, f), T (4, y), T (2, x), T (1, f), T (1, f)];162.27323031425476
65;MobilNet_5;1.2556706;0.014216827221289547;1;axe_yy_0,axe_xx_0,axe_out_channels_0,axe_yy_1,axe_xx_1;15;[V f, U (2, f), U (14, y), T (32, c), Hoist_vars [c], T (3, h), T (7, x),  T (3, w), T (8, c), T (2, x), T (2, y), T (8, f), T (2, x), T (1, y)];164.4743480682373
66;MobilNet_5;1.6976305;0.006320111980811724;1;axe_out_channels_0,axe_out_channels_1,axe_xx_0,axe_yy_0,axe_out_channels_2;14;[V f, U (4, f), U (7, y), U (3, h), T (32, c), Hoist_vars [c], T (7, x),  T (3, w), T (8, c), T (1, f), T (4, y), T (4, x), T (1, f), T (4, f)];166.81838536262512
67;MobilNet_5;0.7516864999999999;0.006622798370024564;1;axe_yy_0,axe_xx_0,axe_out_channels_0,axe_yy_1,axe_xx_1;16;[V f, U (2, f), U (14, y), T (64, c), Hoist_vars [c], T (3, h), T (7, x),  T (3, w), T (4, c), T (1, x), T (2, y), T (8, f), T (4, x), T (1, y)];169.0156888961792
68;MobilNet_5;1.5666244;0.003157744454511793;1;axe_xx_0;28;[V f, U (1, f), U (14, y), U (3, h), T (128, c), Hoist_vars [c], T (3, w),  T (28, x), T (2, c), T (1, y), T (16, f), T (2, y)];171.2841832637787
69;MobilNet_5;1.7608036999999999;0.008148725753760506;1;axe_xx_0;28;[V f, U (1, f), U (14, y), U (3, h), T (64, c), Hoist_vars [c], T (3, w),  T (28, x), T (4, c), T (1, y), T (16, f), T (2, y)];173.559330701828
70;MobilNet_5;1.6879584;0.005788604740349749;1;axe_out_channels_0,axe_out_channels_1,axe_xx_0,axe_yy_0,axe_out_channels_2;11;[V f, U (4, f), U (7, y), U (3, h), T (32, c), Hoist_vars [c], T (14, x),  T (3, w), T (8, c), T (2, f), T (4, y), T (2, x), T (2, f), T (1, f)];175.98734545707703
71;MobilNet_5;0.8013952;0.011903102173803276;1;axe_out_channels_0,axe_out_channels_1,axe_xx_0,axe_yy_0,axe_out_channels_2;11;[V f, U (4, f), U (7, y), U (3, w), T (256, c), Hoist_vars [c], T (14, x),  T (3, h), T (1, c), T (2, f), T (4, y), T (2, x), T (2, f), T (1, f)];178.3274531364441
72;MobilNet_5;1.4481378;0.0076414804167779515;2;axe_out_channels1_0,axe_out_channels1_1,axe_xx1_0,axe_yy1_0,axe_out_channels1_2;8;[V f, U (4, f), ULambda y, U (3, w), T (64, c), Hoist_vars [c], T (28, x),  T (3, h), T (4, c), T (2, f),  Lambda_apply y [((Iter 2), (Arg 5)), ((Iter 3), (Arg 6))], T (1, x),  T (2, f), T (1, f)];180.98771476745605
73;MobilNet_5;2.3920862;0.007350074282617828;1;axe_xx_0;28;[V f, U (1, f), U (14, y), U (3, h), T (32, c), Hoist_vars [c], T (3, w),  T (28, x), T (8, c), T (1, y), T (16, f), T (2, y)];183.26471757888794
74;MobilNet_5;0.9434517;0.016886173314578996;1;axe_out_channels_0,axe_out_channels_1,axe_xx_0,axe_yy_0,axe_out_channels_2;10;[V f, U (4, f), U (7, y), U (3, w), T (256, c), Hoist_vars [c], T (28, x),  T (3, h), T (1, c), T (2, f), T (4, y), T (1, x), T (2, f), T (1, f)];185.6489133834839
75;MobilNet_5;10.1707306;0.09604021530921292;1;axe_yy_0,axe_xx_0;2;[V f, U (2, f), ULambda y, T (32, c), Hoist_vars [c], T (3, h), T (14, x),  T (3, w), T (8, c), T (2, x),  Lambda_apply y [((Iter 2), (Arg 8)), ((Iter 1), (Arg 12))], T (8, f),  T (1, x), T (1, y)];188.87437629699707
76;MobilNet_5;0.9668603999999998;0.002252182195116556;1;axe_out_channels_0,axe_out_channels_1,axe_xx_0,axe_yy_0,axe_out_channels_2;14;[V f, U (4, f), U (7, y), U (3, w), T (32, c), Hoist_vars [c], T (7, x),  T (3, h), T (8, c), T (1, f), T (4, y), T (4, x), T (1, f), T (4, f)];191.18689584732056
77;MobilNet_5;1.2768812999999999;0.05406802585271634;2;axe_out_channels1_0,axe_out_channels1_1,axe_xx1_0,axe_yy1_0,axe_out_channels1_2;8;[V f, U (4, f), ULambda y, U (3, w), T (256, c), Hoist_vars [c], T (28, x),  T (3, h), T (1, c), T (2, f),  Lambda_apply y [((Iter 2), (Arg 5)), ((Iter 3), (Arg 6))], T (1, x),  T (1, f), T (2, f)];193.81001448631287
78;MobilNet_5;5.1499529;0.02783099124519282;1;axe_yy_0,axe_xx_0;3;[V f, U (2, f), ULambda y, T (32, c), Hoist_vars [c], T (3, h), T (14, x),  T (3, w), T (8, c), T (1, x),  Lambda_apply y [((Iter 1), (Arg 8)), ((Iter 2), (Arg 10))], T (8, f),  T (2, x), T (1, y)];196.23773622512817
79;MobilNet_5;0.6487987999999999;0.009848758772556076;1;axe_yy_0,axe_xx_0,axe_out_channels_0,axe_yy_1,axe_xx_1;19;[V f, U (2, f), U (14, y), T (64, c), Hoist_vars [c], T (3, h), T (4, x),  T (3, w), T (4, c), T (7, x), T (2, y), T (8, f), T (1, x), T (1, y)];198.47300672531128
80;MobilNet_5;0.8427509000000001;0.013197873498787628;1;axe_out_channels_0,axe_out_channels_1,axe_xx_0,axe_yy_0,axe_out_channels_2;14;[V f, U (4, f), U (4, y), U (3, w), T (64, c), Hoist_vars [c], T (28, x),  T (3, h), T (4, c), T (1, f), T (7, y), T (1, x), T (4, f), T (1, f)];200.63744831085205
81;MobilNet_5;0.8552122000000001;0.0322590660955955;2;axe_out_channels1_0,axe_out_channels1_1,axe_xx1_0,axe_yy1_0,axe_out_channels1_2;9;[V f, U (4, f), ULambda y, U (3, w), T (256, c), Hoist_vars [c], T (14, x),  T (3, h), T (1, c), T (1, f),  Lambda_apply y [((Iter 2), (Arg 5)), ((Iter 3), (Arg 6))], T (2, x),  T (2, f), T (2, f)];203.49578380584717
82;MobilNet_5;1.6690846000000001;0.006660940146856191;1;axe_out_channels_0,axe_out_channels_1,axe_xx_0,axe_yy_0,axe_out_channels_2;13;[V f, U (4, f), U (7, y), U (3, h), T (32, c), Hoist_vars [c], T (7, x),  T (3, w), T (8, c), T (2, f), T (4, y), T (4, x), T (2, f), T (1, f)];205.95628309249878
83;MobilNet_5;0.8229292000000001;0.00279089178579176;1;axe_out_channels_0,axe_out_channels_1,axe_xx_0,axe_yy_0,axe_out_channels_2;12;[V f, U (4, f), U (7, y), U (3, w), T (64, c), Hoist_vars [c], T (14, x),  T (3, h), T (4, c), T (1, f), T (4, y), T (2, x), T (4, f), T (1, f)];208.3449399471283
84;MobilNet_5;1.4608450000000002;0.005013088489145187;2;axe_out_channels1_0,axe_out_channels1_1,axe_xx1_0,axe_yy1_0,axe_out_channels1_2;9;[V f, U (4, f), ULambda y, U (3, w), T (64, c), Hoist_vars [c], T (28, x),  T (3, h), T (4, c), T (4, f),  Lambda_apply y [((Iter 2), (Arg 5)), ((Iter 3), (Arg 6))], T (1, x),  T (1, f), T (1, f)];210.96924424171448
85;MobilNet_5;2.2989099;0.01218708387966539;2;axe_xx1_0;28;[V f, U (1, f), ULambda y, U (3, h), T (64, c), Hoist_vars [c], T (3, w),  T (28, x), T (4, c), T (1, y), T (16, f),  Lambda_apply y [((Iter 2), (Arg 9)), ((Iter 1), (Arg 10))]];213.60107803344727
86;MobilNet_5;0.9445992999999999;0.009266613330122297;2;axe_yy1_0,axe_xx1_0,axe_out_channels1_0,axe_yy1_1,axe_xx1_1;15;[V f, U (2, f), ULambda y, T (64, c), Hoist_vars [c], T (3, h), T (7, x),  T (3, w), T (4, c), T (4, x), T (1, y), T (8, f), T (1, x),  Lambda_apply y [((Iter 1), (Arg 13)), ((Iter 1), (Arg 15))]];216.171865940094
87;MobilNet_5;0.7505803;0.008191516929726769;1;axe_out_channels_0,axe_out_channels_1,axe_xx_0,axe_yy_0,axe_out_channels_2;12;[V f, U (4, f), U (7, y), U (3, w), T (256, c), Hoist_vars [c], T (14, x),  T (3, h), T (1, c), T (1, f), T (4, y), T (2, x), T (4, f), T (1, f)];218.56300735473633
88;MobilNet_5;0.8379929;0.006146583660050526;1;axe_out_channels_0,axe_out_channels_1,axe_xx_0,axe_yy_0,axe_out_channels_2;13;[V f, U (4, f), U (7, y), U (3, w), T (32, c), Hoist_vars [c], T (7, x),  T (3, h), T (8, c), T (2, f), T (4, y), T (4, x), T (2, f), T (1, f)];220.8214888572693
89;MobilNet_5;0.7575666;0.012178038661459428;1;axe_out_channels_0,axe_out_channels_1,axe_xx_0,axe_yy_0,axe_out_channels_2;11;[V f, U (4, f), U (7, y), U (3, w), T (256, c), Hoist_vars [c], T (14, x),  T (3, h), T (1, c), T (1, f), T (4, y), T (2, x), T (2, f), T (2, f)];223.21250438690186
90;MobilNet_5;1.2241497000000001;0.06354421537016566;2;axe_yy1_0,axe_xx1_0,axe_out_channels1_0,axe_yy1_1,axe_xx1_1;12;[V f, U (2, f), ULambda y, T (32, c), Hoist_vars [c], T (3, h), T (28, x),  T (3, w), T (8, c), T (1, x), T (1, y), T (8, f), T (1, x),  Lambda_apply y [((Iter 1), (Arg 8)), ((Iter 2), (Arg 10))]];225.90222716331482
91;MobilNet_5;0.8206199;0.011849470287316633;1;axe_out_channels_0,axe_out_channels_1,axe_xx_0,axe_yy_0,axe_out_channels_2;13;[V f, U (4, f), U (4, y), U (3, w), T (128, c), Hoist_vars [c], T (28, x),  T (3, h), T (2, c), T (1, f), T (7, y), T (1, x), T (2, f), T (2, f)];228.0725748538971
92;MobilNet_5;0.9210917999999999;0.0037634042249006356;1;axe_out_channels_0,axe_out_channels_1,axe_xx_0,axe_yy_0,axe_out_channels_2;11;[V f, U (4, f), U (7, y), U (3, w), T (64, c), Hoist_vars [c], T (28, x),  T (3, h), T (4, c), T (1, f), T (4, y), T (1, x), T (1, f), T (4, f)];230.2975721359253
93;MobilNet_5;0.7632734000000001;0.011373011555432458;1;axe_out_channels_0,axe_out_channels_1,axe_xx_0,axe_yy_0,axe_out_channels_2;15;[V f, U (4, f), U (4, y), U (3, w), T (128, c), Hoist_vars [c], T (14, x),  T (3, h), T (2, c), T (1, f), T (7, y), T (2, x), T (1, f), T (4, f)];232.5602424144745
94;MobilNet_5;1.2090539000000002;0.01314979067856213;2;axe_out_channels1_0,axe_out_channels1_1,axe_xx1_0,axe_yy1_0,axe_out_channels1_2;9;[V f, U (4, f), ULambda y, U (3, w), T (128, c), Hoist_vars [c], T (28, x),  T (3, h), T (2, c), T (1, f),  Lambda_apply y [((Iter 2), (Arg 5)), ((Iter 3), (Arg 6))], T (1, x),  T (1, f), T (4, f)];235.18316435813904
95;MobilNet_5;0.7838426999999999;0.005010932489068253;1;axe_out_channels_0,axe_out_channels_1,axe_xx_0,axe_yy_0,axe_out_channels_2;12;[V f, U (4, f), U (7, y), U (3, w), T (128, c), Hoist_vars [c], T (14, x),  T (3, h), T (2, c), T (1, f), T (4, y), T (2, x), T (4, f), T (1, f)];237.56663179397583
96;MobilNet_5;0.7899062000000001;0.013944320756494388;1;axe_out_channels_0,axe_out_channels_1,axe_xx_0,axe_yy_0,axe_out_channels_2;14;[V f, U (4, f), U (4, y), U (3, w), T (128, c), Hoist_vars [c], T (14, x),  T (3, h), T (2, c), T (1, f), T (7, y), T (2, x), T (2, f), T (2, f)];239.8222155570984
97;MobilNet_5;0.8443778;0.02131953657470067;1;axe_out_channels_0,axe_out_channels_1,axe_xx_0,axe_yy_0,axe_out_channels_2;11;[V f, U (4, f), U (7, y), U (3, w), T (256, c), Hoist_vars [c], T (28, x),  T (3, h), T (1, c), T (1, f), T (4, y), T (1, x), T (4, f), T (1, f)];242.029470205307
98;MobilNet_5;0.7859309999999999;0.04507368884171782;1;axe_out_channels_0,axe_out_channels_1,axe_xx_0,axe_yy_0,axe_out_channels_2;13;[V f, U (4, f), U (4, y), U (3, w), T (256, c), Hoist_vars [c], T (28, x),  T (3, h), T (1, c), T (2, f), T (7, y), T (1, x), T (1, f), T (2, f)];244.19439697265625
99;MobilNet_5;1.2758878;0.007733104807255626;2;axe_out_channels1_0,axe_out_channels1_1,axe_xx1_0,axe_yy1_0,axe_out_channels1_2;8;[V f, U (4, f), ULambda y, U (3, w), T (128, c), Hoist_vars [c], T (28, x),  T (3, h), T (2, c), T (2, f),  Lambda_apply y [((Iter 2), (Arg 5)), ((Iter 3), (Arg 6))], T (1, x),  T (1, f), T (2, f)];246.84631896018982
100;MobilNet_5;0.8143727000000001;0.015352548349052688;1;axe_out_channels_0,axe_out_channels_1,axe_xx_0,axe_yy_0,axe_out_channels_2;13;[V f, U (4, f), U (7, y), U (3, w), T (256, c), Hoist_vars [c], T (7, x),  T (3, h), T (1, c), T (1, f), T (4, y), T (4, x), T (2, f), T (2, f)];249.13729333877563
101;MobilNet_5;1.00319;0.040792010580504606;1;axe_out_channels_0,axe_out_channels_1,axe_xx_0,axe_yy_0,axe_out_channels_2;13;[V f, U (4, f), U (7, y), T (32, c), Hoist_vars [c], T (3, h), T (7, x),  T (3, w), T (8, c), T (1, f), T (4, y), T (4, x), T (2, f), T (2, f)];251.39431309700012
102;MobilNet_5;9.285731199999999;0.07433446410084635;1;axe_yy_0,axe_xx_0;2;[V f, U (2, f), ULambda y, T (64, c), Hoist_vars [c], T (3, h), T (7, x),  T (3, w), T (4, c), T (4, x),  Lambda_apply y [((Iter 1), (Arg 13)), ((Iter 1), (Arg 15))], T (8, f),  T (1, x), T (1, y)];254.59380793571472
103;MobilNet_5;1.0521013;0.08905548577269114;1;axe_out_channels_0,axe_out_channels_1,axe_xx_0,axe_yy_0,axe_out_channels_2;12;[V f, U (4, f), U (7, y), T (32, c), Hoist_vars [c], T (3, h), T (14, x),  T (3, w), T (8, c), T (1, f), T (4, y), T (2, x), T (1, f), T (4, f)];256.9409658908844
104;MobilNet_5;0.7986197;0.051214837317031484;1;axe_out_channels_0,axe_out_channels_1,axe_xx_0,axe_yy_0,axe_out_channels_2;14;[V f, U (4, f), U (4, y), U (3, w), T (256, c), Hoist_vars [c], T (14, x),  T (3, h), T (1, c), T (1, f), T (7, y), T (2, x), T (2, f), T (2, f)];259.21967601776123
105;MobilNet_5;1.4926453;0.021507964501783994;1;axe_out_channels_0,axe_out_channels_1,axe_xx_0,axe_yy_0,axe_out_channels_2;11;[V f, U (4, f), U (7, y), U (3, w), T (32, c), Hoist_vars [c], T (28, x),  T (3, h), T (8, c), T (4, f), T (4, y), T (1, x), T (1, f), T (1, f)];261.47843408584595
106;MobilNet_5;1.2786352;0.011223521397493741;2;axe_out_channels1_0,axe_out_channels1_1,axe_xx1_0,axe_yy1_0,axe_out_channels1_2;8;[V f, U (4, f), ULambda y, U (3, w), T (128, c), Hoist_vars [c], T (28, x),  T (3, h), T (2, c), T (2, f),  Lambda_apply y [((Iter 2), (Arg 5)), ((Iter 3), (Arg 6))], T (1, x),  T (2, f), T (1, f)];264.1338336467743
107;MobilNet_5;0.9973593999999999;0.049063349402991216;1;axe_out_channels_0,axe_out_channels_1,axe_xx_0,axe_yy_0,axe_out_channels_2;14;[V f, U (4, f), U (7, y), T (32, c), Hoist_vars [c], T (3, h), T (7, x),  T (3, w), T (8, c), T (1, f), T (4, y), T (4, x), T (4, f), T (1, f)];266.39992356300354
108;MobilNet_5;0.8549158;0.03597049415785112;2;axe_out_channels1_0,axe_out_channels1_1,axe_xx1_0,axe_yy1_0,axe_out_channels1_2;10;[V f, U (4, f), ULambda y, U (3, w), T (256, c), Hoist_vars [c], T (14, x),  T (3, h), T (1, c), T (1, f),  Lambda_apply y [((Iter 2), (Arg 5)), ((Iter 3), (Arg 6))], T (2, x),  T (1, f), T (4, f)];269.25765085220337
109;MobilNet_5;0.8808304;0.06203758577701101;1;axe_out_channels_0,axe_out_channels_1,axe_xx_0,axe_yy_0,axe_out_channels_2;14;[V f, U (4, f), U (7, y), T (32, c), Hoist_vars [c], T (3, h), T (7, x),  T (3, w), T (8, c), T (4, f), T (4, y), T (4, x), T (1, f), T (1, f)];271.4972839355469
110;MobilNet_5;0.8112248;0.002545560912647733;1;axe_out_channels_0,axe_out_channels_1,axe_xx_0,axe_yy_0,axe_out_channels_2;15;[V f, U (4, f), U (4, y), U (3, w), T (32, c), Hoist_vars [c], T (14, x),  T (3, h), T (8, c), T (4, f), T (7, y), T (2, x), T (1, f), T (1, f)];273.7468135356903
111;MobilNet_5;1.6958116;0.005193201386428216;1;axe_out_channels_0,axe_out_channels_1,axe_xx_0,axe_yy_0,axe_out_channels_2;14;[V f, U (4, f), U (7, y), U (3, h), T (32, c), Hoist_vars [c], T (7, x),  T (3, w), T (8, c), T (1, f), T (4, y), T (4, x), T (4, f), T (1, f)];276.04764890670776
112;MobilNet_5;0.7916179999999999;0.014491941201923222;1;axe_out_channels_0,axe_out_channels_1,axe_xx_0,axe_yy_0,axe_out_channels_2;14;[V f, U (4, f), U (4, y), U (3, w), T (128, c), Hoist_vars [c], T (28, x),  T (3, h), T (2, c), T (1, f), T (7, y), T (1, x), T (1, f), T (4, f)];278.19763469696045
113;MobilNet_5;1.0609793;0.00517486724564023;1;axe_out_channels_0,axe_out_channels_1,axe_xx_0,axe_yy_0,axe_out_channels_2;10;[V f, U (4, f), U (7, y), U (3, w), T (32, c), Hoist_vars [c], T (28, x),  T (3, h), T (8, c), T (1, f), T (4, y), T (1, x), T (2, f), T (2, f)];280.42941665649414
114;MobilNet_5;1.5068945;0.017648460670834695;1;axe_out_channels_0,axe_out_channels_1,axe_xx_0,axe_yy_0,axe_out_channels_2;10;[V f, U (4, f), U (7, y), U (3, w), T (32, c), Hoist_vars [c], T (28, x),  T (3, h), T (8, c), T (2, f), T (4, y), T (1, x), T (2, f), T (1, f)];282.70557284355164
115;MobilNet_5;1.195557;0.01225414757541298;2;axe_out_channels1_0,axe_out_channels1_1,axe_xx1_0,axe_yy1_0,axe_out_channels1_2;9;[V f, U (4, f), ULambda y, U (3, w), T (128, c), Hoist_vars [c], T (28, x),  T (3, h), T (2, c), T (1, f),  Lambda_apply y [((Iter 2), (Arg 5)), ((Iter 3), (Arg 6))], T (1, x),  T (4, f), T (1, f)];285.3453266620636
116;MobilNet_5;0.7850905;0.003729234619865058;1;axe_out_channels_0,axe_out_channels_1,axe_xx_0,axe_yy_0,axe_out_channels_2;11;[V f, U (4, f), U (7, y), U (3, w), T (64, c), Hoist_vars [c], T (14, x),  T (3, h), T (4, c), T (2, f), T (4, y), T (2, x), T (1, f), T (2, f)];287.7118761539459
117;MobilNet_5;0.9638608000000002;0.002865782259698048;1;axe_out_channels_0,axe_out_channels_1,axe_xx_0,axe_yy_0,axe_out_channels_2;14;[V f, U (4, f), U (7, y), U (3, w), T (32, c), Hoist_vars [c], T (7, x),  T (3, h), T (8, c), T (1, f), T (4, y), T (4, x), T (4, f), T (1, f)];290.0084316730499
118;MobilNet_5;0.8122472999999999;0.010825696449189773;1;axe_out_channels_0,axe_out_channels_1,axe_xx_0,axe_yy_0,axe_out_channels_2;11;[V f, U (4, f), U (7, y), U (3, w), T (32, c), Hoist_vars [c], T (14, x),  T (3, h), T (8, c), T (2, f), T (4, y), T (2, x), T (1, f), T (2, f)];292.36724615097046
119;MobilNet_5;0.8439919;0.01119899311054348;1;axe_yy_0,axe_xx_0,axe_out_channels_0,axe_yy_1,axe_xx_1;16;[V f, U (2, f), U (14, y), T (32, c), Hoist_vars [c], T (3, h), T (7, x),  T (3, w), T (8, c), T (1, x), T (2, y), T (8, f), T (4, x), T (1, y)];294.5625309944153
120;MobilNet_5;1.5692922;0.014385756767024804;1;axe_xx_0;28;[V f, U (1, f), U (14, y), U (3, h), T (128, c), Hoist_vars [c], T (3, w),  T (28, x), T (2, c), T (2, y), T (16, f), T (1, y)];296.7970299720764
121;MobilNet_5;0.8720789;0.014842580775929775;1;axe_out_channels_0,axe_out_channels_1,axe_xx_0,axe_yy_0,axe_out_channels_2;14;[V f, U (4, f), U (4, y), U (3, w), T (32, c), Hoist_vars [c], T (14, x),  T (3, h), T (8, c), T (1, f), T (7, y), T (2, x), T (2, f), T (2, f)];299.08066844940186
122;MobilNet_5;0.8545405;0.012411257142207616;1;axe_yy_0,axe_xx_0,axe_out_channels_0,axe_yy_1,axe_xx_1;15;[V f, U (2, f), U (14, y), T (32, c), Hoist_vars [c], T (3, h), T (7, x),  T (3, w), T (8, c), T (2, x), T (1, y), T (8, f), T (2, x), T (2, y)];301.24245834350586
123;MobilNet_5;5.109075;0.028362858977895738;1;axe_yy_0,axe_xx_0;3;[V f, U (2, f), ULambda y, T (32, c), Hoist_vars [c], T (3, h), T (14, x),  T (3, w), T (8, c), T (1, x),  Lambda_apply y [((Iter 2), (Arg 8)), ((Iter 1), (Arg 12))], T (8, f),  T (2, x), T (1, y)];303.6638767719269
124;MobilNet_5;0.8376246;0.004720870199444149;1;axe_out_channels_0,axe_out_channels_1,axe_xx_0,axe_yy_0,axe_out_channels_2;11;[V f, U (4, f), U (7, y), U (3, w), T (128, c), Hoist_vars [c], T (28, x),  T (3, h), T (2, c), T (1, f), T (4, y), T (1, x), T (4, f), T (1, f)];305.8884229660034
125;MobilNet_5;0.7848842;0.004562567299229655;1;axe_out_channels_0,axe_out_channels_1,axe_xx_0,axe_yy_0,axe_out_channels_2;11;[V f, U (4, f), U (7, y), U (3, w), T (128, c), Hoist_vars [c], T (14, x),  T (3, h), T (2, c), T (1, f), T (4, y), T (2, x), T (2, f), T (2, f)];308.25703477859497
126;MobilNet_5;0.7201272000000001;0.01265833092315097;1;axe_out_channels_0,axe_out_channels_1,axe_xx_0,axe_yy_0,axe_out_channels_2;15;[V f, U (4, f), U (4, y), U (3, w), T (128, c), Hoist_vars [c], T (14, x),  T (3, h), T (2, c), T (4, f), T (7, y), T (2, x), T (1, f), T (1, f)];310.5114827156067
127;MobilNet_5;0.7386801000000001;0.004017737434178575;1;axe_out_channels_0,axe_out_channels_1,axe_xx_0,axe_yy_0,axe_out_channels_2;15;[V f, U (4, f), U (4, y), U (3, w), T (64, c), Hoist_vars [c], T (14, x),  T (3, h), T (4, c), T (4, f), T (7, y), T (2, x), T (1, f), T (1, f)];312.75230598449707
128;MobilNet_5;1.5016795;0.026648129743942633;1;axe_out_channels_0,axe_out_channels_1,axe_xx_0,axe_yy_0,axe_out_channels_2;10;[V f, U (4, f), U (7, y), U (3, w), T (32, c), Hoist_vars [c], T (28, x),  T (3, h), T (8, c), T (2, f), T (4, y), T (1, x), T (1, f), T (2, f)];315.02619552612305
129;MobilNet_5;0.838772;0.023641664924450658;2;axe_out_channels1_0,axe_out_channels1_1,axe_xx1_0,axe_yy1_0,axe_out_channels1_2;10;[V f, U (4, f), ULambda y, U (3, w), T (256, c), Hoist_vars [c], T (14, x),  T (3, h), T (1, c), T (1, f),  Lambda_apply y [((Iter 2), (Arg 5)), ((Iter 3), (Arg 6))], T (2, x),  T (4, f), T (1, f)];317.8839349746704
130;MobilNet_5;0.7828399000000001;0.01689752849649913;1;axe_out_channels_0,axe_out_channels_1,axe_xx_0,axe_yy_0,axe_out_channels_2;14;[V f, U (4, f), U (4, y), U (3, w), T (128, c), Hoist_vars [c], T (14, x),  T (3, h), T (2, c), T (2, f), T (7, y), T (2, x), T (1, f), T (2, f)];320.13600516319275
131;MobilNet_5;0.8631838999999999;0.009246507799704722;1;axe_out_channels_0,axe_out_channels_1,axe_xx_0,axe_yy_0,axe_out_channels_2;14;[V f, U (4, f), U (4, y), U (3, w), T (32, c), Hoist_vars [c], T (14, x),  T (3, h), T (8, c), T (2, f), T (7, y), T (2, x), T (2, f), T (1, f)];322.41937041282654
132;MobilNet_5;0.9497568000000001;0.006968314298307724;1;axe_out_channels_0,axe_out_channels_1,axe_xx_0,axe_yy_0,axe_out_channels_2;11;[V f, U (4, f), U (7, y), U (3, w), T (128, c), Hoist_vars [c], T (28, x),  T (3, h), T (2, c), T (4, f), T (4, y), T (1, x), T (1, f), T (1, f)];324.66280341148376
133;MobilNet_5;0.9665792000000002;0.0026638824598694388;1;axe_out_channels_0,axe_out_channels_1,axe_xx_0,axe_yy_0,axe_out_channels_2;13;[V f, U (4, f), U (7, y), U (3, w), T (32, c), Hoist_vars [c], T (7, x),  T (3, h), T (8, c), T (1, f), T (4, y), T (4, x), T (2, f), T (2, f)];326.96657395362854
134;MobilNet_5;1.0407537999999998;0.06321484411402124;1;axe_out_channels_0,axe_out_channels_1,axe_xx_0,axe_yy_0,axe_out_channels_2;14;[V f, U (4, f), U (7, y), T (32, c), Hoist_vars [c], T (3, h), T (7, x),  T (3, w), T (8, c), T (1, f), T (4, y), T (4, x), T (1, f), T (4, f)];329.20955991744995
135;MobilNet_5;1.1033305;0.09490701023449213;1;axe_out_channels_0,axe_out_channels_1,axe_xx_0,axe_yy_0,axe_out_channels_2;12;[V f, U (4, f), U (7, y), T (32, c), Hoist_vars [c], T (3, h), T (14, x),  T (3, w), T (8, c), T (1, f), T (4, y), T (2, x), T (4, f), T (1, f)];331.5693643093109
136;MobilNet_5;1.7017586999999998;0.00791030098099937;1;axe_out_channels_0,axe_out_channels_1,axe_xx_0,axe_yy_0,axe_out_channels_2;12;[V f, U (4, f), U (7, y), U (3, h), T (32, c), Hoist_vars [c], T (14, x),  T (3, w), T (8, c), T (4, f), T (4, y), T (2, x), T (1, f), T (1, f)];333.9295973777771
137;MobilNet_5;1.6523223000000002;0.008557720655057641;1;axe_out_channels_0,axe_out_channels_1,axe_xx_0,axe_yy_0,axe_out_channels_2;14;[V f, U (4, f), U (7, y), U (3, h), T (32, c), Hoist_vars [c], T (7, x),  T (3, w), T (8, c), T (4, f), T (4, y), T (4, x), T (1, f), T (1, f)];336.23218536376953
138;MobilNet_5;0.9359714;0.01954635874120804;1;axe_out_channels_0,axe_out_channels_1,axe_xx_0,axe_yy_0,axe_out_channels_2;13;[V f, U (4, f), U (4, y), U (3, w), T (32, c), Hoist_vars [c], T (28, x),  T (3, h), T (8, c), T (2, f), T (7, y), T (1, x), T (1, f), T (2, f)];338.3868899345398
139;MobilNet_5;0.7971805999999999;0.010739905364573747;1;axe_out_channels_0,axe_out_channels_1,axe_xx_0,axe_yy_0,axe_out_channels_2;15;[V f, U (4, f), U (4, y), U (3, w), T (64, c), Hoist_vars [c], T (14, x),  T (3, h), T (4, c), T (1, f), T (7, y), T (2, x), T (1, f), T (4, f)];340.6256773471832
140;MobilNet_5;0.8529034;0.030050868533871043;1;axe_out_channels_0,axe_out_channels_1,axe_xx_0,axe_yy_0,axe_out_channels_2;11;[V f, U (4, f), U (7, y), U (3, w), T (256, c), Hoist_vars [c], T (28, x),  T (3, h), T (1, c), T (1, f), T (4, y), T (1, x), T (1, f), T (4, f)];342.8502495288849
141;MobilNet_5;0.9188554999999999;0.003032570930745098;1;axe_out_channels_0,axe_out_channels_1,axe_xx_0,axe_yy_0,axe_out_channels_2;12;[V f, U (4, f), U (7, y), U (3, w), T (32, c), Hoist_vars [c], T (14, x),  T (3, h), T (8, c), T (1, f), T (4, y), T (2, x), T (4, f), T (1, f)];345.24064230918884
142;MobilNet_5;0.9220801999999999;0.0060576835638715965;1;axe_out_channels_0,axe_out_channels_1,axe_xx_0,axe_yy_0,axe_out_channels_2;12;[V f, U (4, f), U (7, y), U (3, w), T (32, c), Hoist_vars [c], T (14, x),  T (3, h), T (8, c), T (1, f), T (4, y), T (2, x), T (1, f), T (4, f)];347.6483552455902
143;MobilNet_5;0.9320686;0.009925271131812992;1;axe_yy_0,axe_xx_0,axe_out_channels_0,axe_yy_1,axe_xx_1;16;[V f, U (2, f), U (14, y), T (32, c), Hoist_vars [c], T (3, h), T (7, x),  T (3, w), T (8, c), T (4, x), T (2, y), T (8, f), T (1, x), T (1, y)];349.8412787914276
144;MobilNet_5;0.7923242;0.01809324110710959;1;axe_out_channels_0,axe_out_channels_1,axe_xx_0,axe_yy_0,axe_out_channels_2;15;[V f, U (4, f), U (4, y), U (3, w), T (128, c), Hoist_vars [c], T (14, x),  T (3, h), T (2, c), T (1, f), T (7, y), T (2, x), T (4, f), T (1, f)];352.09761786460876
145;MobilNet_5;0.7744714000000001;0.008178761167805304;1;axe_out_channels_0,axe_out_channels_1,axe_xx_0,axe_yy_0,axe_out_channels_2;15;[V f, U (4, f), U (4, y), U (3, w), T (64, c), Hoist_vars [c], T (14, x),  T (3, h), T (4, c), T (1, f), T (7, y), T (2, x), T (4, f), T (1, f)];354.37178778648376
146;MobilNet_5;0.8211565000000001;0.05489255931226015;1;axe_out_channels_0,axe_out_channels_1,axe_xx_0,axe_yy_0,axe_out_channels_2;11;[V f, U (4, f), U (7, y), T (32, c), Hoist_vars [c], T (3, h), T (14, x),  T (3, w), T (8, c), T (2, f), T (4, y), T (2, x), T (1, f), T (2, f)];356.6840901374817
147;MobilNet_5;1.7488377;0.00279060477495466;1;axe_out_channels_0,axe_out_channels_1,axe_xx_0,axe_yy_0,axe_out_channels_2;12;[V f, U (4, f), U (7, y), U (3, h), T (32, c), Hoist_vars [c], T (14, x),  T (3, w), T (8, c), T (1, f), T (4, y), T (2, x), T (1, f), T (4, f)];359.1219880580902
148;MobilNet_5;0.9149574999999999;0.007205397896716029;1;axe_out_channels_0,axe_out_channels_1,axe_xx_0,axe_yy_0,axe_out_channels_2;13;[V f, U (4, f), U (4, y), U (3, w), T (32, c), Hoist_vars [c], T (28, x),  T (3, h), T (8, c), T (2, f), T (7, y), T (1, x), T (2, f), T (1, f)];361.3156316280365
149;MobilNet_5;1.3435152000000001;0.008331246747036078;2;axe_out_channels1_0,axe_out_channels1_1,axe_xx1_0,axe_yy1_0,axe_out_channels1_2;8;[V f, U (4, f), ULambda y, U (3, w), T (64, c), Hoist_vars [c], T (28, x),  T (3, h), T (4, c), T (1, f),  Lambda_apply y [((Iter 2), (Arg 5)), ((Iter 3), (Arg 6))], T (1, x),  T (2, f), T (2, f)];363.9653306007385
150;MobilNet_5;0.817566;0.056261688799750784;2;axe_out_channels1_0,axe_out_channels1_1,axe_xx1_0,axe_yy1_0,axe_out_channels1_2;9;[V f, U (4, f), ULambda y, U (3, w), T (256, c), Hoist_vars [c], T (14, x),  T (3, h), T (1, c), T (2, f),  Lambda_apply y [((Iter 2), (Arg 5)), ((Iter 3), (Arg 6))], T (2, x),  T (2, f), T (1, f)];366.7947223186493
151;MobilNet_5;0.7595691999999999;0.003020337193096153;1;axe_out_channels_0,axe_out_channels_1,axe_xx_0,axe_yy_0,axe_out_channels_2;11;[V f, U (4, f), U (7, y), U (3, w), T (128, c), Hoist_vars [c], T (14, x),  T (3, h), T (2, c), T (2, f), T (4, y), T (2, x), T (2, f), T (1, f)];369.15688014030457
152;MobilNet_5;1.0511514;0.07432609017996301;1;axe_out_channels_0,axe_out_channels_1,axe_xx_0,axe_yy_0,axe_out_channels_2;11;[V f, U (4, f), U (7, y), T (32, c), Hoist_vars [c], T (3, h), T (14, x),  T (3, w), T (8, c), T (1, f), T (4, y), T (2, x), T (2, f), T (2, f)];371.51828694343567
153;MobilNet_5;0.831205;0.0066803066396685755;1;axe_out_channels_0,axe_out_channels_1,axe_xx_0,axe_yy_0,axe_out_channels_2;11;[V f, U (4, f), U (7, y), U (3, w), T (128, c), Hoist_vars [c], T (28, x),  T (3, h), T (2, c), T (1, f), T (4, y), T (1, x), T (1, f), T (4, f)];373.75031757354736
154;MobilNet_5;0.9365594999999999;0.009536992379676102;1;axe_yy_0,axe_xx_0,axe_out_channels_0,axe_yy_1,axe_xx_1;15;[V f, U (2, f), U (14, y), T (64, c), Hoist_vars [c], T (3, h), T (7, x),  T (3, w), T (4, c), T (2, x), T (2, y), T (8, f), T (2, x), T (1, y)];375.9177014827728
155;MobilNet_5;0.7557659000000001;0.011687809156980625;1;axe_out_channels_0,axe_out_channels_1,axe_xx_0,axe_yy_0,axe_out_channels_2;14;[V f, U (4, f), U (4, y), U (3, w), T (128, c), Hoist_vars [c], T (14, x),  T (3, h), T (2, c), T (2, f), T (7, y), T (2, x), T (2, f), T (1, f)];378.1458306312561
156;MobilNet_5;0.9160505000000001;0.015166498087890947;1;axe_out_channels_0,axe_out_channels_1,axe_xx_0,axe_yy_0,axe_out_channels_2;10;[V f, U (4, f), U (7, y), U (3, w), T (256, c), Hoist_vars [c], T (28, x),  T (3, h), T (1, c), T (2, f), T (4, y), T (1, x), T (1, f), T (2, f)];380.3707346916199
157;MobilNet_5;0.7579286000000001;0.052833722360250183;1;axe_out_channels_0,axe_out_channels_1,axe_xx_0,axe_yy_0,axe_out_channels_2;14;[V f, U (4, f), U (4, y), U (3, w), T (256, c), Hoist_vars [c], T (14, x),  T (3, h), T (1, c), T (2, f), T (7, y), T (2, x), T (2, f), T (1, f)];382.63058519363403
158;MobilNet_5;0.8707749;0.020636602624705454;1;axe_out_channels_0,axe_out_channels_1,axe_xx_0,axe_yy_0,axe_out_channels_2;15;[V f, U (4, f), U (4, y), U (3, w), T (32, c), Hoist_vars [c], T (14, x),  T (3, h), T (8, c), T (1, f), T (7, y), T (2, x), T (1, f), T (4, f)];384.90146565437317
159;MobilNet_5;0.9566088;0.09609553707202015;1;axe_out_channels_0,axe_out_channels_1,axe_xx_0,axe_yy_0,axe_out_channels_2;12;[V f, U (4, f), U (7, y), T (32, c), Hoist_vars [c], T (3, h), T (14, x),  T (3, w), T (8, c), T (4, f), T (4, y), T (2, x), T (1, f), T (1, f)];387.2173869609833
160;MobilNet_5;1.2017456999999998;0.01800152456904694;2;axe_out_channels1_0,axe_out_channels1_1,axe_xx1_0,axe_yy1_0,axe_out_channels1_2;8;[V f, U (4, f), ULambda y, U (3, w), T (128, c), Hoist_vars [c], T (28, x),  T (3, h), T (2, c), T (1, f),  Lambda_apply y [((Iter 2), (Arg 5)), ((Iter 3), (Arg 6))], T (1, x),  T (2, f), T (2, f)];389.87021827697754
161;MobilNet_5;1.0936177999999999;0.0071070537890183865;2;axe_yy1_0,axe_xx1_0,axe_out_channels1_0,axe_yy1_1,axe_xx1_1;13;[V f, U (2, f), ULambda y, T (32, c), Hoist_vars [c], T (3, h), T (14, x),  T (3, w), T (8, c), T (2, x), T (1, y), T (8, f), T (1, x),  Lambda_apply y [((Iter 1), (Arg 8)), ((Iter 2), (Arg 10))]];392.44946098327637
162;MobilNet_5;0.8276536999999999;0.011044161218037344;1;axe_out_channels_0,axe_out_channels_1,axe_xx_0,axe_yy_0,axe_out_channels_2;13;[V f, U (4, f), U (4, y), U (3, w), T (64, c), Hoist_vars [c], T (28, x),  T (3, h), T (4, c), T (2, f), T (7, y), T (1, x), T (2, f), T (1, f)];394.6115231513977
163;MobilNet_5;0.9034746;0.024449592295987276;1;axe_out_channels_0,axe_out_channels_1,axe_xx_0,axe_yy_0,axe_out_channels_2;13;[V f, U (4, f), U (4, y), U (3, w), T (32, c), Hoist_vars [c], T (28, x),  T (3, h), T (8, c), T (1, f), T (7, y), T (1, x), T (2, f), T (2, f)];396.7783043384552
164;MobilNet_5;0.9118197;0.02338957395956584;1;axe_out_channels_0,axe_out_channels_1,axe_xx_0,axe_yy_0,axe_out_channels_2;14;[V f, U (4, f), U (4, y), U (3, w), T (32, c), Hoist_vars [c], T (28, x),  T (3, h), T (8, c), T (1, f), T (7, y), T (1, x), T (1, f), T (4, f)];398.9442219734192
165;MobilNet_5;1.2038773;0.029256151185861765;2;axe_out_channels1_0,axe_out_channels1_1,axe_xx1_0,axe_yy1_0,axe_out_channels1_2;8;[V f, U (4, f), ULambda y, U (3, w), T (256, c), Hoist_vars [c], T (28, x),  T (3, h), T (1, c), T (2, f),  Lambda_apply y [((Iter 2), (Arg 5)), ((Iter 3), (Arg 6))], T (1, x),  T (2, f), T (1, f)];402.05128169059753
166;MobilNet_5;0.7942985;0.012472148910672932;1;axe_out_channels_0,axe_out_channels_1,axe_xx_0,axe_yy_0,axe_out_channels_2;14;[V f, U (4, f), U (4, y), U (3, w), T (128, c), Hoist_vars [c], T (28, x),  T (3, h), T (2, c), T (4, f), T (7, y), T (1, x), T (1, f), T (1, f)];404.2357096672058
167;MobilNet_5;0.7765473;0.0057352512072270986;1;axe_out_channels_0,axe_out_channels_1,axe_xx_0,axe_yy_0,axe_out_channels_2;11;[V f, U (4, f), U (7, y), U (3, w), T (64, c), Hoist_vars [c], T (14, x),  T (3, h), T (4, c), T (2, f), T (4, y), T (2, x), T (2, f), T (1, f)];406.57774448394775
168;MobilNet_5;0.858911;0.047716881840707076;1;axe_out_channels_0,axe_out_channels_1,axe_xx_0,axe_yy_0,axe_out_channels_2;13;[V f, U (4, f), U (7, y), T (32, c), Hoist_vars [c], T (3, h), T (7, x),  T (3, w), T (8, c), T (2, f), T (4, y), T (4, x), T (2, f), T (1, f)];408.7971522808075
169;MobilNet_5;0.8218679;0.003321176702616091;1;axe_out_channels_0,axe_out_channels_1,axe_xx_0,axe_yy_0,axe_out_channels_2;12;[V f, U (4, f), U (7, y), U (3, w), T (64, c), Hoist_vars [c], T (14, x),  T (3, h), T (4, c), T (1, f), T (4, y), T (2, x), T (1, f), T (4, f)];411.1737949848175
170;MobilNet_5;0.7914043;0.03581276365780781;2;axe_out_channels1_0,axe_out_channels1_1,axe_xx1_0,axe_yy1_0,axe_out_channels1_2;9;[V f, U (4, f), ULambda y, U (3, w), T (256, c), Hoist_vars [c], T (14, x),  T (3, h), T (1, c), T (2, f),  Lambda_apply y [((Iter 2), (Arg 5)), ((Iter 3), (Arg 6))], T (2, x),  T (1, f), T (2, f)];413.991179227829
171;MobilNet_5;0.7023071;0.017408418448842534;1;axe_out_channels_0,axe_out_channels_1,axe_xx_0,axe_yy_0,axe_out_channels_2;15;[V f, U (4, f), U (4, y), U (3, w), T (256, c), Hoist_vars [c], T (14, x),  T (3, h), T (1, c), T (4, f), T (7, y), T (2, x), T (1, f), T (1, f)];416.2285294532776
172;MobilNet_5;0.8140041;0.004144780125652027;1;axe_out_channels_0,axe_out_channels_1,axe_xx_0,axe_yy_0,axe_out_channels_2;14;[V f, U (4, f), U (7, y), U (3, w), T (32, c), Hoist_vars [c], T (7, x),  T (3, h), T (8, c), T (4, f), T (4, y), T (4, x), T (1, f), T (1, f)];418.518114566803
173;MobilNet_5;0.80169;0.007463041685532787;1;axe_out_channels_0,axe_out_channels_1,axe_xx_0,axe_yy_0,axe_out_channels_2;11;[V f, U (4, f), U (7, y), U (3, w), T (32, c), Hoist_vars [c], T (14, x),  T (3, h), T (8, c), T (2, f), T (4, y), T (2, x), T (2, f), T (1, f)];420.88327288627625
174;MobilNet_5;0.7965925;0.016003679222291366;2;axe_out_channels1_0,axe_out_channels1_1,axe_xx1_0,axe_yy1_0,axe_out_channels1_2;10;[V f, U (4, f), ULambda y, U (3, w), T (256, c), Hoist_vars [c], T (14, x),  T (3, h), T (1, c), T (4, f),  Lambda_apply y [((Iter 2), (Arg 5)), ((Iter 3), (Arg 6))], T (2, x),  T (1, f), T (1, f)];423.70013332366943
175;MobilNet_5;0.7242461;0.003989700025064544;1;axe_out_channels_0,axe_out_channels_1,axe_xx_0,axe_yy_0,axe_out_channels_2;15;[V f, U (4, f), U (4, y), U (3, w), T (256, c), Hoist_vars [c], T (14, x),  T (3, h), T (1, c), T (1, f), T (7, y), T (2, x), T (1, f), T (4, f)];425.9242570400238
176;MobilNet_5;1.6720951000000004;0.008329227604646156;1;axe_out_channels_0,axe_out_channels_1,axe_xx_0,axe_yy_0,axe_out_channels_2;11;[V f, U (4, f), U (7, y), U (3, h), T (32, c), Hoist_vars [c], T (14, x),  T (3, w), T (8, c), T (2, f), T (4, y), T (2, x), T (1, f), T (2, f)];428.31260323524475
177;MobilNet_5;1.6608348;0.005534948595967269;1;axe_out_channels_0,axe_out_channels_1,axe_xx_0,axe_yy_0,axe_out_channels_2;13;[V f, U (4, f), U (7, y), U (3, h), T (32, c), Hoist_vars [c], T (7, x),  T (3, w), T (8, c), T (2, f), T (4, y), T (4, x), T (1, f), T (2, f)];430.6018931865692
178;MobilNet_5;1.9450999;0.0032718655366625778;2;axe_xx1_0;28;[V f, U (1, f), ULambda y, U (3, h), T (128, c), Hoist_vars [c], T (3, w),  T (28, x), T (2, c), T (1, y), T (16, f),  Lambda_apply y [((Iter 2), (Arg 9)), ((Iter 1), (Arg 10))]];433.15811562538147
179;MobilNet_5;0.9208817999999999;0.003821554887738763;1;axe_out_channels_0,axe_out_channels_1,axe_xx_0,axe_yy_0,axe_out_channels_2;11;[V f, U (4, f), U (7, y), U (3, w), T (32, c), Hoist_vars [c], T (14, x),  T (3, h), T (8, c), T (1, f), T (4, y), T (2, x), T (2, f), T (2, f)];435.5337164402008
180;MobilNet_5;0.8455045;0.007898468133125548;1;axe_out_channels_0,axe_out_channels_1,axe_xx_0,axe_yy_0,axe_out_channels_2;15;[V f, U (4, f), U (4, y), U (3, w), T (32, c), Hoist_vars [c], T (14, x),  T (3, h), T (8, c), T (1, f), T (7, y), T (2, x), T (4, f), T (1, f)];437.78742361068726
181;MobilNet_5;0.8511914;0.008031062808869071;1;axe_out_channels_0,axe_out_channels_1,axe_xx_0,axe_yy_0,axe_out_channels_2;13;[V f, U (4, f), U (4, y), U (3, w), T (64, c), Hoist_vars [c], T (28, x),  T (3, h), T (4, c), T (2, f), T (7, y), T (1, x), T (1, f), T (2, f)];439.9280574321747
182;MobilNet_5;0.9239349000000001;0.005696469142372317;1;axe_out_channels_0,axe_out_channels_1,axe_xx_0,axe_yy_0,axe_out_channels_2;10;[V f, U (4, f), U (7, y), U (3, w), T (64, c), Hoist_vars [c], T (28, x),  T (3, h), T (4, c), T (1, f), T (4, y), T (1, x), T (2, f), T (2, f)];442.1443045139313
183;MobilNet_5;0.7655293999999999;0.01421925543901647;1;axe_out_channels_0,axe_out_channels_1,axe_xx_0,axe_yy_0,axe_out_channels_2;14;[V f, U (4, f), U (4, y), U (3, w), T (256, c), Hoist_vars [c], T (28, x),  T (3, h), T (1, c), T (4, f), T (7, y), T (1, x), T (1, f), T (1, f)];444.29497504234314
184;MobilNet_5;1.1267968000000002;0.006114157681970555;2;axe_out_channels1_0,axe_out_channels1_1,axe_xx1_0,axe_yy1_0,axe_out_channels1_2;8;[V f, U (4, f), ULambda y, U (3, w), T (256, c), Hoist_vars [c], T (28, x),  T (3, h), T (1, c), T (1, f),  Lambda_apply y [((Iter 2), (Arg 5)), ((Iter 3), (Arg 6))], T (1, x),  T (2, f), T (2, f)];446.911413192749
185;MobilNet_5;0.9186339;0.036495320353300074;2;axe_yy1_0,axe_xx1_0,axe_out_channels1_0,axe_yy1_1,axe_xx1_1;15;[V f, U (2, f), ULambda y, T (64, c), Hoist_vars [c], T (3, h), T (7, x),  T (3, w), T (4, c), T (1, x), T (1, y), T (8, f), T (4, x),  Lambda_apply y [((Iter 1), (Arg 13)), ((Iter 1), (Arg 15))]];449.44797444343567
186;MobilNet_5;0.958746;0.015059715568363137;1;axe_yy_0,axe_xx_0,axe_out_channels_0,axe_yy_1,axe_xx_1;14;[V f, U (2, f), U (14, y), T (32, c), Hoist_vars [c], T (3, h), T (14, x),  T (3, w), T (8, c), T (2, x), T (1, y), T (8, f), T (1, x), T (2, y)];451.6297688484192
187;MobilNet_5;0.7901957000000001;0.011046374717978747;1;axe_out_channels_0,axe_out_channels_1,axe_xx_0,axe_yy_0,axe_out_channels_2;14;[V f, U (4, f), U (4, y), U (3, w), T (128, c), Hoist_vars [c], T (28, x),  T (3, h), T (2, c), T (1, f), T (7, y), T (1, x), T (4, f), T (1, f)];453.77776312828064
188;MobilNet_5;1.0616512;0.005614379997827024;1;axe_out_channels_0,axe_out_channels_1,axe_xx_0,axe_yy_0,axe_out_channels_2;11;[V f, U (4, f), U (7, y), U (3, w), T (32, c), Hoist_vars [c], T (28, x),  T (3, h), T (8, c), T (1, f), T (4, y), T (1, x), T (4, f), T (1, f)];455.99698972702026
189;MobilNet_5;1.3464894;0.006243547776705133;2;axe_out_channels1_0,axe_out_channels1_1,axe_xx1_0,axe_yy1_0,axe_out_channels1_2;9;[V f, U (4, f), ULambda y, U (3, w), T (64, c), Hoist_vars [c], T (28, x),  T (3, h), T (4, c), T (1, f),  Lambda_apply y [((Iter 2), (Arg 5)), ((Iter 3), (Arg 6))], T (1, x),  T (1, f), T (4, f)];458.62685203552246
190;MobilNet_5;1.1861219000000003;0.01173138575318366;2;axe_out_channels1_0,axe_out_channels1_1,axe_xx1_0,axe_yy1_0,axe_out_channels1_2;9;[V f, U (4, f), ULambda y, U (3, w), T (256, c), Hoist_vars [c], T (28, x),  T (3, h), T (1, c), T (4, f),  Lambda_apply y [((Iter 2), (Arg 5)), ((Iter 3), (Arg 6))], T (1, x),  T (1, f), T (1, f)];461.27044224739075
191;MobilNet_5;0.8642502000000001;0.013098403488975282;1;axe_out_channels_0,axe_out_channels_1,axe_xx_0,axe_yy_0,axe_out_channels_2;13;[V f, U (4, f), U (4, y), U (3, w), T (64, c), Hoist_vars [c], T (28, x),  T (3, h), T (4, c), T (1, f), T (7, y), T (1, x), T (2, f), T (2, f)];463.43076825141907
192;MobilNet_5;2.420627;0.0030822821090874452;1;axe_xx_0;28;[V f, U (1, f), U (14, y), U (3, h), T (32, c), Hoist_vars [c], T (3, w),  T (28, x), T (8, c), T (2, y), T (16, f), T (1, y)];465.68368673324585
193;MobilNet_5;0.7474152000000001;0.007481164946717828;1;axe_yy_0,axe_xx_0,axe_out_channels_0,axe_yy_1,axe_xx_1;15;[V f, U (2, f), U (14, y), T (64, c), Hoist_vars [c], T (3, h), T (7, x),  T (3, w), T (4, c), T (2, x), T (1, y), T (8, f), T (2, x), T (2, y)];467.8594310283661
194;MobilNet_5;0.7734039;0.008677184974978932;1;axe_out_channels_0,axe_out_channels_1,axe_xx_0,axe_yy_0,axe_out_channels_2;14;[V f, U (4, f), U (4, y), U (3, w), T (64, c), Hoist_vars [c], T (14, x),  T (3, h), T (4, c), T (1, f), T (7, y), T (2, x), T (2, f), T (2, f)];470.10788679122925
195;MobilNet_5;0.7598168000000001;0.003352907836490596;1;axe_out_channels_0,axe_out_channels_1,axe_xx_0,axe_yy_0,axe_out_channels_2;11;[V f, U (4, f), U (7, y), U (3, w), T (128, c), Hoist_vars [c], T (14, x),  T (3, h), T (2, c), T (2, f), T (4, y), T (2, x), T (1, f), T (2, f)];472.45379972457886
196;MobilNet_5;0.7905476;0.013720104687647247;1;axe_out_channels_0,axe_out_channels_1,axe_xx_0,axe_yy_0,axe_out_channels_2;14;[V f, U (4, f), U (4, y), U (3, w), T (64, c), Hoist_vars [c], T (14, x),  T (3, h), T (4, c), T (2, f), T (7, y), T (2, x), T (2, f), T (1, f)];474.7106432914734
197;MobilNet_5;0.7824926999999999;0.0028061489999641528;1;axe_out_channels_0,axe_out_channels_1,axe_xx_0,axe_yy_0,axe_out_channels_2;14;[V f, U (4, f), U (7, y), U (3, w), T (256, c), Hoist_vars [c], T (7, x),  T (3, h), T (1, c), T (4, f), T (4, y), T (4, x), T (1, f), T (1, f)];476.95177960395813
198;MobilNet_5;1.4593357;0.008655617090075049;2;axe_out_channels1_0,axe_out_channels1_1,axe_xx1_0,axe_yy1_0,axe_out_channels1_2;8;[V f, U (4, f), ULambda y, U (3, w), T (64, c), Hoist_vars [c], T (28, x),  T (3, h), T (4, c), T (2, f),  Lambda_apply y [((Iter 2), (Arg 5)), ((Iter 3), (Arg 6))], T (1, x),  T (1, f), T (2, f)];479.61098432540894
199;MobilNet_5;0.8446847999999999;0.0181983750417448;1;axe_out_channels_0,axe_out_channels_1,axe_xx_0,axe_yy_0,axe_out_channels_2;14;[V f, U (4, f), U (4, y), U (3, w), T (64, c), Hoist_vars [c], T (28, x),  T (3, h), T (4, c), T (4, f), T (7, y), T (1, x), T (1, f), T (1, f)];481.77834582328796
