perf,CACHE_MISS_L1,CACHE_MISS_L2,scheme
35.19,1354446,1068503,"[V f; U (4, f); U (7, y); T (512, c); Hoist_vars [c]; T (3, w); T (3, h); T (7, x); T (1, c); T (16, f); T (1, y); T (1, f)]"
33.40,1356843,1069840,"[V f; U (4, f); U (7, y); T (512, c); Hoist_vars [c]; T (3, w); T (3, h); T (7, x); T (1, c); T (8, f); T (1, y); T (2, f)]"
35.85,1359888,1068988,"[V f; U (4, f); U (7, y); T (512, c); Hoist_vars [c]; T (3, w); T (3, h); T (7, x); T (1, c); T (4, f); T (1, y); T (4, f)]"
25.24,1363760,1079277,"[V f; U (4, f); U (7, y); T (512, c); Hoist_vars [c]; T (3, w); T (3, h); T (7, x); T (1, c); T (2, f); T (1, y); T (8, f)]"
39.18,1342532,1065934,"[V f; U (4, f); U (7, y); T (256, c); Hoist_vars [c]; T (3, w); T (3, h); T (7, x); T (2, c); T (16, f); T (1, y); T (1, f)]"
38.76,1342884,1067463,"[V f; U (4, f); U (7, y); T (256, c); Hoist_vars [c]; T (3, w); T (3, h); T (7, x); T (2, c); T (8, f); T (1, y); T (2, f)]"
32.85,1340022,1065947,"[V f; U (4, f); U (7, y); T (256, c); Hoist_vars [c]; T (3, w); T (3, h); T (7, x); T (2, c); T (4, f); T (1, y); T (4, f)]"
29.42,1335799,1071906,"[V f; U (4, f); U (7, y); T (256, c); Hoist_vars [c]; T (3, w); T (3, h); T (7, x); T (2, c); T (1, f); T (1, y); T (16, f)]"
28.12,1390256,1069738,"[V f; U (4, f); U (7, y); T (128, c); Hoist_vars [c]; T (3, w); T (3, h); T (7, x); T (4, c); T (1, f); T (1, y); T (16, f)]"
34.93,1494207,751177,"[V f; U (4, f); U (7, y); T (64, c); Hoist_vars [c]; T (3, w); T (3, h); T (7, x); T (8, c); T (8, f); T (1, y); T (2, f)]"
43.12,1496852,728832,"[V f; U (4, f); U (7, y); T (64, c); Hoist_vars [c]; T (3, w); T (3, h); T (7, x); T (8, c); T (4, f); T (1, y); T (4, f)]"
54.57,1707287,345303,"[V f; U (4, f); U (7, y); T (32, c); Hoist_vars [c]; T (3, w); T (3, h); T (7, x); T (16, c); T (4, f); T (1, y); T (4, f)]"
56.76,1709433,342549,"[V f; U (4, f); U (7, y); T (32, c); Hoist_vars [c]; T (3, w); T (3, h); T (7, x); T (16, c); T (1, f); T (1, y); T (16, f)]"
52.38,2113075,381792,"[V f; U (4, f); U (7, y); T (16, c); Hoist_vars [c]; T (3, w); T (3, h); T (7, x); T (32, c); T (16, f); T (1, y); T (1, f)]"
49.46,2107532,374848,"[V f; U (4, f); U (7, y); T (16, c); Hoist_vars [c]; T (3, w); T (3, h); T (7, x); T (32, c); T (2, f); T (1, y); T (8, f)]"
51.44,2110055,375698,"[V f; U (4, f); U (7, y); T (16, c); Hoist_vars [c]; T (3, w); T (3, h); T (7, x); T (32, c); T (1, f); T (1, y); T (16, f)]"
46.13,2286727,553606,"[V f; U (4, f); U (7, y); T (8, c); Hoist_vars [c]; T (3, w); T (3, h); T (7, x); T (64, c); T (8, f); T (1, y); T (2, f)]"
46.85,2295622,526819,"[V f; U (4, f); U (7, y); T (8, c); Hoist_vars [c]; T (3, w); T (3, h); T (7, x); T (64, c); T (4, f); T (1, y); T (4, f)]"
47.42,2309176,530693,"[V f; U (4, f); U (7, y); T (8, c); Hoist_vars [c]; T (3, w); T (3, h); T (7, x); T (64, c); T (2, f); T (1, y); T (8, f)]"
36.85,3003727,847220,"[V f; U (4, f); U (7, y); T (4, c); Hoist_vars [c]; T (3, w); T (3, h); T (7, x); T (128, c); T (16, f); T (1, y); T (1, f)]"
36.92,3072070,898001,"[V f; U (4, f); U (7, y); T (4, c); Hoist_vars [c]; T (3, w); T (3, h); T (7, x); T (128, c); T (8, f); T (1, y); T (2, f)]"
34.60,3015183,856277,"[V f; U (4, f); U (7, y); T (4, c); Hoist_vars [c]; T (3, w); T (3, h); T (7, x); T (128, c); T (4, f); T (1, y); T (4, f)]"
32.24,3235158,1315882,"[V f; U (4, f); U (7, y); T (2, c); Hoist_vars [c]; T (3, w); T (3, h); T (7, x); T (256, c); T (16, f); T (1, y); T (1, f)]"
31.54,3248260,1307736,"[V f; U (4, f); U (7, y); T (2, c); Hoist_vars [c]; T (3, w); T (3, h); T (7, x); T (256, c); T (8, f); T (1, y); T (2, f)]"
31.76,3235948,1293235,"[V f; U (4, f); U (7, y); T (2, c); Hoist_vars [c]; T (3, w); T (3, h); T (7, x); T (256, c); T (1, f); T (1, y); T (16, f)]"
19.50,5159926,1518946,"[V f; U (4, f); U (7, y); T (1, c); Hoist_vars [c]; T (3, w); T (3, h); T (7, x); T (512, c); T (16, f); T (1, y); T (1, f)]"
19.63,5157336,1426977,"[V f; U (4, f); U (7, y); T (1, c); Hoist_vars [c]; T (3, w); T (3, h); T (7, x); T (512, c); T (8, f); T (1, y); T (2, f)]"
19.16,5178478,1434426,"[V f; U (4, f); U (7, y); T (1, c); Hoist_vars [c]; T (3, w); T (3, h); T (7, x); T (512, c); T (4, f); T (1, y); T (4, f)]"
19.30,5155817,1439348,"[V f; U (4, f); U (7, y); T (1, c); Hoist_vars [c]; T (3, w); T (3, h); T (7, x); T (512, c); T (2, f); T (1, y); T (8, f)]"
35.20,1490171,1067991,"[V f; U (2, f); U (7, y); U (3, h); T (512, c); Hoist_vars [c]; T (7, x); T (3, w); T (32, f); T (1, c); T (1, c)]"
41.22,1565685,368623,"[V f; U (2, f); U (7, y); U (3, h); T (128, c); Hoist_vars [c]; T (7, x); T (3, w); T (32, f); T (4, c); T (1, c)]"
52.57,1655695,221307,"[V f; U (2, f); U (7, y); U (3, h); T (64, c); Hoist_vars [c]; T (7, x); T (3, w); T (32, f); T (8, c); T (1, c)]"
62.39,1826635,193550,"[V f; U (2, f); U (7, y); U (3, h); T (32, c); Hoist_vars [c]; T (7, x); T (3, w); T (32, f); T (16, c); T (1, c)]"
60.82,2148280,172822,"[V f; U (2, f); U (7, y); U (3, h); T (16, c); Hoist_vars [c]; T (7, x); T (3, w); T (32, f); T (32, c); T (1, c)]"
59.82,3157870,183896,"[V f; U (2, f); U (7, y); U (3, h); T (8, c); Hoist_vars [c]; T (7, x); T (3, w); T (32, f); T (64, c); T (1, c)]"
46.43,4797844,195366,"[V f; U (2, f); U (7, y); U (3, h); T (4, c); Hoist_vars [c]; T (7, x); T (3, w); T (32, f); T (128, c); T (1, c)]"
20.69,10187120,169036,"[V f; U (2, f); U (7, y); U (3, h); T (1, c); Hoist_vars [c]; T (7, x); T (3, w); T (32, f); T (512, c); T (1, c)]"
34.64,1514993,1002559,"[V f; U (2, f); U (7, y); U (3, h); T (256, c); Hoist_vars [c]; T (7, x); T (3, w); T (32, f); T (1, c); T (2, c)]"
48.76,1567248,351145,"[V f; U (2, f); U (7, y); U (3, h); T (128, c); Hoist_vars [c]; T (7, x); T (3, w); T (32, f); T (2, c); T (2, c)]"
59.04,1827202,198460,"[V f; U (2, f); U (7, y); U (3, h); T (32, c); Hoist_vars [c]; T (7, x); T (3, w); T (32, f); T (8, c); T (2, c)]"
60.31,2145726,175179,"[V f; U (2, f); U (7, y); U (3, h); T (16, c); Hoist_vars [c]; T (7, x); T (3, w); T (32, f); T (16, c); T (2, c)]"
57.02,3155157,180403,"[V f; U (2, f); U (7, y); U (3, h); T (8, c); Hoist_vars [c]; T (7, x); T (3, w); T (32, f); T (32, c); T (2, c)]"
21.45,10143548,170788,"[V f; U (2, f); U (7, y); U (3, h); T (1, c); Hoist_vars [c]; T (7, x); T (3, w); T (32, f); T (256, c); T (2, c)]"
48.80,1568965,349681,"[V f; U (2, f); U (7, y); U (3, h); T (128, c); Hoist_vars [c]; T (7, x); T (3, w); T (32, f); T (1, c); T (4, c)]"
57.93,1653973,220209,"[V f; U (2, f); U (7, y); U (3, h); T (64, c); Hoist_vars [c]; T (7, x); T (3, w); T (32, f); T (2, c); T (4, c)]"
62.75,1821572,197874,"[V f; U (2, f); U (7, y); U (3, h); T (32, c); Hoist_vars [c]; T (7, x); T (3, w); T (32, f); T (4, c); T (4, c)]"
56.85,2150906,188618,"[V f; U (2, f); U (7, y); U (3, h); T (16, c); Hoist_vars [c]; T (7, x); T (3, w); T (32, f); T (8, c); T (4, c)]"
46.57,4833203,192911,"[V f; U (2, f); U (7, y); U (3, h); T (4, c); Hoist_vars [c]; T (7, x); T (3, w); T (32, f); T (32, c); T (4, c)]"
36.38,5409384,199095,"[V f; U (2, f); U (7, y); U (3, h); T (2, c); Hoist_vars [c]; T (7, x); T (3, w); T (32, f); T (64, c); T (4, c)]"
21.11,10140292,169470,"[V f; U (2, f); U (7, y); U (3, h); T (1, c); Hoist_vars [c]; T (7, x); T (3, w); T (32, f); T (128, c); T (4, c)]"
60.14,1656319,221989,"[V f; U (2, f); U (7, y); U (3, h); T (64, c); Hoist_vars [c]; T (7, x); T (3, w); T (32, f); T (1, c); T (8, c)]"
55.31,1817018,194621,"[V f; U (2, f); U (7, y); U (3, h); T (32, c); Hoist_vars [c]; T (7, x); T (3, w); T (32, f); T (2, c); T (8, c)]"
59.83,3168596,179747,"[V f; U (2, f); U (7, y); U (3, h); T (8, c); Hoist_vars [c]; T (7, x); T (3, w); T (32, f); T (8, c); T (8, c)]"
46.90,4884412,191330,"[V f; U (2, f); U (7, y); U (3, h); T (4, c); Hoist_vars [c]; T (7, x); T (3, w); T (32, f); T (16, c); T (8, c)]"
37.41,5370315,170162,"[V f; U (2, f); U (7, y); U (3, h); T (2, c); Hoist_vars [c]; T (7, x); T (3, w); T (32, f); T (32, c); T (8, c)]"
21.47,10118824,169370,"[V f; U (2, f); U (7, y); U (3, h); T (1, c); Hoist_vars [c]; T (7, x); T (3, w); T (32, f); T (64, c); T (8, c)]"
59.93,1808906,207373,"[V f; U (2, f); U (7, y); U (3, h); T (32, c); Hoist_vars [c]; T (7, x); T (3, w); T (32, f); T (1, c); T (16, c)]"
56.36,2144470,173096,"[V f; U (2, f); U (7, y); U (3, h); T (16, c); Hoist_vars [c]; T (7, x); T (3, w); T (32, f); T (2, c); T (16, c)]"
58.06,3109310,187798,"[V f; U (2, f); U (7, y); U (3, h); T (8, c); Hoist_vars [c]; T (7, x); T (3, w); T (32, f); T (4, c); T (16, c)]"
37.67,5394909,167990,"[V f; U (2, f); U (7, y); U (3, h); T (2, c); Hoist_vars [c]; T (7, x); T (3, w); T (32, f); T (16, c); T (16, c)]"
21.44,10124253,169961,"[V f; U (2, f); U (7, y); U (3, h); T (1, c); Hoist_vars [c]; T (7, x); T (3, w); T (32, f); T (32, c); T (16, c)]"
56.51,2152091,173221,"[V f; U (2, f); U (7, y); U (3, h); T (16, c); Hoist_vars [c]; T (7, x); T (3, w); T (32, f); T (1, c); T (32, c)]"
58.23,3170977,182639,"[V f; U (2, f); U (7, y); U (3, h); T (8, c); Hoist_vars [c]; T (7, x); T (3, w); T (32, f); T (2, c); T (32, c)]"
37.52,5412504,166980,"[V f; U (2, f); U (7, y); U (3, h); T (2, c); Hoist_vars [c]; T (7, x); T (3, w); T (32, f); T (8, c); T (32, c)]"
59.24,3142771,204908,"[V f; U (2, f); U (7, y); U (3, h); T (8, c); Hoist_vars [c]; T (7, x); T (3, w); T (32, f); T (1, c); T (64, c)]"
37.09,5388426,172686,"[V f; U (2, f); U (7, y); U (3, h); T (2, c); Hoist_vars [c]; T (7, x); T (3, w); T (32, f); T (4, c); T (64, c)]"
46.80,4868521,195334,"[V f; U (2, f); U (7, y); U (3, h); T (4, c); Hoist_vars [c]; T (7, x); T (3, w); T (32, f); T (1, c); T (128, c)]"
36.02,5394242,166758,"[V f; U (2, f); U (7, y); U (3, h); T (2, c); Hoist_vars [c]; T (7, x); T (3, w); T (32, f); T (1, c); T (256, c)]"
21.14,10168796,209349,"[V f; U (2, f); U (7, y); U (3, h); T (1, c); Hoist_vars [c]; T (7, x); T (3, w); T (32, f); T (2, c); T (256, c)]"
21.41,10142265,179920,"[V f; U (2, f); U (7, y); U (3, h); T (1, c); Hoist_vars [c]; T (7, x); T (3, w); T (32, f); T (1, c); T (512, c)]"
24.86,1308294,1066360,"[V f; U (4, f); U (7, y); U (3, h); T (512, c); Hoist_vars [c]; T (3, w); T (7, x); T (1, c); T (4, f); T (1, y); T (4, f)]"
30.10,1308548,1066351,"[V f; U (4, f); U (7, y); U (3, h); T (512, c); Hoist_vars [c]; T (3, w); T (7, x); T (1, c); T (2, f); T (1, y); T (8, f)]"
34.28,1310430,1072024,"[V f; U (4, f); U (7, y); U (3, h); T (256, c); Hoist_vars [c]; T (3, w); T (7, x); T (2, c); T (16, f); T (1, y); T (1, f)]"
32.61,1310916,1068725,"[V f; U (4, f); U (7, y); U (3, h); T (256, c); Hoist_vars [c]; T (3, w); T (7, x); T (2, c); T (8, f); T (1, y); T (2, f)]"
26.27,1318443,1068531,"[V f; U (4, f); U (7, y); U (3, h); T (256, c); Hoist_vars [c]; T (3, w); T (7, x); T (2, c); T (4, f); T (1, y); T (4, f)]"
26.11,1276576,1068407,"[V f; U (4, f); U (7, y); U (3, h); T (256, c); Hoist_vars [c]; T (3, w); T (7, x); T (2, c); T (2, f); T (1, y); T (8, f)]"
32.67,1313486,1068528,"[V f; U (4, f); U (7, y); U (3, h); T (256, c); Hoist_vars [c]; T (3, w); T (7, x); T (2, c); T (1, f); T (1, y); T (16, f)]"
32.68,1296437,1064078,"[V f; U (4, f); U (7, y); U (3, h); T (128, c); Hoist_vars [c]; T (3, w); T (7, x); T (4, c); T (16, f); T (1, y); T (1, f)]"
32.92,1297358,1062057,"[V f; U (4, f); U (7, y); U (3, h); T (128, c); Hoist_vars [c]; T (3, w); T (7, x); T (4, c); T (8, f); T (1, y); T (2, f)]"
33.56,1297695,1064145,"[V f; U (4, f); U (7, y); U (3, h); T (128, c); Hoist_vars [c]; T (3, w); T (7, x); T (4, c); T (4, f); T (1, y); T (4, f)]"
34.86,1293670,1063788,"[V f; U (4, f); U (7, y); U (3, h); T (128, c); Hoist_vars [c]; T (3, w); T (7, x); T (4, c); T (2, f); T (1, y); T (8, f)]"
32.46,1366842,744361,"[V f; U (4, f); U (7, y); U (3, h); T (64, c); Hoist_vars [c]; T (3, w); T (7, x); T (8, c); T (16, f); T (1, y); T (1, f)]"
32.67,1376707,743701,"[V f; U (4, f); U (7, y); U (3, h); T (64, c); Hoist_vars [c]; T (3, w); T (7, x); T (8, c); T (8, f); T (1, y); T (2, f)]"
33.47,1383290,742555,"[V f; U (4, f); U (7, y); U (3, h); T (64, c); Hoist_vars [c]; T (3, w); T (7, x); T (8, c); T (4, f); T (1, y); T (4, f)]"
36.85,1365465,746049,"[V f; U (4, f); U (7, y); U (3, h); T (64, c); Hoist_vars [c]; T (3, w); T (7, x); T (8, c); T (1, f); T (1, y); T (16, f)]"
52.75,1511968,325823,"[V f; U (4, f); U (7, y); U (3, h); T (32, c); Hoist_vars [c]; T (3, w); T (7, x); T (16, c); T (16, f); T (1, y); T (1, f)]"
44.54,1474363,325818,"[V f; U (4, f); U (7, y); U (3, h); T (32, c); Hoist_vars [c]; T (3, w); T (7, x); T (16, c); T (8, f); T (1, y); T (2, f)]"
48.93,1519213,323966,"[V f; U (4, f); U (7, y); U (3, h); T (32, c); Hoist_vars [c]; T (3, w); T (7, x); T (16, c); T (4, f); T (1, y); T (4, f)]"
49.10,1449967,334580,"[V f; U (4, f); U (7, y); U (3, h); T (32, c); Hoist_vars [c]; T (3, w); T (7, x); T (16, c); T (2, f); T (1, y); T (8, f)]"
48.44,1668192,368224,"[V f; U (4, f); U (7, y); U (3, h); T (16, c); Hoist_vars [c]; T (3, w); T (7, x); T (32, c); T (16, f); T (1, y); T (1, f)]"
50.36,1619348,372565,"[V f; U (4, f); U (7, y); U (3, h); T (16, c); Hoist_vars [c]; T (3, w); T (7, x); T (32, c); T (8, f); T (1, y); T (2, f)]"
51.19,1623925,371123,"[V f; U (4, f); U (7, y); U (3, h); T (16, c); Hoist_vars [c]; T (3, w); T (7, x); T (32, c); T (4, f); T (1, y); T (4, f)]"
50.13,1651368,363058,"[V f; U (4, f); U (7, y); U (3, h); T (16, c); Hoist_vars [c]; T (3, w); T (7, x); T (32, c); T (1, f); T (1, y); T (16, f)]"
52.48,2194727,559392,"[V f; U (4, f); U (7, y); U (3, h); T (8, c); Hoist_vars [c]; T (3, w); T (7, x); T (64, c); T (1, f); T (1, y); T (16, f)]"
43.82,2917053,894188,"[V f; U (4, f); U (7, y); U (3, h); T (4, c); Hoist_vars [c]; T (3, w); T (7, x); T (128, c); T (16, f); T (1, y); T (1, f)]"
46.04,2785034,883982,"[V f; U (4, f); U (7, y); U (3, h); T (4, c); Hoist_vars [c]; T (3, w); T (7, x); T (128, c); T (8, f); T (1, y); T (2, f)]"
45.30,2774459,903009,"[V f; U (4, f); U (7, y); U (3, h); T (4, c); Hoist_vars [c]; T (3, w); T (7, x); T (128, c); T (2, f); T (1, y); T (8, f)]"
47.17,2921578,866878,"[V f; U (4, f); U (7, y); U (3, h); T (4, c); Hoist_vars [c]; T (3, w); T (7, x); T (128, c); T (1, f); T (1, y); T (16, f)]"
36.07,2815862,1291515,"[V f; U (4, f); U (7, y); U (3, h); T (2, c); Hoist_vars [c]; T (3, w); T (7, x); T (256, c); T (8, f); T (1, y); T (2, f)]"
36.16,2813055,1306098,"[V f; U (4, f); U (7, y); U (3, h); T (2, c); Hoist_vars [c]; T (3, w); T (7, x); T (256, c); T (2, f); T (1, y); T (8, f)]"
29.22,4253400,1385084,"[V f; U (4, f); U (7, y); U (3, h); T (1, c); Hoist_vars [c]; T (3, w); T (7, x); T (512, c); T (16, f); T (1, y); T (1, f)]"
30.34,4250047,1418145,"[V f; U (4, f); U (7, y); U (3, h); T (1, c); Hoist_vars [c]; T (3, w); T (7, x); T (512, c); T (8, f); T (1, y); T (2, f)]"
29.02,4244509,1400873,"[V f; U (4, f); U (7, y); U (3, h); T (1, c); Hoist_vars [c]; T (3, w); T (7, x); T (512, c); T (4, f); T (1, y); T (4, f)]"
30.02,4262205,1384086,"[V f; U (4, f); U (7, y); U (3, h); T (1, c); Hoist_vars [c]; T (3, w); T (7, x); T (512, c); T (2, f); T (1, y); T (8, f)]"
30.10,4251301,1410427,"[V f; U (4, f); U (7, y); U (3, h); T (1, c); Hoist_vars [c]; T (3, w); T (7, x); T (512, c); T (1, f); T (1, y); T (16, f)]"
27.27,5871737,1075552,"[V f; U (2, f); U (7, y); U (3, w); T (512, c); Hoist_vars [c]; T (7, x); T (3, h); T (32, f); T (1, c); T (1, y); T (1, c)]"
29.26,5568738,999691,"[V f; U (2, f); U (7, y); U (3, w); T (256, c); Hoist_vars [c]; T (7, x); T (3, h); T (32, f); T (2, c); T (1, y); T (1, c)]"
36.34,5138252,370472,"[V f; U (2, f); U (7, y); U (3, w); T (128, c); Hoist_vars [c]; T (7, x); T (3, h); T (32, f); T (4, c); T (1, y); T (1, c)]"
31.31,7149307,324308,"[V f; U (2, f); U (7, y); U (3, w); T (4, c); Hoist_vars [c]; T (7, x); T (3, h); T (32, f); T (128, c); T (1, y); T (1, c)]"
19.74,9960624,159886,"[V f; U (2, f); U (7, y); U (3, w); T (1, c); Hoist_vars [c]; T (7, x); T (3, h); T (32, f); T (512, c); T (1, y); T (1, c)]"
36.19,5190482,357808,"[V f; U (2, f); U (7, y); U (3, w); T (128, c); Hoist_vars [c]; T (7, x); T (3, h); T (32, f); T (2, c); T (1, y); T (2, c)]"
38.56,5085300,267615,"[V f; U (2, f); U (7, y); U (3, w); T (64, c); Hoist_vars [c]; T (7, x); T (3, h); T (32, f); T (4, c); T (1, y); T (2, c)]"
39.38,5078858,254490,"[V f; U (2, f); U (7, y); U (3, w); T (32, c); Hoist_vars [c]; T (7, x); T (3, h); T (32, f); T (8, c); T (1, y); T (2, c)]"
36.91,5882492,205965,"[V f; U (2, f); U (7, y); U (3, w); T (8, c); Hoist_vars [c]; T (7, x); T (3, h); T (32, f); T (32, c); T (1, y); T (2, c)]"
31.88,7087982,209621,"[V f; U (2, f); U (7, y); U (3, w); T (4, c); Hoist_vars [c]; T (7, x); T (3, h); T (32, f); T (64, c); T (1, y); T (2, c)]"
25.47,7044717,168623,"[V f; U (2, f); U (7, y); U (3, w); T (2, c); Hoist_vars [c]; T (7, x); T (3, h); T (32, f); T (128, c); T (1, y); T (2, c)]"
19.75,9962480,163318,"[V f; U (2, f); U (7, y); U (3, w); T (1, c); Hoist_vars [c]; T (7, x); T (3, h); T (32, f); T (256, c); T (1, y); T (2, c)]"
38.43,5031915,268378,"[V f; U (2, f); U (7, y); U (3, w); T (64, c); Hoist_vars [c]; T (7, x); T (3, h); T (32, f); T (2, c); T (1, y); T (4, c)]"
36.02,5137746,242875,"[V f; U (2, f); U (7, y); U (3, w); T (32, c); Hoist_vars [c]; T (7, x); T (3, h); T (32, f); T (4, c); T (1, y); T (4, c)]"
37.81,5342148,219935,"[V f; U (2, f); U (7, y); U (3, w); T (16, c); Hoist_vars [c]; T (7, x); T (3, h); T (32, f); T (8, c); T (1, y); T (4, c)]"
32.12,7134273,193807,"[V f; U (2, f); U (7, y); U (3, w); T (4, c); Hoist_vars [c]; T (7, x); T (3, h); T (32, f); T (32, c); T (1, y); T (4, c)]"
25.28,7029404,169105,"[V f; U (2, f); U (7, y); U (3, w); T (2, c); Hoist_vars [c]; T (7, x); T (3, h); T (32, f); T (64, c); T (1, y); T (4, c)]"
37.85,5113640,269317,"[V f; U (2, f); U (7, y); U (3, w); T (64, c); Hoist_vars [c]; T (7, x); T (3, h); T (32, f); T (1, c); T (1, y); T (8, c)]"
36.51,5139951,255202,"[V f; U (2, f); U (7, y); U (3, w); T (32, c); Hoist_vars [c]; T (7, x); T (3, h); T (32, f); T (2, c); T (1, y); T (8, c)]"
31.88,7117591,223733,"[V f; U (2, f); U (7, y); U (3, w); T (4, c); Hoist_vars [c]; T (7, x); T (3, h); T (32, f); T (16, c); T (1, y); T (8, c)]"
19.74,9959855,160531,"[V f; U (2, f); U (7, y); U (3, w); T (1, c); Hoist_vars [c]; T (7, x); T (3, h); T (32, f); T (64, c); T (1, y); T (8, c)]"
39.03,5100051,243529,"[V f; U (2, f); U (7, y); U (3, w); T (32, c); Hoist_vars [c]; T (7, x); T (3, h); T (32, f); T (1, c); T (1, y); T (16, c)]"
36.92,5911962,237532,"[V f; U (2, f); U (7, y); U (3, w); T (8, c); Hoist_vars [c]; T (7, x); T (3, h); T (32, f); T (4, c); T (1, y); T (16, c)]"
36.25,5944298,203560,"[V f; U (2, f); U (7, y); U (3, w); T (8, c); Hoist_vars [c]; T (7, x); T (3, h); T (32, f); T (2, c); T (1, y); T (32, c)]"
25.51,6995518,169199,"[V f; U (2, f); U (7, y); U (3, w); T (2, c); Hoist_vars [c]; T (7, x); T (3, h); T (32, f); T (8, c); T (1, y); T (32, c)]"
19.67,9962959,162212,"[V f; U (2, f); U (7, y); U (3, w); T (1, c); Hoist_vars [c]; T (7, x); T (3, h); T (32, f); T (16, c); T (1, y); T (32, c)]"
37.38,5784153,207686,"[V f; U (2, f); U (7, y); U (3, w); T (8, c); Hoist_vars [c]; T (7, x); T (3, h); T (32, f); T (1, c); T (1, y); T (64, c)]"
31.37,7067095,230808,"[V f; U (2, f); U (7, y); U (3, w); T (4, c); Hoist_vars [c]; T (7, x); T (3, h); T (32, f); T (1, c); T (1, y); T (128, c)]"
25.39,7006138,167267,"[V f; U (2, f); U (7, y); U (3, w); T (2, c); Hoist_vars [c]; T (7, x); T (3, h); T (32, f); T (2, c); T (1, y); T (128, c)]"
19.71,9979260,159471,"[V f; U (2, f); U (7, y); U (3, w); T (1, c); Hoist_vars [c]; T (7, x); T (3, h); T (32, f); T (4, c); T (1, y); T (128, c)]"
25.69,4829278,1073760,"[V f; U (4, f); U (7, y); U (3, w); T (512, c); Hoist_vars [c]; T (3, h); T (7, x); T (1, c); T (2, f); T (1, y); T (8, f)]"
34.10,4668700,1079760,"[V f; U (4, f); U (7, y); U (3, w); T (256, c); Hoist_vars [c]; T (3, h); T (7, x); T (2, c); T (16, f); T (1, y); T (1, f)]"
34.02,4622554,1079446,"[V f; U (4, f); U (7, y); U (3, w); T (256, c); Hoist_vars [c]; T (3, h); T (7, x); T (2, c); T (4, f); T (1, y); T (4, f)]"
34.80,4642239,1079607,"[V f; U (4, f); U (7, y); U (3, w); T (256, c); Hoist_vars [c]; T (3, h); T (7, x); T (2, c); T (2, f); T (1, y); T (8, f)]"
35.97,4592665,1078819,"[V f; U (4, f); U (7, y); U (3, w); T (256, c); Hoist_vars [c]; T (3, h); T (7, x); T (2, c); T (1, f); T (1, y); T (16, f)]"
34.80,4641172,1075983,"[V f; U (4, f); U (7, y); U (3, w); T (128, c); Hoist_vars [c]; T (3, h); T (7, x); T (4, c); T (8, f); T (1, y); T (2, f)]"
36.39,4644478,1075515,"[V f; U (4, f); U (7, y); U (3, w); T (128, c); Hoist_vars [c]; T (3, h); T (7, x); T (4, c); T (4, f); T (1, y); T (4, f)]"
37.06,4485895,753533,"[V f; U (4, f); U (7, y); U (3, w); T (64, c); Hoist_vars [c]; T (3, h); T (7, x); T (8, c); T (8, f); T (1, y); T (2, f)]"
38.16,4428529,764087,"[V f; U (4, f); U (7, y); U (3, w); T (64, c); Hoist_vars [c]; T (3, h); T (7, x); T (8, c); T (4, f); T (1, y); T (4, f)]"
37.89,4475357,767024,"[V f; U (4, f); U (7, y); U (3, w); T (64, c); Hoist_vars [c]; T (3, h); T (7, x); T (8, c); T (2, f); T (1, y); T (8, f)]"
49.57,3908758,353290,"[V f; U (4, f); U (7, y); U (3, w); T (32, c); Hoist_vars [c]; T (3, h); T (7, x); T (16, c); T (2, f); T (1, y); T (8, f)]"
50.50,3898538,353293,"[V f; U (4, f); U (7, y); U (3, w); T (32, c); Hoist_vars [c]; T (3, h); T (7, x); T (16, c); T (1, f); T (1, y); T (16, f)]"
50.44,3948612,425640,"[V f; U (4, f); U (7, y); U (3, w); T (16, c); Hoist_vars [c]; T (3, h); T (7, x); T (32, c); T (4, f); T (1, y); T (4, f)]"
49.24,3982064,427316,"[V f; U (4, f); U (7, y); U (3, w); T (16, c); Hoist_vars [c]; T (3, h); T (7, x); T (32, c); T (2, f); T (1, y); T (8, f)]"
51.27,3943989,427566,"[V f; U (4, f); U (7, y); U (3, w); T (16, c); Hoist_vars [c]; T (3, h); T (7, x); T (32, c); T (1, f); T (1, y); T (16, f)]"
44.66,4503471,624797,"[V f; U (4, f); U (7, y); U (3, w); T (8, c); Hoist_vars [c]; T (3, h); T (7, x); T (64, c); T (16, f); T (1, y); T (1, f)]"
41.83,4519407,597098,"[V f; U (4, f); U (7, y); U (3, w); T (8, c); Hoist_vars [c]; T (3, h); T (7, x); T (64, c); T (4, f); T (1, y); T (4, f)]"
38.84,4994941,864540,"[V f; U (4, f); U (7, y); U (3, w); T (4, c); Hoist_vars [c]; T (3, h); T (7, x); T (128, c); T (16, f); T (1, y); T (1, f)]"
38.29,4990887,852653,"[V f; U (4, f); U (7, y); U (3, w); T (4, c); Hoist_vars [c]; T (3, h); T (7, x); T (128, c); T (8, f); T (1, y); T (2, f)]"
38.91,4941527,857914,"[V f; U (4, f); U (7, y); U (3, w); T (4, c); Hoist_vars [c]; T (3, h); T (7, x); T (128, c); T (4, f); T (1, y); T (4, f)]"
36.07,4948532,872237,"[V f; U (4, f); U (7, y); U (3, w); T (4, c); Hoist_vars [c]; T (3, h); T (7, x); T (128, c); T (2, f); T (1, y); T (8, f)]"
32.14,4604438,1337012,"[V f; U (4, f); U (7, y); U (3, w); T (2, c); Hoist_vars [c]; T (3, h); T (7, x); T (256, c); T (8, f); T (1, y); T (2, f)]"
33.54,4606623,1345373,"[V f; U (4, f); U (7, y); U (3, w); T (2, c); Hoist_vars [c]; T (3, h); T (7, x); T (256, c); T (2, f); T (1, y); T (8, f)]"
32.32,4584820,1335229,"[V f; U (4, f); U (7, y); U (3, w); T (2, c); Hoist_vars [c]; T (3, h); T (7, x); T (256, c); T (1, f); T (1, y); T (16, f)]"
28.05,5439898,1411090,"[V f; U (4, f); U (7, y); U (3, w); T (1, c); Hoist_vars [c]; T (3, h); T (7, x); T (512, c); T (16, f); T (1, y); T (1, f)]"
28.77,5449796,1468037,"[V f; U (4, f); U (7, y); U (3, w); T (1, c); Hoist_vars [c]; T (3, h); T (7, x); T (512, c); T (8, f); T (1, y); T (2, f)]"
28.97,5458400,1415589,"[V f; U (4, f); U (7, y); U (3, w); T (1, c); Hoist_vars [c]; T (3, h); T (7, x); T (512, c); T (4, f); T (1, y); T (4, f)]"
28.72,5453259,1431254,"[V f; U (4, f); U (7, y); U (3, w); T (1, c); Hoist_vars [c]; T (3, h); T (7, x); T (512, c); T (2, f); T (1, y); T (8, f)]"
24.18,2290765,2100024,"[V f; U (4, f); ULambda y; U (3, h); T (512, c); Hoist_vars [c]; T (3, w); T (7, x); T (1, c); T (16, f); Lambda_apply y [((Iter 1), (Arg 3)); ((Iter 1), (Arg 4))]; T (1, f)]"
29.60,2294798,2103252,"[V f; U (4, f); ULambda y; U (3, h); T (512, c); Hoist_vars [c]; T (3, w); T (7, x); T (1, c); T (8, f); Lambda_apply y [((Iter 1), (Arg 3)); ((Iter 1), (Arg 4))]; T (2, f)]"
25.96,2290031,2103906,"[V f; U (4, f); ULambda y; U (3, h); T (512, c); Hoist_vars [c]; T (3, w); T (7, x); T (1, c); T (4, f); Lambda_apply y [((Iter 1), (Arg 3)); ((Iter 1), (Arg 4))]; T (4, f)]"
23.14,2291087,2103281,"[V f; U (4, f); ULambda y; U (3, h); T (512, c); Hoist_vars [c]; T (3, w); T (7, x); T (1, c); T (2, f); Lambda_apply y [((Iter 1), (Arg 3)); ((Iter 1), (Arg 4))]; T (8, f)]"
29.07,2249363,2099999,"[V f; U (4, f); ULambda y; U (3, h); T (256, c); Hoist_vars [c]; T (3, w); T (7, x); T (2, c); T (16, f); Lambda_apply y [((Iter 1), (Arg 3)); ((Iter 1), (Arg 4))]; T (1, f)]"
35.27,2252725,2103134,"[V f; U (4, f); ULambda y; U (3, h); T (256, c); Hoist_vars [c]; T (3, w); T (7, x); T (2, c); T (8, f); Lambda_apply y [((Iter 1), (Arg 3)); ((Iter 1), (Arg 4))]; T (2, f)]"
33.94,2254078,2104923,"[V f; U (4, f); ULambda y; U (3, h); T (256, c); Hoist_vars [c]; T (3, w); T (7, x); T (2, c); T (4, f); Lambda_apply y [((Iter 1), (Arg 3)); ((Iter 1), (Arg 4))]; T (4, f)]"
35.80,2252622,2104936,"[V f; U (4, f); ULambda y; U (3, h); T (256, c); Hoist_vars [c]; T (3, w); T (7, x); T (2, c); T (2, f); Lambda_apply y [((Iter 1), (Arg 3)); ((Iter 1), (Arg 4))]; T (8, f)]"
32.00,2249094,2099232,"[V f; U (4, f); ULambda y; U (3, h); T (256, c); Hoist_vars [c]; T (3, w); T (7, x); T (2, c); T (1, f); Lambda_apply y [((Iter 1), (Arg 3)); ((Iter 1), (Arg 4))]; T (16, f)]"
34.69,2275786,2088166,"[V f; U (4, f); ULambda y; U (3, h); T (128, c); Hoist_vars [c]; T (3, w); T (7, x); T (4, c); T (16, f); Lambda_apply y [((Iter 1), (Arg 3)); ((Iter 1), (Arg 4))]; T (1, f)]"
35.47,2276218,2098530,"[V f; U (4, f); ULambda y; U (3, h); T (128, c); Hoist_vars [c]; T (3, w); T (7, x); T (4, c); T (8, f); Lambda_apply y [((Iter 1), (Arg 3)); ((Iter 1), (Arg 4))]; T (2, f)]"
35.60,2276263,2102577,"[V f; U (4, f); ULambda y; U (3, h); T (128, c); Hoist_vars [c]; T (3, w); T (7, x); T (4, c); T (4, f); Lambda_apply y [((Iter 1), (Arg 3)); ((Iter 1), (Arg 4))]; T (4, f)]"
34.61,2276410,2102597,"[V f; U (4, f); ULambda y; U (3, h); T (128, c); Hoist_vars [c]; T (3, w); T (7, x); T (4, c); T (2, f); Lambda_apply y [((Iter 1), (Arg 3)); ((Iter 1), (Arg 4))]; T (8, f)]"
32.44,2276551,2097496,"[V f; U (4, f); ULambda y; U (3, h); T (128, c); Hoist_vars [c]; T (3, w); T (7, x); T (4, c); T (1, f); Lambda_apply y [((Iter 1), (Arg 3)); ((Iter 1), (Arg 4))]; T (16, f)]"
37.81,2331020,1418987,"[V f; U (4, f); ULambda y; U (3, h); T (64, c); Hoist_vars [c]; T (3, w); T (7, x); T (8, c); T (16, f); Lambda_apply y [((Iter 1), (Arg 3)); ((Iter 1), (Arg 4))]; T (1, f)]"
37.00,2330678,1402444,"[V f; U (4, f); ULambda y; U (3, h); T (64, c); Hoist_vars [c]; T (3, w); T (7, x); T (8, c); T (8, f); Lambda_apply y [((Iter 1), (Arg 3)); ((Iter 1), (Arg 4))]; T (2, f)]"
35.74,2333053,1392538,"[V f; U (4, f); ULambda y; U (3, h); T (64, c); Hoist_vars [c]; T (3, w); T (7, x); T (8, c); T (4, f); Lambda_apply y [((Iter 1), (Arg 3)); ((Iter 1), (Arg 4))]; T (4, f)]"
38.06,2332360,1341869,"[V f; U (4, f); ULambda y; U (3, h); T (64, c); Hoist_vars [c]; T (3, w); T (7, x); T (8, c); T (2, f); Lambda_apply y [((Iter 1), (Arg 3)); ((Iter 1), (Arg 4))]; T (8, f)]"
38.63,2330321,1408549,"[V f; U (4, f); ULambda y; U (3, h); T (64, c); Hoist_vars [c]; T (3, w); T (7, x); T (8, c); T (1, f); Lambda_apply y [((Iter 1), (Arg 3)); ((Iter 1), (Arg 4))]; T (16, f)]"
55.72,2445220,597297,"[V f; U (4, f); ULambda y; U (3, h); T (32, c); Hoist_vars [c]; T (3, w); T (7, x); T (16, c); T (8, f); Lambda_apply y [((Iter 1), (Arg 3)); ((Iter 1), (Arg 4))]; T (2, f)]"
54.43,2447603,578332,"[V f; U (4, f); ULambda y; U (3, h); T (32, c); Hoist_vars [c]; T (3, w); T (7, x); T (16, c); T (4, f); Lambda_apply y [((Iter 1), (Arg 3)); ((Iter 1), (Arg 4))]; T (4, f)]"
53.35,2444645,588315,"[V f; U (4, f); ULambda y; U (3, h); T (32, c); Hoist_vars [c]; T (3, w); T (7, x); T (16, c); T (2, f); Lambda_apply y [((Iter 1), (Arg 3)); ((Iter 1), (Arg 4))]; T (8, f)]"
55.70,2450242,582222,"[V f; U (4, f); ULambda y; U (3, h); T (32, c); Hoist_vars [c]; T (3, w); T (7, x); T (16, c); T (1, f); Lambda_apply y [((Iter 1), (Arg 3)); ((Iter 1), (Arg 4))]; T (16, f)]"
55.63,2624778,722468,"[V f; U (4, f); ULambda y; U (3, h); T (16, c); Hoist_vars [c]; T (3, w); T (7, x); T (32, c); T (8, f); Lambda_apply y [((Iter 1), (Arg 3)); ((Iter 1), (Arg 4))]; T (2, f)]"
48.83,2618800,696977,"[V f; U (4, f); ULambda y; U (3, h); T (16, c); Hoist_vars [c]; T (3, w); T (7, x); T (32, c); T (4, f); Lambda_apply y [((Iter 1), (Arg 3)); ((Iter 1), (Arg 4))]; T (4, f)]"
55.36,2626764,680220,"[V f; U (4, f); ULambda y; U (3, h); T (16, c); Hoist_vars [c]; T (3, w); T (7, x); T (32, c); T (2, f); Lambda_apply y [((Iter 1), (Arg 3)); ((Iter 1), (Arg 4))]; T (8, f)]"
51.88,3089981,1123456,"[V f; U (4, f); ULambda y; U (3, h); T (8, c); Hoist_vars [c]; T (3, w); T (7, x); T (64, c); T (16, f); Lambda_apply y [((Iter 1), (Arg 3)); ((Iter 1), (Arg 4))]; T (1, f)]"
52.37,3083040,1146146,"[V f; U (4, f); ULambda y; U (3, h); T (8, c); Hoist_vars [c]; T (3, w); T (7, x); T (64, c); T (8, f); Lambda_apply y [((Iter 1), (Arg 3)); ((Iter 1), (Arg 4))]; T (2, f)]"
52.36,3102793,1089125,"[V f; U (4, f); ULambda y; U (3, h); T (8, c); Hoist_vars [c]; T (3, w); T (7, x); T (64, c); T (2, f); Lambda_apply y [((Iter 1), (Arg 3)); ((Iter 1), (Arg 4))]; T (8, f)]"
44.45,3681242,1854932,"[V f; U (4, f); ULambda y; U (3, h); T (4, c); Hoist_vars [c]; T (3, w); T (7, x); T (128, c); T (8, f); Lambda_apply y [((Iter 1), (Arg 3)); ((Iter 1), (Arg 4))]; T (2, f)]"
36.48,3672558,2390346,"[V f; U (4, f); ULambda y; U (3, h); T (2, c); Hoist_vars [c]; T (3, w); T (7, x); T (256, c); T (8, f); Lambda_apply y [((Iter 1), (Arg 3)); ((Iter 1), (Arg 4))]; T (2, f)]"
37.24,3669358,2407645,"[V f; U (4, f); ULambda y; U (3, h); T (2, c); Hoist_vars [c]; T (3, w); T (7, x); T (256, c); T (2, f); Lambda_apply y [((Iter 1), (Arg 3)); ((Iter 1), (Arg 4))]; T (8, f)]"
36.98,3670756,2369733,"[V f; U (4, f); ULambda y; U (3, h); T (2, c); Hoist_vars [c]; T (3, w); T (7, x); T (256, c); T (1, f); Lambda_apply y [((Iter 1), (Arg 3)); ((Iter 1), (Arg 4))]; T (16, f)]"
29.93,4998997,2465715,"[V f; U (4, f); ULambda y; U (3, h); T (1, c); Hoist_vars [c]; T (3, w); T (7, x); T (512, c); T (8, f); Lambda_apply y [((Iter 1), (Arg 3)); ((Iter 1), (Arg 4))]; T (2, f)]"
28.38,4984494,2389223,"[V f; U (4, f); ULambda y; U (3, h); T (1, c); Hoist_vars [c]; T (3, w); T (7, x); T (512, c); T (4, f); Lambda_apply y [((Iter 1), (Arg 3)); ((Iter 1), (Arg 4))]; T (4, f)]"
32.01,5013185,2533566,"[V f; U (4, f); ULambda y; U (3, h); T (1, c); Hoist_vars [c]; T (3, w); T (7, x); T (512, c); T (2, f); Lambda_apply y [((Iter 1), (Arg 3)); ((Iter 1), (Arg 4))]; T (8, f)]"
32.29,5010430,2526564,"[V f; U (4, f); ULambda y; U (3, h); T (1, c); Hoist_vars [c]; T (3, w); T (7, x); T (512, c); T (1, f); Lambda_apply y [((Iter 1), (Arg 3)); ((Iter 1), (Arg 4))]; T (16, f)]"
