perf,CACHE_MISS_L1,CACHE_MISS_L2,scheme
50.90,2343120,1823041,"[V f; U (2, f); U (8, y); T (8, c); Hoist_vars [c]; T (3, w); T (3, h); T (56, x); T (7, y); T (8, c); T (4, f); T (1, y)]"
72.17,1122972,537716,"[V f; U (2, f); U (14, y); T (32, c); Hoist_vars [c]; T (3, w); T (3, h); T (56, x); T (2, y); T (2, c); T (4, f); T (2, y)]"
87.89,1301980,89161,"[V f; U (4, f); U (7, y); T (64, c); Hoist_vars [c]; T (3, h); T (14, x); T (3, w); T (1, c); T (2, f); T (4, x); T (1, y); T (8, y)]"
42.08,3052876,91928,"[V f; U (4, f); U (7, y); T (1, c); Hoist_vars [c]; T (3, h); T (8, x); T (3, w); T (64, c); T (2, f); T (7, x); T (8, y); T (1, y)]"
41.49,3046432,90229,"[V f; U (4, f); U (7, y); T (1, c); Hoist_vars [c]; T (3, h); T (8, x); T (3, w); T (64, c); T (2, f); T (7, x); T (2, y); T (4, y)]"
86.68,785822,90075,"[V f; U (4, f); U (7, y); T (32, c); Hoist_vars [c]; T (3, h); T (8, x); T (3, w); T (2, c); T (2, f); T (7, x); T (1, y); T (8, y)]"
82.68,745321,89857,"[V f; U (4, f); U (7, y); T (16, c); Hoist_vars [c]; T (3, h); T (7, x); T (3, w); T (4, c); T (2, f); T (8, x); T (1, y); T (8, y)]"
59.24,1507814,88544,"[V f; U (4, f); U (7, y); T (2, c); Hoist_vars [c]; T (3, h); T (7, x); T (3, w); T (32, c); T (2, f); T (8, x); T (1, y); T (8, y)]"
42.38,860947,88473,"[V f; U (4, f); U (7, y); T (1, c); Hoist_vars [c]; T (3, h); T (2, x); T (3, w); T (64, c); T (2, f); T (28, x); T (4, y); T (2, y)]"
73.38,1022328,87653,"[V f; U (4, f); U (8, y); T (8, c); Hoist_vars [c]; T (3, h); T (4, x); T (3, w); T (8, c); T (2, f); T (14, x); T (7, y); T (1, y)]"
61.47,1547526,90023,"[V f; U (4, f); U (8, y); T (4, c); Hoist_vars [c]; T (3, h); T (4, x); T (3, w); T (16, c); T (2, f); T (14, x); T (1, y); T (7, y)]"
74.01,964809,86063,"[V f; U (4, f); U (8, y); T (8, c); Hoist_vars [c]; T (3, h); T (2, x); T (3, w); T (8, c); T (2, f); T (28, x); T (7, y); T (1, y)]"
74.88,2444796,153772,"[V f; U (2, f); U (4, y); U (3, h); T (32, c); Hoist_vars [c]; T (3, w); T (56, x); T (2, y); T (2, c); T (4, f); T (1, y); T (7, y)]"
79.27,1532973,303515,"[V f; U (2, f); U (7, y); U (3, h); T (32, c); Hoist_vars [c]; T (3, w); T (56, x); T (2, y); T (2, c); T (4, f); T (4, y); T (1, y)]"
28.96,4722016,787579,"[V f; U (2, f); U (14, y); U (3, h); T (1, c); Hoist_vars [c]; T (3, w); T (56, x); T (1, y); T (64, c); T (4, f); T (1, y); T (4, y)]"
71.10,1615130,92958,"[V f; U (4, f); U (4, y); U (3, h); T (4, c); Hoist_vars [c]; T (8, x); T (3, w); T (16, c); T (2, f); T (7, x); T (14, y); T (1, y)]"
78.25,1042809,92977,"[V f; U (4, f); U (4, y); U (3, h); T (8, c); Hoist_vars [c]; T (8, x); T (3, w); T (8, c); T (2, f); T (7, x); T (7, y); T (2, y)]"
90.96,2057171,90446,"[V f; U (4, f); U (4, y); U (3, h); T (64, c); Hoist_vars [c]; T (8, x); T (3, w); T (1, c); T (2, f); T (7, x); T (1, y); T (14, y)]"
86.78,941565,91853,"[V f; U (4, f); U (4, y); U (3, h); T (32, c); Hoist_vars [c]; T (4, x); T (3, w); T (2, c); T (2, f); T (14, x); T (14, y); T (1, y)]"
46.12,2538957,124115,"[V f; U (4, f); U (7, y); U (3, h); T (2, c); Hoist_vars [c]; T (56, x); T (3, w); T (32, c); T (2, f); T (1, x); T (8, y); T (1, y)]"
82.46,697809,87925,"[V f; U (4, f); U (7, y); U (3, h); T (32, c); Hoist_vars [c]; T (7, x); T (3, w); T (2, c); T (2, f); T (8, x); T (8, y); T (1, y)]"
44.96,2709040,86778,"[V f; U (4, f); U (7, y); U (3, h); T (1, c); Hoist_vars [c]; T (7, x); T (3, w); T (64, c); T (2, f); T (8, x); T (4, y); T (2, y)]"
84.57,1281629,89326,"[V f; U (4, f); U (7, y); U (3, h); T (64, c); Hoist_vars [c]; T (7, x); T (3, w); T (1, c); T (2, f); T (8, x); T (2, y); T (4, y)]"
80.87,805632,86179,"[V f; U (4, f); U (7, y); U (3, h); T (16, c); Hoist_vars [c]; T (2, x); T (3, w); T (4, c); T (2, f); T (28, x); T (1, y); T (8, y)]"
83.40,1334229,84642,"[V f; U (4, f); U (7, y); U (3, h); T (16, c); Hoist_vars [c]; T (1, x); T (3, w); T (4, c); T (2, f); T (56, x); T (1, y); T (8, y)]"
68.87,532477,116086,"[V f; U (4, f); U (8, y); U (3, h); T (16, c); Hoist_vars [c]; T (56, x); T (3, w); T (4, c); T (2, f); T (1, x); T (1, y); T (7, y)]"
74.81,544213,90433,"[V f; U (4, f); U (8, y); U (3, h); T (16, c); Hoist_vars [c]; T (28, x); T (3, w); T (4, c); T (2, f); T (2, x); T (1, y); T (7, y)]"
57.68,1763533,90924,"[V f; U (4, f); U (8, y); U (3, h); T (4, c); Hoist_vars [c]; T (7, x); T (3, w); T (16, c); T (2, f); T (8, x); T (7, y); T (1, y)]"
76.02,586301,89889,"[V f; U (4, f); U (8, y); U (3, h); T (16, c); Hoist_vars [c]; T (7, x); T (3, w); T (4, c); T (2, f); T (8, x); T (1, y); T (7, y)]"
74.18,593921,86958,"[V f; U (4, f); U (8, y); U (3, h); T (16, c); Hoist_vars [c]; T (4, x); T (3, w); T (4, c); T (2, f); T (14, x); T (7, y); T (1, y)]"
81.87,653412,78809,"[V f; U (4, f); U (4, y); U (3, w); T (16, c); Hoist_vars [c]; T (56, x); T (3, h); T (4, c); T (2, f); T (1, x); T (14, y); T (1, y)]"
46.77,2474431,77410,"[V f; U (4, f); U (4, y); U (3, w); T (2, c); Hoist_vars [c]; T (56, x); T (3, h); T (32, c); T (2, f); T (1, x); T (1, y); T (14, y)]"
46.61,2514062,76928,"[V f; U (4, f); U (4, y); U (3, w); T (2, c); Hoist_vars [c]; T (28, x); T (3, h); T (32, c); T (2, f); T (2, x); T (7, y); T (2, y)]"
42.92,4941863,81492,"[V f; U (4, f); U (4, y); U (3, w); T (1, c); Hoist_vars [c]; T (28, x); T (3, h); T (64, c); T (2, f); T (2, x); T (2, y); T (7, y)]"
58.72,2084876,94215,"[V f; U (4, f); U (4, y); U (3, w); T (1, c); Hoist_vars [c]; T (8, x); T (3, h); T (64, c); T (2, f); T (7, x); T (14, y); T (1, y)]"
79.56,1010220,90016,"[V f; U (4, f); U (4, y); U (3, w); T (8, c); Hoist_vars [c]; T (4, x); T (3, h); T (8, c); T (2, f); T (14, x); T (2, y); T (7, y)]"
79.84,1004360,91377,"[V f; U (4, f); U (4, y); U (3, w); T (8, c); Hoist_vars [c]; T (4, x); T (3, h); T (8, c); T (2, f); T (14, x); T (1, y); T (14, y)]"
61.97,731884,88129,"[V f; U (4, f); U (4, y); U (3, w); T (1, c); Hoist_vars [c]; T (4, x); T (3, h); T (64, c); T (2, f); T (14, x); T (1, y); T (14, y)]"
80.05,2264961,85724,"[V f; U (4, f); U (4, y); U (3, w); T (8, c); Hoist_vars [c]; T (1, x); T (3, h); T (8, c); T (2, f); T (56, x); T (7, y); T (2, y)]"
46.85,2456858,98074,"[V f; U (4, f); U (7, y); U (3, w); T (2, c); Hoist_vars [c]; T (56, x); T (3, h); T (32, c); T (2, f); T (1, x); T (2, y); T (4, y)]"
78.08,708983,82143,"[V f; U (4, f); U (7, y); U (3, w); T (16, c); Hoist_vars [c]; T (28, x); T (3, h); T (4, c); T (2, f); T (2, x); T (2, y); T (4, y)]"
51.96,1741557,88247,"[V f; U (4, f); U (7, y); U (3, w); T (2, c); Hoist_vars [c]; T (8, x); T (3, h); T (32, c); T (2, f); T (7, x); T (2, y); T (4, y)]"
84.25,1362991,89187,"[V f; U (4, f); U (7, y); U (3, w); T (64, c); Hoist_vars [c]; T (8, x); T (3, h); T (1, c); T (2, f); T (7, x); T (1, y); T (8, y)]"
84.39,1329965,89284,"[V f; U (4, f); U (7, y); U (3, w); T (64, c); Hoist_vars [c]; T (4, x); T (3, h); T (1, c); T (2, f); T (14, x); T (2, y); T (4, y)]"
44.56,1687164,90733,"[V f; U (4, f); U (7, y); U (3, w); T (1, c); Hoist_vars [c]; T (4, x); T (3, h); T (64, c); T (2, f); T (14, x); T (1, y); T (8, y)]"
80.78,905676,88345,"[V f; U (4, f); U (7, y); U (3, w); T (16, c); Hoist_vars [c]; T (2, x); T (3, h); T (4, c); T (2, f); T (28, x); T (2, y); T (4, y)]"
77.75,846770,89078,"[V f; U (4, f); U (8, y); U (3, w); T (32, c); Hoist_vars [c]; T (28, x); T (3, h); T (2, c); T (2, f); T (2, x); T (7, y); T (1, y)]"
29.83,4910166,83482,"[V f; U (4, f); U (8, y); U (3, w); T (1, c); Hoist_vars [c]; T (28, x); T (3, h); T (64, c); T (2, f); T (2, x); T (7, y); T (1, y)]"
34.07,3567395,101691,"[V f; U (4, f); U (8, y); U (3, w); T (1, c); Hoist_vars [c]; T (14, x); T (3, h); T (64, c); T (2, f); T (4, x); T (7, y); T (1, y)]"
79.40,938740,90266,"[V f; U (4, f); U (8, y); U (3, w); T (32, c); Hoist_vars [c]; T (8, x); T (3, h); T (2, c); T (2, f); T (7, x); T (7, y); T (1, y)]"
78.69,916545,88764,"[V f; U (4, f); U (8, y); U (3, w); T (32, c); Hoist_vars [c]; T (7, x); T (3, h); T (2, c); T (2, f); T (8, x); T (7, y); T (1, y)]"
51.86,1125305,84990,"[V f; U (4, f); U (8, y); U (3, w); T (2, c); Hoist_vars [c]; T (1, x); T (3, h); T (32, c); T (2, f); T (56, x); T (1, y); T (7, y)]"
28.41,2895205,2588411,"[V f; U (2, f); ULambda y; T (2, c); Hoist_vars [c]; T (3, w); T (3, h); T (56, x); Lambda_apply y [((Iter 2), (Arg 10)); ((Iter 3), (Arg 12))]; T (32, c); T (4, f); T (1, y)]"
83.07,673364,101730,"[V f; U (4, f); ULambda y; T (16, c); Hoist_vars [c]; T (3, h); T (56, x); T (3, w); T (4, c); T (2, f); T (1, x); T (2, y); Lambda_apply y [((Iter 2), (Arg 5)); ((Iter 3), (Arg 6))]]"
83.67,780311,90956,"[V f; U (4, f); ULambda y; T (16, c); Hoist_vars [c]; T (3, h); T (8, x); T (3, w); T (4, c); T (2, f); T (7, x); Lambda_apply y [((Iter 2), (Arg 5)); ((Iter 3), (Arg 6))]; T (2, y)]"
85.14,778346,92895,"[V f; U (4, f); ULambda y; T (16, c); Hoist_vars [c]; T (3, h); T (8, x); T (3, w); T (4, c); T (2, f); T (7, x); T (2, y); Lambda_apply y [((Iter 2), (Arg 5)); ((Iter 3), (Arg 6))]]"
87.69,815929,91890,"[V f; U (4, f); ULambda y; T (32, c); Hoist_vars [c]; T (3, h); T (7, x); T (3, w); T (2, c); T (2, f); T (8, x); Lambda_apply y [((Iter 2), (Arg 5)); ((Iter 3), (Arg 6))]; T (2, y)]"
84.33,753793,90586,"[V f; U (4, f); ULambda y; T (16, c); Hoist_vars [c]; T (3, h); T (4, x); T (3, w); T (4, c); T (2, f); T (14, x); Lambda_apply y [((Iter 2), (Arg 5)); ((Iter 3), (Arg 6))]; T (2, y)]"
84.35,992604,90817,"[V f; U (4, f); ULambda y; T (16, c); Hoist_vars [c]; T (3, h); T (2, x); T (3, w); T (4, c); T (2, f); T (28, x); T (2, y); Lambda_apply y [((Iter 2), (Arg 5)); ((Iter 3), (Arg 6))]]"
62.25,1825341,99420,"[V f; U (4, f); ULambda y; T (4, c); Hoist_vars [c]; T (3, h); T (56, x); T (3, w); T (16, c); T (2, f); T (1, x); Lambda_apply y [((Iter 7), (Arg 5)); ((Iter 3), (Arg 7))]; T (1, y)]"
65.90,1836909,91407,"[V f; U (4, f); ULambda y; T (4, c); Hoist_vars [c]; T (3, h); T (28, x); T (3, w); T (16, c); T (2, f); T (2, x); T (1, y); Lambda_apply y [((Iter 7), (Arg 5)); ((Iter 3), (Arg 7))]]"
52.38,2804316,86317,"[V f; U (4, f); ULambda y; T (1, c); Hoist_vars [c]; T (3, h); T (8, x); T (3, w); T (64, c); T (2, f); T (7, x); Lambda_apply y [((Iter 7), (Arg 5)); ((Iter 3), (Arg 7))]; T (1, y)]"
87.32,776390,87454,"[V f; U (4, f); ULambda y; T (32, c); Hoist_vars [c]; T (3, h); T (14, x); T (3, w); T (2, c); T (2, f); T (4, x); T (2, y); Lambda_apply y [((Iter 4), (Arg 5)); ((Iter 1), (Arg 8))]]"
87.42,839007,89037,"[V f; U (4, f); ULambda y; T (32, c); Hoist_vars [c]; T (3, h); T (7, x); T (3, w); T (2, c); T (2, f); T (8, x); Lambda_apply y [((Iter 4), (Arg 5)); ((Iter 1), (Arg 8))]; T (2, y)]"
54.52,2455375,86710,"[V f; U (4, f); ULambda y; T (1, c); Hoist_vars [c]; T (3, h); T (7, x); T (3, w); T (64, c); T (2, f); T (8, x); Lambda_apply y [((Iter 4), (Arg 5)); ((Iter 1), (Arg 8))]; T (2, y)]"
57.02,1534338,87557,"[V f; U (4, f); ULambda y; T (1, c); Hoist_vars [c]; T (3, h); T (1, x); T (3, w); T (64, c); T (2, f); T (56, x); T (2, y); Lambda_apply y [((Iter 4), (Arg 5)); ((Iter 1), (Arg 8))]]"
74.58,1291114,96423,"[V f; U (4, f); ULambda y; T (8, c); Hoist_vars [c]; T (3, h); T (28, x); T (3, w); T (8, c); T (2, f); T (2, x); T (1, y); Lambda_apply y [((Iter 7), (Arg 6)); ((Iter 2), (Arg 7))]]"
45.19,3567010,90782,"[V f; U (4, f); ULambda y; T (1, c); Hoist_vars [c]; T (3, h); T (14, x); T (3, w); T (64, c); T (2, f); T (4, x); Lambda_apply y [((Iter 7), (Arg 6)); ((Iter 2), (Arg 7))]; T (1, y)]"
85.73,767021,92770,"[V f; U (4, f); ULambda y; T (16, c); Hoist_vars [c]; T (3, h); T (8, x); T (3, w); T (4, c); T (2, f); T (7, x); Lambda_apply y [((Iter 7), (Arg 6)); ((Iter 2), (Arg 7))]; T (1, y)]"
89.06,1416167,100778,"[V f; U (4, f); ULambda y; T (64, c); Hoist_vars [c]; T (3, h); T (4, x); T (3, w); T (1, c); T (2, f); T (14, x); T (1, y); Lambda_apply y [((Iter 7), (Arg 6)); ((Iter 2), (Arg 7))]]"
85.93,869509,99108,"[V f; U (4, f); ULambda y; T (32, c); Hoist_vars [c]; T (3, h); T (4, x); T (3, w); T (2, c); T (2, f); T (14, x); T (1, y); Lambda_apply y [((Iter 7), (Arg 6)); ((Iter 2), (Arg 7))]]"
86.68,735763,90310,"[V f; U (4, f); ULambda y; T (16, c); Hoist_vars [c]; T (3, h); T (4, x); T (3, w); T (4, c); T (2, f); T (14, x); T (1, y); Lambda_apply y [((Iter 7), (Arg 6)); ((Iter 2), (Arg 7))]]"
83.53,763824,89769,"[V f; U (4, f); ULambda y; T (16, c); Hoist_vars [c]; T (3, h); T (7, x); T (3, w); T (4, c); T (2, f); T (8, x); T (4, y); Lambda_apply y [((Iter 1), (Arg 6)); ((Iter 1), (Arg 8))]]"
82.18,740036,89980,"[V f; U (4, f); ULambda y; T (16, c); Hoist_vars [c]; T (3, h); T (4, x); T (3, w); T (4, c); T (2, f); T (14, x); Lambda_apply y [((Iter 1), (Arg 6)); ((Iter 1), (Arg 8))]; T (4, y)]"
76.41,975902,87734,"[V f; U (4, f); ULambda y; T (8, c); Hoist_vars [c]; T (3, h); T (4, x); T (3, w); T (8, c); T (2, f); T (14, x); Lambda_apply y [((Iter 1), (Arg 6)); ((Iter 1), (Arg 8))]; T (4, y)]"
86.72,869787,88460,"[V f; U (4, f); ULambda y; T (32, c); Hoist_vars [c]; T (3, h); T (4, x); T (3, w); T (2, c); T (2, f); T (14, x); T (4, y); Lambda_apply y [((Iter 1), (Arg 6)); ((Iter 1), (Arg 8))]]"
81.96,873905,88462,"[V f; U (4, f); ULambda y; T (16, c); Hoist_vars [c]; T (3, h); T (2, x); T (3, w); T (4, c); T (2, f); T (28, x); T (4, y); Lambda_apply y [((Iter 1), (Arg 6)); ((Iter 1), (Arg 8))]]"
55.88,1277486,89607,"[V f; U (4, f); ULambda y; T (2, c); Hoist_vars [c]; T (3, h); T (1, x); T (3, w); T (32, c); T (2, f); T (56, x); T (4, y); Lambda_apply y [((Iter 1), (Arg 6)); ((Iter 1), (Arg 8))]]"
61.33,2593533,576805,"[V f; U (2, f); ULambda y; U (3, h); T (8, c); Hoist_vars [c]; T (3, w); T (56, x); Lambda_apply y [((Iter 1), (Arg 4)); ((Iter 2), (Arg 5))]; T (8, c); T (4, f); T (4, y); T (1, y)]"
75.04,2132866,482135,"[V f; U (2, f); ULambda y; U (3, h); T (32, c); Hoist_vars [c]; T (3, w); T (56, x); T (4, y); T (2, c); T (4, f); Lambda_apply y [((Iter 1), (Arg 4)); ((Iter 2), (Arg 5))]; T (1, y)]"
85.08,1916934,95019,"[V f; U (2, f); ULambda y; U (3, h); T (64, c); Hoist_vars [c]; T (3, w); T (56, x); T (1, y); T (1, c); T (4, f); Lambda_apply y [((Iter 1), (Arg 4)); ((Iter 2), (Arg 5))]; T (4, y)]"
70.51,2606386,96776,"[V f; U (2, f); ULambda y; U (3, h); T (8, c); Hoist_vars [c]; T (3, w); T (56, x); T (1, y); T (8, c); T (4, f); Lambda_apply y [((Iter 1), (Arg 4)); ((Iter 2), (Arg 5))]; T (4, y)]"
59.54,3814954,94535,"[V f; U (2, f); ULambda y; U (3, h); T (4, c); Hoist_vars [c]; T (3, w); T (56, x); T (1, y); T (16, c); T (4, f); T (4, y); Lambda_apply y [((Iter 1), (Arg 4)); ((Iter 2), (Arg 5))]]"
31.62,4741945,1938443,"[V f; U (2, f); ULambda y; U (3, h); T (1, c); Hoist_vars [c]; T (3, w); T (56, x); T (4, y); T (64, c); T (4, f); T (1, y); Lambda_apply y [((Iter 2), (Arg 4)); ((Iter 1), (Arg 6))]]"
51.64,4739981,268611,"[V f; U (2, f); ULambda y; U (3, h); T (1, c); Hoist_vars [c]; T (3, w); T (56, x); T (2, y); T (64, c); T (4, f); Lambda_apply y [((Iter 2), (Arg 4)); ((Iter 1), (Arg 6))]; T (2, y)]"
80.48,1325304,300336,"[V f; U (2, f); ULambda y; U (3, h); T (64, c); Hoist_vars [c]; T (3, w); T (56, x); Lambda_apply y [((Iter 1), (Arg 4)); ((Iter 3), (Arg 8))]; T (1, c); T (4, f); T (2, y); T (1, y)]"
78.30,1651962,133727,"[V f; U (2, f); ULambda y; U (3, h); T (16, c); Hoist_vars [c]; T (3, w); T (56, x); T (1, y); T (4, c); T (4, f); T (1, y); Lambda_apply y [((Iter 5), (Arg 4)); ((Iter 4), (Arg 9))]]"
36.19,4801478,433915,"[V f; U (2, f); ULambda y; U (3, h); T (1, c); Hoist_vars [c]; T (3, w); T (56, x); T (1, y); T (64, c); T (4, f); Lambda_apply y [((Iter 1), (Arg 4)); ((Iter 2), (Arg 12))]; T (2, y)]"
69.85,1705385,205521,"[V f; U (2, f); ULambda y; U (3, h); T (32, c); Hoist_vars [c]; T (3, w); T (56, x); T (1, y); T (2, c); T (4, f); T (1, y); Lambda_apply y [((Iter 7), (Arg 4)); ((Iter 2), (Arg 14))]]"
51.28,5077142,119240,"[V f; U (2, f); ULambda y; U (3, h); T (1, c); Hoist_vars [c]; T (3, w); T (56, x); T (1, y); T (64, c); T (4, f); T (2, y); Lambda_apply y [((Iter 4), (Arg 5)); ((Iter 1), (Arg 8))]]"
81.12,1332995,298108,"[V f; U (2, f); ULambda y; U (3, h); T (64, c); Hoist_vars [c]; T (3, w); T (56, x); T (4, y); T (1, c); T (4, f); T (1, y); Lambda_apply y [((Iter 1), (Arg 5)); ((Iter 1), (Arg 9))]]"
64.84,2067763,287534,"[V f; U (2, f); ULambda y; U (3, h); T (8, c); Hoist_vars [c]; T (3, w); T (56, x); T (1, y); T (8, c); T (4, f); T (1, y); Lambda_apply y [((Iter 4), (Arg 5)); ((Iter 3), (Arg 12))]]"
72.96,1598895,366337,"[V f; U (2, f); ULambda y; U (3, h); T (16, c); Hoist_vars [c]; T (3, w); T (56, x); Lambda_apply y [((Iter 1), (Arg 6)); ((Iter 1), (Arg 8))]; T (4, c); T (4, f); T (4, y); T (1, y)]"
71.51,1532641,546603,"[V f; U (2, f); ULambda y; U (3, h); T (32, c); Hoist_vars [c]; T (3, w); T (56, x); Lambda_apply y [((Iter 3), (Arg 6)); ((Iter 1), (Arg 10))]; T (2, c); T (4, f); T (2, y); T (1, y)]"
78.23,1534480,339931,"[V f; U (2, f); ULambda y; U (3, h); T (32, c); Hoist_vars [c]; T (3, w); T (56, x); T (2, y); T (2, c); T (4, f); Lambda_apply y [((Iter 3), (Arg 6)); ((Iter 1), (Arg 10))]; T (1, y)]"
79.99,1535449,132330,"[V f; U (2, f); ULambda y; U (3, h); T (32, c); Hoist_vars [c]; T (3, w); T (56, x); T (1, y); T (2, c); T (4, f); T (2, y); Lambda_apply y [((Iter 3), (Arg 6)); ((Iter 1), (Arg 10))]]"
53.89,3143490,338562,"[V f; U (2, f); ULambda y; U (3, h); T (4, c); Hoist_vars [c]; T (3, w); T (56, x); T (1, y); T (16, c); T (4, f); Lambda_apply y [((Iter 1), (Arg 6)); ((Iter 2), (Arg 11))]; T (2, y)]"
68.81,1375636,535232,"[V f; U (2, f); ULambda y; U (3, h); T (32, c); Hoist_vars [c]; T (3, w); T (56, x); Lambda_apply y [((Iter 5), (Arg 6)); ((Iter 2), (Arg 13))]; T (2, c); T (4, f); T (1, y); T (1, y)]"
26.57,2955428,2337067,"[V f; U (2, f); ULambda y; U (3, h); T (2, c); Hoist_vars [c]; T (3, w); T (56, x); Lambda_apply y [((Iter 5), (Arg 6)); ((Iter 2), (Arg 13))]; T (32, c); T (4, f); T (1, y); T (1, y)]"
42.92,2890401,321155,"[V f; U (2, f); ULambda y; U (3, h); T (2, c); Hoist_vars [c]; T (3, w); T (56, x); T (1, y); T (32, c); T (4, f); Lambda_apply y [((Iter 2), (Arg 7)); ((Iter 1), (Arg 14))]; T (2, y)]"
68.61,1374207,599816,"[V f; U (2, f); ULambda y; U (3, h); T (16, c); Hoist_vars [c]; T (3, w); T (56, x); T (2, y); T (4, c); T (4, f); Lambda_apply y [((Iter 1), (Arg 8)); ((Iter 2), (Arg 10))]; T (1, y)]"
28.12,2904066,1838736,"[V f; U (2, f); ULambda y; U (3, h); T (2, c); Hoist_vars [c]; T (3, w); T (56, x); Lambda_apply y [((Iter 1), (Arg 8)); ((Iter 2), (Arg 10))]; T (32, c); T (4, f); T (1, y); T (2, y)]"
69.42,1369431,613420,"[V f; U (2, f); ULambda y; U (3, h); T (16, c); Hoist_vars [c]; T (3, w); T (56, x); T (2, y); T (4, c); T (4, f); T (1, y); Lambda_apply y [((Iter 2), (Arg 8)); ((Iter 1), (Arg 12))]]"
33.79,2985102,2650143,"[V f; U (2, f); ULambda y; U (3, h); T (4, c); Hoist_vars [c]; T (3, w); T (56, x); Lambda_apply y [((Iter 2), (Arg 9)); ((Iter 1), (Arg 10))]; T (16, c); T (4, f); T (2, y); T (1, y)]"
62.05,1341162,834410,"[V f; U (2, f); ULambda y; U (3, h); T (16, c); Hoist_vars [c]; T (3, w); T (56, x); Lambda_apply y [((Iter 2), (Arg 9)); ((Iter 1), (Arg 10))]; T (4, c); T (4, f); T (1, y); T (2, y)]"
57.54,3113810,239666,"[V f; U (2, f); ULambda y; U (3, h); T (4, c); Hoist_vars [c]; T (3, w); T (56, x); T (1, y); T (16, c); T (4, f); T (2, y); Lambda_apply y [((Iter 2), (Arg 9)); ((Iter 1), (Arg 10))]]"
77.66,1394871,168691,"[V f; U (2, f); ULambda y; U (3, h); T (16, c); Hoist_vars [c]; T (3, w); T (56, x); T (1, y); T (4, c); T (4, f); Lambda_apply y [((Iter 5), (Arg 9)); ((Iter 1), (Arg 11))]; T (1, y)]"
71.24,1252464,222445,"[V f; U (2, f); ULambda y; U (3, h); T (16, c); Hoist_vars [c]; T (3, w); T (56, x); T (1, y); T (4, c); T (4, f); Lambda_apply y [((Iter 2), (Arg 10)); ((Iter 3), (Arg 12))]; T (1, y)]"
76.30,917556,175476,"[V f; U (2, f); ULambda y; U (3, h); T (64, c); Hoist_vars [c]; T (3, w); T (56, x); T (1, y); T (1, c); T (4, f); T (1, y); Lambda_apply y [((Iter 4), (Arg 11)); ((Iter 1), (Arg 12))]]"
80.86,1030366,91447,"[V f; U (4, f); ULambda y; U (3, h); T (8, c); Hoist_vars [c]; T (8, x); T (3, w); T (8, c); T (2, f); T (7, x); T (8, y); Lambda_apply y [((Iter 1), (Arg 3)); ((Iter 1), (Arg 4))]]"
66.74,1016089,91608,"[V f; U (4, f); ULambda y; U (3, h); T (2, c); Hoist_vars [c]; T (7, x); T (3, w); T (32, c); T (2, f); T (8, x); T (8, y); Lambda_apply y [((Iter 1), (Arg 3)); ((Iter 1), (Arg 4))]]"
81.65,1013987,89624,"[V f; U (4, f); ULambda y; U (3, h); T (8, c); Hoist_vars [c]; T (4, x); T (3, w); T (8, c); T (2, f); T (14, x); T (8, y); Lambda_apply y [((Iter 1), (Arg 3)); ((Iter 1), (Arg 4))]]"
69.13,979827,97250,"[V f; U (4, f); ULambda y; U (3, h); T (2, c); Hoist_vars [c]; T (4, x); T (3, w); T (32, c); T (2, f); T (14, x); T (8, y); Lambda_apply y [((Iter 1), (Arg 3)); ((Iter 1), (Arg 4))]]"
86.91,847445,90491,"[V f; U (4, f); ULambda y; U (3, h); T (16, c); Hoist_vars [c]; T (4, x); T (3, w); T (4, c); T (2, f); T (14, x); Lambda_apply y [((Iter 1), (Arg 3)); ((Iter 1), (Arg 5))]; T (7, y)]"
73.75,1105764,90996,"[V f; U (4, f); ULambda y; U (3, h); T (4, c); Hoist_vars [c]; T (4, x); T (3, w); T (16, c); T (2, f); T (14, x); T (7, y); Lambda_apply y [((Iter 1), (Arg 3)); ((Iter 1), (Arg 5))]]"
88.63,1262785,88328,"[V f; U (4, f); ULambda y; U (3, h); T (16, c); Hoist_vars [c]; T (2, x); T (3, w); T (4, c); T (2, f); T (28, x); T (7, y); Lambda_apply y [((Iter 1), (Arg 3)); ((Iter 1), (Arg 5))]]"
64.22,2487519,88540,"[V f; U (4, f); ULambda y; U (3, h); T (4, c); Hoist_vars [c]; T (28, x); T (3, w); T (16, c); T (2, f); T (2, x); Lambda_apply y [((Iter 7), (Arg 3)); ((Iter 1), (Arg 7))]; T (2, y)]"
46.33,5169779,81902,"[V f; U (4, f); ULambda y; U (3, h); T (1, c); Hoist_vars [c]; T (28, x); T (3, w); T (64, c); T (2, f); T (2, x); Lambda_apply y [((Iter 7), (Arg 3)); ((Iter 1), (Arg 7))]; T (2, y)]"
66.59,2183268,91795,"[V f; U (4, f); ULambda y; U (3, h); T (4, c); Hoist_vars [c]; T (14, x); T (3, w); T (16, c); T (2, f); T (4, x); Lambda_apply y [((Iter 7), (Arg 3)); ((Iter 1), (Arg 7))]; T (2, y)]"
60.43,1590079,86919,"[V f; U (4, f); ULambda y; U (3, h); T (1, c); Hoist_vars [c]; T (8, x); T (3, w); T (64, c); T (2, f); T (7, x); T (2, y); Lambda_apply y [((Iter 7), (Arg 3)); ((Iter 1), (Arg 7))]]"
88.06,1033290,89584,"[V f; U (4, f); ULambda y; U (3, h); T (32, c); Hoist_vars [c]; T (4, x); T (3, w); T (2, c); T (2, f); T (14, x); T (2, y); Lambda_apply y [((Iter 7), (Arg 3)); ((Iter 1), (Arg 7))]]"
84.98,916501,89504,"[V f; U (4, f); ULambda y; U (3, h); T (16, c); Hoist_vars [c]; T (4, x); T (3, w); T (4, c); T (2, f); T (14, x); T (2, y); Lambda_apply y [((Iter 7), (Arg 3)); ((Iter 1), (Arg 7))]]"
54.57,1302663,82841,"[V f; U (4, f); ULambda y; U (3, h); T (1, c); Hoist_vars [c]; T (2, x); T (3, w); T (64, c); T (2, f); T (28, x); Lambda_apply y [((Iter 7), (Arg 3)); ((Iter 1), (Arg 7))]; T (2, y)]"
59.65,2315789,110266,"[V f; U (4, f); ULambda y; U (3, h); T (4, c); Hoist_vars [c]; T (56, x); T (3, w); T (16, c); T (2, f); T (1, x); Lambda_apply y [((Iter 2), (Arg 3)); ((Iter 1), (Arg 8))]; T (4, y)]"
78.21,636543,126776,"[V f; U (4, f); ULambda y; U (3, h); T (32, c); Hoist_vars [c]; T (56, x); T (3, w); T (2, c); T (2, f); T (1, x); T (4, y); Lambda_apply y [((Iter 2), (Arg 3)); ((Iter 1), (Arg 8))]]"
79.28,624154,86990,"[V f; U (4, f); ULambda y; U (3, h); T (16, c); Hoist_vars [c]; T (28, x); T (3, w); T (4, c); T (2, f); T (2, x); T (4, y); Lambda_apply y [((Iter 2), (Arg 3)); ((Iter 1), (Arg 8))]]"
82.87,766522,89778,"[V f; U (4, f); ULambda y; U (3, h); T (32, c); Hoist_vars [c]; T (8, x); T (3, w); T (2, c); T (2, f); T (7, x); Lambda_apply y [((Iter 2), (Arg 3)); ((Iter 1), (Arg 8))]; T (4, y)]"
80.82,1795366,87837,"[V f; U (4, f); ULambda y; U (3, h); T (64, c); Hoist_vars [c]; T (1, x); T (3, w); T (1, c); T (2, f); T (56, x); Lambda_apply y [((Iter 2), (Arg 3)); ((Iter 1), (Arg 8))]; T (4, y)]"
73.50,1058686,90852,"[V f; U (4, f); ULambda y; U (3, h); T (4, c); Hoist_vars [c]; T (4, x); T (3, w); T (16, c); T (2, f); T (14, x); T (4, y); Lambda_apply y [((Iter 1), (Arg 4)); ((Iter 2), (Arg 5))]]"
88.24,568049,91911,"[V f; U (4, f); ULambda y; U (3, h); T (32, c); Hoist_vars [c]; T (56, x); T (3, w); T (2, c); T (2, f); T (1, x); Lambda_apply y [((Iter 2), (Arg 4)); ((Iter 1), (Arg 6))]; T (4, y)]"
81.34,638490,95479,"[V f; U (4, f); ULambda y; U (3, h); T (16, c); Hoist_vars [c]; T (56, x); T (3, w); T (4, c); T (2, f); T (1, x); Lambda_apply y [((Iter 2), (Arg 4)); ((Iter 1), (Arg 6))]; T (4, y)]"
74.72,1191134,90996,"[V f; U (4, f); ULambda y; U (3, h); T (8, c); Hoist_vars [c]; T (14, x); T (3, w); T (8, c); T (2, f); T (4, x); T (4, y); Lambda_apply y [((Iter 2), (Arg 4)); ((Iter 1), (Arg 6))]]"
77.55,1051276,90284,"[V f; U (4, f); ULambda y; U (3, h); T (8, c); Hoist_vars [c]; T (7, x); T (3, w); T (8, c); T (2, f); T (8, x); T (4, y); Lambda_apply y [((Iter 2), (Arg 4)); ((Iter 1), (Arg 6))]]"
77.33,920979,92504,"[V f; U (4, f); ULambda y; U (3, h); T (8, c); Hoist_vars [c]; T (4, x); T (3, w); T (8, c); T (2, f); T (14, x); T (4, y); Lambda_apply y [((Iter 2), (Arg 4)); ((Iter 1), (Arg 6))]]"
86.82,1789319,92238,"[V f; U (4, f); ULambda y; U (3, h); T (64, c); Hoist_vars [c]; T (2, x); T (3, w); T (1, c); T (2, f); T (28, x); T (4, y); Lambda_apply y [((Iter 2), (Arg 4)); ((Iter 1), (Arg 6))]]"
84.68,685182,89428,"[V f; U (4, f); ULambda y; U (3, h); T (16, c); Hoist_vars [c]; T (8, x); T (3, w); T (4, c); T (2, f); T (7, x); T (1, y); Lambda_apply y [((Iter 7), (Arg 4)); ((Iter 4), (Arg 7))]]"
75.66,1051849,90536,"[V f; U (4, f); ULambda y; U (3, h); T (8, c); Hoist_vars [c]; T (7, x); T (3, w); T (8, c); T (2, f); T (8, x); T (1, y); Lambda_apply y [((Iter 7), (Arg 4)); ((Iter 4), (Arg 7))]]"
75.39,1273612,110718,"[V f; U (4, f); ULambda y; U (3, h); T (64, c); Hoist_vars [c]; T (56, x); T (3, w); T (1, c); T (2, f); T (1, x); T (2, y); Lambda_apply y [((Iter 1), (Arg 4)); ((Iter 3), (Arg 8))]]"
38.64,2697512,97774,"[V f; U (4, f); ULambda y; U (3, h); T (1, c); Hoist_vars [c]; T (7, x); T (3, w); T (64, c); T (2, f); T (8, x); Lambda_apply y [((Iter 1), (Arg 4)); ((Iter 3), (Arg 8))]; T (2, y)]"
77.09,610712,90577,"[V f; U (4, f); ULambda y; U (3, h); T (16, c); Hoist_vars [c]; T (7, x); T (3, w); T (4, c); T (2, f); T (8, x); T (2, y); Lambda_apply y [((Iter 1), (Arg 4)); ((Iter 3), (Arg 8))]]"
77.85,974213,84836,"[V f; U (4, f); ULambda y; U (3, h); T (32, c); Hoist_vars [c]; T (2, x); T (3, w); T (2, c); T (2, f); T (28, x); T (2, y); Lambda_apply y [((Iter 1), (Arg 4)); ((Iter 3), (Arg 8))]]"
38.33,961814,91054,"[V f; U (4, f); ULambda y; U (3, h); T (1, c); Hoist_vars [c]; T (2, x); T (3, w); T (64, c); T (2, f); T (28, x); T (2, y); Lambda_apply y [((Iter 1), (Arg 4)); ((Iter 3), (Arg 8))]]"
47.01,2562638,90361,"[V f; U (4, f); ULambda y; U (3, h); T (2, c); Hoist_vars [c]; T (56, x); T (3, w); T (32, c); T (2, f); T (1, x); T (2, y); Lambda_apply y [((Iter 2), (Arg 5)); ((Iter 3), (Arg 6))]]"
89.12,1545278,100810,"[V f; U (4, f); ULambda y; U (3, h); T (64, c); Hoist_vars [c]; T (28, x); T (3, w); T (1, c); T (2, f); T (2, x); Lambda_apply y [((Iter 2), (Arg 5)); ((Iter 3), (Arg 6))]; T (2, y)]"
72.79,1273058,101553,"[V f; U (4, f); ULambda y; U (3, h); T (8, c); Hoist_vars [c]; T (28, x); T (3, w); T (8, c); T (2, f); T (2, x); Lambda_apply y [((Iter 2), (Arg 5)); ((Iter 3), (Arg 6))]; T (2, y)]"
87.18,686039,91576,"[V f; U (4, f); ULambda y; U (3, h); T (32, c); Hoist_vars [c]; T (14, x); T (3, w); T (2, c); T (2, f); T (4, x); Lambda_apply y [((Iter 2), (Arg 5)); ((Iter 3), (Arg 6))]; T (2, y)]"
75.93,1126440,89881,"[V f; U (4, f); ULambda y; U (3, h); T (8, c); Hoist_vars [c]; T (8, x); T (3, w); T (8, c); T (2, f); T (7, x); T (2, y); Lambda_apply y [((Iter 2), (Arg 5)); ((Iter 3), (Arg 6))]]"
56.33,1705464,90316,"[V f; U (4, f); ULambda y; U (3, h); T (2, c); Hoist_vars [c]; T (8, x); T (3, w); T (32, c); T (2, f); T (7, x); T (2, y); Lambda_apply y [((Iter 2), (Arg 5)); ((Iter 3), (Arg 6))]]"
85.38,711722,89954,"[V f; U (4, f); ULambda y; U (3, h); T (16, c); Hoist_vars [c]; T (4, x); T (3, w); T (4, c); T (2, f); T (14, x); Lambda_apply y [((Iter 2), (Arg 5)); ((Iter 3), (Arg 6))]; T (2, y)]"
77.48,1084992,86758,"[V f; U (4, f); ULambda y; U (3, h); T (8, c); Hoist_vars [c]; T (2, x); T (3, w); T (8, c); T (2, f); T (28, x); Lambda_apply y [((Iter 2), (Arg 5)); ((Iter 3), (Arg 6))]; T (2, y)]"
86.54,964544,101079,"[V f; U (4, f); ULambda y; U (3, h); T (16, c); Hoist_vars [c]; T (2, x); T (3, w); T (4, c); T (2, f); T (28, x); T (2, y); Lambda_apply y [((Iter 2), (Arg 5)); ((Iter 3), (Arg 6))]]"
46.03,2600131,92482,"[V f; U (4, f); ULambda y; U (3, h); T (2, c); Hoist_vars [c]; T (56, x); T (3, w); T (32, c); T (2, f); T (1, x); T (1, y); Lambda_apply y [((Iter 7), (Arg 5)); ((Iter 3), (Arg 7))]]"
84.79,718618,90306,"[V f; U (4, f); ULambda y; U (3, h); T (16, c); Hoist_vars [c]; T (8, x); T (3, w); T (4, c); T (2, f); T (7, x); Lambda_apply y [((Iter 7), (Arg 5)); ((Iter 3), (Arg 7))]; T (1, y)]"
52.75,2802502,89363,"[V f; U (4, f); ULambda y; U (3, h); T (1, c); Hoist_vars [c]; T (8, x); T (3, w); T (64, c); T (2, f); T (7, x); Lambda_apply y [((Iter 7), (Arg 5)); ((Iter 3), (Arg 7))]; T (1, y)]"
87.58,829451,90745,"[V f; U (4, f); ULambda y; U (3, h); T (32, c); Hoist_vars [c]; T (4, x); T (3, w); T (2, c); T (2, f); T (14, x); T (1, y); Lambda_apply y [((Iter 7), (Arg 5)); ((Iter 3), (Arg 7))]]"
60.29,2310746,110633,"[V f; U (4, f); ULambda y; U (3, h); T (4, c); Hoist_vars [c]; T (56, x); T (3, w); T (16, c); T (2, f); T (1, x); T (2, y); Lambda_apply y [((Iter 4), (Arg 5)); ((Iter 1), (Arg 8))]]"
54.71,1455493,91067,"[V f; U (4, f); ULambda y; U (3, h); T (2, c); Hoist_vars [c]; T (7, x); T (3, w); T (32, c); T (2, f); T (8, x); T (2, y); Lambda_apply y [((Iter 4), (Arg 5)); ((Iter 1), (Arg 8))]]"
83.60,712965,90135,"[V f; U (4, f); ULambda y; U (3, h); T (16, c); Hoist_vars [c]; T (4, x); T (3, w); T (4, c); T (2, f); T (14, x); Lambda_apply y [((Iter 4), (Arg 5)); ((Iter 1), (Arg 8))]; T (2, y)]"
85.68,1512665,89742,"[V f; U (4, f); ULambda y; U (3, h); T (64, c); Hoist_vars [c]; T (4, x); T (3, w); T (1, c); T (2, f); T (14, x); T (2, y); Lambda_apply y [((Iter 4), (Arg 5)); ((Iter 1), (Arg 8))]]"
68.57,1132611,89541,"[V f; U (4, f); ULambda y; U (3, h); T (4, c); Hoist_vars [c]; T (4, x); T (3, w); T (16, c); T (2, f); T (14, x); T (2, y); Lambda_apply y [((Iter 4), (Arg 5)); ((Iter 1), (Arg 8))]]"
84.89,1408739,87341,"[V f; U (4, f); ULambda y; U (3, h); T (64, c); Hoist_vars [c]; T (28, x); T (3, w); T (1, c); T (2, f); T (2, x); Lambda_apply y [((Iter 7), (Arg 6)); ((Iter 2), (Arg 7))]; T (1, y)]"
75.81,863050,88150,"[V f; U (4, f); ULambda y; U (3, h); T (8, c); Hoist_vars [c]; T (4, x); T (3, w); T (8, c); T (2, f); T (14, x); Lambda_apply y [((Iter 7), (Arg 6)); ((Iter 2), (Arg 7))]; T (1, y)]"
90.59,1902036,89252,"[V f; U (4, f); ULambda y; U (3, w); T (64, c); Hoist_vars [c]; T (28, x); T (3, h); T (1, c); T (2, f); T (2, x); Lambda_apply y [((Iter 1), (Arg 4)); ((Iter 2), (Arg 5))]; T (4, y)]"
82.16,682433,78951,"[V f; U (4, f); ULambda y; U (3, w); T (16, c); Hoist_vars [c]; T (28, x); T (3, h); T (4, c); T (2, f); T (2, x); Lambda_apply y [((Iter 1), (Arg 4)); ((Iter 2), (Arg 5))]; T (4, y)]"
84.00,752904,91926,"[V f; U (4, f); ULambda y; U (3, w); T (16, c); Hoist_vars [c]; T (7, x); T (3, h); T (4, c); T (2, f); T (8, x); Lambda_apply y [((Iter 1), (Arg 4)); ((Iter 2), (Arg 5))]; T (4, y)]"
40.98,4888453,83605,"[V f; U (4, f); ULambda y; U (3, w); T (1, c); Hoist_vars [c]; T (56, x); T (3, h); T (64, c); T (2, f); T (1, x); Lambda_apply y [((Iter 2), (Arg 4)); ((Iter 1), (Arg 6))]; T (4, y)]"
87.93,860178,87117,"[V f; U (4, f); ULambda y; U (3, w); T (32, c); Hoist_vars [c]; T (14, x); T (3, h); T (2, c); T (2, f); T (4, x); Lambda_apply y [((Iter 2), (Arg 4)); ((Iter 1), (Arg 6))]; T (4, y)]"
56.46,1382331,92072,"[V f; U (4, f); ULambda y; U (3, w); T (2, c); Hoist_vars [c]; T (7, x); T (3, h); T (32, c); T (2, f); T (8, x); Lambda_apply y [((Iter 2), (Arg 4)); ((Iter 1), (Arg 6))]; T (4, y)]"
91.08,1820535,89450,"[V f; U (4, f); ULambda y; U (3, w); T (64, c); Hoist_vars [c]; T (1, x); T (3, h); T (1, c); T (2, f); T (56, x); Lambda_apply y [((Iter 2), (Arg 4)); ((Iter 1), (Arg 6))]; T (4, y)]"
82.93,1895362,85658,"[V f; U (4, f); ULambda y; U (3, w); T (16, c); Hoist_vars [c]; T (1, x); T (3, h); T (4, c); T (2, f); T (56, x); T (4, y); Lambda_apply y [((Iter 2), (Arg 4)); ((Iter 1), (Arg 6))]]"
81.18,669827,87957,"[V f; U (4, f); ULambda y; U (3, w); T (16, c); Hoist_vars [c]; T (56, x); T (3, h); T (4, c); T (2, f); T (1, x); T (1, y); Lambda_apply y [((Iter 7), (Arg 4)); ((Iter 4), (Arg 7))]]"
81.35,748481,86704,"[V f; U (4, f); ULambda y; U (3, w); T (16, c); Hoist_vars [c]; T (14, x); T (3, h); T (4, c); T (2, f); T (4, x); T (1, y); Lambda_apply y [((Iter 7), (Arg 4)); ((Iter 4), (Arg 7))]]"
87.04,887139,90270,"[V f; U (4, f); ULambda y; U (3, w); T (32, c); Hoist_vars [c]; T (8, x); T (3, h); T (2, c); T (2, f); T (7, x); T (1, y); Lambda_apply y [((Iter 7), (Arg 4)); ((Iter 4), (Arg 7))]]"
78.81,1194702,89210,"[V f; U (4, f); ULambda y; U (3, w); T (8, c); Hoist_vars [c]; T (2, x); T (3, h); T (8, c); T (2, f); T (28, x); T (1, y); Lambda_apply y [((Iter 7), (Arg 4)); ((Iter 4), (Arg 7))]]"
76.77,1836246,89553,"[V f; U (4, f); ULambda y; U (3, w); T (8, c); Hoist_vars [c]; T (1, x); T (3, h); T (8, c); T (2, f); T (56, x); T (1, y); Lambda_apply y [((Iter 7), (Arg 4)); ((Iter 4), (Arg 7))]]"
59.48,2193757,122206,"[V f; U (4, f); ULambda y; U (3, w); T (4, c); Hoist_vars [c]; T (56, x); T (3, h); T (16, c); T (2, f); T (1, x); T (2, y); Lambda_apply y [((Iter 1), (Arg 4)); ((Iter 3), (Arg 8))]]"
78.17,808418,87580,"[V f; U (4, f); ULambda y; U (3, w); T (32, c); Hoist_vars [c]; T (28, x); T (3, h); T (2, c); T (2, f); T (2, x); T (2, y); Lambda_apply y [((Iter 1), (Arg 4)); ((Iter 3), (Arg 8))]]"
69.08,1208370,95474,"[V f; U (4, f); ULambda y; U (3, w); T (8, c); Hoist_vars [c]; T (8, x); T (3, h); T (8, c); T (2, f); T (7, x); Lambda_apply y [((Iter 1), (Arg 4)); ((Iter 3), (Arg 8))]; T (2, y)]"
61.07,1920669,92185,"[V f; U (4, f); ULambda y; U (3, w); T (4, c); Hoist_vars [c]; T (8, x); T (3, h); T (16, c); T (2, f); T (7, x); Lambda_apply y [((Iter 5), (Arg 4)); ((Iter 4), (Arg 9))]; T (1, y)]"
60.79,1928797,89895,"[V f; U (4, f); ULambda y; U (3, w); T (4, c); Hoist_vars [c]; T (8, x); T (3, h); T (16, c); T (2, f); T (7, x); T (1, y); Lambda_apply y [((Iter 5), (Arg 4)); ((Iter 4), (Arg 9))]]"
77.99,889371,88167,"[V f; U (4, f); ULambda y; U (3, w); T (32, c); Hoist_vars [c]; T (7, x); T (3, h); T (2, c); T (2, f); T (8, x); T (1, y); Lambda_apply y [((Iter 5), (Arg 4)); ((Iter 4), (Arg 9))]]"
60.40,1827519,89603,"[V f; U (4, f); ULambda y; U (3, w); T (4, c); Hoist_vars [c]; T (7, x); T (3, h); T (16, c); T (2, f); T (8, x); T (1, y); Lambda_apply y [((Iter 5), (Arg 4)); ((Iter 4), (Arg 9))]]"
83.90,882656,104491,"[V f; U (4, f); ULambda y; U (3, w); T (16, c); Hoist_vars [c]; T (8, x); T (3, h); T (4, c); T (2, f); T (7, x); Lambda_apply y [((Iter 2), (Arg 5)); ((Iter 3), (Arg 6))]; T (2, y)]"
90.97,1652045,89553,"[V f; U (4, f); ULambda y; U (3, w); T (64, c); Hoist_vars [c]; T (8, x); T (3, h); T (1, c); T (2, f); T (7, x); T (2, y); Lambda_apply y [((Iter 2), (Arg 5)); ((Iter 3), (Arg 6))]]"
79.97,1087345,92353,"[V f; U (4, f); ULambda y; U (3, w); T (8, c); Hoist_vars [c]; T (2, x); T (3, h); T (8, c); T (2, f); T (28, x); T (2, y); Lambda_apply y [((Iter 2), (Arg 5)); ((Iter 3), (Arg 6))]]"
87.00,1606771,89737,"[V f; U (4, f); ULambda y; U (3, w); T (64, c); Hoist_vars [c]; T (4, x); T (3, h); T (1, c); T (2, f); T (14, x); Lambda_apply y [((Iter 7), (Arg 5)); ((Iter 3), (Arg 7))]; T (1, y)]"
78.31,1693779,85845,"[V f; U (4, f); ULambda y; U (3, w); T (8, c); Hoist_vars [c]; T (1, x); T (3, h); T (8, c); T (2, f); T (56, x); T (1, y); Lambda_apply y [((Iter 7), (Arg 5)); ((Iter 3), (Arg 7))]]"
84.49,955324,90053,"[V f; U (4, f); ULambda y; U (3, w); T (32, c); Hoist_vars [c]; T (7, x); T (3, h); T (2, c); T (2, f); T (8, x); Lambda_apply y [((Iter 4), (Arg 5)); ((Iter 1), (Arg 8))]; T (2, y)]"
74.89,1209234,89754,"[V f; U (4, f); ULambda y; U (3, w); T (8, c); Hoist_vars [c]; T (7, x); T (3, h); T (8, c); T (2, f); T (8, x); T (2, y); Lambda_apply y [((Iter 4), (Arg 5)); ((Iter 1), (Arg 8))]]"
66.76,1956734,94646,"[V f; U (4, f); ULambda y; U (3, w); T (4, c); Hoist_vars [c]; T (7, x); T (3, h); T (16, c); T (2, f); T (8, x); T (2, y); Lambda_apply y [((Iter 4), (Arg 5)); ((Iter 1), (Arg 8))]]"
55.03,1611465,92676,"[V f; U (4, f); ULambda y; U (3, w); T (2, c); Hoist_vars [c]; T (7, x); T (3, h); T (32, c); T (2, f); T (8, x); T (2, y); Lambda_apply y [((Iter 4), (Arg 5)); ((Iter 1), (Arg 8))]]"
69.89,1252560,89936,"[V f; U (4, f); ULambda y; U (3, w); T (4, c); Hoist_vars [c]; T (4, x); T (3, h); T (16, c); T (2, f); T (14, x); Lambda_apply y [((Iter 4), (Arg 5)); ((Iter 1), (Arg 8))]; T (2, y)]"
49.41,1279484,85819,"[V f; U (4, f); ULambda y; U (3, w); T (1, c); Hoist_vars [c]; T (4, x); T (3, h); T (64, c); T (2, f); T (14, x); Lambda_apply y [((Iter 4), (Arg 5)); ((Iter 1), (Arg 8))]; T (2, y)]"
74.99,1103569,102713,"[V f; U (4, f); ULambda y; U (3, w); T (32, c); Hoist_vars [c]; T (2, x); T (3, h); T (2, c); T (2, f); T (28, x); Lambda_apply y [((Iter 1), (Arg 5)); ((Iter 1), (Arg 9))]; T (4, y)]"
71.67,1192351,90348,"[V f; U (4, f); ULambda y; U (3, w); T (8, c); Hoist_vars [c]; T (56, x); T (3, h); T (8, c); T (2, f); T (1, x); Lambda_apply y [((Iter 7), (Arg 6)); ((Iter 2), (Arg 7))]; T (1, y)]"
89.89,1514012,89534,"[V f; U (4, f); ULambda y; U (3, w); T (64, c); Hoist_vars [c]; T (28, x); T (3, h); T (1, c); T (2, f); T (2, x); Lambda_apply y [((Iter 7), (Arg 6)); ((Iter 2), (Arg 7))]; T (1, y)]"
83.37,1420174,111481,"[V f; U (4, f); ULambda y; U (3, w); T (64, c); Hoist_vars [c]; T (28, x); T (3, h); T (1, c); T (2, f); T (2, x); T (4, y); Lambda_apply y [((Iter 1), (Arg 6)); ((Iter 1), (Arg 8))]]"
79.27,767913,90624,"[V f; U (4, f); ULambda y; U (3, w); T (16, c); Hoist_vars [c]; T (8, x); T (3, h); T (4, c); T (2, f); T (7, x); T (4, y); Lambda_apply y [((Iter 1), (Arg 6)); ((Iter 1), (Arg 8))]]"
79.77,752231,89268,"[V f; U (4, f); ULambda y; U (3, w); T (16, c); Hoist_vars [c]; T (4, x); T (3, h); T (4, c); T (2, f); T (14, x); Lambda_apply y [((Iter 1), (Arg 6)); ((Iter 1), (Arg 8))]; T (4, y)]"
75.13,1425116,84908,"[V f; U (4, f); ULambda y; U (3, w); T (8, c); Hoist_vars [c]; T (1, x); T (3, h); T (8, c); T (2, f); T (56, x); Lambda_apply y [((Iter 1), (Arg 6)); ((Iter 1), (Arg 8))]; T (4, y)]"
