perf,CACHE_MISS_L1,CACHE_MISS_L2,scheme
33.98,2278128,1182874,"[V f; U (2, f); ULambda y; T (1024, c); Hoist_vars [c]; T (17, x); T (32, f); T (1, c); T (1, x); Lambda_apply y [((Iter 1), (Arg 8)); ((Iter 1), (Arg 9))]; T (1, c)]"
46.08,2285849,622931,"[V f; U (2, f); ULambda y; T (512, c); Hoist_vars [c]; T (17, x); T (32, f); T (2, c); T (1, x); Lambda_apply y [((Iter 1), (Arg 8)); ((Iter 1), (Arg 9))]; T (1, c)]"
64.24,2316811,219239,"[V f; U (2, f); ULambda y; T (256, c); Hoist_vars [c]; T (17, x); T (32, f); T (4, c); T (1, x); Lambda_apply y [((Iter 1), (Arg 8)); ((Iter 1), (Arg 9))]; T (1, c)]"
75.30,2448935,173191,"[V f; U (2, f); ULambda y; T (128, c); Hoist_vars [c]; T (17, x); T (32, f); T (8, c); T (1, x); Lambda_apply y [((Iter 1), (Arg 8)); ((Iter 1), (Arg 9))]; T (1, c)]"
72.13,2697899,153048,"[V f; U (2, f); ULambda y; T (64, c); Hoist_vars [c]; T (17, x); T (32, f); T (16, c); T (1, x); Lambda_apply y [((Iter 1), (Arg 8)); ((Iter 1), (Arg 9))]; T (1, c)]"
67.80,3203288,161214,"[V f; U (2, f); ULambda y; T (32, c); Hoist_vars [c]; T (17, x); T (32, f); T (32, c); T (1, x); Lambda_apply y [((Iter 1), (Arg 8)); ((Iter 1), (Arg 9))]; T (1, c)]"
55.62,4036143,195666,"[V f; U (2, f); ULambda y; T (16, c); Hoist_vars [c]; T (17, x); T (32, f); T (64, c); T (1, x); Lambda_apply y [((Iter 1), (Arg 8)); ((Iter 1), (Arg 9))]; T (1, c)]"
39.40,6236932,234517,"[V f; U (2, f); ULambda y; T (8, c); Hoist_vars [c]; T (17, x); T (32, f); T (128, c); T (1, x); Lambda_apply y [((Iter 1), (Arg 8)); ((Iter 1), (Arg 9))]; T (1, c)]"
27.54,7634777,149888,"[V f; U (2, f); ULambda y; T (4, c); Hoist_vars [c]; T (17, x); T (32, f); T (256, c); T (1, x); Lambda_apply y [((Iter 1), (Arg 8)); ((Iter 1), (Arg 9))]; T (1, c)]"
15.37,15095474,195964,"[V f; U (2, f); ULambda y; T (2, c); Hoist_vars [c]; T (17, x); T (32, f); T (512, c); T (1, x); Lambda_apply y [((Iter 1), (Arg 8)); ((Iter 1), (Arg 9))]; T (1, c)]"
7.69,29067263,214389,"[V f; U (2, f); ULambda y; T (1, c); Hoist_vars [c]; T (17, x); T (32, f); T (1024, c); T (1, x); Lambda_apply y [((Iter 1), (Arg 8)); ((Iter 1), (Arg 9))]; T (1, c)]"
47.15,2281119,611978,"[V f; U (2, f); ULambda y; T (512, c); Hoist_vars [c]; T (17, x); T (32, f); T (1, c); T (1, x); Lambda_apply y [((Iter 1), (Arg 8)); ((Iter 1), (Arg 9))]; T (2, c)]"
61.00,2315592,249837,"[V f; U (2, f); ULambda y; T (256, c); Hoist_vars [c]; T (17, x); T (32, f); T (2, c); T (1, x); Lambda_apply y [((Iter 1), (Arg 8)); ((Iter 1), (Arg 9))]; T (2, c)]"
71.86,2439245,178204,"[V f; U (2, f); ULambda y; T (128, c); Hoist_vars [c]; T (17, x); T (32, f); T (4, c); T (1, x); Lambda_apply y [((Iter 1), (Arg 8)); ((Iter 1), (Arg 9))]; T (2, c)]"
75.05,2697516,150591,"[V f; U (2, f); ULambda y; T (64, c); Hoist_vars [c]; T (17, x); T (32, f); T (8, c); T (1, x); Lambda_apply y [((Iter 1), (Arg 8)); ((Iter 1), (Arg 9))]; T (2, c)]"
69.22,3199193,153476,"[V f; U (2, f); ULambda y; T (32, c); Hoist_vars [c]; T (17, x); T (32, f); T (16, c); T (1, x); Lambda_apply y [((Iter 1), (Arg 8)); ((Iter 1), (Arg 9))]; T (2, c)]"
57.10,4052190,180049,"[V f; U (2, f); ULambda y; T (16, c); Hoist_vars [c]; T (17, x); T (32, f); T (32, c); T (1, x); Lambda_apply y [((Iter 1), (Arg 8)); ((Iter 1), (Arg 9))]; T (2, c)]"
38.88,6214285,300040,"[V f; U (2, f); ULambda y; T (8, c); Hoist_vars [c]; T (17, x); T (32, f); T (64, c); T (1, x); Lambda_apply y [((Iter 1), (Arg 8)); ((Iter 1), (Arg 9))]; T (2, c)]"
27.20,7654185,169797,"[V f; U (2, f); ULambda y; T (4, c); Hoist_vars [c]; T (17, x); T (32, f); T (128, c); T (1, x); Lambda_apply y [((Iter 1), (Arg 8)); ((Iter 1), (Arg 9))]; T (2, c)]"
15.29,15141245,154588,"[V f; U (2, f); ULambda y; T (2, c); Hoist_vars [c]; T (17, x); T (32, f); T (256, c); T (1, x); Lambda_apply y [((Iter 1), (Arg 8)); ((Iter 1), (Arg 9))]; T (2, c)]"
7.83,28927332,148625,"[V f; U (2, f); ULambda y; T (1, c); Hoist_vars [c]; T (17, x); T (32, f); T (512, c); T (1, x); Lambda_apply y [((Iter 1), (Arg 8)); ((Iter 1), (Arg 9))]; T (2, c)]"
71.42,2320029,206650,"[V f; U (2, f); ULambda y; T (256, c); Hoist_vars [c]; T (17, x); T (32, f); T (1, c); T (1, x); Lambda_apply y [((Iter 1), (Arg 8)); ((Iter 1), (Arg 9))]; T (4, c)]"
74.38,2441012,175644,"[V f; U (2, f); ULambda y; T (128, c); Hoist_vars [c]; T (17, x); T (32, f); T (2, c); T (1, x); Lambda_apply y [((Iter 1), (Arg 8)); ((Iter 1), (Arg 9))]; T (4, c)]"
71.71,2698116,149110,"[V f; U (2, f); ULambda y; T (64, c); Hoist_vars [c]; T (17, x); T (32, f); T (4, c); T (1, x); Lambda_apply y [((Iter 1), (Arg 8)); ((Iter 1), (Arg 9))]; T (4, c)]"
68.62,3187906,163495,"[V f; U (2, f); ULambda y; T (32, c); Hoist_vars [c]; T (17, x); T (32, f); T (8, c); T (1, x); Lambda_apply y [((Iter 1), (Arg 8)); ((Iter 1), (Arg 9))]; T (4, c)]"
57.00,4093224,169686,"[V f; U (2, f); ULambda y; T (16, c); Hoist_vars [c]; T (17, x); T (32, f); T (16, c); T (1, x); Lambda_apply y [((Iter 1), (Arg 8)); ((Iter 1), (Arg 9))]; T (4, c)]"
38.65,6244820,229365,"[V f; U (2, f); ULambda y; T (8, c); Hoist_vars [c]; T (17, x); T (32, f); T (32, c); T (1, x); Lambda_apply y [((Iter 1), (Arg 8)); ((Iter 1), (Arg 9))]; T (4, c)]"
27.22,7639017,202112,"[V f; U (2, f); ULambda y; T (4, c); Hoist_vars [c]; T (17, x); T (32, f); T (64, c); T (1, x); Lambda_apply y [((Iter 1), (Arg 8)); ((Iter 1), (Arg 9))]; T (4, c)]"
15.33,15104207,223137,"[V f; U (2, f); ULambda y; T (2, c); Hoist_vars [c]; T (17, x); T (32, f); T (128, c); T (1, x); Lambda_apply y [((Iter 1), (Arg 8)); ((Iter 1), (Arg 9))]; T (4, c)]"
7.78,28955083,233860,"[V f; U (2, f); ULambda y; T (1, c); Hoist_vars [c]; T (17, x); T (32, f); T (256, c); T (1, x); Lambda_apply y [((Iter 1), (Arg 8)); ((Iter 1), (Arg 9))]; T (4, c)]"
75.24,2435809,177195,"[V f; U (2, f); ULambda y; T (128, c); Hoist_vars [c]; T (17, x); T (32, f); T (1, c); T (1, x); Lambda_apply y [((Iter 1), (Arg 8)); ((Iter 1), (Arg 9))]; T (8, c)]"
71.81,2692855,149017,"[V f; U (2, f); ULambda y; T (64, c); Hoist_vars [c]; T (17, x); T (32, f); T (2, c); T (1, x); Lambda_apply y [((Iter 1), (Arg 8)); ((Iter 1), (Arg 9))]; T (8, c)]"
69.02,3184284,155333,"[V f; U (2, f); ULambda y; T (32, c); Hoist_vars [c]; T (17, x); T (32, f); T (4, c); T (1, x); Lambda_apply y [((Iter 1), (Arg 8)); ((Iter 1), (Arg 9))]; T (8, c)]"
56.77,4069120,177477,"[V f; U (2, f); ULambda y; T (16, c); Hoist_vars [c]; T (17, x); T (32, f); T (8, c); T (1, x); Lambda_apply y [((Iter 1), (Arg 8)); ((Iter 1), (Arg 9))]; T (8, c)]"
39.63,6233156,281081,"[V f; U (2, f); ULambda y; T (8, c); Hoist_vars [c]; T (17, x); T (32, f); T (16, c); T (1, x); Lambda_apply y [((Iter 1), (Arg 8)); ((Iter 1), (Arg 9))]; T (8, c)]"
26.32,7632662,234255,"[V f; U (2, f); ULambda y; T (4, c); Hoist_vars [c]; T (17, x); T (32, f); T (32, c); T (1, x); Lambda_apply y [((Iter 1), (Arg 8)); ((Iter 1), (Arg 9))]; T (8, c)]"
15.26,15077979,316957,"[V f; U (2, f); ULambda y; T (2, c); Hoist_vars [c]; T (17, x); T (32, f); T (64, c); T (1, x); Lambda_apply y [((Iter 1), (Arg 8)); ((Iter 1), (Arg 9))]; T (8, c)]"
7.72,29099536,212674,"[V f; U (2, f); ULambda y; T (1, c); Hoist_vars [c]; T (17, x); T (32, f); T (128, c); T (1, x); Lambda_apply y [((Iter 1), (Arg 8)); ((Iter 1), (Arg 9))]; T (8, c)]"
75.28,2683900,155506,"[V f; U (2, f); ULambda y; T (64, c); Hoist_vars [c]; T (17, x); T (32, f); T (1, c); T (1, x); Lambda_apply y [((Iter 1), (Arg 8)); ((Iter 1), (Arg 9))]; T (16, c)]"
67.37,3181637,194125,"[V f; U (2, f); ULambda y; T (32, c); Hoist_vars [c]; T (17, x); T (32, f); T (2, c); T (1, x); Lambda_apply y [((Iter 1), (Arg 8)); ((Iter 1), (Arg 9))]; T (16, c)]"
55.24,4044619,208630,"[V f; U (2, f); ULambda y; T (16, c); Hoist_vars [c]; T (17, x); T (32, f); T (4, c); T (1, x); Lambda_apply y [((Iter 1), (Arg 8)); ((Iter 1), (Arg 9))]; T (16, c)]"
40.09,6239837,197328,"[V f; U (2, f); ULambda y; T (8, c); Hoist_vars [c]; T (17, x); T (32, f); T (8, c); T (1, x); Lambda_apply y [((Iter 1), (Arg 8)); ((Iter 1), (Arg 9))]; T (16, c)]"
27.38,7638601,182759,"[V f; U (2, f); ULambda y; T (4, c); Hoist_vars [c]; T (17, x); T (32, f); T (16, c); T (1, x); Lambda_apply y [((Iter 1), (Arg 8)); ((Iter 1), (Arg 9))]; T (16, c)]"
15.14,15088871,160949,"[V f; U (2, f); ULambda y; T (2, c); Hoist_vars [c]; T (17, x); T (32, f); T (32, c); T (1, x); Lambda_apply y [((Iter 1), (Arg 8)); ((Iter 1), (Arg 9))]; T (16, c)]"
7.76,29019521,163782,"[V f; U (2, f); ULambda y; T (1, c); Hoist_vars [c]; T (17, x); T (32, f); T (64, c); T (1, x); Lambda_apply y [((Iter 1), (Arg 8)); ((Iter 1), (Arg 9))]; T (16, c)]"
67.38,3191686,208859,"[V f; U (2, f); ULambda y; T (32, c); Hoist_vars [c]; T (17, x); T (32, f); T (1, c); T (1, x); Lambda_apply y [((Iter 1), (Arg 8)); ((Iter 1), (Arg 9))]; T (32, c)]"
56.38,4076171,195108,"[V f; U (2, f); ULambda y; T (16, c); Hoist_vars [c]; T (17, x); T (32, f); T (2, c); T (1, x); Lambda_apply y [((Iter 1), (Arg 8)); ((Iter 1), (Arg 9))]; T (32, c)]"
38.25,6243484,327366,"[V f; U (2, f); ULambda y; T (8, c); Hoist_vars [c]; T (17, x); T (32, f); T (4, c); T (1, x); Lambda_apply y [((Iter 1), (Arg 8)); ((Iter 1), (Arg 9))]; T (32, c)]"
27.22,7640937,223792,"[V f; U (2, f); ULambda y; T (4, c); Hoist_vars [c]; T (17, x); T (32, f); T (8, c); T (1, x); Lambda_apply y [((Iter 1), (Arg 8)); ((Iter 1), (Arg 9))]; T (32, c)]"
15.14,15125291,164155,"[V f; U (2, f); ULambda y; T (2, c); Hoist_vars [c]; T (17, x); T (32, f); T (16, c); T (1, x); Lambda_apply y [((Iter 1), (Arg 8)); ((Iter 1), (Arg 9))]; T (32, c)]"
7.82,28911522,191977,"[V f; U (2, f); ULambda y; T (1, c); Hoist_vars [c]; T (17, x); T (32, f); T (32, c); T (1, x); Lambda_apply y [((Iter 1), (Arg 8)); ((Iter 1), (Arg 9))]; T (32, c)]"
55.90,4055131,224836,"[V f; U (2, f); ULambda y; T (16, c); Hoist_vars [c]; T (17, x); T (32, f); T (1, c); T (1, x); Lambda_apply y [((Iter 1), (Arg 8)); ((Iter 1), (Arg 9))]; T (64, c)]"
40.20,6245627,253384,"[V f; U (2, f); ULambda y; T (8, c); Hoist_vars [c]; T (17, x); T (32, f); T (2, c); T (1, x); Lambda_apply y [((Iter 1), (Arg 8)); ((Iter 1), (Arg 9))]; T (64, c)]"
27.40,7645640,190859,"[V f; U (2, f); ULambda y; T (4, c); Hoist_vars [c]; T (17, x); T (32, f); T (4, c); T (1, x); Lambda_apply y [((Iter 1), (Arg 8)); ((Iter 1), (Arg 9))]; T (64, c)]"
15.13,15007504,186663,"[V f; U (2, f); ULambda y; T (2, c); Hoist_vars [c]; T (17, x); T (32, f); T (8, c); T (1, x); Lambda_apply y [((Iter 1), (Arg 8)); ((Iter 1), (Arg 9))]; T (64, c)]"
7.73,29122865,354373,"[V f; U (2, f); ULambda y; T (1, c); Hoist_vars [c]; T (17, x); T (32, f); T (16, c); T (1, x); Lambda_apply y [((Iter 1), (Arg 8)); ((Iter 1), (Arg 9))]; T (64, c)]"
38.84,6182522,401903,"[V f; U (2, f); ULambda y; T (8, c); Hoist_vars [c]; T (17, x); T (32, f); T (1, c); T (1, x); Lambda_apply y [((Iter 1), (Arg 8)); ((Iter 1), (Arg 9))]; T (128, c)]"
27.24,7663360,238696,"[V f; U (2, f); ULambda y; T (4, c); Hoist_vars [c]; T (17, x); T (32, f); T (2, c); T (1, x); Lambda_apply y [((Iter 1), (Arg 8)); ((Iter 1), (Arg 9))]; T (128, c)]"
15.13,15163507,227680,"[V f; U (2, f); ULambda y; T (2, c); Hoist_vars [c]; T (17, x); T (32, f); T (4, c); T (1, x); Lambda_apply y [((Iter 1), (Arg 8)); ((Iter 1), (Arg 9))]; T (128, c)]"
7.74,29033981,416076,"[V f; U (2, f); ULambda y; T (1, c); Hoist_vars [c]; T (17, x); T (32, f); T (8, c); T (1, x); Lambda_apply y [((Iter 1), (Arg 8)); ((Iter 1), (Arg 9))]; T (128, c)]"
26.46,7635036,266729,"[V f; U (2, f); ULambda y; T (4, c); Hoist_vars [c]; T (17, x); T (32, f); T (1, c); T (1, x); Lambda_apply y [((Iter 1), (Arg 8)); ((Iter 1), (Arg 9))]; T (256, c)]"
15.32,15091876,199809,"[V f; U (2, f); ULambda y; T (2, c); Hoist_vars [c]; T (17, x); T (32, f); T (2, c); T (1, x); Lambda_apply y [((Iter 1), (Arg 8)); ((Iter 1), (Arg 9))]; T (256, c)]"
7.76,28923521,275264,"[V f; U (2, f); ULambda y; T (1, c); Hoist_vars [c]; T (17, x); T (32, f); T (4, c); T (1, x); Lambda_apply y [((Iter 1), (Arg 8)); ((Iter 1), (Arg 9))]; T (256, c)]"
15.13,15056261,286371,"[V f; U (2, f); ULambda y; T (2, c); Hoist_vars [c]; T (17, x); T (32, f); T (1, c); T (1, x); Lambda_apply y [((Iter 1), (Arg 8)); ((Iter 1), (Arg 9))]; T (512, c)]"
7.67,28962546,682757,"[V f; U (2, f); ULambda y; T (1, c); Hoist_vars [c]; T (17, x); T (32, f); T (2, c); T (1, x); Lambda_apply y [((Iter 1), (Arg 8)); ((Iter 1), (Arg 9))]; T (512, c)]"
7.71,28961999,521349,"[V f; U (2, f); ULambda y; T (1, c); Hoist_vars [c]; T (17, x); T (32, f); T (1, c); T (1, x); Lambda_apply y [((Iter 1), (Arg 8)); ((Iter 1), (Arg 9))]; T (1024, c)]"
34.33,1696928,1162986,"[V f; U (2, f); ULambda y; T (1024, c); Hoist_vars [c]; T (1, x); T (32, f); T (1, c); T (17, x); Lambda_apply y [((Iter 1), (Arg 8)); ((Iter 1), (Arg 9))]; T (1, c)]"
35.42,1730717,1146247,"[V f; U (2, f); ULambda y; T (512, c); Hoist_vars [c]; T (1, x); T (32, f); T (2, c); T (17, x); Lambda_apply y [((Iter 1), (Arg 8)); ((Iter 1), (Arg 9))]; T (1, c)]"
34.55,1751609,1138337,"[V f; U (2, f); ULambda y; T (256, c); Hoist_vars [c]; T (1, x); T (32, f); T (4, c); T (17, x); Lambda_apply y [((Iter 1), (Arg 8)); ((Iter 1), (Arg 9))]; T (1, c)]"
40.95,1781069,1136177,"[V f; U (2, f); ULambda y; T (128, c); Hoist_vars [c]; T (1, x); T (32, f); T (8, c); T (17, x); Lambda_apply y [((Iter 1), (Arg 8)); ((Iter 1), (Arg 9))]; T (1, c)]"
43.67,1846182,1142260,"[V f; U (2, f); ULambda y; T (64, c); Hoist_vars [c]; T (1, x); T (32, f); T (16, c); T (17, x); Lambda_apply y [((Iter 1), (Arg 8)); ((Iter 1), (Arg 9))]; T (1, c)]"
62.41,1910354,1164220,"[V f; U (2, f); ULambda y; T (32, c); Hoist_vars [c]; T (1, x); T (32, f); T (32, c); T (17, x); Lambda_apply y [((Iter 1), (Arg 8)); ((Iter 1), (Arg 9))]; T (1, c)]"
67.68,2231865,1154140,"[V f; U (2, f); ULambda y; T (16, c); Hoist_vars [c]; T (1, x); T (32, f); T (64, c); T (17, x); Lambda_apply y [((Iter 1), (Arg 8)); ((Iter 1), (Arg 9))]; T (1, c)]"
64.47,1945947,1161690,"[V f; U (2, f); ULambda y; T (8, c); Hoist_vars [c]; T (1, x); T (32, f); T (128, c); T (17, x); Lambda_apply y [((Iter 1), (Arg 8)); ((Iter 1), (Arg 9))]; T (1, c)]"
63.64,1638249,1166985,"[V f; U (2, f); ULambda y; T (4, c); Hoist_vars [c]; T (1, x); T (32, f); T (256, c); T (17, x); Lambda_apply y [((Iter 1), (Arg 8)); ((Iter 1), (Arg 9))]; T (1, c)]"
56.95,1344632,1166906,"[V f; U (2, f); ULambda y; T (2, c); Hoist_vars [c]; T (1, x); T (32, f); T (512, c); T (17, x); Lambda_apply y [((Iter 1), (Arg 8)); ((Iter 1), (Arg 9))]; T (1, c)]"
38.75,1461585,1166134,"[V f; U (2, f); ULambda y; T (1, c); Hoist_vars [c]; T (1, x); T (32, f); T (1024, c); T (17, x); Lambda_apply y [((Iter 1), (Arg 8)); ((Iter 1), (Arg 9))]; T (1, c)]"
46.35,1670750,576914,"[V f; U (2, f); ULambda y; T (512, c); Hoist_vars [c]; T (1, x); T (32, f); T (1, c); T (17, x); Lambda_apply y [((Iter 1), (Arg 8)); ((Iter 1), (Arg 9))]; T (2, c)]"
47.37,1698538,559817,"[V f; U (2, f); ULambda y; T (256, c); Hoist_vars [c]; T (1, x); T (32, f); T (2, c); T (17, x); Lambda_apply y [((Iter 1), (Arg 8)); ((Iter 1), (Arg 9))]; T (2, c)]"
43.16,1763476,597481,"[V f; U (2, f); ULambda y; T (128, c); Hoist_vars [c]; T (1, x); T (32, f); T (4, c); T (17, x); Lambda_apply y [((Iter 1), (Arg 8)); ((Iter 1), (Arg 9))]; T (2, c)]"
60.38,1771126,674497,"[V f; U (2, f); ULambda y; T (64, c); Hoist_vars [c]; T (1, x); T (32, f); T (8, c); T (17, x); Lambda_apply y [((Iter 1), (Arg 8)); ((Iter 1), (Arg 9))]; T (2, c)]"
71.53,1929521,570811,"[V f; U (2, f); ULambda y; T (32, c); Hoist_vars [c]; T (1, x); T (32, f); T (16, c); T (17, x); Lambda_apply y [((Iter 1), (Arg 8)); ((Iter 1), (Arg 9))]; T (2, c)]"
70.29,2251957,654460,"[V f; U (2, f); ULambda y; T (16, c); Hoist_vars [c]; T (1, x); T (32, f); T (32, c); T (17, x); Lambda_apply y [((Iter 1), (Arg 8)); ((Iter 1), (Arg 9))]; T (2, c)]"
69.12,1955965,603267,"[V f; U (2, f); ULambda y; T (8, c); Hoist_vars [c]; T (1, x); T (32, f); T (64, c); T (17, x); Lambda_apply y [((Iter 1), (Arg 8)); ((Iter 1), (Arg 9))]; T (2, c)]"
66.96,1653241,628010,"[V f; U (2, f); ULambda y; T (4, c); Hoist_vars [c]; T (1, x); T (32, f); T (128, c); T (17, x); Lambda_apply y [((Iter 1), (Arg 8)); ((Iter 1), (Arg 9))]; T (2, c)]"
59.90,1349709,663497,"[V f; U (2, f); ULambda y; T (2, c); Hoist_vars [c]; T (1, x); T (32, f); T (256, c); T (17, x); Lambda_apply y [((Iter 1), (Arg 8)); ((Iter 1), (Arg 9))]; T (2, c)]"
40.39,1460395,594214,"[V f; U (2, f); ULambda y; T (1, c); Hoist_vars [c]; T (1, x); T (32, f); T (512, c); T (17, x); Lambda_apply y [((Iter 1), (Arg 8)); ((Iter 1), (Arg 9))]; T (2, c)]"
71.46,1676450,181957,"[V f; U (2, f); ULambda y; T (256, c); Hoist_vars [c]; T (1, x); T (32, f); T (1, c); T (17, x); Lambda_apply y [((Iter 1), (Arg 8)); ((Iter 1), (Arg 9))]; T (4, c)]"
80.62,1698110,130075,"[V f; U (2, f); ULambda y; T (128, c); Hoist_vars [c]; T (1, x); T (32, f); T (2, c); T (17, x); Lambda_apply y [((Iter 1), (Arg 8)); ((Iter 1), (Arg 9))]; T (4, c)]"
83.76,1764981,135194,"[V f; U (2, f); ULambda y; T (64, c); Hoist_vars [c]; T (1, x); T (32, f); T (4, c); T (17, x); Lambda_apply y [((Iter 1), (Arg 8)); ((Iter 1), (Arg 9))]; T (4, c)]"
84.97,1940662,181560,"[V f; U (2, f); ULambda y; T (32, c); Hoist_vars [c]; T (1, x); T (32, f); T (8, c); T (17, x); Lambda_apply y [((Iter 1), (Arg 8)); ((Iter 1), (Arg 9))]; T (4, c)]"
83.97,2256983,122216,"[V f; U (2, f); ULambda y; T (16, c); Hoist_vars [c]; T (1, x); T (32, f); T (16, c); T (17, x); Lambda_apply y [((Iter 1), (Arg 8)); ((Iter 1), (Arg 9))]; T (4, c)]"
77.39,1946348,120596,"[V f; U (2, f); ULambda y; T (8, c); Hoist_vars [c]; T (1, x); T (32, f); T (32, c); T (17, x); Lambda_apply y [((Iter 1), (Arg 8)); ((Iter 1), (Arg 9))]; T (4, c)]"
71.92,1659416,141707,"[V f; U (2, f); ULambda y; T (4, c); Hoist_vars [c]; T (1, x); T (32, f); T (64, c); T (17, x); Lambda_apply y [((Iter 1), (Arg 8)); ((Iter 1), (Arg 9))]; T (4, c)]"
62.46,1366595,144167,"[V f; U (2, f); ULambda y; T (2, c); Hoist_vars [c]; T (1, x); T (32, f); T (128, c); T (17, x); Lambda_apply y [((Iter 1), (Arg 8)); ((Iter 1), (Arg 9))]; T (4, c)]"
42.13,1473781,126672,"[V f; U (2, f); ULambda y; T (1, c); Hoist_vars [c]; T (1, x); T (32, f); T (256, c); T (17, x); Lambda_apply y [((Iter 1), (Arg 8)); ((Iter 1), (Arg 9))]; T (4, c)]"
83.96,1722352,159004,"[V f; U (2, f); ULambda y; T (128, c); Hoist_vars [c]; T (1, x); T (32, f); T (1, c); T (17, x); Lambda_apply y [((Iter 1), (Arg 8)); ((Iter 1), (Arg 9))]; T (8, c)]"
86.13,1795028,159103,"[V f; U (2, f); ULambda y; T (64, c); Hoist_vars [c]; T (1, x); T (32, f); T (2, c); T (17, x); Lambda_apply y [((Iter 1), (Arg 8)); ((Iter 1), (Arg 9))]; T (8, c)]"
85.61,1971996,176103,"[V f; U (2, f); ULambda y; T (32, c); Hoist_vars [c]; T (1, x); T (32, f); T (4, c); T (17, x); Lambda_apply y [((Iter 1), (Arg 8)); ((Iter 1), (Arg 9))]; T (8, c)]"
83.98,2287812,162276,"[V f; U (2, f); ULambda y; T (16, c); Hoist_vars [c]; T (1, x); T (32, f); T (8, c); T (17, x); Lambda_apply y [((Iter 1), (Arg 8)); ((Iter 1), (Arg 9))]; T (8, c)]"
77.66,1985497,162302,"[V f; U (2, f); ULambda y; T (8, c); Hoist_vars [c]; T (1, x); T (32, f); T (16, c); T (17, x); Lambda_apply y [((Iter 1), (Arg 8)); ((Iter 1), (Arg 9))]; T (8, c)]"
71.92,1703443,157188,"[V f; U (2, f); ULambda y; T (4, c); Hoist_vars [c]; T (1, x); T (32, f); T (32, c); T (17, x); Lambda_apply y [((Iter 1), (Arg 8)); ((Iter 1), (Arg 9))]; T (8, c)]"
62.69,1408356,158154,"[V f; U (2, f); ULambda y; T (2, c); Hoist_vars [c]; T (1, x); T (32, f); T (64, c); T (17, x); Lambda_apply y [((Iter 1), (Arg 8)); ((Iter 1), (Arg 9))]; T (8, c)]"
41.94,1512763,156750,"[V f; U (2, f); ULambda y; T (1, c); Hoist_vars [c]; T (1, x); T (32, f); T (128, c); T (17, x); Lambda_apply y [((Iter 1), (Arg 8)); ((Iter 1), (Arg 9))]; T (8, c)]"
82.75,1858247,215071,"[V f; U (2, f); ULambda y; T (64, c); Hoist_vars [c]; T (1, x); T (32, f); T (1, c); T (17, x); Lambda_apply y [((Iter 1), (Arg 8)); ((Iter 1), (Arg 9))]; T (16, c)]"
85.30,2038956,216963,"[V f; U (2, f); ULambda y; T (32, c); Hoist_vars [c]; T (1, x); T (32, f); T (2, c); T (17, x); Lambda_apply y [((Iter 1), (Arg 8)); ((Iter 1), (Arg 9))]; T (16, c)]"
81.87,2359780,216854,"[V f; U (2, f); ULambda y; T (16, c); Hoist_vars [c]; T (1, x); T (32, f); T (4, c); T (17, x); Lambda_apply y [((Iter 1), (Arg 8)); ((Iter 1), (Arg 9))]; T (16, c)]"
76.17,2063784,223541,"[V f; U (2, f); ULambda y; T (8, c); Hoist_vars [c]; T (1, x); T (32, f); T (8, c); T (17, x); Lambda_apply y [((Iter 1), (Arg 8)); ((Iter 1), (Arg 9))]; T (16, c)]"
69.82,1789413,212278,"[V f; U (2, f); ULambda y; T (4, c); Hoist_vars [c]; T (1, x); T (32, f); T (16, c); T (17, x); Lambda_apply y [((Iter 1), (Arg 8)); ((Iter 1), (Arg 9))]; T (16, c)]"
61.07,1491927,212917,"[V f; U (2, f); ULambda y; T (2, c); Hoist_vars [c]; T (1, x); T (32, f); T (32, c); T (17, x); Lambda_apply y [((Iter 1), (Arg 8)); ((Iter 1), (Arg 9))]; T (16, c)]"
41.40,1592588,210140,"[V f; U (2, f); ULambda y; T (1, c); Hoist_vars [c]; T (1, x); T (32, f); T (64, c); T (17, x); Lambda_apply y [((Iter 1), (Arg 8)); ((Iter 1), (Arg 9))]; T (16, c)]"
80.21,2162818,319034,"[V f; U (2, f); ULambda y; T (32, c); Hoist_vars [c]; T (1, x); T (32, f); T (1, c); T (17, x); Lambda_apply y [((Iter 1), (Arg 8)); ((Iter 1), (Arg 9))]; T (32, c)]"
78.54,2491347,324728,"[V f; U (2, f); ULambda y; T (16, c); Hoist_vars [c]; T (1, x); T (32, f); T (2, c); T (17, x); Lambda_apply y [((Iter 1), (Arg 8)); ((Iter 1), (Arg 9))]; T (32, c)]"
73.58,2230226,339630,"[V f; U (2, f); ULambda y; T (8, c); Hoist_vars [c]; T (1, x); T (32, f); T (4, c); T (17, x); Lambda_apply y [((Iter 1), (Arg 8)); ((Iter 1), (Arg 9))]; T (32, c)]"
68.57,1950514,302201,"[V f; U (2, f); ULambda y; T (4, c); Hoist_vars [c]; T (1, x); T (32, f); T (8, c); T (17, x); Lambda_apply y [((Iter 1), (Arg 8)); ((Iter 1), (Arg 9))]; T (32, c)]"
60.54,1648921,272571,"[V f; U (2, f); ULambda y; T (2, c); Hoist_vars [c]; T (1, x); T (32, f); T (16, c); T (17, x); Lambda_apply y [((Iter 1), (Arg 8)); ((Iter 1), (Arg 9))]; T (32, c)]"
40.33,1748487,297096,"[V f; U (2, f); ULambda y; T (1, c); Hoist_vars [c]; T (1, x); T (32, f); T (32, c); T (17, x); Lambda_apply y [((Iter 1), (Arg 8)); ((Iter 1), (Arg 9))]; T (32, c)]"
71.65,2764967,499248,"[V f; U (2, f); ULambda y; T (16, c); Hoist_vars [c]; T (1, x); T (32, f); T (1, c); T (17, x); Lambda_apply y [((Iter 1), (Arg 8)); ((Iter 1), (Arg 9))]; T (64, c)]"
67.25,2524017,567033,"[V f; U (2, f); ULambda y; T (8, c); Hoist_vars [c]; T (1, x); T (32, f); T (2, c); T (17, x); Lambda_apply y [((Iter 1), (Arg 8)); ((Iter 1), (Arg 9))]; T (64, c)]"
66.46,2248168,430141,"[V f; U (2, f); ULambda y; T (4, c); Hoist_vars [c]; T (1, x); T (32, f); T (4, c); T (17, x); Lambda_apply y [((Iter 1), (Arg 8)); ((Iter 1), (Arg 9))]; T (64, c)]"
58.98,1972058,261750,"[V f; U (2, f); ULambda y; T (2, c); Hoist_vars [c]; T (1, x); T (32, f); T (8, c); T (17, x); Lambda_apply y [((Iter 1), (Arg 8)); ((Iter 1), (Arg 9))]; T (64, c)]"
39.93,2054955,162838,"[V f; U (2, f); ULambda y; T (1, c); Hoist_vars [c]; T (1, x); T (32, f); T (16, c); T (17, x); Lambda_apply y [((Iter 1), (Arg 8)); ((Iter 1), (Arg 9))]; T (64, c)]"
64.13,3054910,949578,"[V f; U (2, f); ULambda y; T (8, c); Hoist_vars [c]; T (1, x); T (32, f); T (1, c); T (17, x); Lambda_apply y [((Iter 1), (Arg 8)); ((Iter 1), (Arg 9))]; T (128, c)]"
59.32,2737229,502256,"[V f; U (2, f); ULambda y; T (4, c); Hoist_vars [c]; T (1, x); T (32, f); T (2, c); T (17, x); Lambda_apply y [((Iter 1), (Arg 8)); ((Iter 1), (Arg 9))]; T (128, c)]"
55.46,2528743,226766,"[V f; U (2, f); ULambda y; T (2, c); Hoist_vars [c]; T (1, x); T (32, f); T (4, c); T (17, x); Lambda_apply y [((Iter 1), (Arg 8)); ((Iter 1), (Arg 9))]; T (128, c)]"
37.60,2654629,176966,"[V f; U (2, f); ULambda y; T (1, c); Hoist_vars [c]; T (1, x); T (32, f); T (8, c); T (17, x); Lambda_apply y [((Iter 1), (Arg 8)); ((Iter 1), (Arg 9))]; T (128, c)]"
56.94,3357661,612142,"[V f; U (2, f); ULambda y; T (4, c); Hoist_vars [c]; T (1, x); T (32, f); T (1, c); T (17, x); Lambda_apply y [((Iter 1), (Arg 8)); ((Iter 1), (Arg 9))]; T (256, c)]"
50.38,3454016,475713,"[V f; U (2, f); ULambda y; T (2, c); Hoist_vars [c]; T (1, x); T (32, f); T (2, c); T (17, x); Lambda_apply y [((Iter 1), (Arg 8)); ((Iter 1), (Arg 9))]; T (256, c)]"
33.69,3789323,238273,"[V f; U (2, f); ULambda y; T (1, c); Hoist_vars [c]; T (1, x); T (32, f); T (4, c); T (17, x); Lambda_apply y [((Iter 1), (Arg 8)); ((Iter 1), (Arg 9))]; T (256, c)]"
41.33,5319317,327221,"[V f; U (2, f); ULambda y; T (2, c); Hoist_vars [c]; T (1, x); T (32, f); T (1, c); T (17, x); Lambda_apply y [((Iter 1), (Arg 8)); ((Iter 1), (Arg 9))]; T (512, c)]"
28.26,5898987,707053,"[V f; U (2, f); ULambda y; T (1, c); Hoist_vars [c]; T (1, x); T (32, f); T (2, c); T (17, x); Lambda_apply y [((Iter 1), (Arg 8)); ((Iter 1), (Arg 9))]; T (512, c)]"
22.00,10278689,623862,"[V f; U (2, f); ULambda y; T (1, c); Hoist_vars [c]; T (1, x); T (32, f); T (1, c); T (17, x); Lambda_apply y [((Iter 1), (Arg 8)); ((Iter 1), (Arg 9))]; T (1024, c)]"
36.28,2022497,1846191,"[V f; U (4, f); ULambda y; T (1024, c); Hoist_vars [c]; T (17, x); T (1, c); Lambda_apply y [((Iter 1), (Arg 5)); ((Iter 2), (Arg 6))]; T (16, f); T (1, y)]"
49.48,2062128,942751,"[V f; U (4, f); ULambda y; T (512, c); Hoist_vars [c]; T (17, x); T (2, c); Lambda_apply y [((Iter 1), (Arg 5)); ((Iter 2), (Arg 6))]; T (16, f); T (1, y)]"
79.53,2129600,449223,"[V f; U (4, f); ULambda y; T (256, c); Hoist_vars [c]; T (17, x); T (4, c); Lambda_apply y [((Iter 1), (Arg 5)); ((Iter 2), (Arg 6))]; T (16, f); T (1, y)]"
77.26,2234603,412025,"[V f; U (4, f); ULambda y; T (128, c); Hoist_vars [c]; T (17, x); T (8, c); Lambda_apply y [((Iter 1), (Arg 5)); ((Iter 2), (Arg 6))]; T (16, f); T (1, y)]"
71.43,2437889,493165,"[V f; U (4, f); ULambda y; T (64, c); Hoist_vars [c]; T (17, x); T (16, c); Lambda_apply y [((Iter 1), (Arg 5)); ((Iter 2), (Arg 6))]; T (16, f); T (1, y)]"
69.55,2862587,687294,"[V f; U (4, f); ULambda y; T (32, c); Hoist_vars [c]; T (17, x); T (32, c); Lambda_apply y [((Iter 1), (Arg 5)); ((Iter 2), (Arg 6))]; T (16, f); T (1, y)]"
57.15,3614065,821878,"[V f; U (4, f); ULambda y; T (16, c); Hoist_vars [c]; T (17, x); T (64, c); Lambda_apply y [((Iter 1), (Arg 5)); ((Iter 2), (Arg 6))]; T (16, f); T (1, y)]"
46.75,4426771,903060,"[V f; U (4, f); ULambda y; T (8, c); Hoist_vars [c]; T (17, x); T (128, c); Lambda_apply y [((Iter 1), (Arg 5)); ((Iter 2), (Arg 6))]; T (16, f); T (1, y)]"
39.64,4355774,550166,"[V f; U (4, f); ULambda y; T (4, c); Hoist_vars [c]; T (17, x); T (256, c); Lambda_apply y [((Iter 1), (Arg 5)); ((Iter 2), (Arg 6))]; T (16, f); T (1, y)]"
17.64,11926831,325156,"[V f; U (4, f); ULambda y; T (2, c); Hoist_vars [c]; T (17, x); T (512, c); Lambda_apply y [((Iter 1), (Arg 5)); ((Iter 2), (Arg 6))]; T (16, f); T (1, y)]"
9.39,22897750,436635,"[V f; U (4, f); ULambda y; T (1, c); Hoist_vars [c]; T (17, x); T (1024, c); Lambda_apply y [((Iter 1), (Arg 5)); ((Iter 2), (Arg 6))]; T (16, f); T (1, y)]"
35.95,2036687,1736132,"[V f; U (4, f); ULambda y; T (1024, c); Hoist_vars [c]; T (17, x); T (1, c); T (1, y); T (16, f); Lambda_apply y [((Iter 1), (Arg 5)); ((Iter 2), (Arg 6))]]"
54.10,2080669,856307,"[V f; U (4, f); ULambda y; T (512, c); Hoist_vars [c]; T (17, x); T (2, c); T (1, y); T (16, f); Lambda_apply y [((Iter 1), (Arg 5)); ((Iter 2), (Arg 6))]]"
80.79,2137333,246381,"[V f; U (4, f); ULambda y; T (256, c); Hoist_vars [c]; T (17, x); T (4, c); T (1, y); T (16, f); Lambda_apply y [((Iter 1), (Arg 5)); ((Iter 2), (Arg 6))]]"
80.07,2247538,317166,"[V f; U (4, f); ULambda y; T (128, c); Hoist_vars [c]; T (17, x); T (8, c); T (1, y); T (16, f); Lambda_apply y [((Iter 1), (Arg 5)); ((Iter 2), (Arg 6))]]"
77.84,2449779,594110,"[V f; U (4, f); ULambda y; T (64, c); Hoist_vars [c]; T (17, x); T (16, c); T (1, y); T (16, f); Lambda_apply y [((Iter 1), (Arg 5)); ((Iter 2), (Arg 6))]]"
66.80,2844244,736615,"[V f; U (4, f); ULambda y; T (32, c); Hoist_vars [c]; T (17, x); T (32, c); T (1, y); T (16, f); Lambda_apply y [((Iter 1), (Arg 5)); ((Iter 2), (Arg 6))]]"
58.82,3619009,835259,"[V f; U (4, f); ULambda y; T (16, c); Hoist_vars [c]; T (17, x); T (64, c); T (1, y); T (16, f); Lambda_apply y [((Iter 1), (Arg 5)); ((Iter 2), (Arg 6))]]"
48.64,4439886,862421,"[V f; U (4, f); ULambda y; T (8, c); Hoist_vars [c]; T (17, x); T (128, c); T (1, y); T (16, f); Lambda_apply y [((Iter 1), (Arg 5)); ((Iter 2), (Arg 6))]]"
39.13,4319652,482322,"[V f; U (4, f); ULambda y; T (4, c); Hoist_vars [c]; T (17, x); T (256, c); T (1, y); T (16, f); Lambda_apply y [((Iter 1), (Arg 5)); ((Iter 2), (Arg 6))]]"
17.78,11953039,192494,"[V f; U (4, f); ULambda y; T (2, c); Hoist_vars [c]; T (17, x); T (512, c); T (1, y); T (16, f); Lambda_apply y [((Iter 1), (Arg 5)); ((Iter 2), (Arg 6))]]"
9.36,22918924,214147,"[V f; U (4, f); ULambda y; T (1, c); Hoist_vars [c]; T (17, x); T (1024, c); T (1, y); T (16, f); Lambda_apply y [((Iter 1), (Arg 5)); ((Iter 2), (Arg 6))]]"
43.24,2030402,1870404,"[V f; U (4, f); ULambda y; T (1024, c); Hoist_vars [c]; T (17, x); T (1, c); Lambda_apply y [((Iter 2), (Arg 5)); ((Iter 1), (Arg 7))]; T (16, f); T (1, y)]"
52.72,2068730,926833,"[V f; U (4, f); ULambda y; T (512, c); Hoist_vars [c]; T (17, x); T (2, c); Lambda_apply y [((Iter 2), (Arg 5)); ((Iter 1), (Arg 7))]; T (16, f); T (1, y)]"
78.10,2132140,453010,"[V f; U (4, f); ULambda y; T (256, c); Hoist_vars [c]; T (17, x); T (4, c); Lambda_apply y [((Iter 2), (Arg 5)); ((Iter 1), (Arg 7))]; T (16, f); T (1, y)]"
72.49,2242119,417911,"[V f; U (4, f); ULambda y; T (128, c); Hoist_vars [c]; T (17, x); T (8, c); Lambda_apply y [((Iter 2), (Arg 5)); ((Iter 1), (Arg 7))]; T (16, f); T (1, y)]"
74.99,2446574,505718,"[V f; U (4, f); ULambda y; T (64, c); Hoist_vars [c]; T (17, x); T (16, c); Lambda_apply y [((Iter 2), (Arg 5)); ((Iter 1), (Arg 7))]; T (16, f); T (1, y)]"
69.99,2866838,688941,"[V f; U (4, f); ULambda y; T (32, c); Hoist_vars [c]; T (17, x); T (32, c); Lambda_apply y [((Iter 2), (Arg 5)); ((Iter 1), (Arg 7))]; T (16, f); T (1, y)]"
56.56,3619854,824406,"[V f; U (4, f); ULambda y; T (16, c); Hoist_vars [c]; T (17, x); T (64, c); Lambda_apply y [((Iter 2), (Arg 5)); ((Iter 1), (Arg 7))]; T (16, f); T (1, y)]"
47.29,4423950,881693,"[V f; U (4, f); ULambda y; T (8, c); Hoist_vars [c]; T (17, x); T (128, c); Lambda_apply y [((Iter 2), (Arg 5)); ((Iter 1), (Arg 7))]; T (16, f); T (1, y)]"
38.62,5216253,583468,"[V f; U (4, f); ULambda y; T (4, c); Hoist_vars [c]; T (17, x); T (256, c); Lambda_apply y [((Iter 2), (Arg 5)); ((Iter 1), (Arg 7))]; T (16, f); T (1, y)]"
16.95,11738055,358898,"[V f; U (4, f); ULambda y; T (2, c); Hoist_vars [c]; T (17, x); T (512, c); Lambda_apply y [((Iter 2), (Arg 5)); ((Iter 1), (Arg 7))]; T (16, f); T (1, y)]"
9.40,23117592,431156,"[V f; U (4, f); ULambda y; T (1, c); Hoist_vars [c]; T (17, x); T (1024, c); Lambda_apply y [((Iter 2), (Arg 5)); ((Iter 1), (Arg 7))]; T (16, f); T (1, y)]"
40.85,2040589,1711853,"[V f; U (4, f); ULambda y; T (1024, c); Hoist_vars [c]; T (17, x); T (1, c); T (1, y); T (16, f); Lambda_apply y [((Iter 2), (Arg 5)); ((Iter 1), (Arg 7))]]"
42.35,2086836,926509,"[V f; U (4, f); ULambda y; T (512, c); Hoist_vars [c]; T (17, x); T (2, c); T (1, y); T (16, f); Lambda_apply y [((Iter 2), (Arg 5)); ((Iter 1), (Arg 7))]]"
77.39,2142409,283707,"[V f; U (4, f); ULambda y; T (256, c); Hoist_vars [c]; T (17, x); T (4, c); T (1, y); T (16, f); Lambda_apply y [((Iter 2), (Arg 5)); ((Iter 1), (Arg 7))]]"
76.27,2252994,311803,"[V f; U (4, f); ULambda y; T (128, c); Hoist_vars [c]; T (17, x); T (8, c); T (1, y); T (16, f); Lambda_apply y [((Iter 2), (Arg 5)); ((Iter 1), (Arg 7))]]"
76.88,2455794,587669,"[V f; U (4, f); ULambda y; T (64, c); Hoist_vars [c]; T (17, x); T (16, c); T (1, y); T (16, f); Lambda_apply y [((Iter 2), (Arg 5)); ((Iter 1), (Arg 7))]]"
71.17,2865337,760380,"[V f; U (4, f); ULambda y; T (32, c); Hoist_vars [c]; T (17, x); T (32, c); T (1, y); T (16, f); Lambda_apply y [((Iter 2), (Arg 5)); ((Iter 1), (Arg 7))]]"
60.60,3619732,835529,"[V f; U (4, f); ULambda y; T (16, c); Hoist_vars [c]; T (17, x); T (64, c); T (1, y); T (16, f); Lambda_apply y [((Iter 2), (Arg 5)); ((Iter 1), (Arg 7))]]"
48.20,4436929,864064,"[V f; U (4, f); ULambda y; T (8, c); Hoist_vars [c]; T (17, x); T (128, c); T (1, y); T (16, f); Lambda_apply y [((Iter 2), (Arg 5)); ((Iter 1), (Arg 7))]]"
38.22,5206829,460650,"[V f; U (4, f); ULambda y; T (4, c); Hoist_vars [c]; T (17, x); T (256, c); T (1, y); T (16, f); Lambda_apply y [((Iter 2), (Arg 5)); ((Iter 1), (Arg 7))]]"
17.11,11762549,206810,"[V f; U (4, f); ULambda y; T (2, c); Hoist_vars [c]; T (17, x); T (512, c); T (1, y); T (16, f); Lambda_apply y [((Iter 2), (Arg 5)); ((Iter 1), (Arg 7))]]"
9.52,23175723,227541,"[V f; U (4, f); ULambda y; T (1, c); Hoist_vars [c]; T (17, x); T (1024, c); T (1, y); T (16, f); Lambda_apply y [((Iter 2), (Arg 5)); ((Iter 1), (Arg 7))]]"
