perf,CACHE_MISS_L1,CACHE_MISS_L2,scheme
83.51,50564481,3038320,"[V f; U (4, f); U (2, y); U (3, w); T (8, c); Hoist_vars [c]; T (2, x);  T (3, h); T (4, f); T (17, x); T (17, y); T (1, f); T (32, c); T (2, f)]"
64.01,31723263,13908024,"[V f; U (4, f); U (2, y); U (3, w); T (1, c); Hoist_vars [c]; T (2, x);  T (3, h); T (2, f); T (17, x); T (17, y); T (4, f); T (256, c); T (1, f)]"
72.66,40270224,7239599,"[V f; U (4, f); U (2, y); U (3, w); T (2, c); Hoist_vars [c]; T (1, x);  T (3, h); T (2, f); T (34, x); T (17, y); T (4, f); T (128, c); T (1, f)]"
27.15,43167098,49259900,"[V f; U (8, f); U (2, y); U (3, w); T (256, c); Hoist_vars [c]; T (1, x);  T (3, h); T (1, f); T (34, x); T (17, y); T (1, f); T (1, c); T (4, f)]"
95.54,13594698,1545098,"[V f; U (2, f); ULambda y; T (256, c); Hoist_vars [c]; T (34, x); T (3, w);  T (3, h); T (1, f); T (1, x);  Lambda_apply y [((Iter 1), (Arg 7)); ((Iter 3), (Arg 9))]; T (8, f);  T (1, c); T (2, f)]"
91.51,16844683,2514571,"[V f; U (2, f); ULambda y; T (64, c); Hoist_vars [c]; T (34, x); T (3, w);  T (3, h); T (1, f); T (1, x);  Lambda_apply y [((Iter 1), (Arg 7)); ((Iter 3), (Arg 9))]; T (1, f);  T (4, c); T (16, f)]"
94.86,13582049,1562285,"[V f; U (2, f); ULambda y; T (256, c); Hoist_vars [c]; T (17, x); T (3, w);  T (3, h); T (2, f); T (2, x);  Lambda_apply y [((Iter 1), (Arg 7)); ((Iter 3), (Arg 9))]; T (8, f);  T (1, c); T (1, f)]"
35.53,69624768,7229195,"[V f; U (2, f); ULambda y; T (4, c); Hoist_vars [c]; T (17, x); T (3, w);  T (3, h); T (4, f); T (2, x);  Lambda_apply y [((Iter 1), (Arg 7)); ((Iter 3), (Arg 9))]; T (4, f);  T (64, c); T (1, f)]"
45.77,22783317,7288512,"[V f; U (2, f); ULambda y; T (2, c); Hoist_vars [c]; T (1, x); T (3, w);  T (3, h); T (1, f); T (34, x);  Lambda_apply y [((Iter 1), (Arg 7)); ((Iter 3), (Arg 9))]; T (4, f);  T (128, c); T (4, f)]"
20.39,109832401,13018206,"[V f; U (2, f); ULambda y; T (2, c); Hoist_vars [c]; T (34, x); T (3, w);  T (3, h); T (4, f); T (1, x);  Lambda_apply y [((Iter 3), (Arg 7)); ((Iter 1), (Arg 13))]; T (4, f);  T (128, c); T (1, f)]"
29.13,37236603,21018397,"[V f; U (2, f); ULambda y; T (1, c); Hoist_vars [c]; T (1, x); T (3, w);  T (3, h); T (4, f); T (34, x);  Lambda_apply y [((Iter 3), (Arg 7)); ((Iter 1), (Arg 13))]; T (2, f);  T (256, c); T (2, f)]"
92.26,16762722,2232774,"[V f; U (2, f); ULambda y; T (64, c); Hoist_vars [c]; T (34, x); T (3, w);  T (3, h); T (2, f); T (1, x);  Lambda_apply y [((Iter 3), (Arg 8)); ((Iter 1), (Arg 10))]; T (2, f);  T (4, c); T (4, f)]"
78.44,26450481,2439085,"[V f; U (2, f); ULambda y; T (16, c); Hoist_vars [c]; T (17, x); T (3, w);  T (3, h); T (4, f); T (2, x);  Lambda_apply y [((Iter 3), (Arg 8)); ((Iter 1), (Arg 10))]; T (2, f);  T (16, c); T (2, f)]"
87.39,16970567,2432600,"[V f; U (2, f); ULambda y; T (32, c); Hoist_vars [c]; T (2, x); T (3, w);  T (3, h); T (2, f); T (17, x);  Lambda_apply y [((Iter 3), (Arg 8)); ((Iter 1), (Arg 10))]; T (4, f);  T (8, c); T (2, f)]"
65.06,28310205,3239289,"[V f; U (2, f); ULambda y; T (8, c); Hoist_vars [c]; T (2, x); T (3, w);  T (3, h); T (8, f); T (17, x);  Lambda_apply y [((Iter 3), (Arg 8)); ((Iter 1), (Arg 10))]; T (2, f);  T (32, c); T (1, f)]"
59.30,33054781,3228730,"[V f; U (2, f); ULambda y; T (8, c); Hoist_vars [c]; T (2, x); T (3, w);  T (3, h); T (8, f); T (17, x);  Lambda_apply y [((Iter 1), (Arg 8)); ((Iter 2), (Arg 13))]; T (2, f);  T (32, c); T (1, f)]"
20.05,111568703,10146072,"[V f; U (2, f); ULambda y; T (2, c); Hoist_vars [c]; T (34, x); T (3, w);  T (3, h); T (8, f); T (1, x);  Lambda_apply y [((Iter 1), (Arg 10)); ((Iter 2), (Arg 12))]; T (2, f);  T (128, c); T (1, f)]"
92.97,12365579,1469406,"[V f; U (2, f); ULambda y; T (128, c); Hoist_vars [c]; T (34, x); T (3, w);  T (3, h); T (8, f); T (1, x);  Lambda_apply y [((Iter 2), (Arg 10)); ((Iter 1), (Arg 14))]; T (1, f);  T (2, c); T (2, f)]"
19.99,110787974,11782600,"[V f; U (2, f); ULambda y; T (2, c); Hoist_vars [c]; T (34, x); T (3, w);  T (3, h); T (8, f); T (1, x);  Lambda_apply y [((Iter 2), (Arg 10)); ((Iter 1), (Arg 14))]; T (2, f);  T (128, c); T (1, f)]"
20.05,110908374,10798900,"[V f; U (2, f); ULambda y; T (2, c); Hoist_vars [c]; T (17, x); T (3, w);  T (3, h); T (1, f); T (2, x);  Lambda_apply y [((Iter 2), (Arg 10)); ((Iter 1), (Arg 14))]; T (4, f);  T (128, c); T (4, f)]"
92.67,12334322,1470122,"[V f; U (2, f); ULambda y; T (128, c); Hoist_vars [c]; T (34, x); T (3, w);  T (3, h); T (4, f); T (1, x);  Lambda_apply y [((Iter 2), (Arg 11)); ((Iter 1), (Arg 12))]; T (4, f);  T (2, c); T (1, f)]"
83.80,15438356,2507251,"[V f; U (2, f); ULambda y; T (16, c); Hoist_vars [c]; T (1, x); T (3, w);  T (3, h); T (4, f); T (34, x);  Lambda_apply y [((Iter 2), (Arg 11)); ((Iter 1), (Arg 12))]; T (1, f);  T (16, c); T (4, f)]"
82.40,28369197,1942811,"[V f; U (4, f); ULambda y; T (16, c); Hoist_vars [c]; T (34, x); T (3, w);  T (3, h); T (4, f); T (1, x);  Lambda_apply y [((Iter 1), (Arg 4)); ((Iter 5), (Arg 6))]; T (2, f);  T (16, c); T (1, f)]"
72.29,25224871,4409869,"[V f; U (4, f); ULambda y; T (8, c); Hoist_vars [c]; T (2, x); T (3, w);  T (3, h); T (2, f); T (17, x);  Lambda_apply y [((Iter 1), (Arg 4)); ((Iter 5), (Arg 6))]; T (2, f);  T (32, c); T (2, f)]"
76.74,16344969,15352641,"[V f; U (4, f); ULambda y; T (128, c); Hoist_vars [c]; T (1, x); T (3, w);  T (3, h); T (1, f); T (34, x);  Lambda_apply y [((Iter 1), (Arg 4)); ((Iter 5), (Arg 6))]; T (8, f);  T (2, c); T (1, f)]"
92.94,21290557,2274525,"[V f; U (4, f); ULambda y; T (32, c); Hoist_vars [c]; T (1, x); T (3, w);  T (3, h); T (1, f); T (34, x);  Lambda_apply y [((Iter 5), (Arg 4)); ((Iter 2), (Arg 7))]; T (4, f);  T (8, c); T (2, f)]"
88.27,22976046,2483969,"[V f; U (4, f); ULambda y; T (16, c); Hoist_vars [c]; T (1, x); T (3, w);  T (3, h); T (2, f); T (34, x);  Lambda_apply y [((Iter 5), (Arg 4)); ((Iter 2), (Arg 7))]; T (4, f);  T (16, c); T (1, f)]"
22.70,90258908,9286286,"[V f; U (4, f); ULambda y; T (2, c); Hoist_vars [c]; T (34, x); T (3, w);  T (3, h); T (1, f); T (1, x);  Lambda_apply y [((Iter 1), (Arg 6)); ((Iter 4), (Arg 7))]; T (8, f);  T (128, c); T (1, f)]"
78.77,17209657,4471780,"[V f; U (4, f); ULambda y; T (8, c); Hoist_vars [c]; T (1, x); T (3, w);  T (3, h); T (1, f); T (34, x);  Lambda_apply y [((Iter 1), (Arg 6)); ((Iter 4), (Arg 7))]; T (8, f);  T (32, c); T (1, f)]"
56.95,20443905,6243273,"[V f; U (4, f); ULambda y; T (2, c); Hoist_vars [c]; T (1, x); T (3, w);  T (3, h); T (1, f); T (34, x);  Lambda_apply y [((Iter 1), (Arg 6)); ((Iter 4), (Arg 7))]; T (4, f);  T (128, c); T (2, f)]"
94.68,16940093,1327378,"[V f; U (1, f); ULambda y; U (3, h); T (64, c); Hoist_vars [c]; T (17, x);  T (3, w); T (1, c); T (1, x);  Lambda_apply y [((Iter 1), (Arg 6)); ((Iter 4), (Arg 7))]; T (32, f);  T (4, c); T (2, x)]"
52.57,22839736,2047626,"[V f; U (1, f); ULambda y; U (3, h); T (2, c); Hoist_vars [c]; T (2, x);  T (3, w); T (4, c); T (1, x);  Lambda_apply y [((Iter 3), (Arg 6)); ((Iter 2), (Arg 8))]; T (32, f);  T (32, c); T (17, x)]"
70.12,16086535,12793654,"[V f; U (1, f); ULambda y; U (3, h); T (32, c); Hoist_vars [c]; T (1, x);  T (3, w); T (4, c); T (1, x);  Lambda_apply y [((Iter 4), (Arg 6)); ((Iter 1), (Arg 10))]; T (32, f);  T (2, c); T (34, x)]"
49.05,20844422,8649736,"[V f; U (1, f); ULambda y; U (3, h); T (1, c); Hoist_vars [c]; T (1, x);  T (3, w); T (64, c); T (1, x);  Lambda_apply y [((Iter 4), (Arg 6)); ((Iter 1), (Arg 10))]; T (32, f);  T (4, c); T (34, x)]"
53.38,29012842,12149900,"[V f; U (1, f); ULambda y; U (3, h); T (4, c); Hoist_vars [c]; T (2, x);  T (3, w); T (4, c); T (17, x);  Lambda_apply y [((Iter 1), (Arg 6)); ((Iter 2), (Arg 14))]; T (32, f);  T (16, c); T (1, x)]"
39.44,53109712,5008792,"[V f; U (1, f); ULambda y; U (3, h); T (2, c); Hoist_vars [c]; T (17, x);  T (3, w); T (128, c); T (1, x);  Lambda_apply y [((Iter 1), (Arg 6)); ((Iter 2), (Arg 14))]; T (32, f);  T (1, c); T (2, x)]"
94.46,14227635,1232405,"[V f; U (1, f); ULambda y; U (3, h); T (64, c); Hoist_vars [c]; T (17, x);  T (3, w); T (2, c); T (1, x);  Lambda_apply y [((Iter 1), (Arg 7)); ((Iter 3), (Arg 9))]; T (32, f);  T (2, c); T (2, x)]"
74.79,11876436,10239967,"[V f; U (1, f); ULambda y; U (3, h); T (64, c); Hoist_vars [c]; T (1, x);  T (3, w); T (2, c); T (17, x);  Lambda_apply y [((Iter 1), (Arg 7)); ((Iter 3), (Arg 9))]; T (32, f);  T (2, c); T (2, x)]"
87.83,18225346,2574346,"[V f; U (1, f); ULambda y; U (3, h); T (8, c); Hoist_vars [c]; T (1, x);  T (3, w); T (4, c); T (17, x);  Lambda_apply y [((Iter 3), (Arg 7)); ((Iter 1), (Arg 13))]; T (32, f);  T (8, c); T (2, x)]"
66.42,23275965,3637840,"[V f; U (1, f); ULambda y; U (3, h); T (2, c); Hoist_vars [c]; T (1, x);  T (3, w); T (8, c); T (1, x);  Lambda_apply y [((Iter 3), (Arg 7)); ((Iter 1), (Arg 13))]; T (32, f);  T (16, c); T (34, x)]"
66.27,41326030,4230292,"[V f; U (1, f); ULambda y; U (3, h); T (4, c); Hoist_vars [c]; T (17, x);  T (3, w); T (8, c); T (2, x);  Lambda_apply y [((Iter 3), (Arg 8)); ((Iter 1), (Arg 10))]; T (32, f);  T (8, c); T (1, x)]"
23.92,101580647,1350807,"[V f; U (1, f); ULambda y; U (3, h); T (1, c); Hoist_vars [c]; T (17, x);  T (3, w); T (16, c); T (1, x);  Lambda_apply y [((Iter 3), (Arg 8)); ((Iter 1), (Arg 10))]; T (32, f);  T (16, c); T (2, x)]"
75.22,25575302,1996607,"[V f; U (1, f); ULambda y; U (3, h); T (8, c); Hoist_vars [c]; T (17, x);  T (3, w); T (1, c); T (1, x);  Lambda_apply y [((Iter 1), (Arg 8)); ((Iter 2), (Arg 13))]; T (32, f);  T (32, c); T (2, x)]"
81.36,8692137,7776364,"[V f; U (1, f); ULambda y; U (3, h); T (256, c); Hoist_vars [c]; T (1, x);  T (3, w); T (1, c); T (17, x);  Lambda_apply y [((Iter 1), (Arg 8)); ((Iter 2), (Arg 13))]; T (32, f);  T (1, c); T (2, x)]"
75.24,11229893,7746150,"[V f; U (1, f); ULambda y; U (3, h); T (32, c); Hoist_vars [c]; T (1, x);  T (3, w); T (4, c); T (2, x);  Lambda_apply y [((Iter 1), (Arg 8)); ((Iter 2), (Arg 13))]; T (32, f);  T (2, c); T (17, x)]"
86.74,16415465,1479239,"[V f; U (1, f); ULambda y; U (3, h); T (16, c); Hoist_vars [c]; T (17, x);  T (3, w); T (2, c); T (1, x);  Lambda_apply y [((Iter 1), (Arg 10)); ((Iter 2), (Arg 12))]; T (32, f);  T (8, c); T (2, x)]"
39.42,53550303,3704369,"[V f; U (1, f); ULambda y; U (3, h); T (2, c); Hoist_vars [c]; T (17, x);  T (3, w); T (1, c); T (1, x);  Lambda_apply y [((Iter 1), (Arg 10)); ((Iter 2), (Arg 12))]; T (32, f);  T (128, c); T (2, x)]"
37.76,42770047,2228105,"[V f; U (1, f); ULambda y; U (3, h); T (1, c); Hoist_vars [c]; T (1, x);  T (3, w); T (4, c); T (2, x);  Lambda_apply y [((Iter 2), (Arg 10)); ((Iter 1), (Arg 14))]; T (32, f);  T (64, c); T (17, x)]"
23.97,100359308,936340,"[V f; U (1, f); ULambda y; U (3, h); T (1, c); Hoist_vars [c]; T (17, x);  T (3, w); T (32, c); T (1, x);  Lambda_apply y [((Iter 2), (Arg 11)); ((Iter 1), (Arg 12))]; T (32, f);  T (8, c); T (2, x)]"
39.72,42107069,1819608,"[V f; U (1, f); ULambda y; U (3, h); T (1, c); Hoist_vars [c]; T (1, x);  T (3, w); T (4, c); T (2, x);  Lambda_apply y [((Iter 2), (Arg 11)); ((Iter 1), (Arg 12))]; T (32, f);  T (64, c); T (17, x)]"
29.78,76867445,14066238,"[V f; U (2, f); ULambda y; U (3, h); T (1, c); Hoist_vars [c]; T (17, x);  T (3, w); T (8, f); T (2, x);  Lambda_apply y [((Iter 1), (Arg 6)); ((Iter 4), (Arg 7))]; T (1, f);  T (256, c); T (2, f)]"
84.22,19318119,6675883,"[V f; U (2, f); ULambda y; U (3, h); T (8, c); Hoist_vars [c]; T (1, x);  T (3, w); T (2, f); T (34, x);  Lambda_apply y [((Iter 1), (Arg 6)); ((Iter 4), (Arg 7))]; T (1, f);  T (32, c); T (8, f)]"
81.85,13224587,12630748,"[V f; U (2, f); ULambda y; U (3, h); T (256, c); Hoist_vars [c]; T (2, x);  T (3, w); T (8, f); T (17, x);  Lambda_apply y [((Iter 3), (Arg 6)); ((Iter 2), (Arg 8))]; T (2, f);  T (1, c); T (1, f)]"
78.50,13319438,12752200,"[V f; U (2, f); ULambda y; U (3, h); T (256, c); Hoist_vars [c]; T (2, x);  T (3, w); T (1, f); T (17, x);  Lambda_apply y [((Iter 4), (Arg 6)); ((Iter 1), (Arg 10))]; T (8, f);  T (1, c); T (2, f)]"
92.04,17017839,1507870,"[V f; U (2, f); ULambda y; U (3, h); T (16, c); Hoist_vars [c]; T (2, x);  T (3, w); T (8, f); T (17, x);  Lambda_apply y [((Iter 4), (Arg 6)); ((Iter 1), (Arg 10))]; T (2, f);  T (16, c); T (1, f)]"
60.33,23700097,9824454,"[V f; U (2, f); ULambda y; U (3, h); T (2, c); Hoist_vars [c]; T (2, x);  T (3, w); T (2, f); T (17, x);  Lambda_apply y [((Iter 4), (Arg 6)); ((Iter 1), (Arg 10))]; T (8, f);  T (128, c); T (1, f)]"
82.77,20931657,7405180,"[V f; U (2, f); ULambda y; U (3, h); T (4, c); Hoist_vars [c]; T (1, x);  T (3, w); T (4, f); T (34, x);  Lambda_apply y [((Iter 4), (Arg 6)); ((Iter 1), (Arg 10))]; T (4, f);  T (64, c); T (1, f)]"
95.12,9360181,1121816,"[V f; U (2, f); ULambda y; U (3, h); T (128, c); Hoist_vars [c]; T (34, x);  T (3, w); T (2, f); T (1, x);  Lambda_apply y [((Iter 1), (Arg 6)); ((Iter 2), (Arg 14))]; T (2, f);  T (2, c); T (4, f)]"
62.75,31400017,5551500,"[V f; U (2, f); ULambda y; U (3, h); T (4, c); Hoist_vars [c]; T (34, x);  T (3, w); T (4, f); T (1, x);  Lambda_apply y [((Iter 1), (Arg 6)); ((Iter 2), (Arg 14))]; T (1, f);  T (64, c); T (4, f)]"
24.64,74319768,18787838,"[V f; U (2, f); ULambda y; U (3, h); T (1, c); Hoist_vars [c]; T (34, x);  T (3, w); T (1, f); T (1, x);  Lambda_apply y [((Iter 1), (Arg 6)); ((Iter 2), (Arg 14))]; T (8, f);  T (256, c); T (2, f)]"
89.13,16359237,1666420,"[V f; U (2, f); ULambda y; U (3, h); T (16, c); Hoist_vars [c]; T (34, x);  T (3, w); T (8, f); T (1, x);  Lambda_apply y [((Iter 1), (Arg 7)); ((Iter 3), (Arg 9))]; T (1, f);  T (16, c); T (2, f)]"
88.35,16317974,2332481,"[V f; U (2, f); ULambda y; U (3, h); T (16, c); Hoist_vars [c]; T (34, x);  T (3, w); T (1, f); T (1, x);  Lambda_apply y [((Iter 1), (Arg 7)); ((Iter 3), (Arg 9))]; T (2, f);  T (16, c); T (8, f)]"
68.46,35208582,4275077,"[V f; U (2, f); ULambda y; U (3, h); T (4, c); Hoist_vars [c]; T (34, x);  T (3, w); T (8, f); T (1, x);  Lambda_apply y [((Iter 1), (Arg 7)); ((Iter 3), (Arg 9))]; T (2, f);  T (64, c); T (1, f)]"
80.14,20375760,5616207,"[V f; U (2, f); ULambda y; U (3, h); T (4, c); Hoist_vars [c]; T (1, x);  T (3, w); T (8, f); T (34, x);  Lambda_apply y [((Iter 1), (Arg 7)); ((Iter 3), (Arg 9))]; T (2, f);  T (64, c); T (1, f)]"
76.10,22697311,4482831,"[V f; U (2, f); ULambda y; U (3, h); T (8, c); Hoist_vars [c]; T (17, x);  T (3, w); T (1, f); T (2, x);  Lambda_apply y [((Iter 3), (Arg 7)); ((Iter 1), (Arg 13))]; T (4, f);  T (32, c); T (4, f)]"
81.84,11378875,5550214,"[V f; U (2, f); ULambda y; U (3, h); T (64, c); Hoist_vars [c]; T (1, x);  T (3, w); T (1, f); T (34, x);  Lambda_apply y [((Iter 3), (Arg 7)); ((Iter 1), (Arg 13))]; T (16, f);  T (4, c); T (1, f)]"
68.96,22316458,9134730,"[V f; U (2, f); ULambda y; U (3, h); T (2, c); Hoist_vars [c]; T (1, x);  T (3, w); T (8, f); T (34, x);  Lambda_apply y [((Iter 3), (Arg 7)); ((Iter 1), (Arg 13))]; T (2, f);  T (128, c); T (1, f)]"
72.90,8897213,7394470,"[V f; U (2, f); ULambda y; U (3, h); T (256, c); Hoist_vars [c]; T (17, x);  T (3, w); T (8, f); T (2, x);  Lambda_apply y [((Iter 1), (Arg 8)); ((Iter 2), (Arg 13))]; T (2, f);  T (1, c); T (1, f)]"
62.41,27671639,5730713,"[V f; U (2, f); ULambda y; U (3, h); T (4, c); Hoist_vars [c]; T (2, x);  T (3, w); T (8, f); T (17, x);  Lambda_apply y [((Iter 1), (Arg 8)); ((Iter 2), (Arg 13))]; T (2, f);  T (64, c); T (1, f)]"
78.62,8884900,4589306,"[V f; U (2, f); ULambda y; U (3, h); T (64, c); Hoist_vars [c]; T (1, x);  T (3, w); T (1, f); T (34, x);  Lambda_apply y [((Iter 1), (Arg 8)); ((Iter 2), (Arg 13))]; T (1, f);  T (4, c); T (16, f)]"
27.39,74356619,15258093,"[V f; U (2, f); ULambda y; U (3, h); T (1, c); Hoist_vars [c]; T (17, x);  T (3, w); T (2, f); T (2, x);  Lambda_apply y [((Iter 1), (Arg 10)); ((Iter 2), (Arg 12))]; T (2, f);  T (256, c); T (4, f)]"
87.45,9484887,2874116,"[V f; U (2, f); ULambda y; U (3, h); T (64, c); Hoist_vars [c]; T (2, x);  T (3, w); T (4, f); T (17, x);  Lambda_apply y [((Iter 1), (Arg 10)); ((Iter 2), (Arg 12))]; T (2, f);  T (4, c); T (2, f)]"
90.61,11262015,1507797,"[V f; U (2, f); ULambda y; U (3, h); T (32, c); Hoist_vars [c]; T (34, x);  T (3, w); T (2, f); T (1, x);  Lambda_apply y [((Iter 2), (Arg 10)); ((Iter 1), (Arg 14))]; T (8, f);  T (8, c); T (1, f)]"
60.15,31747130,7155010,"[V f; U (2, f); ULambda y; U (3, h); T (4, c); Hoist_vars [c]; T (34, x);  T (3, w); T (1, f); T (1, x);  Lambda_apply y [((Iter 2), (Arg 10)); ((Iter 1), (Arg 14))]; T (1, f);  T (64, c); T (16, f)]"
25.87,74918554,15711628,"[V f; U (2, f); ULambda y; U (3, h); T (1, c); Hoist_vars [c]; T (17, x);  T (3, w); T (1, f); T (2, x);  Lambda_apply y [((Iter 2), (Arg 10)); ((Iter 1), (Arg 14))]; T (1, f);  T (256, c); T (16, f)]"
89.97,12875493,915530,"[V f; U (2, f); ULambda y; U (3, h); T (16, c); Hoist_vars [c]; T (2, x);  T (3, w); T (16, f); T (17, x);  Lambda_apply y [((Iter 2), (Arg 10)); ((Iter 1), (Arg 14))]; T (1, f);  T (16, c); T (1, f)]"
66.15,32038555,4449497,"[V f; U (2, f); ULambda y; U (3, h); T (4, c); Hoist_vars [c]; T (34, x);  T (3, w); T (8, f); T (1, x);  Lambda_apply y [((Iter 2), (Arg 11)); ((Iter 1), (Arg 12))]; T (1, f);  T (64, c); T (2, f)]"
86.96,13724669,1923229,"[V f; U (2, f); ULambda y; U (3, h); T (16, c); Hoist_vars [c]; T (17, x);  T (3, w); T (2, f); T (2, x);  Lambda_apply y [((Iter 2), (Arg 11)); ((Iter 1), (Arg 12))]; T (8, f);  T (16, c); T (1, f)]"
45.09,44909855,8793937,"[V f; U (2, f); ULambda y; U (3, h); T (2, c); Hoist_vars [c]; T (17, x);  T (3, w); T (2, f); T (2, x);  Lambda_apply y [((Iter 2), (Arg 11)); ((Iter 1), (Arg 12))]; T (4, f);  T (128, c); T (2, f)]"
66.02,24799403,7146663,"[V f; U (4, f); ULambda y; U (3, h); T (2, c); Hoist_vars [c]; T (34, x);  T (3, w); T (4, f); T (1, x);  Lambda_apply y [((Iter 1), (Arg 2)); ((Iter 8), (Arg 4))]; T (1, f);  T (128, c); T (2, f)]"
61.50,23505530,21107354,"[V f; U (4, f); ULambda y; U (3, h); T (256, c); Hoist_vars [c]; T (17, x);  T (3, w); T (1, f); T (2, x);  Lambda_apply y [((Iter 1), (Arg 2)); ((Iter 8), (Arg 4))]; T (4, f);  T (1, c); T (2, f)]"
90.45,22687129,1218660,"[V f; U (4, f); ULambda y; U (3, h); T (16, c); Hoist_vars [c]; T (34, x);  T (3, w); T (8, f); T (1, x);  Lambda_apply y [((Iter 2), (Arg 2)); ((Iter 5), (Arg 6))]; T (1, f);  T (16, c); T (1, f)]"
60.79,23229877,8680752,"[V f; U (4, f); ULambda y; U (3, h); T (2, c); Hoist_vars [c]; T (2, x);  T (3, w); T (4, f); T (17, x);  Lambda_apply y [((Iter 1), (Arg 4)); ((Iter 5), (Arg 6))]; T (1, f);  T (128, c); T (2, f)]"
52.73,29052407,11589934,"[V f; U (4, f); ULambda y; U (3, h); T (1, c); Hoist_vars [c]; T (1, x);  T (3, w); T (1, f); T (34, x);  Lambda_apply y [((Iter 1), (Arg 4)); ((Iter 5), (Arg 6))]; T (8, f);  T (256, c); T (1, f)]"
72.40,18343720,11078158,"[V f; U (4, f); ULambda y; U (3, h); T (128, c); Hoist_vars [c]; T (2, x);  T (3, w); T (4, f); T (17, x);  Lambda_apply y [((Iter 5), (Arg 4)); ((Iter 2), (Arg 7))]; T (2, f);  T (2, c); T (1, f)]"
68.94,28753742,8505899,"[V f; U (4, f); ULambda y; U (3, h); T (4, c); Hoist_vars [c]; T (2, x);  T (3, w); T (2, f); T (17, x);  Lambda_apply y [((Iter 5), (Arg 4)); ((Iter 2), (Arg 7))]; T (4, f);  T (64, c); T (1, f)]"
81.39,23778488,6526268,"[V f; U (4, f); ULambda y; U (3, h); T (8, c); Hoist_vars [c]; T (1, x);  T (3, w); T (1, f); T (34, x);  Lambda_apply y [((Iter 5), (Arg 4)); ((Iter 2), (Arg 7))]; T (8, f);  T (32, c); T (1, f)]"
94.74,14325984,1405550,"[V f; U (4, f); ULambda y; U (3, h); T (64, c); Hoist_vars [c]; T (17, x);  T (3, w); T (8, f); T (2, x);  Lambda_apply y [((Iter 1), (Arg 6)); ((Iter 4), (Arg 7))]; T (1, f);  T (4, c); T (1, f)]"
67.94,31653882,6403803,"[V f; U (4, f); ULambda y; U (3, h); T (4, c); Hoist_vars [c]; T (17, x);  T (3, w); T (2, f); T (2, x);  Lambda_apply y [((Iter 1), (Arg 6)); ((Iter 4), (Arg 7))]; T (2, f);  T (64, c); T (2, f)]"
45.13,19409270,7008710,"[V f; U (1, f); ULambda y; U (3, w); T (1, c); Hoist_vars [c]; T (1, x);  T (3, h); T (64, c); T (34, x);  Lambda_apply y [((Iter 1), (Arg 4)); ((Iter 5), (Arg 6))]; T (32, f);  T (4, c); T (1, x)]"
56.30,18482968,15228974,"[V f; U (1, f); ULambda y; U (3, w); T (32, c); Hoist_vars [c]; T (1, x);  T (3, h); T (8, c); T (1, x);  Lambda_apply y [((Iter 1), (Arg 4)); ((Iter 5), (Arg 6))]; T (32, f);  T (1, c); T (34, x)]"
64.13,31637953,2354849,"[V f; U (1, f); ULambda y; U (3, w); T (8, c); Hoist_vars [c]; T (17, x);  T (3, h); T (1, c); T (1, x);  Lambda_apply y [((Iter 2), (Arg 5)); ((Iter 3), (Arg 8))]; T (32, f);  T (32, c); T (2, x)]"
53.21,15109029,12669416,"[V f; U (1, f); ULambda y; U (3, w); T (256, c); Hoist_vars [c]; T (2, x);  T (3, h); T (1, c); T (1, x);  Lambda_apply y [((Iter 2), (Arg 5)); ((Iter 3), (Arg 8))]; T (32, f);  T (1, c); T (17, x)]"
40.76,49801670,3152886,"[V f; U (1, f); ULambda y; U (3, w); T (2, c); Hoist_vars [c]; T (17, x);  T (3, h); T (16, c); T (2, x);  Lambda_apply y [((Iter 3), (Arg 6)); ((Iter 2), (Arg 8))]; T (32, f);  T (8, c); T (1, x)]"
36.18,23943413,4480372,"[V f; U (1, f); ULambda y; U (3, w); T (1, c); Hoist_vars [c]; T (2, x);  T (3, h); T (64, c); T (17, x);  Lambda_apply y [((Iter 3), (Arg 6)); ((Iter 2), (Arg 8))]; T (32, f);  T (4, c); T (1, x)]"
40.78,50008357,4207280,"[V f; U (1, f); ULambda y; U (3, w); T (2, c); Hoist_vars [c]; T (17, x);  T (3, h); T (32, c); T (1, x);  Lambda_apply y [((Iter 3), (Arg 6)); ((Iter 2), (Arg 8))]; T (32, f);  T (4, c); T (2, x)]"
41.00,22298398,6519088,"[V f; U (1, f); ULambda y; U (3, w); T (2, c); Hoist_vars [c]; T (2, x);  T (3, h); T (64, c); T (1, x);  Lambda_apply y [((Iter 3), (Arg 6)); ((Iter 2), (Arg 8))]; T (32, f);  T (2, c); T (17, x)]"
66.72,36165369,6916947,"[V f; U (2, f); ULambda y; U (3, w); T (4, c); Hoist_vars [c]; T (34, x);  T (3, h); T (1, f); T (1, x);  Lambda_apply y [((Iter 1), (Arg 4)); ((Iter 5), (Arg 6))]; T (8, f);  T (64, c); T (2, f)]"
85.19,22586853,3937037,"[V f; U (2, f); ULambda y; U (3, w); T (16, c); Hoist_vars [c]; T (2, x);  T (3, h); T (2, f); T (17, x);  Lambda_apply y [((Iter 5), (Arg 4)); ((Iter 2), (Arg 7))]; T (1, f);  T (16, c); T (8, f)]"
93.48,19868096,2173677,"[V f; U (2, f); ULambda y; U (3, w); T (32, c); Hoist_vars [c]; T (1, x);  T (3, h); T (2, f); T (34, x);  Lambda_apply y [((Iter 5), (Arg 4)); ((Iter 2), (Arg 7))]; T (2, f);  T (8, c); T (4, f)]"
78.31,24690208,5515856,"[V f; U (2, f); ULambda y; U (3, w); T (4, c); Hoist_vars [c]; T (1, x);  T (3, h); T (8, f); T (34, x);  Lambda_apply y [((Iter 5), (Arg 4)); ((Iter 2), (Arg 7))]; T (1, f);  T (64, c); T (2, f)]"
91.58,18401264,2242872,"[V f; U (2, f); ULambda y; U (3, w); T (32, c); Hoist_vars [c]; T (17, x);  T (3, h); T (2, f); T (2, x);  Lambda_apply y [((Iter 1), (Arg 4)); ((Iter 3), (Arg 10))]; T (4, f);  T (8, c); T (2, f)]"
37.54,39983989,25668353,"[V f; U (2, f); ULambda y; U (3, w); T (2, c); Hoist_vars [c]; T (2, x);  T (3, h); T (1, f); T (17, x);  Lambda_apply y [((Iter 1), (Arg 4)); ((Iter 3), (Arg 10))]; T (1, f);  T (128, c); T (16, f)]"
49.88,37231709,6657987,"[V f; U (2, f); ULambda y; U (3, w); T (2, c); Hoist_vars [c]; T (2, x);  T (3, h); T (16, f); T (17, x);  Lambda_apply y [((Iter 3), (Arg 4)); ((Iter 2), (Arg 11))]; T (1, f);  T (128, c); T (1, f)]"
88.17,17577932,1004687,"[V f; U (2, f); ULambda y; U (3, w); T (16, c); Hoist_vars [c]; T (2, x);  T (3, h); T (16, f); T (17, x);  Lambda_apply y [((Iter 2), (Arg 5)); ((Iter 3), (Arg 8))]; T (1, f);  T (16, c); T (1, f)]"
76.66,13815065,13008619,"[V f; U (2, f); ULambda y; U (3, w); T (256, c); Hoist_vars [c]; T (1, x);  T (3, h); T (1, f); T (34, x);  Lambda_apply y [((Iter 2), (Arg 5)); ((Iter 3), (Arg 8))]; T (16, f);  T (1, c); T (1, f)]"
78.19,17312829,7732113,"[V f; U (2, f); ULambda y; U (3, w); T (64, c); Hoist_vars [c]; T (1, x);  T (3, h); T (4, f); T (34, x);  Lambda_apply y [((Iter 5), (Arg 5)); ((Iter 1), (Arg 9))]; T (4, f);  T (4, c); T (1, f)]"
87.47,19424558,3757342,"[V f; U (2, f); ULambda y; U (3, w); T (16, c); Hoist_vars [c]; T (1, x);  T (3, h); T (2, f); T (34, x);  Lambda_apply y [((Iter 5), (Arg 5)); ((Iter 1), (Arg 9))]; T (4, f);  T (16, c); T (2, f)]"
75.29,14378956,12143958,"[V f; U (2, f); ULambda y; U (3, w); T (256, c); Hoist_vars [c]; T (17, x);  T (3, h); T (4, f); T (2, x);  Lambda_apply y [((Iter 1), (Arg 6)); ((Iter 4), (Arg 7))]; T (2, f);  T (1, c); T (2, f)]"
81.46,22164484,3136524,"[V f; U (2, f); ULambda y; U (3, w); T (8, c); Hoist_vars [c]; T (2, x);  T (3, h); T (8, f); T (17, x);  Lambda_apply y [((Iter 1), (Arg 6)); ((Iter 4), (Arg 7))]; T (1, f);  T (32, c); T (2, f)]"
92.63,16750364,1542492,"[V f; U (2, f); ULambda y; U (3, w); T (32, c); Hoist_vars [c]; T (34, x);  T (3, h); T (4, f); T (1, x);  Lambda_apply y [((Iter 3), (Arg 6)); ((Iter 2), (Arg 8))]; T (4, f);  T (8, c); T (1, f)]"
30.48,74153996,14460654,"[V f; U (2, f); ULambda y; U (3, w); T (1, c); Hoist_vars [c]; T (17, x);  T (3, h); T (8, f); T (2, x);  Lambda_apply y [((Iter 3), (Arg 6)); ((Iter 2), (Arg 8))]; T (2, f);  T (256, c); T (1, f)]"
66.81,28888612,8511946,"[V f; U (2, f); ULambda y; U (3, w); T (4, c); Hoist_vars [c]; T (2, x);  T (3, h); T (4, f); T (17, x);  Lambda_apply y [((Iter 3), (Arg 6)); ((Iter 2), (Arg 8))]; T (4, f);  T (64, c); T (1, f)]"
37.49,37002301,14164853,"[V f; U (2, f); ULambda y; U (3, w); T (1, c); Hoist_vars [c]; T (2, x);  T (3, h); T (1, f); T (17, x);  Lambda_apply y [((Iter 3), (Arg 6)); ((Iter 2), (Arg 8))]; T (16, f);  T (256, c); T (1, f)]"
87.53,16205659,3831160,"[V f; U (2, f); ULambda y; U (3, w); T (64, c); Hoist_vars [c]; T (2, x);  T (3, h); T (4, f); T (17, x);  Lambda_apply y [((Iter 4), (Arg 6)); ((Iter 1), (Arg 10))]; T (1, f);  T (4, c); T (4, f)]"
76.03,15273613,13018039,"[V f; U (2, f); ULambda y; U (3, w); T (256, c); Hoist_vars [c]; T (1, x);  T (3, h); T (1, f); T (34, x);  Lambda_apply y [((Iter 4), (Arg 6)); ((Iter 1), (Arg 10))]; T (4, f);  T (1, c); T (4, f)]"
39.94,40508077,14002754,"[V f; U (2, f); ULambda y; U (3, w); T (1, c); Hoist_vars [c]; T (1, x);  T (3, h); T (1, f); T (34, x);  Lambda_apply y [((Iter 4), (Arg 6)); ((Iter 1), (Arg 10))]; T (16, f);  T (256, c); T (1, f)]"
92.46,14870776,1950303,"[V f; U (2, f); ULambda y; U (3, w); T (64, c); Hoist_vars [c]; T (34, x);  T (3, h); T (1, f); T (1, x);  Lambda_apply y [((Iter 1), (Arg 7)); ((Iter 3), (Arg 9))]; T (1, f);  T (4, c); T (16, f)]"
78.09,13513184,10223948,"[V f; U (2, f); ULambda y; U (3, w); T (128, c); Hoist_vars [c]; T (1, x);  T (3, h); T (8, f); T (34, x);  Lambda_apply y [((Iter 1), (Arg 7)); ((Iter 3), (Arg 9))]; T (1, f);  T (2, c); T (2, f)]"
63.37,39123583,6578861,"[V f; U (2, f); ULambda y; U (3, w); T (4, c); Hoist_vars [c]; T (34, x);  T (3, h); T (2, f); T (1, x);  Lambda_apply y [((Iter 3), (Arg 7)); ((Iter 1), (Arg 13))]; T (4, f);  T (64, c); T (2, f)]"
92.90,18829767,1847603,"[V f; U (2, f); ULambda y; U (3, w); T (64, c); Hoist_vars [c]; T (17, x);  T (3, h); T (2, f); T (2, x);  Lambda_apply y [((Iter 3), (Arg 7)); ((Iter 1), (Arg 13))]; T (8, f);  T (4, c); T (1, f)]"
28.49,74210779,15009003,"[V f; U (2, f); ULambda y; U (3, w); T (1, c); Hoist_vars [c]; T (17, x);  T (3, h); T (1, f); T (2, x);  Lambda_apply y [((Iter 3), (Arg 7)); ((Iter 1), (Arg 13))]; T (4, f);  T (256, c); T (4, f)]"
89.91,18600618,2852858,"[V f; U (2, f); ULambda y; U (3, w); T (32, c); Hoist_vars [c]; T (1, x);  T (3, h); T (1, f); T (34, x);  Lambda_apply y [((Iter 3), (Arg 7)); ((Iter 1), (Arg 13))]; T (4, f);  T (8, c); T (4, f)]"
91.29,15588509,1674229,"[V f; U (2, f); ULambda y; U (3, w); T (32, c); Hoist_vars [c]; T (34, x);  T (3, h); T (4, f); T (1, x);  Lambda_apply y [((Iter 3), (Arg 8)); ((Iter 1), (Arg 10))]; T (4, f);  T (8, c); T (1, f)]"
90.44,15619969,2431757,"[V f; U (2, f); ULambda y; U (3, w); T (32, c); Hoist_vars [c]; T (34, x);  T (3, h); T (1, f); T (1, x);  Lambda_apply y [((Iter 3), (Arg 8)); ((Iter 1), (Arg 10))]; T (2, f);  T (8, c); T (8, f)]"
77.14,12881556,10220113,"[V f; U (2, f); ULambda y; U (3, w); T (128, c); Hoist_vars [c]; T (1, x);  T (3, h); T (8, f); T (34, x);  Lambda_apply y [((Iter 3), (Arg 8)); ((Iter 1), (Arg 10))]; T (2, f);  T (2, c); T (1, f)]"
73.69,19679162,8879004,"[V f; U (2, f); ULambda y; U (3, w); T (8, c); Hoist_vars [c]; T (1, x);  T (3, h); T (1, f); T (34, x);  Lambda_apply y [((Iter 3), (Arg 8)); ((Iter 1), (Arg 10))]; T (8, f);  T (32, c); T (2, f)]"
73.16,22598544,8393738,"[V f; U (2, f); ULambda y; U (3, w); T (4, c); Hoist_vars [c]; T (1, x);  T (3, h); T (4, f); T (34, x);  Lambda_apply y [((Iter 3), (Arg 8)); ((Iter 1), (Arg 10))]; T (4, f);  T (64, c); T (1, f)]"
89.81,23755084,1841308,"[V f; U (2, f); ULambda y; U (3, w); T (32, c); Hoist_vars [c]; T (34, x);  T (3, h); T (8, f); T (1, x);  Lambda_apply y [((Iter 1), (Arg 8)); ((Iter 2), (Arg 13))]; T (2, f);  T (8, c); T (1, f)]"
85.70,25700421,1603953,"[V f; U (2, f); ULambda y; U (3, w); T (16, c); Hoist_vars [c]; T (17, x);  T (3, h); T (16, f); T (2, x);  Lambda_apply y [((Iter 1), (Arg 8)); ((Iter 2), (Arg 13))]; T (1, f);  T (16, c); T (1, f)]"
47.27,39154697,21987932,"[V f; U (2, f); ULambda y; U (3, w); T (4, c); Hoist_vars [c]; T (2, x);  T (3, h); T (1, f); T (17, x);  Lambda_apply y [((Iter 1), (Arg 8)); ((Iter 2), (Arg 13))]; T (4, f);  T (64, c); T (4, f)]"
34.91,48015306,25438271,"[V f; U (2, f); ULambda y; U (3, w); T (2, c); Hoist_vars [c]; T (2, x);  T (3, h); T (2, f); T (17, x);  Lambda_apply y [((Iter 1), (Arg 8)); ((Iter 2), (Arg 13))]; T (8, f);  T (128, c); T (1, f)]"
49.83,31165965,14043433,"[V f; U (2, f); ULambda y; U (3, w); T (2, c); Hoist_vars [c]; T (1, x);  T (3, h); T (4, f); T (34, x);  Lambda_apply y [((Iter 1), (Arg 8)); ((Iter 2), (Arg 13))]; T (4, f);  T (128, c); T (1, f)]"
81.74,21712316,4782494,"[V f; U (2, f); ULambda y; U (3, w); T (16, c); Hoist_vars [c]; T (17, x);  T (3, h); T (1, f); T (2, x);  Lambda_apply y [((Iter 1), (Arg 10)); ((Iter 2), (Arg 12))]; T (8, f);  T (16, c); T (2, f)]"
44.13,48745486,8184487,"[V f; U (2, f); ULambda y; U (3, w); T (2, c); Hoist_vars [c]; T (17, x);  T (3, h); T (4, f); T (2, x);  Lambda_apply y [((Iter 1), (Arg 10)); ((Iter 2), (Arg 12))]; T (4, f);  T (128, c); T (1, f)]"
49.05,27648624,16544759,"[V f; U (2, f); ULambda y; U (3, w); T (2, c); Hoist_vars [c]; T (1, x);  T (3, h); T (2, f); T (34, x);  Lambda_apply y [((Iter 1), (Arg 10)); ((Iter 2), (Arg 12))]; T (8, f);  T (128, c); T (1, f)]"
78.02,21556895,5255589,"[V f; U (2, f); ULambda y; U (3, w); T (16, c); Hoist_vars [c]; T (34, x);  T (3, h); T (1, f); T (1, x);  Lambda_apply y [((Iter 2), (Arg 11)); ((Iter 1), (Arg 12))]; T (4, f);  T (16, c); T (4, f)]"
51.55,39220105,15447695,"[V f; U (2, f); ULambda y; U (3, w); T (4, c); Hoist_vars [c]; T (2, x);  T (3, h); T (2, f); T (17, x);  Lambda_apply y [((Iter 2), (Arg 11)); ((Iter 1), (Arg 12))]; T (1, f);  T (64, c); T (8, f)]"
89.89,17752008,2240459,"[V f; U (2, f); ULambda y; U (3, w); T (32, c); Hoist_vars [c]; T (1, x);  T (3, h); T (2, f); T (34, x);  Lambda_apply y [((Iter 2), (Arg 11)); ((Iter 1), (Arg 12))]; T (1, f);  T (8, c); T (8, f)]"
58.64,27058223,14989332,"[V f; U (4, f); ULambda y; U (3, w); T (1, c); Hoist_vars [c]; T (1, x);  T (3, h); T (4, f); T (34, x);  Lambda_apply y [((Iter 1), (Arg 4)); ((Iter 5), (Arg 6))]; T (2, f);  T (256, c); T (1, f)]"
94.19,19522971,1685299,"[V f; U (4, f); ULambda y; U (3, w); T (64, c); Hoist_vars [c]; T (34, x);  T (3, h); T (2, f); T (1, x);  Lambda_apply y [((Iter 5), (Arg 4)); ((Iter 2), (Arg 7))]; T (1, f);  T (4, c); T (4, f)]"
84.03,26147258,1982911,"[V f; U (4, f); ULambda y; U (3, w); T (8, c); Hoist_vars [c]; T (2, x);  T (3, h); T (8, f); T (17, x);  Lambda_apply y [((Iter 5), (Arg 4)); ((Iter 2), (Arg 7))]; T (1, f);  T (32, c); T (1, f)]"
45.91,27277460,17119736,"[V f; U (4, f); ULambda y; U (3, w); T (1, c); Hoist_vars [c]; T (2, x);  T (3, h); T (2, f); T (17, x);  Lambda_apply y [((Iter 5), (Arg 4)); ((Iter 2), (Arg 7))]; T (4, f);  T (256, c); T (1, f)]"
72.39,31670954,1644378,"[V f; U (1, f); ULambda y; U (3, h); U (3, w); T (1, c); Hoist_vars [c];  T (34, x); T (16, c); T (1, x);  Lambda_apply y [((Iter 1), (Arg 4)); ((Iter 5), (Arg 6))]; T (32, f);  T (16, c); T (1, x)]"
69.45,30296965,7734314,"[V f; U (1, f); ULambda y; U (3, h); U (3, w); T (4, c); Hoist_vars [c];  T (17, x); T (1, c); T (2, x);  Lambda_apply y [((Iter 1), (Arg 4)); ((Iter 5), (Arg 6))]; T (32, f);  T (64, c); T (1, x)]"
79.00,24709248,1889359,"[V f; U (1, f); ULambda y; U (3, h); U (3, w); T (2, c); Hoist_vars [c];  T (1, x); T (4, c); T (17, x);  Lambda_apply y [((Iter 1), (Arg 4)); ((Iter 5), (Arg 6))]; T (32, f);  T (32, c); T (2, x)]"
53.19,20337489,18203047,"[V f; U (1, f); ULambda y; U (3, h); U (3, w); T (256, c); Hoist_vars [c];  T (34, x); T (1, c); T (1, x);  Lambda_apply y [((Iter 5), (Arg 4)); ((Iter 2), (Arg 7))]; T (32, f);  T (1, c); T (1, x)]"
74.77,33601170,4730631,"[V f; U (1, f); ULambda y; U (3, h); U (3, w); T (4, c); Hoist_vars [c];  T (34, x); T (2, c); T (1, x);  Lambda_apply y [((Iter 5), (Arg 4)); ((Iter 2), (Arg 7))]; T (32, f);  T (32, c); T (1, x)]"
52.64,21653653,18278745,"[V f; U (1, f); ULambda y; U (3, h); U (3, w); T (8, c); Hoist_vars [c];  T (1, x); T (16, c); T (34, x);  Lambda_apply y [((Iter 5), (Arg 4)); ((Iter 2), (Arg 7))]; T (32, f);  T (2, c); T (1, x)]"
74.86,34278089,2661181,"[V f; U (1, f); ULambda y; U (3, h); U (3, w); T (4, c); Hoist_vars [c];  T (17, x); T (1, c); T (1, x);  Lambda_apply y [((Iter 5), (Arg 4)); ((Iter 2), (Arg 7))]; T (32, f);  T (64, c); T (2, x)]"
64.56,22106558,8056782,"[V f; U (1, f); ULambda y; U (3, h); U (3, w); T (16, c); Hoist_vars [c];  T (1, x); T (4, c); T (2, x);  Lambda_apply y [((Iter 5), (Arg 4)); ((Iter 2), (Arg 7))]; T (32, f);  T (4, c); T (17, x)]"
68.55,19540646,10765675,"[V f; U (1, f); ULambda y; U (3, h); U (3, w); T (128, c); Hoist_vars [c];  T (17, x); T (2, c); T (2, x);  Lambda_apply y [((Iter 1), (Arg 4)); ((Iter 3), (Arg 10))]; T (32, f);  T (1, c); T (1, x)]"
48.55,34507945,4175586,"[V f; U (1, f); ULambda y; U (3, h); U (3, w); T (1, c); Hoist_vars [c];  T (1, x); T (2, c); T (17, x);  Lambda_apply y [((Iter 1), (Arg 4)); ((Iter 3), (Arg 10))]; T (32, f);  T (128, c); T (2, x)]"
66.83,33441427,8900776,"[V f; U (1, f); ULambda y; U (3, h); U (3, w); T (4, c); Hoist_vars [c];  T (34, x); T (1, c); T (1, x);  Lambda_apply y [((Iter 3), (Arg 4)); ((Iter 2), (Arg 11))]; T (32, f);  T (64, c); T (1, x)]"
66.20,35592055,8755287,"[V f; U (1, f); ULambda y; U (3, h); U (3, w); T (4, c); Hoist_vars [c];  T (17, x); T (1, c); T (2, x);  Lambda_apply y [((Iter 5), (Arg 4)); ((Iter 1), (Arg 14))]; T (32, f);  T (64, c); T (1, x)]"
64.94,26708221,4906785,"[V f; U (1, f); ULambda y; U (3, h); U (3, w); T (1, c); Hoist_vars [c];  T (2, x); T (32, c); T (17, x);  Lambda_apply y [((Iter 5), (Arg 4)); ((Iter 1), (Arg 14))]; T (32, f);  T (8, c); T (1, x)]"
91.34,30065961,1190651,"[V f; U (1, f); ULambda y; U (3, h); U (3, w); T (16, c); Hoist_vars [c];  T (1, x); T (1, c); T (17, x);  Lambda_apply y [((Iter 5), (Arg 4)); ((Iter 1), (Arg 14))]; T (32, f);  T (16, c); T (2, x)]"
70.07,31871706,5206101,"[V f; U (1, f); ULambda y; U (3, h); U (3, w); T (2, c); Hoist_vars [c];  T (17, x); T (32, c); T (1, x);  Lambda_apply y [((Iter 5), (Arg 5)); ((Iter 1), (Arg 9))]; T (32, f);  T (4, c); T (2, x)]"
91.49,27336183,1160288,"[V f; U (1, f); ULambda y; U (3, h); U (3, w); T (16, c); Hoist_vars [c];  T (17, x); T (1, c); T (1, x);  Lambda_apply y [((Iter 4), (Arg 5)); ((Iter 1), (Arg 14))]; T (32, f);  T (16, c); T (2, x)]"
66.24,16742417,13238137,"[V f; U (1, f); ULambda y; U (3, h); U (3, w); T (128, c); Hoist_vars [c];  T (34, x); T (2, c); T (1, x);  Lambda_apply y [((Iter 1), (Arg 6)); ((Iter 4), (Arg 7))]; T (32, f);  T (1, c); T (1, x)]"
66.04,32427274,3527773,"[V f; U (1, f); ULambda y; U (3, h); U (3, w); T (1, c); Hoist_vars [c];  T (17, x); T (8, c); T (2, x);  Lambda_apply y [((Iter 1), (Arg 6)); ((Iter 4), (Arg 7))]; T (32, f);  T (32, c); T (1, x)]"
73.94,18264179,6938421,"[V f; U (1, f); ULambda y; U (3, h); U (3, w); T (16, c); Hoist_vars [c];  T (2, x); T (16, c); T (1, x);  Lambda_apply y [((Iter 1), (Arg 6)); ((Iter 4), (Arg 7))]; T (32, f);  T (1, c); T (17, x)]"
69.92,17293201,12866476,"[V f; U (1, f); ULambda y; U (3, h); U (3, w); T (64, c); Hoist_vars [c];  T (1, x); T (2, c); T (2, x);  Lambda_apply y [((Iter 3), (Arg 6)); ((Iter 2), (Arg 8))]; T (32, f);  T (2, c); T (17, x)]"
71.25,18176041,7117912,"[V f; U (1, f); ULambda y; U (3, h); U (3, w); T (32, c); Hoist_vars [c];  T (1, x); T (2, c); T (2, x);  Lambda_apply y [((Iter 3), (Arg 6)); ((Iter 2), (Arg 8))]; T (32, f);  T (4, c); T (17, x)]"
66.72,17236815,13360012,"[V f; U (1, f); ULambda y; U (3, h); U (3, w); T (128, c); Hoist_vars [c];  T (17, x); T (1, c); T (2, x);  Lambda_apply y [((Iter 4), (Arg 6)); ((Iter 1), (Arg 10))]; T (32, f);  T (2, c); T (1, x)]"
58.20,29161700,8776461,"[V f; U (1, f); ULambda y; U (3, h); U (3, w); T (1, c); Hoist_vars [c];  T (17, x); T (2, c); T (2, x);  Lambda_apply y [((Iter 4), (Arg 6)); ((Iter 1), (Arg 10))]; T (32, f);  T (128, c); T (1, x)]"
69.26,17070298,12785609,"[V f; U (1, f); ULambda y; U (3, h); U (3, w); T (64, c); Hoist_vars [c];  T (1, x); T (4, c); T (17, x);  Lambda_apply y [((Iter 4), (Arg 6)); ((Iter 1), (Arg 10))]; T (32, f);  T (1, c); T (2, x)]"
70.83,17868174,12750268,"[V f; U (1, f); ULambda y; U (3, h); U (3, w); T (256, c); Hoist_vars [c];  T (1, x); T (1, c); T (1, x);  Lambda_apply y [((Iter 4), (Arg 6)); ((Iter 1), (Arg 10))]; T (32, f);  T (1, c); T (34, x)]"
65.30,36258821,4131971,"[V f; U (1, f); ULambda y; U (3, h); U (3, w); T (2, c); Hoist_vars [c];  T (34, x); T (128, c); T (1, x);  Lambda_apply y [((Iter 1), (Arg 6)); ((Iter 2), (Arg 14))]; T (32, f);  T (1, c); T (1, x)]"
92.04,19990558,1374569,"[V f; U (1, f); ULambda y; U (3, h); U (3, w); T (16, c); Hoist_vars [c];  T (1, x); T (1, c); T (17, x);  Lambda_apply y [((Iter 3), (Arg 8)); ((Iter 1), (Arg 10))]; T (32, f);  T (16, c); T (2, x)]"
72.37,18949023,10327637,"[V f; U (1, f); ULambda y; U (3, h); U (3, w); T (128, c); Hoist_vars [c];  T (2, x); T (1, c); T (1, x);  Lambda_apply y [((Iter 3), (Arg 8)); ((Iter 1), (Arg 10))]; T (32, f);  T (2, c); T (17, x)]"
71.06,39220422,4504314,"[V f; U (1, f); ULambda y; U (3, h); U (3, w); T (2, c); Hoist_vars [c];  T (1, x); T (2, c); T (1, x);  Lambda_apply y [((Iter 1), (Arg 10)); ((Iter 2), (Arg 12))]; T (32, f);  T (64, c); T (34, x)]"
86.52,29547937,3420912,"[V f; U (1, f); ULambda y; U (3, h); U (3, w); T (8, c); Hoist_vars [c];  T (17, x); T (32, c); T (1, x);  Lambda_apply y [((Iter 2), (Arg 10)); ((Iter 1), (Arg 14))]; T (32, f);  T (1, c); T (2, x)]"
57.09,30931694,4911880,"[V f; U (1, f); ULambda y; U (3, h); U (3, w); T (1, c); Hoist_vars [c];  T (17, x); T (4, c); T (2, x);  Lambda_apply y [((Iter 2), (Arg 11)); ((Iter 1), (Arg 12))]; T (32, f);  T (64, c); T (1, x)]"
60.42,36339777,7157415,"[V f; U (1, f); ULambda y; U (3, h); U (3, w); T (2, c); Hoist_vars [c];  T (2, x); T (16, c); T (17, x);  Lambda_apply y [((Iter 2), (Arg 11)); ((Iter 1), (Arg 12))]; T (32, f);  T (8, c); T (1, x)]"
81.29,33754633,1757693,"[V f; U (1, f); ULambda y; U (3, h); U (3, w); T (4, c); Hoist_vars [c];  T (17, x); T (4, c); T (1, x);  Lambda_apply y [((Iter 2), (Arg 11)); ((Iter 1), (Arg 12))]; T (32, f);  T (16, c); T (2, x)]"
74.57,15809434,5878873,"[V f; U (2, f); ULambda y; U (3, h); U (3, w); T (64, c); Hoist_vars [c];  T (34, x); T (1, f); T (1, x);  Lambda_apply y [((Iter 1), (Arg 6)); ((Iter 4), (Arg 7))]; T (2, f);  T (4, c); T (8, f)]"
95.19,16424155,1512876,"[V f; U (2, f); ULambda y; U (3, h); U (3, w); T (16, c); Hoist_vars [c];  T (1, x); T (8, f); T (34, x);  Lambda_apply y [((Iter 1), (Arg 6)); ((Iter 4), (Arg 7))]; T (1, f);  T (16, c); T (2, f)]"
62.65,16570051,13159776,"[V f; U (2, f); ULambda y; U (3, h); U (3, w); T (1, c); Hoist_vars [c];  T (34, x); T (1, f); T (1, x);  Lambda_apply y [((Iter 3), (Arg 6)); ((Iter 2), (Arg 8))]; T (2, f);  T (256, c); T (8, f)]"
90.16,17482491,2398886,"[V f; U (2, f); ULambda y; U (3, h); U (3, w); T (16, c); Hoist_vars [c];  T (2, x); T (1, f); T (17, x);  Lambda_apply y [((Iter 3), (Arg 6)); ((Iter 2), (Arg 8))]; T (16, f);  T (16, c); T (1, f)]"
77.26,15453888,12929734,"[V f; U (2, f); ULambda y; U (3, h); U (3, w); T (256, c); Hoist_vars [c];  T (34, x); T (1, f); T (1, x);  Lambda_apply y [((Iter 4), (Arg 6)); ((Iter 1), (Arg 10))]; T (16, f);  T (1, c); T (1, f)]"
80.48,15613992,6611445,"[V f; U (2, f); ULambda y; U (3, h); U (3, w); T (64, c); Hoist_vars [c];  T (2, x); T (16, f); T (17, x);  Lambda_apply y [((Iter 4), (Arg 6)); ((Iter 1), (Arg 10))]; T (1, f);  T (4, c); T (1, f)]"
83.94,23731590,2725247,"[V f; U (2, f); ULambda y; U (3, h); U (3, w); T (8, c); Hoist_vars [c];  T (34, x); T (8, f); T (1, x);  Lambda_apply y [((Iter 1), (Arg 6)); ((Iter 2), (Arg 14))]; T (1, f);  T (32, c); T (2, f)]"
45.94,23508382,12486170,"[V f; U (2, f); ULambda y; U (3, h); U (3, w); T (1, c); Hoist_vars [c];  T (2, x); T (2, f); T (17, x);  Lambda_apply y [((Iter 1), (Arg 6)); ((Iter 2), (Arg 14))]; T (8, f);  T (256, c); T (1, f)]"
91.64,17119603,2460967,"[V f; U (2, f); ULambda y; U (3, h); U (3, w); T (16, c); Hoist_vars [c];  T (34, x); T (2, f); T (1, x);  Lambda_apply y [((Iter 1), (Arg 7)); ((Iter 3), (Arg 9))]; T (1, f);  T (16, c); T (8, f)]"
74.70,17783195,10322901,"[V f; U (2, f); ULambda y; U (3, h); U (3, w); T (256, c); Hoist_vars [c];  T (34, x); T (2, f); T (1, x);  Lambda_apply y [((Iter 3), (Arg 7)); ((Iter 1), (Arg 13))]; T (4, f);  T (1, c); T (2, f)]"
76.12,17784953,10458075,"[V f; U (2, f); ULambda y; U (3, h); U (3, w); T (128, c); Hoist_vars [c];  T (2, x); T (2, f); T (17, x);  Lambda_apply y [((Iter 3), (Arg 7)); ((Iter 1), (Arg 13))]; T (8, f);  T (2, c); T (1, f)]"
82.70,15933854,10442179,"[V f; U (2, f); ULambda y; U (3, h); U (3, w); T (128, c); Hoist_vars [c];  T (2, x); T (2, f); T (17, x);  Lambda_apply y [((Iter 3), (Arg 8)); ((Iter 1), (Arg 10))]; T (4, f);  T (2, c); T (2, f)]"
75.62,23119444,10276117,"[V f; U (2, f); ULambda y; U (3, h); U (3, w); T (4, c); Hoist_vars [c];  T (2, x); T (2, f); T (17, x);  Lambda_apply y [((Iter 3), (Arg 8)); ((Iter 1), (Arg 10))]; T (4, f);  T (64, c); T (2, f)]"
92.73,20704695,2023221,"[V f; U (2, f); ULambda y; U (3, h); U (3, w); T (32, c); Hoist_vars [c];  T (34, x); T (1, f); T (1, x);  Lambda_apply y [((Iter 1), (Arg 8)); ((Iter 2), (Arg 13))]; T (1, f);  T (8, c); T (16, f)]"
83.38,23125835,3365247,"[V f; U (2, f); ULambda y; U (3, h); U (3, w); T (8, c); Hoist_vars [c];  T (34, x); T (4, f); T (1, x);  Lambda_apply y [((Iter 1), (Arg 8)); ((Iter 2), (Arg 13))]; T (2, f);  T (32, c); T (2, f)]"
72.33,20059433,7863131,"[V f; U (2, f); ULambda y; U (3, h); U (3, w); T (128, c); Hoist_vars [c];  T (17, x); T (8, f); T (2, x);  Lambda_apply y [((Iter 1), (Arg 8)); ((Iter 2), (Arg 13))]; T (1, f);  T (2, c); T (2, f)]"
69.33,25996889,7106536,"[V f; U (2, f); ULambda y; U (3, h); U (3, w); T (4, c); Hoist_vars [c];  T (17, x); T (2, f); T (2, x);  Lambda_apply y [((Iter 1), (Arg 8)); ((Iter 2), (Arg 13))]; T (4, f);  T (64, c); T (2, f)]"
84.76,21284644,3277308,"[V f; U (2, f); ULambda y; U (3, h); U (3, w); T (8, c); Hoist_vars [c];  T (34, x); T (4, f); T (1, x);  Lambda_apply y [((Iter 1), (Arg 10)); ((Iter 2), (Arg 12))]; T (2, f);  T (32, c); T (2, f)]"
74.84,18550311,7956193,"[V f; U (2, f); ULambda y; U (3, h); U (3, w); T (256, c); Hoist_vars [c];  T (17, x); T (1, f); T (2, x);  Lambda_apply y [((Iter 1), (Arg 10)); ((Iter 2), (Arg 12))]; T (8, f);  T (1, c); T (2, f)]"
76.57,25081725,4736539,"[V f; U (2, f); ULambda y; U (3, h); U (3, w); T (4, c); Hoist_vars [c];  T (17, x); T (4, f); T (2, x);  Lambda_apply y [((Iter 1), (Arg 10)); ((Iter 2), (Arg 12))]; T (2, f);  T (64, c); T (2, f)]"
57.30,18621718,11756846,"[V f; U (2, f); ULambda y; U (3, h); U (3, w); T (1, c); Hoist_vars [c];  T (17, x); T (2, f); T (2, x);  Lambda_apply y [((Iter 1), (Arg 10)); ((Iter 2), (Arg 12))]; T (2, f);  T (256, c); T (4, f)]"
79.29,18874881,4199108,"[V f; U (2, f); ULambda y; U (3, h); U (3, w); T (64, c); Hoist_vars [c];  T (1, x); T (8, f); T (34, x);  Lambda_apply y [((Iter 1), (Arg 10)); ((Iter 2), (Arg 12))]; T (1, f);  T (4, c); T (2, f)]"
93.00,19579564,1631317,"[V f; U (2, f); ULambda y; U (3, h); U (3, w); T (32, c); Hoist_vars [c];  T (2, x); T (2, f); T (17, x);  Lambda_apply y [((Iter 2), (Arg 11)); ((Iter 1), (Arg 12))]; T (8, f);  T (8, c); T (1, f)]"
86.67,21926670,2763808,"[V f; U (2, f); ULambda y; U (3, h); U (3, w); T (8, c); Hoist_vars [c];  T (2, x); T (8, f); T (17, x);  Lambda_apply y [((Iter 2), (Arg 11)); ((Iter 1), (Arg 12))]; T (1, f);  T (32, c); T (2, f)]"
