perf,CACHE_MISS_L1,CACHE_MISS_L2,scheme
95.21,6071743,409511,"[V f; U (2, f); U (7, y); T (64, c); Hoist_vars [c]; T (28, x); T (3, w);  T (3, h); T (1, x); T (8, y); T (4, f); T (2, c); T (2, x)]"
41.20,8146416,1979954,"[V f; U (2, f); U (7, y); T (1, c); Hoist_vars [c]; T (4, x); T (3, w);  T (3, h); T (7, x); T (8, y); T (4, f); T (128, c); T (2, x)]"
84.98,3349769,133454,"[V f; U (2, f); U (7, y); T (8, c); Hoist_vars [c]; T (4, x); T (3, w);  T (3, h); T (1, x); T (8, y); T (4, f); T (16, c); T (14, x)]"
95.25,4626676,442631,"[V f; U (2, f); U (8, y); T (64, c); Hoist_vars [c]; T (1, x); T (3, w);  T (3, h); T (56, x); T (7, y); T (4, f); T (2, c); T (1, x)]"
59.77,4652998,163138,"[V f; U (2, f); U (8, y); T (2, c); Hoist_vars [c]; T (2, x); T (3, w);  T (3, h); T (4, x); T (7, y); T (4, f); T (64, c); T (7, x)]"
79.53,4325102,742819,"[V f; U (2, f); U (14, y); T (16, c); Hoist_vars [c]; T (28, x); T (3, w);  T (3, h); T (1, x); T (4, y); T (4, f); T (8, c); T (2, x)]"
83.52,9159956,1647040,"[V f; U (4, f); U (4, y); T (4, c); Hoist_vars [c]; T (14, x); T (3, w);  T (3, h); T (2, x); T (14, y); T (2, f); T (32, c); T (2, x)]"
86.61,4865377,227829,"[V f; U (4, f); U (4, y); T (8, c); Hoist_vars [c]; T (2, x); T (3, w);  T (3, h); T (7, x); T (14, y); T (2, f); T (16, c); T (4, x)]"
86.30,3073378,233124,"[V f; U (4, f); U (7, y); T (16, c); Hoist_vars [c]; T (7, x); T (3, w);  T (3, h); T (2, x); T (8, y); T (2, f); T (8, c); T (4, x)]"
94.55,5258971,193721,"[V f; U (4, f); U (7, y); T (64, c); Hoist_vars [c]; T (2, x); T (3, w);  T (3, h); T (7, x); T (8, y); T (2, f); T (2, c); T (4, x)]"
85.71,4773189,1592282,"[V f; U (1, f); U (7, y); U (3, h); T (8, c); Hoist_vars [c]; T (56, x);  T (3, w); T (8, y); T (2, f); T (16, c); T (2, f); T (1, x); T (2, f)]"
91.77,3509753,628979,"[V f; U (1, f); U (7, y); U (3, h); T (16, c); Hoist_vars [c]; T (28, x);  T (3, w); T (8, y); T (4, f); T (8, c); T (2, f); T (2, x); T (1, f)]"
34.45,31192674,793300,"[V f; U (1, f); U (7, y); U (3, h); T (1, c); Hoist_vars [c]; T (14, x);  T (3, w); T (8, y); T (1, f); T (128, c); T (2, f); T (4, x); T (4, f)]"
95.57,5082526,556471,"[V f; U (1, f); U (8, y); U (3, h); T (64, c); Hoist_vars [c]; T (28, x);  T (3, w); T (7, y); T (2, f); T (2, c); T (1, f); T (2, x); T (4, f)]"
81.87,9118131,136348,"[V f; U (1, f); U (8, y); U (3, h); T (2, c); Hoist_vars [c]; T (8, x);  T (3, w); T (7, y); T (8, f); T (64, c); T (1, f); T (7, x); T (1, f)]"
97.18,4299083,306352,"[V f; U (1, f); U (8, y); U (3, h); T (128, c); Hoist_vars [c]; T (7, x);  T (3, w); T (7, y); T (2, f); T (1, c); T (1, f); T (8, x); T (4, f)]"
97.27,4239897,390327,"[V f; U (1, f); U (8, y); U (3, h); T (128, c); Hoist_vars [c]; T (4, x);  T (3, w); T (7, y); T (1, f); T (1, c); T (1, f); T (14, x); T (8, f)]"
96.32,4554677,464227,"[V f; U (1, f); U (8, y); U (3, h); T (64, c); Hoist_vars [c]; T (4, x);  T (3, w); T (7, y); T (1, f); T (2, c); T (1, f); T (14, x); T (8, f)]"
96.91,4323523,207936,"[V f; U (1, f); U (8, y); U (3, h); T (128, c); Hoist_vars [c]; T (2, x);  T (3, w); T (7, y); T (4, f); T (1, c); T (1, f); T (28, x); T (2, f)]"
71.41,11685295,211217,"[V f; U (1, f); U (8, y); U (3, h); T (1, c); Hoist_vars [c]; T (2, x);  T (3, w); T (7, y); T (1, f); T (128, c); T (8, f); T (28, x); T (1, f)]"
95.98,4854366,276076,"[V f; U (1, f); U (8, y); U (3, h); T (64, c); Hoist_vars [c]; T (1, x);  T (3, w); T (7, y); T (2, f); T (2, c); T (1, f); T (56, x); T (4, f)]"
94.82,5613846,202151,"[V f; U (1, f); U (8, y); U (3, h); T (16, c); Hoist_vars [c]; T (1, x);  T (3, w); T (7, y); T (1, f); T (8, c); T (8, f); T (56, x); T (1, f)]"
92.89,3360161,848707,"[V f; U (1, f); U (14, y); U (3, h); T (64, c); Hoist_vars [c]; T (56, x);  T (3, w); T (4, y); T (2, f); T (2, c); T (4, f); T (1, x); T (1, f)]"
58.58,8988447,3866805,"[V f; U (1, f); U (14, y); U (3, h); T (4, c); Hoist_vars [c]; T (56, x);  T (3, w); T (4, y); T (2, f); T (32, c); T (1, f); T (1, x); T (4, f)]"
82.54,4513187,131685,"[V f; U (1, f); U (14, y); U (3, h); T (8, c); Hoist_vars [c]; T (4, x);  T (3, w); T (4, y); T (8, f); T (16, c); T (1, f); T (14, x); T (1, f)]"
51.96,12670671,458783,"[V f; U (1, f); U (14, y); U (3, h); T (1, c); Hoist_vars [c]; T (4, x);  T (3, w); T (4, y); T (2, f); T (128, c); T (1, f); T (14, x); T (4, f)]"
66.78,6361799,4250992,"[V f; U (2, f); U (7, y); U (3, h); T (4, c); Hoist_vars [c]; T (14, x);  T (3, w); T (4, x); T (8, y); T (4, f); T (32, c); T (1, x)]"
97.77,4604427,269501,"[V f; U (2, f); U (7, y); U (3, h); T (128, c); Hoist_vars [c]; T (2, x);  T (3, w); T (28, x); T (8, y); T (4, f); T (1, c); T (1, x)]"
91.00,5732864,230795,"[V f; U (2, f); U (7, y); U (3, h); T (8, c); Hoist_vars [c]; T (1, x);  T (3, w); T (14, x); T (8, y); T (4, f); T (16, c); T (4, x)]"
92.77,4855443,763963,"[V f; U (2, f); U (8, y); U (3, h); T (32, c); Hoist_vars [c]; T (8, x);  T (3, w); T (7, x); T (7, y); T (4, f); T (4, c); T (1, x)]"
97.61,4038849,223544,"[V f; U (2, f); U (8, y); U (3, h); T (128, c); Hoist_vars [c]; T (1, x);  T (3, w); T (8, x); T (7, y); T (4, f); T (1, c); T (7, x)]"
94.40,7962523,123324,"[V f; U (4, f); U (2, y); U (3, h); T (8, c); Hoist_vars [c]; T (2, x);  T (3, w); T (1, x); T (28, y); T (2, f); T (16, c); T (28, x)]"
97.09,4739203,200484,"[V f; U (4, f); U (7, y); U (3, h); T (64, c); Hoist_vars [c]; T (7, x);  T (3, w); T (2, x); T (8, y); T (2, f); T (2, c); T (4, x)]"
93.04,5684204,570247,"[V f; U (1, f); U (7, y); U (3, w); T (64, c); Hoist_vars [c]; T (28, x);  T (3, h); T (8, y); T (2, f); T (2, c); T (1, f); T (2, x); T (4, f)]"
94.24,5201889,438643,"[V f; U (1, f); U (7, y); U (3, w); T (128, c); Hoist_vars [c]; T (8, x);  T (3, h); T (8, y); T (2, f); T (1, c); T (1, f); T (7, x); T (4, f)]"
56.68,16613663,398443,"[V f; U (1, f); U (7, y); U (3, w); T (1, c); Hoist_vars [c]; T (8, x);  T (3, h); T (8, y); T (1, f); T (128, c); T (4, f); T (7, x); T (2, f)]"
94.38,5421174,213838,"[V f; U (1, f); U (7, y); U (3, w); T (64, c); Hoist_vars [c]; T (2, x);  T (3, h); T (8, y); T (4, f); T (2, c); T (1, f); T (28, x); T (2, f)]"
51.25,11916969,163783,"[V f; U (1, f); U (7, y); U (3, w); T (1, c); Hoist_vars [c]; T (2, x);  T (3, h); T (8, y); T (2, f); T (128, c); T (4, f); T (28, x); T (1, f)]"
53.83,16708722,700958,"[V f; U (1, f); U (8, y); U (3, w); T (1, c); Hoist_vars [c]; T (7, x);  T (3, h); T (7, y); T (1, f); T (128, c); T (1, f); T (8, x); T (8, f)]"
51.04,7866322,171368,"[V f; U (1, f); U (8, y); U (3, w); T (2, c); Hoist_vars [c]; T (4, x);  T (3, h); T (7, y); T (2, f); T (64, c); T (4, f); T (14, x); T (1, f)]"
94.52,8519358,738301,"[V f; U (2, f); U (4, y); U (3, w); T (32, c); Hoist_vars [c]; T (14, x);  T (3, h); T (4, x); T (14, y); T (4, f); T (4, c); T (1, x)]"
77.60,5254133,1846358,"[V f; U (2, f); U (4, y); U (3, w); T (4, c); Hoist_vars [c]; T (4, x);  T (3, h); T (7, x); T (14, y); T (4, f); T (32, c); T (2, x)]"
72.44,8453749,234970,"[V f; U (2, f); U (4, y); U (3, w); T (1, c); Hoist_vars [c]; T (2, x);  T (3, h); T (7, x); T (14, y); T (4, f); T (128, c); T (4, x)]"
96.05,4299342,371164,"[V f; U (2, f); U (8, y); U (3, w); T (128, c); Hoist_vars [c]; T (2, x);  T (3, h); T (14, x); T (7, y); T (4, f); T (1, c); T (2, x)]"
97.11,15305434,130966,"[V f; U (8, f); U (2, y); U (3, w); T (64, c); Hoist_vars [c]; T (4, x);  T (3, h); T (7, x); T (28, y); T (2, c); T (2, x)]"
87.52,4675943,143992,"[V f; U (8, f); U (2, y); U (3, w); T (2, c); Hoist_vars [c]; T (8, x);  T (3, h); T (1, x); T (28, y); T (64, c); T (7, x)]"
95.65,15474943,137653,"[V f; U (8, f); U (2, y); U (3, w); T (32, c); Hoist_vars [c]; T (4, x);  T (3, h); T (2, x); T (28, y); T (4, c); T (7, x)]"
90.73,11579098,118399,"[V f; U (8, f); U (2, y); U (3, w); T (4, c); Hoist_vars [c]; T (1, x);  T (3, h); T (2, x); T (28, y); T (32, c); T (28, x)]"
89.60,5746412,596764,"[V f; U (1, f); U (7, y); U (3, h); U (3, w); T (8, c); Hoist_vars [c];  T (28, x); T (8, f); T (1, x); T (8, y); T (16, c); T (2, x)]"
91.43,6577135,132493,"[V f; U (1, f); U (8, y); U (3, h); U (3, w); T (1, c); Hoist_vars [c];  T (1, x); T (8, f); T (8, x); T (7, y); T (128, c); T (7, x)]"
60.61,5270606,4710453,"[V f; U (1, f); U (14, y); U (3, h); U (3, w); T (1, c); Hoist_vars [c];  T (1, x); T (8, f); T (56, x); T (4, y); T (128, c); T (1, x)]"
76.28,7480082,266496,"[V f; U (1, f); U (14, y); U (3, h); U (3, w); T (1, c); Hoist_vars [c];  T (14, x); T (8, f); T (1, x); T (4, y); T (128, c); T (4, x)]"
94.26,3732931,145533,"[V f; U (1, f); U (14, y); U (3, h); U (3, w); T (8, c); Hoist_vars [c];  T (1, x); T (8, f); T (7, x); T (4, y); T (16, c); T (8, x)]"
96.50,3024756,109822,"[V f; U (1, f); U (14, y); U (3, h); U (3, w); T (16, c); Hoist_vars [c];  T (1, x); T (8, f); T (4, x); T (4, y); T (8, c); T (14, x)]"
93.40,5249476,876304,"[V f; U (2, f); U (7, y); U (3, h); U (3, w); T (16, c); Hoist_vars [c];  T (14, x); T (2, x); T (8, y); T (4, f); T (8, c); T (2, x)]"
85.75,6849979,134379,"[V f; U (2, f); U (7, y); U (3, h); U (3, w); T (2, c); Hoist_vars [c];  T (1, x); T (7, x); T (8, y); T (4, f); T (64, c); T (8, x)]"
93.68,4446705,670678,"[V f; U (2, f); U (8, y); U (3, h); U (3, w); T (32, c); Hoist_vars [c];  T (28, x); T (2, x); T (7, y); T (4, f); T (4, c); T (1, x)]"
95.80,4724718,141285,"[V f; U (2, f); U (8, y); U (3, h); U (3, w); T (16, c); Hoist_vars [c];  T (1, x); T (8, x); T (7, y); T (4, f); T (8, c); T (7, x)]"
65.46,4959280,4005206,"[V f; U (2, f); U (14, y); U (3, h); U (3, w); T (4, c); Hoist_vars [c];  T (1, x); T (56, x); T (4, y); T (4, f); T (32, c); T (1, x)]"
55.20,15146617,142406,"[V f; U (2, f); ULambda y; T (2, c); Hoist_vars [c]; T (8, x); T (3, w);  T (3, h); T (1, x);  Lambda_apply y [((Iter 5), (Arg 9)); ((Iter 1), (Arg 11))]; T (4, f);  T (64, c); T (7, x)]"
83.61,4486440,139128,"[V f; U (2, f); ULambda y; T (8, c); Hoist_vars [c]; T (1, x); T (3, w);  T (3, h); T (7, x);  Lambda_apply y [((Iter 5), (Arg 9)); ((Iter 1), (Arg 11))]; T (4, f);  T (16, c); T (8, x)]"
48.84,8031988,2804467,"[V f; U (2, f); ULambda y; T (2, c); Hoist_vars [c]; T (4, x); T (3, w);  T (3, h); T (7, x);  Lambda_apply y [((Iter 4), (Arg 11)); ((Iter 1), (Arg 12))]; T (4, f);  T (64, c); T (2, x)]"
50.35,4495959,1423556,"[V f; U (2, f); ULambda y; T (2, c); Hoist_vars [c]; T (2, x); T (3, w);  T (3, h); T (14, x);  Lambda_apply y [((Iter 4), (Arg 11)); ((Iter 1), (Arg 12))]; T (4, f);  T (64, c); T (2, x)]"
96.29,3787212,89828,"[V f; U (2, f); ULambda y; T (64, c); Hoist_vars [c]; T (1, x); T (3, w);  T (3, h); T (1, x);  Lambda_apply y [((Iter 4), (Arg 11)); ((Iter 1), (Arg 12))]; T (4, f);  T (2, c); T (56, x)]"
92.43,4259132,423284,"[V f; U (2, f); ULambda y; T (64, c); Hoist_vars [c]; T (14, x); T (3, w);  T (3, h); T (2, x);  Lambda_apply y [((Iter 1), (Arg 11)); ((Iter 3), (Arg 15))]; T (4, f);  T (2, c); T (2, x)]"
94.85,5731628,241121,"[V f; U (4, f); ULambda y; T (64, c); Hoist_vars [c]; T (8, x); T (3, w);  T (3, h); T (7, x);  Lambda_apply y [((Iter 7), (Arg 5)); ((Iter 3), (Arg 7))]; T (2, f);  T (2, c); T (1, x)]"
72.82,3936472,133922,"[V f; U (4, f); ULambda y; T (4, c); Hoist_vars [c]; T (4, x); T (3, w);  T (3, h); T (2, x);  Lambda_apply y [((Iter 7), (Arg 6)); ((Iter 2), (Arg 7))]; T (2, f);  T (32, c); T (7, x)]"
61.46,11990027,3210478,"[V f; U (1, f); ULambda y; U (3, h); T (2, c); Hoist_vars [c]; T (56, x);  T (3, w); Lambda_apply y [((Iter 7), (Arg 6)); ((Iter 2), (Arg 7))];  T (1, f); T (64, c); T (1, f); T (1, x); T (8, f)]"
97.56,6318909,123335,"[V f; U (1, f); ULambda y; U (3, h); T (32, c); Hoist_vars [c]; T (1, x);  T (3, w); Lambda_apply y [((Iter 7), (Arg 6)); ((Iter 2), (Arg 7))];  T (4, f); T (4, c); T (1, f); T (56, x); T (2, f)]"
88.37,9438853,297058,"[V f; U (1, f); ULambda y; U (3, h); T (2, c); Hoist_vars [c]; T (1, x);  T (3, w); Lambda_apply y [((Iter 7), (Arg 6)); ((Iter 2), (Arg 7))];  T (1, f); T (64, c); T (8, f); T (56, x); T (1, f)]"
96.21,5165900,534596,"[V f; U (1, f); ULambda y; U (3, h); T (128, c); Hoist_vars [c]; T (56, x);  T (3, w); Lambda_apply y [((Iter 7), (Arg 6)); ((Iter 1), (Arg 14))];  T (1, f); T (1, c); T (4, f); T (1, x); T (2, f)]"
91.08,6128964,968900,"[V f; U (1, f); ULambda y; U (3, h); T (32, c); Hoist_vars [c]; T (56, x);  T (3, w); Lambda_apply y [((Iter 7), (Arg 6)); ((Iter 1), (Arg 14))];  T (1, f); T (4, c); T (8, f); T (1, x); T (1, f)]"
93.95,6125528,706441,"[V f; U (1, f); ULambda y; U (3, h); T (32, c); Hoist_vars [c]; T (28, x);  T (3, w); Lambda_apply y [((Iter 7), (Arg 6)); ((Iter 1), (Arg 14))];  T (2, f); T (4, c); T (1, f); T (2, x); T (4, f)]"
74.07,8736041,1517239,"[V f; U (1, f); ULambda y; U (3, h); T (4, c); Hoist_vars [c]; T (28, x);  T (3, w); Lambda_apply y [((Iter 5), (Arg 9)); ((Iter 1), (Arg 11))];  T (1, f); T (32, c); T (4, f); T (2, x); T (2, f)]"
96.04,4668123,223526,"[V f; U (1, f); ULambda y; U (3, h); T (32, c); Hoist_vars [c]; T (7, x);  T (3, w); Lambda_apply y [((Iter 5), (Arg 9)); ((Iter 1), (Arg 11))];  T (1, f); T (4, c); T (8, f); T (8, x); T (1, f)]"
71.04,6678866,254801,"[V f; U (1, f); ULambda y; U (3, h); T (2, c); Hoist_vars [c]; T (2, x);  T (3, w); Lambda_apply y [((Iter 5), (Arg 9)); ((Iter 1), (Arg 11))];  T (4, f); T (64, c); T (1, f); T (28, x); T (2, f)]"
74.74,4927296,1925323,"[V f; U (1, f); ULambda y; U (3, h); T (8, c); Hoist_vars [c]; T (56, x);  T (3, w); Lambda_apply y [((Iter 2), (Arg 10)); ((Iter 3), (Arg 12))];  T (1, f); T (16, c); T (1, f); T (1, x); T (8, f)]"
92.61,4522722,648744,"[V f; U (1, f); ULambda y; U (3, h); T (32, c); Hoist_vars [c]; T (28, x);  T (3, w); Lambda_apply y [((Iter 2), (Arg 10)); ((Iter 3), (Arg 12))];  T (1, f); T (4, c); T (8, f); T (2, x); T (1, f)]"
66.18,9097373,2096246,"[V f; U (1, f); ULambda y; U (3, h); T (4, c); Hoist_vars [c]; T (28, x);  T (3, w); Lambda_apply y [((Iter 2), (Arg 10)); ((Iter 3), (Arg 12))];  T (8, f); T (32, c); T (1, f); T (2, x); T (1, f)]"
95.93,4486154,170047,"[V f; U (1, f); ULambda y; U (3, h); T (32, c); Hoist_vars [c]; T (8, x);  T (3, w); Lambda_apply y [((Iter 2), (Arg 10)); ((Iter 3), (Arg 12))];  T (4, f); T (4, c); T (2, f); T (7, x); T (1, f)]"
76.63,8098905,268986,"[V f; U (1, f); ULambda y; U (3, h); T (4, c); Hoist_vars [c]; T (7, x);  T (3, w); Lambda_apply y [((Iter 2), (Arg 10)); ((Iter 3), (Arg 12))];  T (1, f); T (32, c); T (8, f); T (8, x); T (1, f)]"
59.45,12243472,344430,"[V f; U (1, f); ULambda y; U (3, h); T (1, c); Hoist_vars [c]; T (4, x);  T (3, w); Lambda_apply y [((Iter 2), (Arg 10)); ((Iter 3), (Arg 12))];  T (2, f); T (128, c); T (2, f); T (14, x); T (2, f)]"
78.14,5431651,1195825,"[V f; U (1, f); ULambda y; U (3, h); T (8, c); Hoist_vars [c]; T (28, x);  T (3, w); Lambda_apply y [((Iter 3), (Arg 10)); ((Iter 2), (Arg 13))];  T (2, f); T (16, c); T (1, f); T (2, x); T (4, f)]"
96.55,3836834,240394,"[V f; U (1, f); ULambda y; U (3, h); T (64, c); Hoist_vars [c]; T (7, x);  T (3, w); Lambda_apply y [((Iter 3), (Arg 10)); ((Iter 2), (Arg 13))];  T (1, f); T (2, c); T (8, f); T (8, x); T (1, f)]"
70.90,6726719,114956,"[V f; U (1, f); ULambda y; U (3, h); T (4, c); Hoist_vars [c]; T (2, x);  T (3, w); Lambda_apply y [((Iter 3), (Arg 10)); ((Iter 2), (Arg 13))];  T (8, f); T (32, c); T (1, f); T (28, x); T (1, f)]"
60.49,8978108,3438733,"[V f; U (1, f); ULambda y; U (3, h); T (4, c); Hoist_vars [c]; T (56, x);  T (3, w); Lambda_apply y [((Iter 4), (Arg 11)); ((Iter 1), (Arg 12))];  T (1, f); T (32, c); T (4, f); T (1, x); T (2, f)]"
97.31,3476909,173530,"[V f; U (1, f); ULambda y; U (3, h); T (128, c); Hoist_vars [c]; T (7, x);  T (3, w); Lambda_apply y [((Iter 4), (Arg 11)); ((Iter 1), (Arg 12))];  T (2, f); T (1, c); T (4, f); T (8, x); T (1, f)]"
79.14,6745606,133828,"[V f; U (1, f); ULambda y; U (3, h); T (4, c); Hoist_vars [c]; T (4, x);  T (3, w); Lambda_apply y [((Iter 4), (Arg 11)); ((Iter 1), (Arg 12))];  T (4, f); T (32, c); T (2, f); T (14, x); T (1, f)]"
97.40,3623942,161792,"[V f; U (1, f); ULambda y; U (3, h); T (64, c); Hoist_vars [c]; T (2, x);  T (3, w); Lambda_apply y [((Iter 4), (Arg 11)); ((Iter 1), (Arg 12))];  T (8, f); T (2, c); T (1, f); T (28, x); T (1, f)]"
93.78,3952660,160310,"[V f; U (1, f); ULambda y; U (3, h); T (16, c); Hoist_vars [c]; T (2, x);  T (3, w); Lambda_apply y [((Iter 4), (Arg 11)); ((Iter 1), (Arg 12))];  T (4, f); T (8, c); T (1, f); T (28, x); T (2, f)]"
57.84,8913171,3843870,"[V f; U (1, f); ULambda y; U (3, h); T (4, c); Hoist_vars [c]; T (56, x);  T (3, w); Lambda_apply y [((Iter 1), (Arg 11)); ((Iter 3), (Arg 15))];  T (8, f); T (32, c); T (1, f); T (1, x); T (1, f)]"
53.07,11169392,1975935,"[V f; U (1, f); ULambda y; U (3, h); T (2, c); Hoist_vars [c]; T (28, x);  T (3, w); Lambda_apply y [((Iter 1), (Arg 11)); ((Iter 3), (Arg 15))];  T (2, f); T (64, c); T (1, f); T (2, x); T (4, f)]"
94.04,3859087,277119,"[V f; U (1, f); ULambda y; U (3, h); T (32, c); Hoist_vars [c]; T (8, x);  T (3, w); Lambda_apply y [((Iter 1), (Arg 11)); ((Iter 3), (Arg 15))];  T (2, f); T (4, c); T (2, f); T (7, x); T (2, f)]"
95.88,2761170,378083,"[V f; U (1, f); ULambda y; U (3, h); T (128, c); Hoist_vars [c]; T (2, x);  T (3, w); Lambda_apply y [((Iter 1), (Arg 11)); ((Iter 3), (Arg 15))];  T (1, f); T (1, c); T (4, f); T (28, x); T (2, f)]"
83.51,8622312,269188,"[V f; U (1, f); ULambda y; U (3, h); T (4, c); Hoist_vars [c]; T (1, x);  T (3, w); Lambda_apply y [((Iter 1), (Arg 11)); ((Iter 3), (Arg 15))];  T (2, f); T (32, c); T (2, f); T (56, x); T (2, f)]"
93.90,5582024,714247,"[V f; U (2, f); ULambda y; U (3, h); T (32, c); Hoist_vars [c]; T (1, x);  T (3, w); T (56, x);  Lambda_apply y [((Iter 7), (Arg 6)); ((Iter 2), (Arg 7))]; T (4, f);  T (4, c); T (1, x)]"
60.20,8689536,2521346,"[V f; U (2, f); ULambda y; U (3, h); T (1, c); Hoist_vars [c]; T (7, x);  T (3, w); T (4, x);  Lambda_apply y [((Iter 7), (Arg 6)); ((Iter 2), (Arg 7))]; T (4, f);  T (128, c); T (2, x)]"
95.35,4378028,398454,"[V f; U (2, f); ULambda y; U (3, h); T (64, c); Hoist_vars [c]; T (7, x);  T (3, w); T (4, x);  Lambda_apply y [((Iter 5), (Arg 6)); ((Iter 2), (Arg 13))]; T (4, f);  T (2, c); T (2, x)]"
82.23,6147000,143137,"[V f; U (2, f); ULambda y; U (3, h); T (4, c); Hoist_vars [c]; T (1, x);  T (3, w); T (8, x);  Lambda_apply y [((Iter 5), (Arg 6)); ((Iter 2), (Arg 13))]; T (4, f);  T (32, c); T (7, x)]"
76.87,3396783,2381590,"[V f; U (2, f); ULambda y; U (3, h); T (8, c); Hoist_vars [c]; T (8, x);  T (3, w); T (7, x);  Lambda_apply y [((Iter 7), (Arg 6)); ((Iter 1), (Arg 14))]; T (4, f);  T (16, c); T (1, x)]"
97.09,3833585,162560,"[V f; U (2, f); ULambda y; U (3, h); T (64, c); Hoist_vars [c]; T (4, x);  T (3, w); T (1, x);  Lambda_apply y [((Iter 5), (Arg 9)); ((Iter 1), (Arg 11))]; T (4, f);  T (2, c); T (14, x)]"
95.61,4185912,141772,"[V f; U (2, f); ULambda y; U (3, h); T (32, c); Hoist_vars [c]; T (2, x);  T (3, w); T (2, x);  Lambda_apply y [((Iter 5), (Arg 9)); ((Iter 1), (Arg 11))]; T (4, f);  T (4, c); T (14, x)]"
94.88,3476148,418229,"[V f; U (2, f); ULambda y; U (3, h); T (64, c); Hoist_vars [c]; T (14, x);  T (3, w); T (4, x);  Lambda_apply y [((Iter 2), (Arg 10)); ((Iter 3), (Arg 12))]; T (4, f);  T (2, c); T (1, x)]"
95.56,3116405,362770,"[V f; U (2, f); ULambda y; U (3, h); T (64, c); Hoist_vars [c]; T (1, x);  T (3, w); T (28, x);  Lambda_apply y [((Iter 2), (Arg 10)); ((Iter 3), (Arg 12))]; T (4, f);  T (2, c); T (2, x)]"
95.41,3419000,267154,"[V f; U (2, f); ULambda y; U (3, h); T (64, c); Hoist_vars [c]; T (7, x);  T (3, w); T (2, x);  Lambda_apply y [((Iter 3), (Arg 10)); ((Iter 2), (Arg 13))]; T (4, f);  T (2, c); T (4, x)]"
66.46,5377677,195252,"[V f; U (2, f); ULambda y; U (3, h); T (2, c); Hoist_vars [c]; T (4, x);  T (3, w); T (2, x);  Lambda_apply y [((Iter 3), (Arg 10)); ((Iter 2), (Arg 13))]; T (4, f);  T (64, c); T (7, x)]"
87.87,3445562,641695,"[V f; U (2, f); ULambda y; U (3, h); T (16, c); Hoist_vars [c]; T (28, x);  T (3, w); T (1, x);  Lambda_apply y [((Iter 4), (Arg 11)); ((Iter 1), (Arg 12))]; T (4, f);  T (8, c); T (2, x)]"
60.54,6116451,3166859,"[V f; U (2, f); ULambda y; U (3, h); T (4, c); Hoist_vars [c]; T (7, x);  T (3, w); T (4, x);  Lambda_apply y [((Iter 1), (Arg 11)); ((Iter 3), (Arg 15))]; T (4, f);  T (32, c); T (2, x)]"
97.84,6172410,213943,"[V f; U (4, f); ULambda y; U (3, h); T (128, c); Hoist_vars [c]; T (14, x);  T (3, w); T (2, x);  Lambda_apply y [((Iter 7), (Arg 4)); ((Iter 4), (Arg 7))]; T (2, f);  T (1, c); T (2, x)]"
93.43,4745451,249618,"[V f; U (4, f); ULambda y; U (3, h); T (16, c); Hoist_vars [c]; T (2, x);  T (3, w); T (7, x);  Lambda_apply y [((Iter 7), (Arg 4)); ((Iter 4), (Arg 7))]; T (2, f);  T (8, c); T (4, x)]"
83.05,8740308,120515,"[V f; U (4, f); ULambda y; U (3, h); T (1, c); Hoist_vars [c]; T (1, x);  T (3, w); T (4, x);  Lambda_apply y [((Iter 7), (Arg 4)); ((Iter 4), (Arg 7))]; T (2, f);  T (128, c); T (14, x)]"
73.93,7347983,107222,"[V f; U (4, f); ULambda y; U (3, h); T (1, c); Hoist_vars [c]; T (2, x);  T (3, w); T (1, x);  Lambda_apply y [((Iter 7), (Arg 4)); ((Iter 4), (Arg 7))]; T (2, f);  T (128, c); T (28, x)]"
98.01,5626043,207875,"[V f; U (4, f); ULambda y; U (3, h); T (128, c); Hoist_vars [c]; T (14, x);  T (3, w); T (2, x);  Lambda_apply y [((Iter 7), (Arg 5)); ((Iter 3), (Arg 7))]; T (2, f);  T (1, c); T (2, x)]"
96.37,5827151,243224,"[V f; U (4, f); ULambda y; U (3, h); T (64, c); Hoist_vars [c]; T (7, x);  T (3, w); T (4, x);  Lambda_apply y [((Iter 7), (Arg 5)); ((Iter 3), (Arg 7))]; T (2, f);  T (2, c); T (2, x)]"
90.17,7187759,763200,"[V f; U (1, f); ULambda y; U (3, w); T (64, c); Hoist_vars [c]; T (56, x);  T (3, h); Lambda_apply y [((Iter 7), (Arg 4)); ((Iter 4), (Arg 7))];  T (2, f); T (2, c); T (2, f); T (1, x); T (2, f)]"
86.06,5661755,203960,"[V f; U (1, f); ULambda y; U (3, w); T (16, c); Hoist_vars [c]; T (2, x);  T (3, h); Lambda_apply y [((Iter 7), (Arg 4)); ((Iter 4), (Arg 7))];  T (4, f); T (8, c); T (1, f); T (28, x); T (2, f)]"
69.65,6935236,283373,"[V f; U (1, f); ULambda y; U (3, w); T (2, c); Hoist_vars [c]; T (7, x);  T (3, h); Lambda_apply y [((Iter 7), (Arg 5)); ((Iter 3), (Arg 7))];  T (1, f); T (64, c); T (8, f); T (8, x); T (1, f)]"
68.65,6954585,711414,"[V f; U (1, f); ULambda y; U (3, w); T (2, c); Hoist_vars [c]; T (7, x);  T (3, h); Lambda_apply y [((Iter 7), (Arg 5)); ((Iter 3), (Arg 7))];  T (1, f); T (64, c); T (1, f); T (8, x); T (8, f)]"
88.75,6100199,878011,"[V f; U (1, f); ULambda y; U (3, w); T (128, c); Hoist_vars [c]; T (2, x);  T (3, h); Lambda_apply y [((Iter 7), (Arg 5)); ((Iter 3), (Arg 7))];  T (8, f); T (1, c); T (1, f); T (28, x); T (1, f)]"
90.94,6155933,737156,"[V f; U (1, f); ULambda y; U (3, w); T (64, c); Hoist_vars [c]; T (56, x);  T (3, h); Lambda_apply y [((Iter 7), (Arg 6)); ((Iter 2), (Arg 7))];  T (1, f); T (2, c); T (1, f); T (1, x); T (8, f)]"
93.17,5808950,458662,"[V f; U (1, f); ULambda y; U (3, w); T (128, c); Hoist_vars [c]; T (28, x);  T (3, h); Lambda_apply y [((Iter 7), (Arg 6)); ((Iter 2), (Arg 7))];  T (2, f); T (1, c); T (4, f); T (2, x); T (1, f)]"
94.30,6238137,328786,"[V f; U (1, f); ULambda y; U (3, w); T (64, c); Hoist_vars [c]; T (14, x);  T (3, h); Lambda_apply y [((Iter 7), (Arg 6)); ((Iter 2), (Arg 7))];  T (2, f); T (2, c); T (4, f); T (4, x); T (1, f)]"
62.95,10614911,414514,"[V f; U (1, f); ULambda y; U (3, w); T (4, c); Hoist_vars [c]; T (14, x);  T (3, h); Lambda_apply y [((Iter 7), (Arg 6)); ((Iter 2), (Arg 7))];  T (4, f); T (32, c); T (2, f); T (4, x); T (1, f)]"
73.83,8000611,315427,"[V f; U (1, f); ULambda y; U (3, w); T (2, c); Hoist_vars [c]; T (8, x);  T (3, h); Lambda_apply y [((Iter 7), (Arg 6)); ((Iter 2), (Arg 7))];  T (2, f); T (64, c); T (2, f); T (7, x); T (2, f)]"
89.03,4275966,132801,"[V f; U (1, f); ULambda y; U (3, w); T (16, c); Hoist_vars [c]; T (4, x);  T (3, h); Lambda_apply y [((Iter 7), (Arg 6)); ((Iter 2), (Arg 7))];  T (8, f); T (8, c); T (1, f); T (14, x); T (1, f)]"
90.02,6421075,453542,"[V f; U (1, f); ULambda y; U (3, w); T (32, c); Hoist_vars [c]; T (2, x);  T (3, h); Lambda_apply y [((Iter 7), (Arg 6)); ((Iter 2), (Arg 7))];  T (2, f); T (4, c); T (1, f); T (28, x); T (4, f)]"
97.62,6325417,182595,"[V f; U (2, f); ULambda y; U (3, w); T (128, c); Hoist_vars [c]; T (1, x);  T (3, h); T (14, x);  Lambda_apply y [((Iter 7), (Arg 4)); ((Iter 4), (Arg 7))]; T (4, f);  T (1, c); T (4, x)]"
90.13,6383322,174345,"[V f; U (2, f); ULambda y; U (3, w); T (8, c); Hoist_vars [c]; T (1, x);  T (3, h); T (7, x);  Lambda_apply y [((Iter 7), (Arg 4)); ((Iter 4), (Arg 7))]; T (4, f);  T (16, c); T (8, x)]"
96.62,6814083,128571,"[V f; U (2, f); ULambda y; U (3, w); T (32, c); Hoist_vars [c]; T (1, x);  T (3, h); T (4, x);  Lambda_apply y [((Iter 7), (Arg 4)); ((Iter 4), (Arg 7))]; T (4, f);  T (4, c); T (14, x)]"
70.58,6578358,2947256,"[V f; U (2, f); ULambda y; U (3, w); T (4, c); Hoist_vars [c]; T (14, x);  T (3, h); T (2, x);  Lambda_apply y [((Iter 5), (Arg 4)); ((Iter 4), (Arg 9))]; T (4, f);  T (32, c); T (2, x)]"
94.08,6086167,161236,"[V f; U (2, f); ULambda y; U (3, w); T (32, c); Hoist_vars [c]; T (8, x);  T (3, h); T (1, x);  Lambda_apply y [((Iter 5), (Arg 4)); ((Iter 4), (Arg 9))]; T (4, f);  T (4, c); T (7, x)]"
91.46,3679127,150312,"[V f; U (2, f); ULambda y; U (3, w); T (16, c); Hoist_vars [c]; T (7, x);  T (3, h); T (1, x);  Lambda_apply y [((Iter 5), (Arg 4)); ((Iter 4), (Arg 9))]; T (4, f);  T (8, c); T (8, x)]"
79.48,4987050,1213356,"[V f; U (2, f); ULambda y; U (3, w); T (8, c); Hoist_vars [c]; T (1, x);  T (3, h); T (28, x);  Lambda_apply y [((Iter 3), (Arg 4)); ((Iter 4), (Arg 11))]; T (4, f);  T (16, c); T (2, x)]"
80.79,3322950,1210521,"[V f; U (2, f); ULambda y; U (3, w); T (16, c); Hoist_vars [c]; T (7, x);  T (3, h); T (8, x);  Lambda_apply y [((Iter 1), (Arg 4)); ((Iter 4), (Arg 13))]; T (4, f);  T (8, c); T (1, x)]"
57.17,15709085,341455,"[V f; U (2, f); ULambda y; U (3, w); T (1, c); Hoist_vars [c]; T (14, x);  T (3, h); T (1, x);  Lambda_apply y [((Iter 1), (Arg 4)); ((Iter 4), (Arg 13))]; T (4, f);  T (128, c); T (4, x)]"
95.04,3628271,187367,"[V f; U (2, f); ULambda y; U (3, w); T (64, c); Hoist_vars [c]; T (4, x);  T (3, h); T (2, x);  Lambda_apply y [((Iter 1), (Arg 4)); ((Iter 4), (Arg 13))]; T (4, f);  T (2, c); T (7, x)]"
86.97,3898011,153859,"[V f; U (2, f); ULambda y; U (3, w); T (16, c); Hoist_vars [c]; T (2, x);  T (3, h); T (4, x);  Lambda_apply y [((Iter 1), (Arg 4)); ((Iter 4), (Arg 13))]; T (4, f);  T (8, c); T (7, x)]"
47.70,15961218,5034216,"[V f; U (2, f); ULambda y; U (3, w); T (1, c); Hoist_vars [c]; T (28, x);  T (3, h); T (2, x);  Lambda_apply y [((Iter 7), (Arg 5)); ((Iter 3), (Arg 7))]; T (4, f);  T (128, c); T (1, x)]"
76.54,8048268,136750,"[V f; U (2, f); ULambda y; U (3, w); T (1, c); Hoist_vars [c]; T (2, x);  T (3, h); T (4, x);  Lambda_apply y [((Iter 9), (Arg 5)); ((Iter 1), (Arg 11))]; T (4, f);  T (128, c); T (7, x)]"
72.31,3740465,2479451,"[V f; U (2, f); ULambda y; U (3, w); T (8, c); Hoist_vars [c]; T (4, x);  T (3, h); T (14, x);  Lambda_apply y [((Iter 4), (Arg 5)); ((Iter 3), (Arg 12))]; T (4, f);  T (16, c); T (1, x)]"
60.29,15874391,295219,"[V f; U (2, f); ULambda y; U (3, w); T (1, c); Hoist_vars [c]; T (14, x);  T (3, h); T (1, x);  Lambda_apply y [((Iter 4), (Arg 5)); ((Iter 3), (Arg 12))]; T (4, f);  T (128, c); T (4, x)]"
70.59,6194565,2627791,"[V f; U (2, f); ULambda y; U (3, w); T (4, c); Hoist_vars [c]; T (56, x);  T (3, h); T (1, x);  Lambda_apply y [((Iter 7), (Arg 6)); ((Iter 2), (Arg 7))]; T (4, f);  T (32, c); T (1, x)]"
91.49,5983662,671293,"[V f; U (2, f); ULambda y; U (3, w); T (32, c); Hoist_vars [c]; T (7, x);  T (3, h); T (4, x);  Lambda_apply y [((Iter 7), (Arg 6)); ((Iter 2), (Arg 7))]; T (4, f);  T (4, c); T (2, x)]"
87.04,6634280,312766,"[V f; U (2, f); ULambda y; U (3, w); T (4, c); Hoist_vars [c]; T (14, x);  T (3, h); T (1, x);  Lambda_apply y [((Iter 7), (Arg 6)); ((Iter 2), (Arg 7))]; T (4, f);  T (32, c); T (4, x)]"
96.43,5631089,183895,"[V f; U (2, f); ULambda y; U (3, w); T (64, c); Hoist_vars [c]; T (8, x);  T (3, h); T (1, x);  Lambda_apply y [((Iter 7), (Arg 6)); ((Iter 2), (Arg 7))]; T (4, f);  T (2, c); T (7, x)]"
79.73,9389126,134690,"[V f; U (2, f); ULambda y; U (3, w); T (1, c); Hoist_vars [c]; T (1, x);  T (3, h); T (8, x);  Lambda_apply y [((Iter 7), (Arg 6)); ((Iter 2), (Arg 7))]; T (4, f);  T (128, c); T (7, x)]"
89.57,5089129,704737,"[V f; U (2, f); ULambda y; U (3, w); T (32, c); Hoist_vars [c]; T (14, x);  T (3, h); T (4, x);  Lambda_apply y [((Iter 5), (Arg 6)); ((Iter 2), (Arg 13))]; T (4, f);  T (4, c); T (1, x)]"
82.03,3782551,1351987,"[V f; U (2, f); ULambda y; U (3, w); T (16, c); Hoist_vars [c]; T (4, x);  T (3, h); T (14, x);  Lambda_apply y [((Iter 5), (Arg 6)); ((Iter 2), (Arg 13))]; T (4, f);  T (8, c); T (1, x)]"
65.13,5872484,107436,"[V f; U (2, f); ULambda y; U (3, w); T (2, c); Hoist_vars [c]; T (2, x);  T (3, h); T (1, x);  Lambda_apply y [((Iter 5), (Arg 6)); ((Iter 2), (Arg 13))]; T (4, f);  T (64, c); T (28, x)]"
95.03,3300126,339822,"[V f; U (2, f); ULambda y; U (3, w); T (128, c); Hoist_vars [c]; T (2, x);  T (3, h); T (14, x);  Lambda_apply y [((Iter 2), (Arg 10)); ((Iter 3), (Arg 12))]; T (4, f);  T (1, c); T (2, x)]"
88.81,3769790,145377,"[V f; U (2, f); ULambda y; U (3, w); T (16, c); Hoist_vars [c]; T (8, x);  T (3, h); T (1, x);  Lambda_apply y [((Iter 2), (Arg 10)); ((Iter 3), (Arg 12))]; T (4, f);  T (8, c); T (7, x)]"
58.47,6539948,3671888,"[V f; U (4, f); ULambda y; U (3, w); T (2, c); Hoist_vars [c]; T (14, x);  T (3, h); T (4, x);  Lambda_apply y [((Iter 7), (Arg 4)); ((Iter 4), (Arg 7))]; T (2, f);  T (64, c); T (1, x)]"
95.59,6527554,234743,"[V f; U (4, f); ULambda y; U (3, w); T (64, c); Hoist_vars [c]; T (2, x);  T (3, h); T (14, x);  Lambda_apply y [((Iter 7), (Arg 4)); ((Iter 4), (Arg 7))]; T (2, f);  T (2, c); T (2, x)]"
68.66,4899970,727821,"[V f; U (4, f); ULambda y; U (3, w); T (2, c); Hoist_vars [c]; T (2, x);  T (3, h); T (14, x);  Lambda_apply y [((Iter 7), (Arg 4)); ((Iter 4), (Arg 7))]; T (2, f);  T (64, c); T (2, x)]"
95.92,6693084,129677,"[V f; U (4, f); ULambda y; U (3, w); T (32, c); Hoist_vars [c]; T (1, x);  T (3, h); T (4, x);  Lambda_apply y [((Iter 7), (Arg 4)); ((Iter 4), (Arg 7))]; T (2, f);  T (4, c); T (14, x)]"
46.09,8230809,7336037,"[V f; U (4, f); ULambda y; U (3, w); T (1, c); Hoist_vars [c]; T (7, x);  T (3, h); T (8, x);  Lambda_apply y [((Iter 7), (Arg 6)); ((Iter 2), (Arg 7))]; T (2, f);  T (128, c); T (1, x)]"
74.00,6076362,1935166,"[V f; U (4, f); ULambda y; U (3, w); T (4, c); Hoist_vars [c]; T (1, x);  T (3, h); T (28, x);  Lambda_apply y [((Iter 7), (Arg 6)); ((Iter 2), (Arg 7))]; T (2, f);  T (32, c); T (2, x)]"
76.06,8877989,1987732,"[V f; U (1, f); ULambda y; U (3, h); U (3, w); T (1, c); Hoist_vars [c];  T (28, x); T (8, f); T (1, x);  Lambda_apply y [((Iter 7), (Arg 4)); ((Iter 4), (Arg 7))]; T (128, c);  T (2, x)]"
94.02,6778319,384940,"[V f; U (1, f); ULambda y; U (3, h); U (3, w); T (16, c); Hoist_vars [c];  T (4, x); T (8, f); T (7, x);  Lambda_apply y [((Iter 7), (Arg 4)); ((Iter 4), (Arg 7))]; T (8, c);  T (2, x)]"
82.40,5416655,1240079,"[V f; U (1, f); ULambda y; U (3, h); U (3, w); T (4, c); Hoist_vars [c];  T (4, x); T (8, f); T (7, x);  Lambda_apply y [((Iter 7), (Arg 4)); ((Iter 4), (Arg 7))]; T (32, c);  T (2, x)]"
69.32,6875519,2455712,"[V f; U (1, f); ULambda y; U (3, h); U (3, w); T (2, c); Hoist_vars [c];  T (14, x); T (8, f); T (4, x);  Lambda_apply y [((Iter 5), (Arg 4)); ((Iter 4), (Arg 9))]; T (64, c);  T (1, x)]"
58.43,7740528,5342515,"[V f; U (1, f); ULambda y; U (3, h); U (3, w); T (1, c); Hoist_vars [c];  T (7, x); T (8, f); T (8, x);  Lambda_apply y [((Iter 5), (Arg 4)); ((Iter 4), (Arg 9))]; T (128, c);  T (1, x)]"
90.15,5631631,393555,"[V f; U (1, f); ULambda y; U (3, h); U (3, w); T (16, c); Hoist_vars [c];  T (2, x); T (8, f); T (14, x);  Lambda_apply y [((Iter 5), (Arg 4)); ((Iter 4), (Arg 9))]; T (8, c);  T (2, x)]"
91.82,5628111,196947,"[V f; U (1, f); ULambda y; U (3, h); U (3, w); T (16, c); Hoist_vars [c];  T (2, x); T (8, f); T (7, x);  Lambda_apply y [((Iter 5), (Arg 4)); ((Iter 4), (Arg 9))]; T (8, c);  T (4, x)]"
73.98,4892064,2367634,"[V f; U (1, f); ULambda y; U (3, h); U (3, w); T (2, c); Hoist_vars [c];  T (1, x); T (8, f); T (56, x);  Lambda_apply y [((Iter 3), (Arg 4)); ((Iter 4), (Arg 11))]; T (64, c);  T (1, x)]"
90.54,3815624,410463,"[V f; U (1, f); ULambda y; U (3, h); U (3, w); T (16, c); Hoist_vars [c];  T (4, x); T (8, f); T (7, x);  Lambda_apply y [((Iter 1), (Arg 4)); ((Iter 4), (Arg 13))]; T (8, c);  T (2, x)]"
71.46,9151715,122214,"[V f; U (1, f); ULambda y; U (3, h); U (3, w); T (1, c); Hoist_vars [c];  T (4, x); T (8, f); T (1, x);  Lambda_apply y [((Iter 1), (Arg 4)); ((Iter 4), (Arg 13))]; T (128, c);  T (14, x)]"
91.05,5944110,224720,"[V f; U (1, f); ULambda y; U (3, h); U (3, w); T (16, c); Hoist_vars [c];  T (7, x); T (8, f); T (2, x);  Lambda_apply y [((Iter 7), (Arg 4)); ((Iter 2), (Arg 14))]; T (8, c);  T (4, x)]"
94.80,5587688,139231,"[V f; U (1, f); ULambda y; U (3, h); U (3, w); T (32, c); Hoist_vars [c];  T (7, x); T (8, f); T (1, x);  Lambda_apply y [((Iter 7), (Arg 4)); ((Iter 2), (Arg 14))]; T (4, c);  T (8, x)]"
98.18,5737133,64502,"[V f; U (1, f); ULambda y; U (3, h); U (3, w); T (128, c); Hoist_vars [c];  T (1, x); T (8, f); T (1, x);  Lambda_apply y [((Iter 7), (Arg 5)); ((Iter 3), (Arg 7))]; T (1, c);  T (56, x)]"
81.17,5207601,106599,"[V f; U (1, f); ULambda y; U (3, h); U (3, w); T (2, c); Hoist_vars [c];  T (2, x); T (8, f); T (1, x);  Lambda_apply y [((Iter 9), (Arg 5)); ((Iter 1), (Arg 11))]; T (64, c);  T (28, x)]"
62.57,5098672,2486944,"[V f; U (1, f); ULambda y; U (3, h); U (3, w); T (2, c); Hoist_vars [c];  T (2, x); T (8, f); T (28, x);  Lambda_apply y [((Iter 4), (Arg 5)); ((Iter 3), (Arg 12))]; T (64, c);  T (1, x)]"
72.38,6672182,901302,"[V f; U (1, f); ULambda y; U (3, h); U (3, w); T (2, c); Hoist_vars [c];  T (28, x); T (8, f); T (1, x);  Lambda_apply y [((Iter 4), (Arg 5)); ((Iter 3), (Arg 12))]; T (64, c);  T (2, x)]"
95.84,4338059,232998,"[V f; U (1, f); ULambda y; U (3, h); U (3, w); T (32, c); Hoist_vars [c];  T (1, x); T (8, f); T (28, x);  Lambda_apply y [((Iter 4), (Arg 5)); ((Iter 3), (Arg 12))]; T (4, c);  T (2, x)]"
93.53,5609310,126142,"[V f; U (1, f); ULambda y; U (3, h); U (3, w); T (16, c); Hoist_vars [c];  T (4, x); T (8, f); T (1, x);  Lambda_apply y [((Iter 7), (Arg 6)); ((Iter 2), (Arg 7))]; T (8, c);  T (14, x)]"
91.12,6792140,125267,"[V f; U (1, f); ULambda y; U (3, h); U (3, w); T (1, c); Hoist_vars [c];  T (1, x); T (8, f); T (4, x);  Lambda_apply y [((Iter 7), (Arg 6)); ((Iter 2), (Arg 7))]; T (128, c);  T (14, x)]"
98.17,4130797,75590,"[V f; U (1, f); ULambda y; U (3, h); U (3, w); T (128, c); Hoist_vars [c];  T (1, x); T (8, f); T (28, x);  Lambda_apply y [((Iter 5), (Arg 6)); ((Iter 2), (Arg 13))]; T (1, c);  T (2, x)]"
86.36,4813031,1215577,"[V f; U (1, f); ULambda y; U (3, h); U (3, w); T (4, c); Hoist_vars [c];  T (1, x); T (8, f); T (28, x);  Lambda_apply y [((Iter 5), (Arg 6)); ((Iter 2), (Arg 13))]; T (32, c);  T (2, x)]"
97.56,4915681,134340,"[V f; U (1, f); ULambda y; U (3, h); U (3, w); T (64, c); Hoist_vars [c];  T (7, x); T (8, f); T (8, x);  Lambda_apply y [((Iter 7), (Arg 6)); ((Iter 1), (Arg 14))]; T (2, c);  T (1, x)]"
89.69,5155693,146133,"[V f; U (1, f); ULambda y; U (3, h); U (3, w); T (4, c); Hoist_vars [c];  T (2, x); T (8, f); T (4, x);  Lambda_apply y [((Iter 7), (Arg 6)); ((Iter 1), (Arg 14))]; T (32, c);  T (7, x)]"
69.47,6347855,1794543,"[V f; U (1, f); ULambda y; U (3, h); U (3, w); T (2, c); Hoist_vars [c];  T (28, x); T (8, f); T (2, x);  Lambda_apply y [((Iter 5), (Arg 9)); ((Iter 1), (Arg 11))]; T (64, c);  T (1, x)]"
84.63,4868712,916797,"[V f; U (1, f); ULambda y; U (3, h); U (3, w); T (8, c); Hoist_vars [c];  T (4, x); T (8, f); T (14, x);  Lambda_apply y [((Iter 5), (Arg 9)); ((Iter 1), (Arg 11))]; T (16, c);  T (1, x)]"
88.89,7312475,246699,"[V f; U (1, f); ULambda y; U (3, h); U (3, w); T (4, c); Hoist_vars [c];  T (14, x); T (8, f); T (1, x);  Lambda_apply y [((Iter 5), (Arg 9)); ((Iter 1), (Arg 11))]; T (32, c);  T (4, x)]"
91.16,5492923,58842,"[V f; U (1, f); ULambda y; U (3, h); U (3, w); T (1, c); Hoist_vars [c];  T (1, x); T (8, f); T (1, x);  Lambda_apply y [((Iter 5), (Arg 9)); ((Iter 1), (Arg 11))]; T (128, c);  T (56, x)]"
92.72,4078613,206299,"[V f; U (1, f); ULambda y; U (3, h); U (3, w); T (16, c); Hoist_vars [c];  T (7, x); T (8, f); T (2, x);  Lambda_apply y [((Iter 2), (Arg 10)); ((Iter 3), (Arg 12))]; T (8, c);  T (4, x)]"
65.20,5641704,142613,"[V f; U (1, f); ULambda y; U (3, h); U (3, w); T (1, c); Hoist_vars [c];  T (2, x); T (8, f); T (4, x);  Lambda_apply y [((Iter 2), (Arg 10)); ((Iter 3), (Arg 12))]; T (128, c);  T (7, x)]"
97.64,3136217,64410,"[V f; U (1, f); ULambda y; U (3, h); U (3, w); T (128, c); Hoist_vars [c];  T (2, x); T (8, f); T (1, x);  Lambda_apply y [((Iter 3), (Arg 10)); ((Iter 2), (Arg 13))]; T (1, c);  T (28, x)]"
96.76,6200243,101881,"[V f; U (2, f); ULambda y; U (3, h); U (3, w); T (16, c); Hoist_vars [c];  T (1, x); T (1, x);  Lambda_apply y [((Iter 7), (Arg 6)); ((Iter 2), (Arg 7))]; T (4, f);  T (8, c); T (56, x)]"
89.51,5295111,227018,"[V f; U (2, f); ULambda y; U (3, h); U (3, w); T (8, c); Hoist_vars [c];  T (7, x); T (2, x);  Lambda_apply y [((Iter 5), (Arg 6)); ((Iter 2), (Arg 13))]; T (4, f);  T (16, c); T (4, x)]"
97.41,4248862,132672,"[V f; U (2, f); ULambda y; U (3, h); U (3, w); T (128, c); Hoist_vars [c];  T (2, x); T (2, x);  Lambda_apply y [((Iter 5), (Arg 6)); ((Iter 2), (Arg 13))]; T (4, f);  T (1, c); T (14, x)]"
92.99,4974032,664339,"[V f; U (2, f); ULambda y; U (3, h); U (3, w); T (32, c); Hoist_vars [c];  T (14, x); T (4, x);  Lambda_apply y [((Iter 7), (Arg 6)); ((Iter 1), (Arg 14))]; T (4, f);  T (4, c); T (1, x)]"
86.04,6809246,141202,"[V f; U (2, f); ULambda y; U (3, h); U (3, w); T (2, c); Hoist_vars [c];  T (8, x); T (1, x);  Lambda_apply y [((Iter 7), (Arg 6)); ((Iter 1), (Arg 14))]; T (4, f);  T (64, c); T (7, x)]"
96.50,3968235,129756,"[V f; U (2, f); ULambda y; U (3, h); U (3, w); T (32, c); Hoist_vars [c];  T (4, x); T (1, x);  Lambda_apply y [((Iter 5), (Arg 9)); ((Iter 1), (Arg 11))]; T (4, f);  T (4, c); T (14, x)]"
97.19,3201793,239627,"[V f; U (2, f); ULambda y; U (3, h); U (3, w); T (128, c); Hoist_vars [c];  T (56, x); T (1, x);  Lambda_apply y [((Iter 2), (Arg 10)); ((Iter 3), (Arg 12))]; T (4, f);  T (1, c); T (1, x)]"
86.36,3671087,1148596,"[V f; U (2, f); ULambda y; U (3, h); U (3, w); T (16, c); Hoist_vars [c];  T (14, x); T (4, x);  Lambda_apply y [((Iter 2), (Arg 10)); ((Iter 3), (Arg 12))]; T (4, f);  T (8, c); T (1, x)]"
77.95,6005726,285241,"[V f; U (2, f); ULambda y; U (3, h); U (3, w); T (2, c); Hoist_vars [c];  T (1, x); T (14, x);  Lambda_apply y [((Iter 2), (Arg 10)); ((Iter 3), (Arg 12))]; T (4, f);  T (64, c); T (4, x)]"
77.87,6193655,142425,"[V f; U (2, f); ULambda y; U (3, h); U (3, w); T (2, c); Hoist_vars [c];  T (7, x); T (1, x);  Lambda_apply y [((Iter 2), (Arg 10)); ((Iter 3), (Arg 12))]; T (4, f);  T (64, c); T (8, x)]"
95.07,3444884,379303,"[V f; U (2, f); ULambda y; U (3, h); U (3, w); T (64, c); Hoist_vars [c];  T (4, x); T (14, x);  Lambda_apply y [((Iter 3), (Arg 10)); ((Iter 2), (Arg 13))]; T (4, f);  T (2, c); T (1, x)]"
80.68,5802032,132501,"[V f; U (2, f); ULambda y; U (3, h); U (3, w); T (1, c); Hoist_vars [c];  T (1, x); T (7, x);  Lambda_apply y [((Iter 4), (Arg 11)); ((Iter 1), (Arg 12))]; T (4, f);  T (128, c); T (8, x)]"
95.60,3210827,99733,"[V f; U (2, f); ULambda y; U (3, h); U (3, w); T (32, c); Hoist_vars [c];  T (1, x); T (2, x);  Lambda_apply y [((Iter 1), (Arg 11)); ((Iter 3), (Arg 15))]; T (4, f);  T (4, c); T (28, x)]"
