perf,CACHE_MISS_L1,CACHE_MISS_L2,scheme
74.74,23175566,3332432,"[V f; U (2, f); ULambda y; T (8, c); Hoist_vars [c]; T (1, x); T (3, w);  T (3, h); T (2, f); T (17, x);  Lambda_apply y [((Iter 1), (Arg 7)); ((Iter 1), (Arg 10))]; T (1, f);  T (64, c); T (16, f)]"
51.08,36152910,3217066,"[V f; U (2, f); ULambda y; T (4, c); Hoist_vars [c]; T (1, x); T (3, w);  T (3, h); T (1, f); T (17, x);  Lambda_apply y [((Iter 1), (Arg 7)); ((Iter 1), (Arg 10))]; T (4, f);  T (128, c); T (8, f)]"
87.32,13951227,2130679,"[V f; U (2, f); ULambda y; T (256, c); Hoist_vars [c]; T (17, x); T (3, w);  T (3, h); T (1, f); T (1, x);  Lambda_apply y [((Iter 1), (Arg 8)); ((Iter 1), (Arg 9))]; T (8, f);  T (2, c); T (4, f)]"
75.10,27723164,1668119,"[V f; U (2, f); ULambda y; T (16, c); Hoist_vars [c]; T (17, x); T (3, w);  T (3, h); T (4, f); T (1, x);  Lambda_apply y [((Iter 1), (Arg 8)); ((Iter 1), (Arg 9))]; T (8, f);  T (32, c); T (1, f)]"
73.45,27951149,1547721,"[V f; U (2, f); ULambda y; T (16, c); Hoist_vars [c]; T (17, x); T (3, w);  T (3, h); T (16, f); T (1, x);  Lambda_apply y [((Iter 1), (Arg 8)); ((Iter 1), (Arg 9))]; T (1, f);  T (32, c); T (2, f)]"
39.22,42521681,5315844,"[V f; U (2, f); ULambda y; T (2, c); Hoist_vars [c]; T (1, x); T (3, w);  T (3, h); T (32, f); T (17, x);  Lambda_apply y [((Iter 1), (Arg 8)); ((Iter 1), (Arg 9))]; T (1, f);  T (256, c); T (1, f)]"
32.28,25500563,25222502,"[V f; U (4, f); ULambda y; T (512, c); Hoist_vars [c]; T (1, x); T (3, w);  T (3, h); T (16, f); T (17, x);  Lambda_apply y [((Iter 3), (Arg 3)); ((Iter 2), (Arg 4))]; T (1, f);  T (1, c); T (1, f)]"
69.92,32672941,4920537,"[V f; U (4, f); ULambda y; T (2, c); Hoist_vars [c]; T (1, x); T (3, w);  T (3, h); T (4, f); T (17, x);  Lambda_apply y [((Iter 3), (Arg 3)); ((Iter 2), (Arg 4))]; T (4, f);  T (256, c); T (1, f)]"
88.07,27699335,3121174,"[V f; U (4, f); ULambda y; T (128, c); Hoist_vars [c]; T (17, x); T (3, w);  T (3, h); T (1, f); T (1, x);  Lambda_apply y [((Iter 4), (Arg 3)); ((Iter 1), (Arg 5))]; T (16, f);  T (4, c); T (1, f)]"
77.13,23992089,2280613,"[V f; U (4, f); ULambda y; T (8, c); Hoist_vars [c]; T (17, x); T (3, w);  T (3, h); T (8, f); T (1, x);  Lambda_apply y [((Iter 4), (Arg 3)); ((Iter 1), (Arg 5))]; T (1, f);  T (64, c); T (2, f)]"
11.17,194948214,8797921,"[V f; U (4, f); ULambda y; T (1, c); Hoist_vars [c]; T (17, x); T (3, w);  T (3, h); T (16, f); T (1, x);  Lambda_apply y [((Iter 1), (Arg 3)); ((Iter 2), (Arg 7))]; T (1, f);  T (512, c); T (1, f)]"
89.76,22808203,2581310,"[V f; U (4, f); ULambda y; T (128, c); Hoist_vars [c]; T (17, x); T (3, w);  T (3, h); T (1, f); T (1, x);  Lambda_apply y [((Iter 3), (Arg 4)); ((Iter 1), (Arg 5))]; T (8, f);  T (4, c); T (2, f)]"
40.60,36740201,6491555,"[V f; U (4, f); ULambda y; T (1, c); Hoist_vars [c]; T (1, x); T (3, w);  T (3, h); T (1, f); T (17, x);  Lambda_apply y [((Iter 3), (Arg 4)); ((Iter 1), (Arg 5))]; T (16, f);  T (512, c); T (1, f)]"
64.39,28347000,2164362,"[V f; U (4, f); ULambda y; T (8, c); Hoist_vars [c]; T (17, x); T (3, w);  T (3, h); T (1, f); T (1, x);  Lambda_apply y [((Iter 1), (Arg 5)); ((Iter 2), (Arg 6))]; T (2, f);  T (64, c); T (8, f)]"
21.67,99457467,3882864,"[V f; U (4, f); ULambda y; T (2, c); Hoist_vars [c]; T (17, x); T (3, w);  T (3, h); T (4, f); T (1, x);  Lambda_apply y [((Iter 1), (Arg 5)); ((Iter 2), (Arg 6))]; T (1, f);  T (256, c); T (4, f)]"
10.95,196999436,7152422,"[V f; U (4, f); ULambda y; T (1, c); Hoist_vars [c]; T (17, x); T (3, w);  T (3, h); T (2, f); T (1, x);  Lambda_apply y [((Iter 1), (Arg 5)); ((Iter 2), (Arg 6))]; T (1, f);  T (512, c); T (8, f)]"
75.70,16334834,15247932,"[V f; U (4, f); ULambda y; T (64, c); Hoist_vars [c]; T (1, x); T (3, w);  T (3, h); T (1, f); T (17, x);  Lambda_apply y [((Iter 2), (Arg 5)); ((Iter 1), (Arg 7))]; T (8, f);  T (8, c); T (2, f)]"
73.99,16394901,15238196,"[V f; U (4, f); ULambda y; T (64, c); Hoist_vars [c]; T (1, x); T (3, w);  T (3, h); T (4, f); T (17, x);  Lambda_apply y [((Iter 2), (Arg 5)); ((Iter 1), (Arg 7))]; T (1, f);  T (8, c); T (4, f)]"
38.48,36225005,10220882,"[V f; U (4, f); ULambda y; T (1, c); Hoist_vars [c]; T (1, x); T (3, w);  T (3, h); T (4, f); T (17, x);  Lambda_apply y [((Iter 2), (Arg 5)); ((Iter 1), (Arg 7))]; T (1, f);  T (512, c); T (4, f)]"
80.22,19118827,998369,"[V f; U (1, f); ULambda y; U (3, h); T (16, c); Hoist_vars [c]; T (17, x);  T (3, w); T (32, c); T (1, x);  Lambda_apply y [((Iter 1), (Arg 6)); ((Iter 1), (Arg 11))]; T (64, f);  T (1, c); T (1, f)]"
83.44,16249178,916874,"[V f; U (1, f); ULambda y; U (3, h); T (32, c); Hoist_vars [c]; T (17, x);  T (3, w); T (8, c); T (1, x);  Lambda_apply y [((Iter 1), (Arg 6)); ((Iter 1), (Arg 11))]; T (32, f);  T (2, c); T (2, f)]"
62.47,41776038,1343925,"[V f; U (1, f); ULambda y; U (3, h); T (4, c); Hoist_vars [c]; T (17, x);  T (3, w); T (64, c); T (1, x);  Lambda_apply y [((Iter 1), (Arg 6)); ((Iter 1), (Arg 11))]; T (4, f);  T (2, c); T (16, f)]"
74.68,28056543,1549311,"[V f; U (1, f); ULambda y; U (3, h); T (8, c); Hoist_vars [c]; T (17, x);  T (3, w); T (16, c); T (1, x);  Lambda_apply y [((Iter 1), (Arg 6)); ((Iter 1), (Arg 11))]; T (16, f);  T (4, c); T (4, f)]"
64.36,32179338,4617447,"[V f; U (1, f); ULambda y; U (3, h); T (4, c); Hoist_vars [c]; T (1, x);  T (3, w); T (8, c); T (17, x);  Lambda_apply y [((Iter 1), (Arg 6)); ((Iter 1), (Arg 11))]; T (8, f);  T (16, c); T (8, f)]"
30.30,57377091,2714447,"[V f; U (1, f); ULambda y; U (3, h); T (1, c); Hoist_vars [c]; T (1, x);  T (3, w); T (4, c); T (17, x);  Lambda_apply y [((Iter 1), (Arg 6)); ((Iter 1), (Arg 11))]; T (64, f);  T (128, c); T (1, f)]"
65.14,12947718,10148134,"[V f; U (1, f); ULambda y; U (3, h); T (256, c); Hoist_vars [c]; T (17, x);  T (3, w); T (2, c); T (1, x);  Lambda_apply y [((Iter 1), (Arg 7)); ((Iter 1), (Arg 10))]; T (64, f);  T (1, c); T (1, f)]"
81.33,19357821,1005629,"[V f; U (1, f); ULambda y; U (3, h); T (16, c); Hoist_vars [c]; T (17, x);  T (3, w); T (8, c); T (1, x);  Lambda_apply y [((Iter 1), (Arg 7)); ((Iter 1), (Arg 10))]; T (1, f);  T (4, c); T (64, f)]"
53.71,32465770,4248260,"[V f; U (1, f); ULambda y; U (3, h); T (2, c); Hoist_vars [c]; T (1, x);  T (3, w); T (16, c); T (17, x);  Lambda_apply y [((Iter 1), (Arg 7)); ((Iter 1), (Arg 10))]; T (8, f);  T (16, c); T (8, f)]"
84.31,20927011,1549680,"[V f; U (1, f); ULambda y; U (3, h); T (8, c); Hoist_vars [c]; T (1, x);  T (3, w); T (1, c); T (17, x);  Lambda_apply y [((Iter 1), (Arg 7)); ((Iter 1), (Arg 10))]; T (64, f);  T (64, c); T (1, f)]"
37.59,50533387,1429103,"[V f; U (1, f); ULambda y; U (3, h); T (1, c); Hoist_vars [c]; T (1, x);  T (3, w); T (8, c); T (17, x);  Lambda_apply y [((Iter 1), (Arg 7)); ((Iter 1), (Arg 10))]; T (4, f);  T (64, c); T (16, f)]"
19.54,120742693,1216315,"[V f; U (1, f); ULambda y; U (3, h); T (1, c); Hoist_vars [c]; T (17, x);  T (3, w); T (8, c); T (1, x);  Lambda_apply y [((Iter 1), (Arg 8)); ((Iter 1), (Arg 9))]; T (1, f);  T (64, c); T (64, f)]"
64.96,13462573,10177334,"[V f; U (1, f); ULambda y; U (3, h); T (32, c); Hoist_vars [c]; T (1, x);  T (3, w); T (8, c); T (17, x);  Lambda_apply y [((Iter 1), (Arg 8)); ((Iter 1), (Arg 9))]; T (8, f);  T (2, c); T (8, f)]"
71.10,14495074,10260496,"[V f; U (1, f); ULambda y; U (3, h); T (16, c); Hoist_vars [c]; T (1, x);  T (3, w); T (4, c); T (17, x);  Lambda_apply y [((Iter 1), (Arg 8)); ((Iter 1), (Arg 9))]; T (8, f);  T (8, c); T (8, f)]"
73.74,20175784,4560141,"[V f; U (1, f); ULambda y; U (3, h); T (8, c); Hoist_vars [c]; T (1, x);  T (3, w); T (4, c); T (17, x);  Lambda_apply y [((Iter 1), (Arg 8)); ((Iter 1), (Arg 9))]; T (32, f);  T (16, c); T (2, f)]"
86.97,16779029,1287198,"[V f; U (2, f); ULambda y; U (3, h); T (16, c); Hoist_vars [c]; T (17, x);  T (3, w); T (16, f); T (1, x);  Lambda_apply y [((Iter 1), (Arg 6)); ((Iter 1), (Arg 11))]; T (2, f);  T (32, c); T (1, f)]"
86.60,16890851,1314311,"[V f; U (2, f); ULambda y; U (3, h); T (16, c); Hoist_vars [c]; T (17, x);  T (3, w); T (2, f); T (1, x);  Lambda_apply y [((Iter 1), (Arg 6)); ((Iter 1), (Arg 11))]; T (4, f);  T (32, c); T (4, f)]"
76.73,11710572,10200904,"[V f; U (2, f); ULambda y; U (3, h); T (128, c); Hoist_vars [c]; T (1, x);  T (3, w); T (16, f); T (17, x);  Lambda_apply y [((Iter 1), (Arg 7)); ((Iter 1), (Arg 10))]; T (2, f);  T (4, c); T (1, f)]"
78.44,11813938,10248473,"[V f; U (2, f); ULambda y; U (3, h); T (64, c); Hoist_vars [c]; T (1, x);  T (3, w); T (1, f); T (17, x);  Lambda_apply y [((Iter 1), (Arg 7)); ((Iter 1), (Arg 10))]; T (8, f);  T (8, c); T (4, f)]"
77.85,11822362,10246024,"[V f; U (2, f); ULambda y; U (3, h); T (64, c); Hoist_vars [c]; T (1, x);  T (3, w); T (1, f); T (17, x);  Lambda_apply y [((Iter 1), (Arg 7)); ((Iter 1), (Arg 10))]; T (2, f);  T (8, c); T (16, f)]"
38.61,42598243,11990450,"[V f; U (2, f); ULambda y; U (3, h); T (1, c); Hoist_vars [c]; T (1, x);  T (3, w); T (8, f); T (17, x);  Lambda_apply y [((Iter 1), (Arg 7)); ((Iter 1), (Arg 10))]; T (1, f);  T (512, c); T (4, f)]"
72.07,11433387,10127850,"[V f; U (2, f); ULambda y; U (3, h); T (512, c); Hoist_vars [c]; T (17, x);  T (3, w); T (16, f); T (1, x);  Lambda_apply y [((Iter 1), (Arg 8)); ((Iter 1), (Arg 9))]; T (1, f);  T (1, c); T (2, f)]"
81.54,11760483,10253869,"[V f; U (2, f); ULambda y; U (3, h); T (64, c); Hoist_vars [c]; T (1, x);  T (3, w); T (1, f); T (17, x);  Lambda_apply y [((Iter 1), (Arg 8)); ((Iter 1), (Arg 9))]; T (32, f);  T (8, c); T (1, f)]"
32.52,70639687,9526954,"[V f; U (4, f); ULambda y; U (3, h); T (1, c); Hoist_vars [c]; T (17, x);  T (3, w); T (4, f); T (1, x);  Lambda_apply y [((Iter 1), (Arg 2)); ((Iter 5), (Arg 3))]; T (2, f);  T (512, c); T (2, f)]"
28.45,30468775,30219376,"[V f; U (4, f); ULambda y; U (3, h); T (512, c); Hoist_vars [c]; T (1, x);  T (3, w); T (2, f); T (17, x);  Lambda_apply y [((Iter 1), (Arg 2)); ((Iter 5), (Arg 3))]; T (4, f);  T (1, c); T (2, f)]"
91.56,21806310,1955943,"[V f; U (4, f); ULambda y; U (3, h); T (64, c); Hoist_vars [c]; T (17, x);  T (3, w); T (8, f); T (1, x);  Lambda_apply y [((Iter 1), (Arg 2)); ((Iter 3), (Arg 5))]; T (2, f);  T (8, c); T (1, f)]"
91.21,22658084,1760454,"[V f; U (4, f); ULambda y; U (3, h); T (32, c); Hoist_vars [c]; T (17, x);  T (3, w); T (2, f); T (1, x);  Lambda_apply y [((Iter 1), (Arg 2)); ((Iter 3), (Arg 5))]; T (4, f);  T (16, c); T (2, f)]"
61.81,35243557,3726610,"[V f; U (4, f); ULambda y; U (3, h); T (2, c); Hoist_vars [c]; T (17, x);  T (3, w); T (1, f); T (1, x);  Lambda_apply y [((Iter 1), (Arg 2)); ((Iter 3), (Arg 5))]; T (4, f);  T (256, c); T (4, f)]"
86.85,34306602,1747452,"[V f; U (4, f); ULambda y; U (3, h); T (16, c); Hoist_vars [c]; T (17, x);  T (3, w); T (1, f); T (1, x);  Lambda_apply y [((Iter 5), (Arg 2)); ((Iter 1), (Arg 7))]; T (1, f);  T (32, c); T (16, f)]"
59.13,36586194,5492084,"[V f; U (4, f); ULambda y; U (3, h); T (2, c); Hoist_vars [c]; T (17, x);  T (3, w); T (1, f); T (1, x);  Lambda_apply y [((Iter 5), (Arg 2)); ((Iter 1), (Arg 7))]; T (4, f);  T (256, c); T (4, f)]"
80.54,36795598,2853113,"[V f; U (4, f); ULambda y; U (3, h); T (4, c); Hoist_vars [c]; T (1, x);  T (3, w); T (2, f); T (17, x);  Lambda_apply y [((Iter 5), (Arg 2)); ((Iter 1), (Arg 7))]; T (4, f);  T (128, c); T (2, f)]"
70.08,41112431,3366143,"[V f; U (4, f); ULambda y; U (3, h); T (2, c); Hoist_vars [c]; T (1, x);  T (3, w); T (1, f); T (17, x);  Lambda_apply y [((Iter 5), (Arg 2)); ((Iter 1), (Arg 7))]; T (8, f);  T (256, c); T (2, f)]"
52.52,26012650,25193978,"[V f; U (4, f); ULambda y; U (3, h); T (256, c); Hoist_vars [c]; T (17, x);  T (3, w); T (1, f); T (1, x);  Lambda_apply y [((Iter 3), (Arg 3)); ((Iter 2), (Arg 4))]; T (16, f);  T (2, c); T (1, f)]"
45.67,25940596,25177977,"[V f; U (4, f); ULambda y; U (3, h); T (512, c); Hoist_vars [c]; T (17, x);  T (3, w); T (2, f); T (1, x);  Lambda_apply y [((Iter 4), (Arg 3)); ((Iter 1), (Arg 5))]; T (1, f);  T (1, c); T (8, f)]"
56.93,26221440,23038278,"[V f; U (4, f); ULambda y; U (3, h); T (128, c); Hoist_vars [c]; T (17, x);  T (3, w); T (4, f); T (1, x);  Lambda_apply y [((Iter 4), (Arg 3)); ((Iter 1), (Arg 5))]; T (1, f);  T (4, c); T (4, f)]"
89.13,29140941,1758362,"[V f; U (4, f); ULambda y; U (3, h); T (16, c); Hoist_vars [c]; T (17, x);  T (3, w); T (2, f); T (1, x);  Lambda_apply y [((Iter 4), (Arg 3)); ((Iter 1), (Arg 5))]; T (1, f);  T (32, c); T (8, f)]"
61.68,33672823,5322802,"[V f; U (4, f); ULambda y; U (3, h); T (2, c); Hoist_vars [c]; T (17, x);  T (3, w); T (4, f); T (1, x);  Lambda_apply y [((Iter 4), (Arg 3)); ((Iter 1), (Arg 5))]; T (2, f);  T (256, c); T (2, f)]"
89.40,17793719,1441532,"[V f; U (4, f); ULambda y; U (3, h); T (32, c); Hoist_vars [c]; T (17, x);  T (3, w); T (2, f); T (1, x);  Lambda_apply y [((Iter 1), (Arg 3)); ((Iter 2), (Arg 7))]; T (4, f);  T (16, c); T (2, f)]"
29.08,66995719,7975668,"[V f; U (4, f); ULambda y; U (3, h); T (1, c); Hoist_vars [c]; T (17, x);  T (3, w); T (16, f); T (1, x);  Lambda_apply y [((Iter 1), (Arg 3)); ((Iter 2), (Arg 7))]; T (1, f);  T (512, c); T (1, f)]"
40.42,15620118,15134664,"[V f; U (4, f); ULambda y; U (3, h); T (512, c); Hoist_vars [c]; T (1, x);  T (3, w); T (1, f); T (17, x);  Lambda_apply y [((Iter 1), (Arg 3)); ((Iter 2), (Arg 7))]; T (2, f);  T (1, c); T (8, f)]"
82.75,16282586,6485089,"[V f; U (4, f); ULambda y; U (3, h); T (32, c); Hoist_vars [c]; T (1, x);  T (3, w); T (2, f); T (17, x);  Lambda_apply y [((Iter 1), (Arg 3)); ((Iter 2), (Arg 7))]; T (2, f);  T (16, c); T (4, f)]"
70.16,21200044,18448539,"[V f; U (4, f); ULambda y; U (3, h); T (128, c); Hoist_vars [c]; T (17, x);  T (3, w); T (1, f); T (1, x);  Lambda_apply y [((Iter 3), (Arg 4)); ((Iter 1), (Arg 5))]; T (4, f);  T (4, c); T (4, f)]"
78.50,15767187,15259685,"[V f; U (4, f); ULambda y; U (3, h); T (64, c); Hoist_vars [c]; T (1, x);  T (3, w); T (1, f); T (17, x);  Lambda_apply y [((Iter 1), (Arg 5)); ((Iter 2), (Arg 6))]; T (4, f);  T (8, c); T (4, f)]"
87.45,19907033,1593500,"[V f; U (4, f); ULambda y; U (3, h); T (16, c); Hoist_vars [c]; T (17, x);  T (3, w); T (2, f); T (1, x);  Lambda_apply y [((Iter 2), (Arg 5)); ((Iter 1), (Arg 7))]; T (1, f);  T (32, c); T (8, f)]"
68.25,24547977,6883262,"[V f; U (4, f); ULambda y; U (3, h); T (2, c); Hoist_vars [c]; T (1, x);  T (3, w); T (8, f); T (17, x);  Lambda_apply y [((Iter 2), (Arg 5)); ((Iter 1), (Arg 7))]; T (1, f);  T (256, c); T (2, f)]"
19.64,115516105,1345157,"[V f; U (1, f); ULambda y; U (3, w); T (1, c); Hoist_vars [c]; T (17, x);  T (3, h); T (128, c); T (1, x);  Lambda_apply y [((Iter 3), (Arg 4)); ((Iter 1), (Arg 5))]; T (16, f);  T (4, c); T (4, f)]"
53.10,47459592,1655648,"[V f; U (1, f); ULambda y; U (3, w); T (4, c); Hoist_vars [c]; T (17, x);  T (3, h); T (16, c); T (1, x);  Lambda_apply y [((Iter 3), (Arg 4)); ((Iter 1), (Arg 5))]; T (64, f);  T (8, c); T (1, f)]"
45.29,29477878,20182064,"[V f; U (1, f); ULambda y; U (3, w); T (2, c); Hoist_vars [c]; T (1, x);  T (3, h); T (128, c); T (17, x);  Lambda_apply y [((Iter 3), (Arg 4)); ((Iter 1), (Arg 5))]; T (64, f);  T (2, c); T (1, f)]"
20.10,110037403,1198460,"[V f; U (1, f); ULambda y; U (3, w); T (1, c); Hoist_vars [c]; T (17, x);  T (3, h); T (128, c); T (1, x);  Lambda_apply y [((Iter 1), (Arg 5)); ((Iter 2), (Arg 6))]; T (1, f);  T (4, c); T (64, f)]"
27.00,24996275,15183608,"[V f; U (1, f); ULambda y; U (3, w); T (512, c); Hoist_vars [c]; T (1, x);  T (3, h); T (1, c); T (17, x);  Lambda_apply y [((Iter 1), (Arg 5)); ((Iter 2), (Arg 6))]; T (16, f);  T (1, c); T (4, f)]"
22.89,31232617,15137493,"[V f; U (1, f); ULambda y; U (3, w); T (8, c); Hoist_vars [c]; T (1, x);  T (3, h); T (64, c); T (17, x);  Lambda_apply y [((Iter 1), (Arg 5)); ((Iter 2), (Arg 6))]; T (4, f);  T (1, c); T (16, f)]"
52.85,24209999,15207129,"[V f; U (1, f); ULambda y; U (3, w); T (256, c); Hoist_vars [c]; T (1, x);  T (3, h); T (1, c); T (17, x);  Lambda_apply y [((Iter 1), (Arg 5)); ((Iter 2), (Arg 6))]; T (64, f);  T (2, c); T (1, f)]"
70.76,26466795,6358739,"[V f; U (1, f); ULambda y; U (3, w); T (16, c); Hoist_vars [c]; T (1, x);  T (3, h); T (2, c); T (17, x);  Lambda_apply y [((Iter 1), (Arg 5)); ((Iter 2), (Arg 6))]; T (4, f);  T (16, c); T (16, f)]"
55.35,45404533,1993239,"[V f; U (1, f); ULambda y; U (3, w); T (4, c); Hoist_vars [c]; T (1, x);  T (3, h); T (1, c); T (17, x);  Lambda_apply y [((Iter 1), (Arg 5)); ((Iter 2), (Arg 6))]; T (4, f);  T (128, c); T (16, f)]"
81.54,27714967,1260235,"[V f; U (1, f); ULambda y; U (3, w); T (64, c); Hoist_vars [c]; T (17, x);  T (3, h); T (4, c); T (1, x);  Lambda_apply y [((Iter 2), (Arg 5)); ((Iter 1), (Arg 7))]; T (32, f);  T (2, c); T (2, f)]"
47.78,54354326,2004394,"[V f; U (1, f); ULambda y; U (3, w); T (4, c); Hoist_vars [c]; T (17, x);  T (3, h); T (64, c); T (1, x);  Lambda_apply y [((Iter 2), (Arg 5)); ((Iter 1), (Arg 7))]; T (8, f);  T (2, c); T (8, f)]"
59.38,41958028,2209266,"[V f; U (1, f); ULambda y; U (3, w); T (8, c); Hoist_vars [c]; T (17, x);  T (3, h); T (16, c); T (1, x);  Lambda_apply y [((Iter 2), (Arg 5)); ((Iter 1), (Arg 7))]; T (32, f);  T (4, c); T (2, f)]"
84.40,27631910,1456127,"[V f; U (1, f); ULambda y; U (3, w); T (64, c); Hoist_vars [c]; T (17, x);  T (3, h); T (1, c); T (1, x);  Lambda_apply y [((Iter 2), (Arg 5)); ((Iter 1), (Arg 7))]; T (32, f);  T (8, c); T (2, f)]"
29.33,26797458,15165482,"[V f; U (1, f); ULambda y; U (3, w); T (128, c); Hoist_vars [c]; T (1, x);  T (3, h); T (4, c); T (17, x);  Lambda_apply y [((Iter 2), (Arg 5)); ((Iter 1), (Arg 7))]; T (32, f);  T (1, c); T (2, f)]"
29.11,26835028,15180917,"[V f; U (1, f); ULambda y; U (3, w); T (128, c); Hoist_vars [c]; T (1, x);  T (3, h); T (4, c); T (17, x);  Lambda_apply y [((Iter 2), (Arg 5)); ((Iter 1), (Arg 7))]; T (8, f);  T (1, c); T (8, f)]"
53.60,26774332,15180892,"[V f; U (1, f); ULambda y; U (3, w); T (16, c); Hoist_vars [c]; T (1, x);  T (3, h); T (16, c); T (17, x);  Lambda_apply y [((Iter 2), (Arg 5)); ((Iter 1), (Arg 7))]; T (16, f);  T (2, c); T (4, f)]"
33.87,44319813,15159387,"[V f; U (1, f); ULambda y; U (3, w); T (1, c); Hoist_vars [c]; T (1, x);  T (3, h); T (256, c); T (17, x);  Lambda_apply y [((Iter 2), (Arg 5)); ((Iter 1), (Arg 7))]; T (64, f);  T (2, c); T (1, f)]"
58.71,26759488,15221425,"[V f; U (1, f); ULambda y; U (3, w); T (16, c); Hoist_vars [c]; T (1, x);  T (3, h); T (8, c); T (17, x);  Lambda_apply y [((Iter 2), (Arg 5)); ((Iter 1), (Arg 7))]; T (4, f);  T (4, c); T (16, f)]"
25.87,81572424,7019307,"[V f; U (2, f); ULambda y; U (3, w); T (1, c); Hoist_vars [c]; T (17, x);  T (3, h); T (1, f); T (1, x);  Lambda_apply y [((Iter 3), (Arg 4)); ((Iter 1), (Arg 5))]; T (4, f);  T (512, c); T (8, f)]"
64.33,21767978,20293565,"[V f; U (2, f); ULambda y; U (3, w); T (64, c); Hoist_vars [c]; T (1, x);  T (3, h); T (2, f); T (17, x);  Lambda_apply y [((Iter 3), (Arg 4)); ((Iter 1), (Arg 5))]; T (16, f);  T (8, c); T (1, f)]"
80.72,22056650,8326221,"[V f; U (2, f); ULambda y; U (3, w); T (32, c); Hoist_vars [c]; T (1, x);  T (3, h); T (16, f); T (17, x);  Lambda_apply y [((Iter 3), (Arg 4)); ((Iter 1), (Arg 5))]; T (2, f);  T (16, c); T (1, f)]"
81.02,22158724,8191022,"[V f; U (2, f); ULambda y; U (3, w); T (32, c); Hoist_vars [c]; T (1, x);  T (3, h); T (8, f); T (17, x);  Lambda_apply y [((Iter 3), (Arg 4)); ((Iter 1), (Arg 5))]; T (2, f);  T (16, c); T (2, f)]"
76.84,32013243,2808940,"[V f; U (2, f); ULambda y; U (3, w); T (4, c); Hoist_vars [c]; T (1, x);  T (3, h); T (1, f); T (17, x);  Lambda_apply y [((Iter 3), (Arg 4)); ((Iter 1), (Arg 5))]; T (16, f);  T (128, c); T (2, f)]"
79.52,28368034,5165323,"[V f; U (2, f); ULambda y; U (3, w); T (4, c); Hoist_vars [c]; T (1, x);  T (3, h); T (8, f); T (17, x);  Lambda_apply y [((Iter 3), (Arg 4)); ((Iter 1), (Arg 5))]; T (1, f);  T (128, c); T (4, f)]"
78.03,29724974,2873408,"[V f; U (2, f); ULambda y; U (3, w); T (4, c); Hoist_vars [c]; T (1, x);  T (3, h); T (2, f); T (17, x);  Lambda_apply y [((Iter 3), (Arg 4)); ((Iter 1), (Arg 5))]; T (1, f);  T (128, c); T (16, f)]"
71.21,39545477,3013043,"[V f; U (2, f); ULambda y; U (3, w); T (4, c); Hoist_vars [c]; T (1, x);  T (3, h); T (1, f); T (17, x);  Lambda_apply y [((Iter 2), (Arg 4)); ((Iter 1), (Arg 9))]; T (1, f);  T (128, c); T (32, f)]"
25.25,81993111,3770761,"[V f; U (2, f); ULambda y; U (3, w); T (1, c); Hoist_vars [c]; T (17, x);  T (3, h); T (1, f); T (1, x);  Lambda_apply y [((Iter 1), (Arg 4)); ((Iter 1), (Arg 13))]; T (1, f);  T (512, c); T (32, f)]"
37.83,43191126,10202538,"[V f; U (2, f); ULambda y; U (3, w); T (512, c); Hoist_vars [c]; T (1, x);  T (3, h); T (1, f); T (17, x);  Lambda_apply y [((Iter 1), (Arg 4)); ((Iter 1), (Arg 13))]; T (8, f);  T (1, c); T (4, f)]"
69.90,42955652,4849437,"[V f; U (2, f); ULambda y; U (3, w); T (32, c); Hoist_vars [c]; T (1, x);  T (3, h); T (1, f); T (17, x);  Lambda_apply y [((Iter 1), (Arg 4)); ((Iter 1), (Arg 13))]; T (8, f);  T (16, c); T (4, f)]"
89.62,22230733,1583299,"[V f; U (2, f); ULambda y; U (3, w); T (64, c); Hoist_vars [c]; T (17, x);  T (3, h); T (16, f); T (1, x);  Lambda_apply y [((Iter 1), (Arg 5)); ((Iter 2), (Arg 6))]; T (2, f);  T (8, c); T (1, f)]"
76.87,21060155,15221788,"[V f; U (2, f); ULambda y; U (3, w); T (256, c); Hoist_vars [c]; T (1, x);  T (3, h); T (1, f); T (17, x);  Lambda_apply y [((Iter 1), (Arg 5)); ((Iter 2), (Arg 6))]; T (32, f);  T (2, c); T (1, f)]"
75.56,21423067,15267023,"[V f; U (2, f); ULambda y; U (3, w); T (64, c); Hoist_vars [c]; T (1, x);  T (3, h); T (2, f); T (17, x);  Lambda_apply y [((Iter 1), (Arg 5)); ((Iter 2), (Arg 6))]; T (4, f);  T (8, c); T (4, f)]"
88.77,24664882,2232103,"[V f; U (2, f); ULambda y; U (3, w); T (32, c); Hoist_vars [c]; T (17, x);  T (3, h); T (1, f); T (1, x);  Lambda_apply y [((Iter 2), (Arg 5)); ((Iter 1), (Arg 7))]; T (1, f);  T (16, c); T (32, f)]"
86.41,26889434,1762499,"[V f; U (2, f); ULambda y; U (3, w); T (16, c); Hoist_vars [c]; T (17, x);  T (3, h); T (4, f); T (1, x);  Lambda_apply y [((Iter 2), (Arg 5)); ((Iter 1), (Arg 7))]; T (1, f);  T (32, c); T (8, f)]"
47.24,40951961,3554359,"[V f; U (2, f); ULambda y; U (3, w); T (2, c); Hoist_vars [c]; T (17, x);  T (3, h); T (2, f); T (1, x);  Lambda_apply y [((Iter 2), (Arg 5)); ((Iter 1), (Arg 7))]; T (16, f);  T (256, c); T (1, f)]"
48.44,41923810,2500207,"[V f; U (2, f); ULambda y; U (3, w); T (2, c); Hoist_vars [c]; T (17, x);  T (3, h); T (2, f); T (1, x);  Lambda_apply y [((Iter 2), (Arg 5)); ((Iter 1), (Arg 7))]; T (2, f);  T (256, c); T (8, f)]"
25.99,79919707,5254715,"[V f; U (2, f); ULambda y; U (3, w); T (1, c); Hoist_vars [c]; T (17, x);  T (3, h); T (1, f); T (1, x);  Lambda_apply y [((Iter 2), (Arg 5)); ((Iter 1), (Arg 7))]; T (1, f);  T (512, c); T (32, f)]"
35.74,22846878,15219483,"[V f; U (2, f); ULambda y; U (3, w); T (512, c); Hoist_vars [c]; T (1, x);  T (3, h); T (1, f); T (17, x);  Lambda_apply y [((Iter 2), (Arg 5)); ((Iter 1), (Arg 7))]; T (1, f);  T (1, c); T (32, f)]"
69.36,22515767,15235157,"[V f; U (2, f); ULambda y; U (3, w); T (128, c); Hoist_vars [c]; T (1, x);  T (3, h); T (2, f); T (17, x);  Lambda_apply y [((Iter 2), (Arg 5)); ((Iter 1), (Arg 7))]; T (16, f);  T (4, c); T (1, f)]"
66.90,46505320,2662141,"[V f; U (2, f); ULambda y; U (3, w); T (8, c); Hoist_vars [c]; T (17, x);  T (3, h); T (16, f); T (1, x);  Lambda_apply y [((Iter 1), (Arg 5)); ((Iter 1), (Arg 12))]; T (2, f);  T (64, c); T (1, f)]"
66.03,46430354,3143607,"[V f; U (2, f); ULambda y; U (3, w); T (8, c); Hoist_vars [c]; T (17, x);  T (3, h); T (4, f); T (1, x);  Lambda_apply y [((Iter 1), (Arg 5)); ((Iter 1), (Arg 12))]; T (1, f);  T (64, c); T (8, f)]"
54.50,56146112,3498987,"[V f; U (2, f); ULambda y; U (3, w); T (4, c); Hoist_vars [c]; T (17, x);  T (3, h); T (8, f); T (1, x);  Lambda_apply y [((Iter 1), (Arg 5)); ((Iter 1), (Arg 12))]; T (2, f);  T (128, c); T (2, f)]"
25.29,80476854,7480210,"[V f; U (2, f); ULambda y; U (3, w); T (1, c); Hoist_vars [c]; T (17, x);  T (3, h); T (4, f); T (1, x);  Lambda_apply y [((Iter 1), (Arg 5)); ((Iter 1), (Arg 12))]; T (1, f);  T (512, c); T (8, f)]"
71.31,36505393,10261994,"[V f; U (2, f); ULambda y; U (3, w); T (256, c); Hoist_vars [c]; T (17, x);  T (3, h); T (2, f); T (1, x);  Lambda_apply y [((Iter 1), (Arg 6)); ((Iter 1), (Arg 11))]; T (1, f);  T (2, c); T (16, f)]"
26.53,79397741,6836975,"[V f; U (2, f); ULambda y; U (3, w); T (1, c); Hoist_vars [c]; T (17, x);  T (3, h); T (8, f); T (1, x);  Lambda_apply y [((Iter 1), (Arg 6)); ((Iter 1), (Arg 11))]; T (2, f);  T (512, c); T (2, f)]"
65.76,35679430,10197059,"[V f; U (2, f); ULambda y; U (3, w); T (512, c); Hoist_vars [c]; T (17, x);  T (3, h); T (2, f); T (1, x);  Lambda_apply y [((Iter 1), (Arg 7)); ((Iter 1), (Arg 10))]; T (1, f);  T (1, c); T (16, f)]"
87.72,34540344,1360976,"[V f; U (2, f); ULambda y; U (3, w); T (64, c); Hoist_vars [c]; T (17, x);  T (3, h); T (2, f); T (1, x);  Lambda_apply y [((Iter 1), (Arg 7)); ((Iter 1), (Arg 10))]; T (8, f);  T (8, c); T (2, f)]"
40.31,48744894,6669938,"[V f; U (2, f); ULambda y; U (3, w); T (1, c); Hoist_vars [c]; T (1, x);  T (3, h); T (2, f); T (17, x);  Lambda_apply y [((Iter 1), (Arg 7)); ((Iter 1), (Arg 10))]; T (16, f);  T (512, c); T (1, f)]"
29.08,67564124,5937863,"[V f; U (2, f); ULambda y; U (3, w); T (1, c); Hoist_vars [c]; T (1, x);  T (3, h); T (1, f); T (17, x);  Lambda_apply y [((Iter 1), (Arg 7)); ((Iter 1), (Arg 10))]; T (2, f);  T (512, c); T (16, f)]"
82.29,37057261,2522013,"[V f; U (2, f); ULambda y; U (3, w); T (16, c); Hoist_vars [c]; T (17, x);  T (3, h); T (1, f); T (1, x);  Lambda_apply y [((Iter 1), (Arg 8)); ((Iter 1), (Arg 9))]; T (1, f);  T (32, c); T (32, f)]"
76.99,36822065,2181914,"[V f; U (2, f); ULambda y; U (3, w); T (8, c); Hoist_vars [c]; T (1, x);  T (3, h); T (1, f); T (17, x);  Lambda_apply y [((Iter 1), (Arg 8)); ((Iter 1), (Arg 9))]; T (4, f);  T (64, c); T (8, f)]"
82.09,37055752,2653425,"[V f; U (4, f); ULambda y; U (3, w); T (8, c); Hoist_vars [c]; T (17, x);  T (3, h); T (2, f); T (1, x);  Lambda_apply y [((Iter 1), (Arg 2)); ((Iter 5), (Arg 3))]; T (2, f);  T (64, c); T (4, f)]"
44.18,30974535,30297686,"[V f; U (4, f); ULambda y; U (3, w); T (64, c); Hoist_vars [c]; T (1, x);  T (3, h); T (1, f); T (17, x);  Lambda_apply y [((Iter 1), (Arg 2)); ((Iter 5), (Arg 3))]; T (8, f);  T (8, c); T (2, f)]"
44.26,30980563,30303596,"[V f; U (4, f); ULambda y; U (3, w); T (64, c); Hoist_vars [c]; T (1, x);  T (3, h); T (1, f); T (17, x);  Lambda_apply y [((Iter 1), (Arg 2)); ((Iter 5), (Arg 3))]; T (2, f);  T (8, c); T (8, f)]"
76.96,28845414,5445493,"[V f; U (4, f); ULambda y; U (3, w); T (4, c); Hoist_vars [c]; T (1, x);  T (3, h); T (4, f); T (17, x);  Lambda_apply y [((Iter 1), (Arg 2)); ((Iter 3), (Arg 5))]; T (2, f);  T (128, c); T (2, f)]"
56.01,29144351,6211460,"[V f; U (4, f); ULambda y; U (3, w); T (1, c); Hoist_vars [c]; T (1, x);  T (3, h); T (1, f); T (17, x);  Lambda_apply y [((Iter 1), (Arg 2)); ((Iter 3), (Arg 5))]; T (4, f);  T (512, c); T (4, f)]"
69.26,26232436,8811139,"[V f; U (4, f); ULambda y; U (3, w); T (1, c); Hoist_vars [c]; T (1, x);  T (3, h); T (4, f); T (17, x);  Lambda_apply y [((Iter 5), (Arg 2)); ((Iter 1), (Arg 7))]; T (2, f);  T (512, c); T (2, f)]"
32.74,25943777,25205819,"[V f; U (4, f); ULambda y; U (3, w); T (512, c); Hoist_vars [c]; T (1, x);  T (3, h); T (1, f); T (17, x);  Lambda_apply y [((Iter 3), (Arg 3)); ((Iter 2), (Arg 4))]; T (8, f);  T (1, c); T (2, f)]"
51.23,25936455,25242426,"[V f; U (4, f); ULambda y; U (3, w); T (256, c); Hoist_vars [c]; T (1, x);  T (3, h); T (1, f); T (17, x);  Lambda_apply y [((Iter 3), (Arg 3)); ((Iter 2), (Arg 4))]; T (2, f);  T (2, c); T (8, f)]"
58.02,33934945,5916490,"[V f; U (4, f); ULambda y; U (3, w); T (2, c); Hoist_vars [c]; T (17, x);  T (3, h); T (1, f); T (1, x);  Lambda_apply y [((Iter 4), (Arg 3)); ((Iter 1), (Arg 5))]; T (8, f);  T (256, c); T (2, f)]"
32.33,66438671,7737236,"[V f; U (4, f); ULambda y; U (3, w); T (1, c); Hoist_vars [c]; T (17, x);  T (3, h); T (2, f); T (1, x);  Lambda_apply y [((Iter 4), (Arg 3)); ((Iter 1), (Arg 5))]; T (1, f);  T (512, c); T (8, f)]"
31.96,25936553,25241854,"[V f; U (4, f); ULambda y; U (3, w); T (512, c); Hoist_vars [c]; T (1, x);  T (3, h); T (4, f); T (17, x);  Lambda_apply y [((Iter 4), (Arg 3)); ((Iter 1), (Arg 5))]; T (4, f);  T (1, c); T (1, f)]"
50.50,25960519,25274338,"[V f; U (4, f); ULambda y; U (3, w); T (256, c); Hoist_vars [c]; T (1, x);  T (3, h); T (2, f); T (17, x);  Lambda_apply y [((Iter 4), (Arg 3)); ((Iter 1), (Arg 5))]; T (2, f);  T (2, c); T (4, f)]"
68.90,25425796,15250242,"[V f; U (4, f); ULambda y; U (3, w); T (256, c); Hoist_vars [c]; T (17, x);  T (3, h); T (4, f); T (1, x);  Lambda_apply y [((Iter 1), (Arg 3)); ((Iter 2), (Arg 7))]; T (2, f);  T (2, c); T (2, f)]"
70.42,25483994,14315487,"[V f; U (4, f); ULambda y; U (3, w); T (128, c); Hoist_vars [c]; T (17, x);  T (3, h); T (1, f); T (1, x);  Lambda_apply y [((Iter 1), (Arg 3)); ((Iter 2), (Arg 7))]; T (8, f);  T (4, c); T (2, f)]"
83.49,27979862,2926362,"[V f; U (4, f); ULambda y; U (3, w); T (8, c); Hoist_vars [c]; T (1, x);  T (3, h); T (2, f); T (17, x);  Lambda_apply y [((Iter 1), (Arg 3)); ((Iter 2), (Arg 7))]; T (8, f);  T (64, c); T (1, f)]"
64.09,21107794,20215456,"[V f; U (4, f); ULambda y; U (3, w); T (128, c); Hoist_vars [c]; T (1, x);  T (3, h); T (16, f); T (17, x);  Lambda_apply y [((Iter 3), (Arg 4)); ((Iter 1), (Arg 5))]; T (1, f);  T (4, c); T (1, f)]"
82.72,21723715,8279845,"[V f; U (4, f); ULambda y; U (3, w); T (32, c); Hoist_vars [c]; T (1, x);  T (3, h); T (4, f); T (17, x);  Lambda_apply y [((Iter 3), (Arg 4)); ((Iter 1), (Arg 5))]; T (1, f);  T (16, c); T (4, f)]"
85.84,23948986,3143846,"[V f; U (4, f); ULambda y; U (3, w); T (8, c); Hoist_vars [c]; T (1, x);  T (3, h); T (4, f); T (17, x);  Lambda_apply y [((Iter 3), (Arg 4)); ((Iter 1), (Arg 5))]; T (2, f);  T (64, c); T (2, f)]"
87.88,23168641,1869175,"[V f; U (4, f); ULambda y; U (3, w); T (16, c); Hoist_vars [c]; T (17, x);  T (3, h); T (2, f); T (1, x);  Lambda_apply y [((Iter 1), (Arg 5)); ((Iter 2), (Arg 6))]; T (4, f);  T (32, c); T (2, f)]"
29.95,67164401,6818226,"[V f; U (4, f); ULambda y; U (3, w); T (1, c); Hoist_vars [c]; T (17, x);  T (3, h); T (8, f); T (1, x);  Lambda_apply y [((Iter 1), (Arg 5)); ((Iter 2), (Arg 6))]; T (1, f);  T (512, c); T (2, f)]"
62.34,25770450,10849823,"[V f; U (4, f); ULambda y; U (3, w); T (1, c); Hoist_vars [c]; T (1, x);  T (3, h); T (4, f); T (17, x);  Lambda_apply y [((Iter 1), (Arg 5)); ((Iter 2), (Arg 6))]; T (1, f);  T (512, c); T (4, f)]"
84.35,32084894,4344326,"[V f; U (8, f); ULambda y; U (3, w); T (64, c); Hoist_vars [c]; T (17, x);  T (3, h); T (4, c); T (1, f); T (1, x);  Lambda_apply y [((Iter 1), (Arg 2)); ((Iter 5), (Arg 3))]; T (2, c);  T (8, f)]"
63.64,20089168,2959129,"[V f; U (8, f); ULambda y; U (3, w); T (2, c); Hoist_vars [c]; T (17, x);  T (3, h); T (32, c); T (2, f); T (1, x);  Lambda_apply y [((Iter 1), (Arg 2)); ((Iter 5), (Arg 3))]; T (8, c);  T (4, f)]"
89.89,33659555,1366079,"[V f; U (8, f); ULambda y; U (3, w); T (16, c); Hoist_vars [c]; T (17, x);  T (3, h); T (1, c); T (8, f); T (1, x);  Lambda_apply y [((Iter 1), (Arg 2)); ((Iter 5), (Arg 3))]; T (32, c);  T (1, f)]"
83.06,33168530,1919269,"[V f; U (8, f); ULambda y; U (3, w); T (4, c); Hoist_vars [c]; T (1, x);  T (3, h); T (4, c); T (2, f); T (17, x);  Lambda_apply y [((Iter 1), (Arg 2)); ((Iter 5), (Arg 3))]; T (32, c);  T (4, f)]"
66.76,27241635,7877149,"[V f; U (8, f); ULambda y; U (3, w); T (1, c); Hoist_vars [c]; T (1, x);  T (3, h); T (1, c); T (2, f); T (17, x);  Lambda_apply y [((Iter 1), (Arg 2)); ((Iter 5), (Arg 3))]; T (512, c);  T (4, f)]"
82.57,30607966,889116,"[V f; U (1, f); ULambda y; U (3, h); U (3, w); T (16, c); Hoist_vars [c];  T (17, x); T (1, c); T (1, x);  Lambda_apply y [((Iter 3), (Arg 4)); ((Iter 1), (Arg 5))]; T (4, f);  T (32, c); T (16, f)]"
23.92,31319079,20162810,"[V f; U (1, f); ULambda y; U (3, h); U (3, w); T (4, c); Hoist_vars [c];  T (1, x); T (128, c); T (17, x);  Lambda_apply y [((Iter 3), (Arg 4)); ((Iter 1), (Arg 5))]; T (32, f);  T (1, c); T (2, f)]"
24.30,32224353,20160630,"[V f; U (1, f); ULambda y; U (3, h); U (3, w); T (1, c); Hoist_vars [c];  T (1, x); T (512, c); T (17, x);  Lambda_apply y [((Iter 3), (Arg 4)); ((Iter 1), (Arg 5))]; T (8, f);  T (1, c); T (8, f)]"
72.35,38580537,1405143,"[V f; U (1, f); ULambda y; U (3, h); U (3, w); T (8, c); Hoist_vars [c];  T (17, x); T (64, c); T (1, x);  Lambda_apply y [((Iter 2), (Arg 4)); ((Iter 1), (Arg 9))]; T (16, f);  T (1, c); T (4, f)]"
53.89,35925551,15197037,"[V f; U (1, f); ULambda y; U (3, h); U (3, w); T (64, c); Hoist_vars [c];  T (17, x); T (2, c); T (1, x);  Lambda_apply y [((Iter 2), (Arg 4)); ((Iter 1), (Arg 9))]; T (32, f);  T (4, c); T (2, f)]"
73.63,43175294,1889920,"[V f; U (1, f); ULambda y; U (3, h); U (3, w); T (4, c); Hoist_vars [c];  T (17, x); T (16, c); T (1, x);  Lambda_apply y [((Iter 2), (Arg 4)); ((Iter 1), (Arg 9))]; T (4, f);  T (8, c); T (16, f)]"
63.80,44039457,2321864,"[V f; U (1, f); ULambda y; U (3, h); U (3, w); T (2, c); Hoist_vars [c];  T (17, x); T (32, c); T (1, x);  Lambda_apply y [((Iter 2), (Arg 4)); ((Iter 1), (Arg 9))]; T (16, f);  T (8, c); T (4, f)]"
65.20,37197647,5236159,"[V f; U (1, f); ULambda y; U (3, h); U (3, w); T (32, c); Hoist_vars [c];  T (17, x); T (1, c); T (1, x);  Lambda_apply y [((Iter 2), (Arg 4)); ((Iter 1), (Arg 9))]; T (2, f);  T (16, c); T (32, f)]"
56.44,36553948,2080589,"[V f; U (1, f); ULambda y; U (3, h); U (3, w); T (1, c); Hoist_vars [c];  T (17, x); T (4, c); T (1, x);  Lambda_apply y [((Iter 2), (Arg 4)); ((Iter 1), (Arg 9))]; T (64, f);  T (128, c); T (1, f)]"
54.14,36708660,1354153,"[V f; U (1, f); ULambda y; U (3, h); U (3, w); T (1, c); Hoist_vars [c];  T (17, x); T (4, c); T (1, x);  Lambda_apply y [((Iter 2), (Arg 4)); ((Iter 1), (Arg 9))]; T (1, f);  T (128, c); T (64, f)]"
53.71,35620523,15176313,"[V f; U (1, f); ULambda y; U (3, h); U (3, w); T (256, c); Hoist_vars [c];  T (1, x); T (1, c); T (17, x);  Lambda_apply y [((Iter 2), (Arg 4)); ((Iter 1), (Arg 9))]; T (32, f);  T (2, c); T (2, f)]"
36.97,37868533,15214409,"[V f; U (1, f); ULambda y; U (3, h); U (3, w); T (1, c); Hoist_vars [c];  T (1, x); T (256, c); T (17, x);  Lambda_apply y [((Iter 2), (Arg 4)); ((Iter 1), (Arg 9))]; T (8, f);  T (2, c); T (8, f)]"
51.81,36891804,1532369,"[V f; U (1, f); ULambda y; U (3, h); U (3, w); T (1, c); Hoist_vars [c];  T (17, x); T (256, c); T (1, x);  Lambda_apply y [((Iter 1), (Arg 4)); ((Iter 1), (Arg 13))]; T (16, f);  T (2, c); T (4, f)]"
66.10,38410144,3955504,"[V f; U (1, f); ULambda y; U (3, h); U (3, w); T (32, c); Hoist_vars [c];  T (17, x); T (4, c); T (1, x);  Lambda_apply y [((Iter 1), (Arg 4)); ((Iter 1), (Arg 13))]; T (64, f);  T (4, c); T (1, f)]"
79.86,38459087,1188937,"[V f; U (1, f); ULambda y; U (3, h); U (3, w); T (16, c); Hoist_vars [c];  T (17, x); T (8, c); T (1, x);  Lambda_apply y [((Iter 1), (Arg 4)); ((Iter 1), (Arg 13))]; T (8, f);  T (4, c); T (8, f)]"
62.11,37528655,10250445,"[V f; U (1, f); ULambda y; U (3, h); U (3, w); T (64, c); Hoist_vars [c];  T (17, x); T (1, c); T (1, x);  Lambda_apply y [((Iter 1), (Arg 4)); ((Iter 1), (Arg 13))]; T (8, f);  T (8, c); T (8, f)]"
81.46,38352241,1290352,"[V f; U (1, f); ULambda y; U (3, h); U (3, w); T (16, c); Hoist_vars [c];  T (17, x); T (4, c); T (1, x);  Lambda_apply y [((Iter 1), (Arg 4)); ((Iter 1), (Arg 13))]; T (64, f);  T (8, c); T (1, f)]"
32.36,37620957,10128695,"[V f; U (1, f); ULambda y; U (3, h); U (3, w); T (512, c); Hoist_vars [c];  T (1, x); T (1, c); T (17, x);  Lambda_apply y [((Iter 1), (Arg 4)); ((Iter 1), (Arg 13))]; T (16, f);  T (1, c); T (4, f)]"
56.95,37289432,10150002,"[V f; U (1, f); ULambda y; U (3, h); U (3, w); T (256, c); Hoist_vars [c];  T (1, x); T (1, c); T (17, x);  Lambda_apply y [((Iter 1), (Arg 4)); ((Iter 1), (Arg 13))]; T (1, f);  T (2, c); T (64, f)]"
50.02,42505388,10160228,"[V f; U (1, f); ULambda y; U (3, h); U (3, w); T (1, c); Hoist_vars [c];  T (1, x); T (256, c); T (17, x);  Lambda_apply y [((Iter 1), (Arg 4)); ((Iter 1), (Arg 13))]; T (2, f);  T (2, c); T (32, f)]"
61.95,37487200,10341231,"[V f; U (1, f); ULambda y; U (3, h); U (3, w); T (64, c); Hoist_vars [c];  T (1, x); T (1, c); T (17, x);  Lambda_apply y [((Iter 1), (Arg 4)); ((Iter 1), (Arg 13))]; T (1, f);  T (8, c); T (64, f)]"
57.86,34031820,15229074,"[V f; U (1, f); ULambda y; U (3, h); U (3, w); T (128, c); Hoist_vars [c];  T (17, x); T (1, c); T (1, x);  Lambda_apply y [((Iter 1), (Arg 5)); ((Iter 2), (Arg 6))]; T (8, f);  T (4, c); T (8, f)]"
28.35,37175181,15149216,"[V f; U (1, f); ULambda y; U (3, h); U (3, w); T (32, c); Hoist_vars [c];  T (1, x); T (16, c); T (17, x);  Lambda_apply y [((Iter 1), (Arg 5)); ((Iter 2), (Arg 6))]; T (8, f);  T (1, c); T (8, f)]"
81.99,37085511,1465861,"[V f; U (1, f); ULambda y; U (3, h); U (3, w); T (8, c); Hoist_vars [c];  T (1, x); T (1, c); T (17, x);  Lambda_apply y [((Iter 1), (Arg 5)); ((Iter 2), (Arg 6))]; T (16, f);  T (64, c); T (4, f)]"
75.65,37867986,1373250,"[V f; U (1, f); ULambda y; U (3, h); U (3, w); T (8, c); Hoist_vars [c];  T (17, x); T (64, c); T (1, x);  Lambda_apply y [((Iter 2), (Arg 5)); ((Iter 1), (Arg 7))]; T (32, f);  T (1, c); T (2, f)]"
75.23,42061263,1930803,"[V f; U (1, f); ULambda y; U (3, h); U (3, w); T (4, c); Hoist_vars [c];  T (17, x); T (32, c); T (1, x);  Lambda_apply y [((Iter 2), (Arg 5)); ((Iter 1), (Arg 7))]; T (2, f);  T (4, c); T (32, f)]"
52.92,33804042,6866860,"[V f; U (1, f); ULambda y; U (3, h); U (3, w); T (1, c); Hoist_vars [c];  T (17, x); T (1, c); T (1, x);  Lambda_apply y [((Iter 2), (Arg 5)); ((Iter 1), (Arg 7))]; T (16, f);  T (512, c); T (4, f)]"
27.02,38494287,15146426,"[V f; U (1, f); ULambda y; U (3, h); U (3, w); T (2, c); Hoist_vars [c];  T (1, x); T (256, c); T (17, x);  Lambda_apply y [((Iter 2), (Arg 5)); ((Iter 1), (Arg 7))]; T (16, f);  T (1, c); T (4, f)]"
56.43,33509129,15187023,"[V f; U (1, f); ULambda y; U (3, h); U (3, w); T (256, c); Hoist_vars [c];  T (1, x); T (1, c); T (17, x);  Lambda_apply y [((Iter 2), (Arg 5)); ((Iter 1), (Arg 7))]; T (16, f);  T (2, c); T (4, f)]"
50.36,34248124,15163386,"[V f; U (1, f); ULambda y; U (3, h); U (3, w); T (8, c); Hoist_vars [c];  T (1, x); T (32, c); T (17, x);  Lambda_apply y [((Iter 2), (Arg 5)); ((Iter 1), (Arg 7))]; T (1, f);  T (2, c); T (64, f)]"
56.51,34246202,15275175,"[V f; U (1, f); ULambda y; U (3, h); U (3, w); T (4, c); Hoist_vars [c];  T (1, x); T (32, c); T (17, x);  Lambda_apply y [((Iter 2), (Arg 5)); ((Iter 1), (Arg 7))]; T (64, f);  T (4, c); T (1, f)]"
56.90,34562020,15258477,"[V f; U (1, f); ULambda y; U (3, h); U (3, w); T (4, c); Hoist_vars [c];  T (1, x); T (16, c); T (17, x);  Lambda_apply y [((Iter 2), (Arg 5)); ((Iter 1), (Arg 7))]; T (8, f);  T (8, c); T (8, f)]"
56.45,34869818,15266496,"[V f; U (1, f); ULambda y; U (3, h); U (3, w); T (2, c); Hoist_vars [c];  T (1, x); T (32, c); T (17, x);  Lambda_apply y [((Iter 2), (Arg 5)); ((Iter 1), (Arg 7))]; T (64, f);  T (8, c); T (1, f)]"
53.32,36807109,1160819,"[V f; U (1, f); ULambda y; U (3, h); U (3, w); T (1, c); Hoist_vars [c];  T (17, x); T (16, c); T (1, x);  Lambda_apply y [((Iter 1), (Arg 5)); ((Iter 1), (Arg 12))]; T (4, f);  T (32, c); T (16, f)]"
74.39,44903288,2054911,"[V f; U (1, f); ULambda y; U (3, h); U (3, w); T (4, c); Hoist_vars [c];  T (17, x); T (1, c); T (1, x);  Lambda_apply y [((Iter 1), (Arg 5)); ((Iter 1), (Arg 12))]; T (1, f);  T (128, c); T (64, f)]"
59.13,39623259,10150827,"[V f; U (1, f); ULambda y; U (3, h); U (3, w); T (4, c); Hoist_vars [c];  T (1, x); T (64, c); T (17, x);  Lambda_apply y [((Iter 1), (Arg 5)); ((Iter 1), (Arg 12))]; T (1, f);  T (2, c); T (64, f)]"
54.42,42172288,10194867,"[V f; U (1, f); ULambda y; U (3, h); U (3, w); T (1, c); Hoist_vars [c];  T (1, x); T (128, c); T (17, x);  Lambda_apply y [((Iter 1), (Arg 5)); ((Iter 1), (Arg 12))]; T (2, f);  T (4, c); T (32, f)]"
60.77,40790494,3886028,"[V f; U (1, f); ULambda y; U (3, h); U (3, w); T (4, c); Hoist_vars [c];  T (1, x); T (8, c); T (17, x);  Lambda_apply y [((Iter 1), (Arg 5)); ((Iter 1), (Arg 12))]; T (16, f);  T (16, c); T (4, f)]"
86.62,38780886,1008471,"[V f; U (1, f); ULambda y; U (3, h); U (3, w); T (16, c); Hoist_vars [c];  T (1, x); T (1, c); T (17, x);  Lambda_apply y [((Iter 1), (Arg 5)); ((Iter 1), (Arg 12))]; T (4, f);  T (32, c); T (16, f)]"
77.70,41574009,1089153,"[V f; U (1, f); ULambda y; U (3, h); U (3, w); T (8, c); Hoist_vars [c];  T (17, x); T (64, c); T (1, x);  Lambda_apply y [((Iter 1), (Arg 6)); ((Iter 1), (Arg 11))]; T (4, f);  T (1, c); T (16, f)]"
62.30,40073327,3877438,"[V f; U (1, f); ULambda y; U (3, h); U (3, w); T (32, c); Hoist_vars [c];  T (17, x); T (8, c); T (1, x);  Lambda_apply y [((Iter 1), (Arg 6)); ((Iter 1), (Arg 11))]; T (64, f);  T (2, c); T (1, f)]"
53.84,36280158,1177120,"[V f; U (1, f); ULambda y; U (3, h); U (3, w); T (1, c); Hoist_vars [c];  T (17, x); T (128, c); T (1, x);  Lambda_apply y [((Iter 1), (Arg 6)); ((Iter 1), (Arg 11))]; T (64, f);  T (4, c); T (1, f)]"
82.06,41269990,1342864,"[V f; U (1, f); ULambda y; U (3, h); U (3, w); T (8, c); Hoist_vars [c];  T (17, x); T (1, c); T (1, x);  Lambda_apply y [((Iter 1), (Arg 6)); ((Iter 1), (Arg 11))]; T (4, f);  T (64, c); T (16, f)]"
30.41,44588979,10125048,"[V f; U (1, f); ULambda y; U (3, h); U (3, w); T (1, c); Hoist_vars [c];  T (1, x); T (512, c); T (17, x);  Lambda_apply y [((Iter 1), (Arg 6)); ((Iter 1), (Arg 11))]; T (2, f);  T (1, c); T (32, f)]"
63.29,38914691,10154795,"[V f; U (1, f); ULambda y; U (3, h); U (3, w); T (256, c); Hoist_vars [c];  T (1, x); T (1, c); T (17, x);  Lambda_apply y [((Iter 1), (Arg 6)); ((Iter 1), (Arg 11))]; T (32, f);  T (2, c); T (2, f)]"
61.78,39771294,10163558,"[V f; U (1, f); ULambda y; U (3, h); U (3, w); T (8, c); Hoist_vars [c];  T (1, x); T (32, c); T (17, x);  Lambda_apply y [((Iter 1), (Arg 6)); ((Iter 1), (Arg 11))]; T (4, f);  T (2, c); T (16, f)]"
65.11,38867193,10183466,"[V f; U (1, f); ULambda y; U (3, h); U (3, w); T (64, c); Hoist_vars [c];  T (1, x); T (2, c); T (17, x);  Lambda_apply y [((Iter 1), (Arg 6)); ((Iter 1), (Arg 11))]; T (64, f);  T (4, c); T (1, f)]"
79.66,42407061,1271203,"[V f; U (1, f); ULambda y; U (3, h); U (3, w); T (4, c); Hoist_vars [c];  T (1, x); T (2, c); T (17, x);  Lambda_apply y [((Iter 1), (Arg 6)); ((Iter 1), (Arg 11))]; T (2, f);  T (64, c); T (32, f)]"
62.84,41173058,10253303,"[V f; U (1, f); ULambda y; U (3, h); U (3, w); T (32, c); Hoist_vars [c];  T (1, x); T (2, c); T (17, x);  Lambda_apply y [((Iter 1), (Arg 7)); ((Iter 1), (Arg 10))]; T (8, f);  T (8, c); T (8, f)]"
63.40,41581370,4207875,"[V f; U (1, f); ULambda y; U (3, h); U (3, w); T (16, c); Hoist_vars [c];  T (1, x); T (2, c); T (17, x);  Lambda_apply y [((Iter 1), (Arg 7)); ((Iter 1), (Arg 10))]; T (16, f);  T (16, c); T (4, f)]"
61.25,43666910,3837765,"[V f; U (1, f); ULambda y; U (3, h); U (3, w); T (1, c); Hoist_vars [c];  T (1, x); T (32, c); T (17, x);  Lambda_apply y [((Iter 1), (Arg 7)); ((Iter 1), (Arg 10))]; T (8, f);  T (16, c); T (8, f)]"
75.82,43178347,1808137,"[V f; U (1, f); ULambda y; U (3, h); U (3, w); T (2, c); Hoist_vars [c];  T (1, x); T (4, c); T (17, x);  Lambda_apply y [((Iter 1), (Arg 7)); ((Iter 1), (Arg 10))]; T (8, f);  T (64, c); T (8, f)]"
31.29,43144591,10125176,"[V f; U (1, f); ULambda y; U (3, h); U (3, w); T (512, c); Hoist_vars [c];  T (17, x); T (1, c); T (1, x);  Lambda_apply y [((Iter 1), (Arg 8)); ((Iter 1), (Arg 9))]; T (8, f);  T (1, c); T (8, f)]"
62.74,41850483,10197441,"[V f; U (1, f); ULambda y; U (3, h); U (3, w); T (128, c); Hoist_vars [c];  T (17, x); T (1, c); T (1, x);  Lambda_apply y [((Iter 1), (Arg 8)); ((Iter 1), (Arg 9))]; T (2, f);  T (4, c); T (32, f)]"
80.42,41441328,1406701,"[V f; U (1, f); ULambda y; U (3, h); U (3, w); T (1, c); Hoist_vars [c];  T (1, x); T (16, c); T (17, x);  Lambda_apply y [((Iter 1), (Arg 8)); ((Iter 1), (Arg 9))]; T (16, f);  T (32, c); T (4, f)]"
73.90,35910277,3535491,"[V f; U (2, f); ULambda y; U (3, h); U (3, w); T (2, c); Hoist_vars [c];  T (17, x); T (8, f); T (1, x);  Lambda_apply y [((Iter 1), (Arg 6)); ((Iter 1), (Arg 11))]; T (1, f);  T (256, c); T (4, f)]"
73.30,35722014,3800195,"[V f; U (2, f); ULambda y; U (3, h); U (3, w); T (2, c); Hoist_vars [c];  T (17, x); T (1, f); T (1, x);  Lambda_apply y [((Iter 1), (Arg 6)); ((Iter 1), (Arg 11))]; T (4, f);  T (256, c); T (8, f)]"
86.45,29698795,2256298,"[V f; U (2, f); ULambda y; U (3, h); U (3, w); T (8, c); Hoist_vars [c];  T (1, x); T (1, f); T (17, x);  Lambda_apply y [((Iter 1), (Arg 6)); ((Iter 1), (Arg 11))]; T (32, f);  T (64, c); T (1, f)]"
72.72,34566434,3626192,"[V f; U (2, f); ULambda y; U (3, h); U (3, w); T (2, c); Hoist_vars [c];  T (17, x); T (1, f); T (1, x);  Lambda_apply y [((Iter 1), (Arg 8)); ((Iter 1), (Arg 9))]; T (4, f);  T (256, c); T (8, f)]"
