perf,CACHE_MISS_L1,CACHE_MISS_L2
80.90,1757121,202721
81.54,1754843,207950
78.35,1757637,248441
78.42,1753866,250462
77.26,2084779,176466
76.23,2086458,194521
74.96,2087813,207893
74.57,2091978,231966
70.00,2651327,126782
68.38,2655482,164127
67.69,2649950,200840
66.45,2670445,222153
56.16,3590278,175281
56.60,3590705,156170
55.65,3603804,188668
55.25,3598865,245001
41.35,5404247,98495
40.00,5368846,217507
39.53,5395355,235843
40.96,5397048,228715
22.87,10389122,118907
22.52,10381168,376032
22.32,10329888,208295
22.52,10301027,404945
12.54,17015359,182387
12.68,16729643,159364
12.52,16953503,216480
12.58,16732348,320981
6.02,35029132,243349
6.05,35101921,223779
6.06,34985936,210339
6.44,35263866,217683
77.75,1758374,263192
77.97,1754829,280539
76.55,1756263,297711
76.07,1753204,325386
76.52,2090036,175349
75.53,2089660,226791
72.94,2087264,291106
73.19,2083914,320458
68.72,2659540,135351
68.27,2661625,186322
67.33,2654430,232809
64.20,2659316,324521
56.39,3621889,117450
56.43,3600947,170330
54.65,3608928,245526
52.75,3611633,329278
40.94,5372451,110684
40.00,5390096,175225
39.93,5378048,246855
38.57,5376897,356728
23.25,10030199,108435
22.92,9951462,175933
22.95,9948174,268791
22.76,9970086,405882
12.71,16695225,110648
12.70,16722780,200890
12.69,16563876,314912
12.57,16902373,474974
6.14,34527944,110764
6.13,34422860,208116
6.11,34616668,244398
6.46,34385739,231590
71.16,1748344,406140
71.93,1745977,426819
70.66,1747596,467360
69.54,1740596,498394
72.54,2058353,266835
70.68,2058489,319813
68.80,2059348,397084
65.91,2048409,510677
66.91,2585218,202127
65.29,2584513,273452
64.50,2585333,351480
60.70,2583930,509933
55.51,3474123,177732
54.79,3503801,255095
53.40,3465484,354298
50.22,3456438,527029
40.66,4769147,171905
40.58,4778860,269907
38.88,4765738,386896
37.65,4789284,581692
24.19,8366666,183524
24.61,8101045,276262
24.17,8105302,444514
22.97,8341338,681126
12.62,16405442,179032
12.54,16457260,291907
12.49,16459757,484039
12.48,16216361,701802
6.18,33931495,170066
6.18,33758118,324492
6.16,33746836,398502
6.21,33784812,278032
65.23,1559444,607417
65.86,1558302,603523
64.02,1555569,681193
63.19,1543928,721265
67.93,1854128,365482
66.58,1850827,457728
64.25,1849445,582441
59.77,1842645,754229
62.81,2375277,295440
61.46,2371897,388050
59.78,2372367,501948
56.54,2353645,759537
54.72,3158102,268894
53.73,3161110,368261
52.62,3167596,507569
48.71,3128446,718702
40.40,4151455,259013
39.82,4166372,372723
38.70,4143672,544232
36.24,4125935,782001
25.54,6861954,256693
24.84,6977047,402860
24.58,6980578,615745
23.79,6863703,940596
13.11,13898531,256142
13.02,13960933,417468
12.94,13791068,633584
12.93,13740784,723958
6.42,29148973,256914
6.44,28963082,459105
6.38,29089218,582194
6.43,29064174,388862
54.48,1408989,889434
54.60,1401992,904367
53.16,1419589,954898
54.05,1427637,1020546
57.70,1633874,600153
54.95,1641888,757024
54.42,1649714,851885
51.98,1660617,1012024
55.09,2119195,492561
54.03,2129059,602182
52.61,2132217,767298
46.89,2133959,1053094
52.82,2555936,413836
49.15,2621355,585577
47.66,2622949,732192
44.32,2596198,945408
40.01,2671966,432905
39.60,2645632,607993
37.73,2699185,773351
35.14,2659197,940945
29.09,3241607,418216
28.51,3242582,622899
27.24,3239447,854725
26.54,3096940,801452
20.51,2834665,417135
19.57,2863039,633209
18.15,2895358,909844
16.84,2811102,503589
12.73,3970558,419261
12.52,3984138,755447
11.88,3977113,954382
11.59,3693684,483886
46.44,1286778,660587
47.12,1292416,644591
45.11,1301848,684481
46.06,1315512,647962
43.77,1428289,640319
46.46,1431343,613155
44.07,1446117,636343
44.00,1435621,668677
43.89,1686371,684503
43.25,1686968,644755
42.46,1694184,717253
42.65,1668369,638544
44.76,1511767,717318
47.53,1540237,844428
41.79,1554840,661109
42.08,1479005,631421
42.94,1635037,789231
42.54,1637667,907973
37.94,1629403,1126691
36.94,1511566,651237
36.48,1873222,665709
32.82,1863564,1054816
31.26,1861714,1254185
30.00,1705160,601353
30.14,1651426,802524
27.94,1648921,1023353
27.25,1637042,1420853
24.99,1516295,658807
19.97,2026361,739908
19.16,2011183,1389766
17.64,1988825,1649688
16.72,1755804,660815
79.99,2565090,265247
80.87,2566926,266606
79.97,2566925,262384
80.73,2566969,266218
79.84,2566557,264613
80.34,2567476,259105
76.76,2869301,222724
76.48,2868976,232897
75.75,2869013,242783
76.53,2869396,237425
76.00,2870015,238570
76.42,2869057,251465
69.88,3333509,205049
70.24,3333441,223834
70.12,3334377,236692
70.70,3339344,218255
69.04,3334172,231339
69.64,3332193,230088
60.90,2377889,243868
60.22,2382821,247746
60.48,2372912,257545
60.81,2381674,252587
61.04,2375328,272320
60.12,2369851,277061
46.80,3332868,367669
44.94,3362500,405483
46.15,3357740,382440
46.18,3359615,386860
46.51,3380371,355221
46.93,3348960,344481
31.31,6016878,562111
31.51,5983558,556990
31.82,5984003,581114
31.41,5969049,647833
31.84,5977525,525001
32.05,5993845,512234
23.68,9307416,558091
24.06,9317791,691717
24.20,9323689,560242
23.79,9312300,597657
24.02,9315903,609915
23.28,9304438,658700
12.40,18694886,1005257
12.34,18716379,1242461
12.61,18671854,823634
12.36,18686876,1033922
12.44,18686771,1083816
12.76,18626590,574899
76.73,2564188,393067
75.57,2567272,398333
75.95,2566597,401540
77.12,2567470,396088
76.01,2567027,404535
76.78,2565569,404880
76.39,2867639,206361
76.52,2867222,230390
76.53,2865457,237159
75.63,2868314,244563
74.23,2877947,276608
74.36,2864787,289966
71.46,3319666,127753
71.92,3314519,172703
70.59,3311491,204262
71.16,3320278,183848
71.32,3318340,214928
70.15,3316499,236927
63.16,2415999,131548
62.07,2413091,171142
61.80,2381751,210177
62.61,2384428,178854
62.08,2380320,206901
61.83,2385719,240671
50.44,3270055,99293
50.23,3250168,124814
48.82,3271861,195071
49.28,3266753,182109
48.59,3289778,225787
49.29,3268644,207378
35.42,5881571,102233
35.00,5873191,149634
35.04,5870543,200324
35.42,5870324,140275
35.11,5882415,189085
34.93,5863762,218432
25.32,9423781,78235
25.27,9414535,138729
25.12,9423800,204540
25.13,9418517,181150
25.17,9413852,209348
24.98,9419659,231098
12.82,18876973,76702
12.83,18870662,130600
12.80,18882405,198299
12.69,18933750,166499
12.67,18895710,264692
12.68,18940744,269192
72.82,2443591,574918
70.08,2446524,587013
70.06,2447072,611969
69.28,2446547,624121
71.43,2446364,607770
69.20,2445716,627663
78.50,2701088,184977
75.71,2700260,276031
73.48,2700295,345433
75.70,2700134,274611
73.76,2700416,346262
73.61,2699642,352086
72.37,3145084,130137
72.37,3145177,172112
70.73,3147154,241253
71.71,3145657,204580
69.57,3145149,277139
69.79,3145700,290313
65.67,2340071,118173
64.59,2307019,163367
63.27,2362721,224914
63.43,2334955,192877
61.97,2333137,253027
62.99,2334792,272092
52.75,2861844,107890
51.95,2863526,157445
51.41,2856306,231021
52.09,2861202,178829
51.49,2887358,247594
50.80,2858540,284890
38.17,4958914,104485
37.73,4956503,154516
37.38,4965028,237715
37.55,4962578,175694
37.57,4955150,259673
37.13,4965738,297899
26.93,7877205,121933
26.85,7878910,160875
26.82,7870113,244969
26.73,7879910,196047
26.69,7870807,263754
26.50,7878424,284640
13.38,15941927,109127
13.34,15937470,175548
13.59,15739825,308249
13.36,15935074,195290
13.17,16010843,314706
13.24,15981669,343880
61.45,2428343,955950
61.86,2427057,931337
61.67,2426728,919148
62.24,2428348,966554
63.14,2429452,910416
65.33,2428235,903449
75.93,2701038,263701
74.37,2701569,336879
69.68,2698910,425972
71.29,2699222,416646
72.35,2700760,378850
72.93,2701081,423396
70.49,3167664,183647
69.87,3162641,243205
67.77,3162411,316656
69.25,3169031,276501
67.62,3149337,339788
66.61,3140553,385298
64.47,2431527,159621
63.47,2444376,218410
61.88,2408661,303392
63.13,2430882,249018
61.54,2428328,338842
62.10,2419147,365078
53.51,2789356,149523
52.58,2790047,217262
51.02,2802045,323761
52.83,2792069,249310
50.41,2785638,344935
50.92,2792971,389628
39.84,4056643,148029
39.34,4061779,221389
39.03,4080280,324208
39.22,4061643,256690
38.52,4051588,359581
38.09,4042709,405426
30.35,3947503,157229
29.99,3949580,226067
29.67,3939053,346776
29.78,3951592,259996
29.85,3941769,370522
29.90,3939506,419536
19.40,5935767,153011
19.44,5926149,248465
19.27,5939177,403584
19.27,5939424,288828
19.25,5936806,453026
19.25,5936663,479635
55.81,2429707,1271158
50.29,2430406,1361168
50.87,2425860,1261239
52.48,2427267,1343668
51.30,2428625,1333437
54.14,2425679,1246387
72.75,2700189,317991
70.30,2698204,387852
68.73,2697661,422402
67.63,2698004,464411
68.95,2697634,514534
67.66,2698139,503872
67.85,3108140,256897
65.86,3082712,348878
65.34,3104785,441514
67.43,3107912,379849
63.41,3111427,469638
62.26,3106447,527316
63.66,2064402,259478
62.71,2019449,342849
60.24,2057407,467527
61.36,2066707,373552
59.31,2059629,499113
59.36,2018524,551945
54.29,1963805,252482
54.42,1942037,351520
51.78,1943896,494039
53.75,1942945,409438
51.07,1936951,546741
49.77,1936782,640312
42.04,2515345,245098
40.99,2527195,341611
40.20,2521549,553229
40.90,2520850,395817
38.86,2517834,568500
38.54,2514281,660710
32.04,2399804,247489
31.48,2402396,370961
31.64,2398231,540274
31.37,2400161,434933
31.26,2398508,596801
30.29,2399934,710302
22.53,3715323,246013
22.45,3713236,397216
22.31,3711407,668385
22.34,3711674,443190
22.23,3715692,716070
22.14,3709480,860621
39.24,2344129,1924623
45.35,2347119,1791951
41.99,2349440,1809904
40.53,2345889,1956656
39.17,2346372,1998138
46.44,2345995,1687345
63.93,2522158,535050
65.34,2523361,568084
59.98,2520951,672766
61.38,2523504,652992
60.05,2520135,794631
58.26,2520100,803232
64.28,2777339,464329
62.53,2780547,543918
59.20,2777155,675341
61.76,2736090,613466
61.58,2775527,681537
60.83,2773872,763571
62.84,2695096,443462
59.68,2685847,570593
55.78,2690259,773515
58.87,2693403,654298
55.73,2680318,836711
56.08,2673639,914550
57.06,3022793,427269
54.09,2994432,608988
53.32,3015086,797110
53.22,3001201,668490
49.12,3011885,934025
49.34,3007091,980709
44.85,3398882,449957
43.15,3385896,609510
40.52,3344374,884020
42.33,3372099,731522
40.01,3393477,1007357
40.26,3387734,1133964
33.31,3150952,424344
32.52,3166408,625564
31.40,3152229,876859
32.20,3162501,738303
31.00,3151816,959756
31.04,3152043,1101127
21.50,3935572,424374
21.39,3934462,684024
20.88,3907199,1154791
21.21,3929973,779811
20.77,3903831,1242320
20.74,3914181,1417443
81.88,1483965,139581
81.59,1485036,141860
81.73,1484498,151107
80.06,1484432,162002
80.48,1483763,162419
82.38,1670348,128070
81.71,1668934,146980
80.56,1672023,167118
81.56,1668164,171766
79.77,1669478,183790
78.80,1957568,142355
78.80,1958422,157433
77.07,1962677,167741
77.79,1951243,190728
75.80,1950795,240363
68.99,2553522,141066
70.66,2547890,140041
69.69,2547296,175735
69.90,2543105,197492
68.43,2507468,253547
54.20,3987203,129576
54.08,3993298,125979
53.19,3977386,192521
52.75,3985880,224711
50.67,3967410,306302
39.08,5409021,128946
40.00,5380802,145507
39.96,5368673,173661
39.14,5397240,290178
38.33,5408838,372326
24.68,6974141,158478
24.64,7257282,156141
24.45,7439643,199399
24.73,7102681,274179
24.36,7291812,411741
14.28,15395501,154573
14.31,15341798,147790
14.30,15332186,237296
14.34,15357823,154080
14.17,15318329,144485
79.21,1485950,145460
78.82,1486145,157653
78.25,1482234,172326
77.97,1482023,185750
76.85,1478572,202315
80.69,1670708,149817
79.82,1671421,183516
79.45,1667854,215328
78.30,1671855,244713
76.85,1665589,268478
78.17,1963600,129868
77.02,1962391,168723
76.44,1951833,216080
74.32,1949308,280754
72.04,1950706,381320
70.30,2535129,113259
70.01,2516018,155904
68.65,2510160,205623
66.72,2522735,278456
65.29,2508487,388502
53.82,3993541,109887
53.64,3996788,163623
52.38,4012713,235901
51.24,3949451,351905
49.53,3942168,477709
39.93,5405381,124124
40.01,5397092,165319
39.48,5377129,252366
38.54,5378397,407618
37.52,5398398,599366
26.20,7179144,106291
25.80,7154254,189865
25.73,7115100,263876
25.23,7244378,439442
24.57,7555461,672213
14.62,15119386,108367
14.51,15200984,203302
14.50,15154535,243798
14.45,15130655,196388
14.36,15282137,167879
73.30,1486078,209695
72.69,1484322,227842
72.32,1481466,239671
72.35,1468181,250569
71.17,1460525,267084
75.85,1656946,229592
75.73,1653920,271897
73.75,1649921,312800
71.24,1648435,349810
71.24,1636640,367586
74.97,1926422,195243
73.34,1929167,244912
71.32,1928761,321405
68.79,1912214,413700
65.87,1902935,596401
68.97,2484465,171942
67.71,2460872,242250
66.12,2474568,306929
63.60,2475805,420918
60.97,2441620,588449
53.11,3898319,182509
52.56,3915972,246248
51.31,3894120,343313
48.83,3900682,510828
45.76,3830010,726795
40.17,5119832,170545
39.77,5149104,273350
39.64,5055971,384935
37.44,5122771,608459
36.75,5145131,791320
26.09,7190336,169371
25.59,7370722,275891
25.31,7335260,438202
24.49,7434148,680730
23.82,7769297,893717
14.63,15106937,173288
14.43,15052417,303250
14.36,15021668,386209
14.37,15038669,285828
14.25,15235535,245962
65.32,1324853,274710
66.08,1325085,269620
64.63,1319115,290889
62.96,1307750,312008
66.06,1284476,287662
69.22,1468949,310312
67.01,1467288,356833
66.21,1464822,388821
65.26,1454800,400201
63.90,1439900,430115
70.12,1701834,288890
66.33,1704082,357009
66.73,1700779,431143
64.01,1684317,555123
57.95,1684210,797328
65.30,2148417,248857
63.79,2141487,345926
61.97,2142107,421398
58.40,2135349,563609
53.07,2141942,767346
52.83,3200910,259780
51.46,3205988,357479
50.30,3205882,482615
47.07,3200664,717462
43.92,3192358,944318
41.27,4057299,247159
41.37,4039613,375967
39.58,4045495,531534
37.92,4068802,804549
35.68,4139600,958624
26.51,5956725,245046
26.26,5943833,396479
25.61,5869405,633921
24.77,5851076,858097
24.32,6391091,687215
13.78,11740296,260188
13.73,11702641,465087
13.57,11685771,577054
13.45,11654289,378940
13.31,11994768,363733
54.30,1208364,384057
53.39,1220036,417396
54.97,1227323,408935
54.73,1242061,414513
55.34,1279135,388257
55.56,1294952,378575
57.35,1297627,395463
56.20,1312727,386713
57.36,1336918,387564
54.91,1375010,394319
53.28,1485506,380944
52.75,1486845,408353
56.35,1497834,395548
52.34,1521753,413108
53.34,1555639,417768
58.44,1832660,423604
55.82,1838484,483748
51.74,1852640,479189
49.63,1859041,522465
50.97,1883210,405001
46.00,2491663,441197
47.51,2463406,559131
44.70,2505219,739595
41.17,2509170,966127
40.09,2500341,483726
39.23,2514738,421050
38.35,2475209,616597
35.06,2502292,882355
32.48,2567069,1004624
32.68,2526948,424107
25.82,2629516,443824
24.93,2629767,638087
23.44,2647606,910143
23.00,2684912,772992
22.12,2593697,468516
24.19,2488043,433273
23.82,2481364,747943
22.40,2492889,933874
20.62,2524305,451298
20.93,2131179,414400
44.37,1165603,631471
45.00,1173209,627533
46.48,1185790,674606
44.99,1210477,645378
44.57,1251748,643164
44.10,1237655,622494
43.38,1246486,625031
42.86,1245845,656010
41.94,1281056,689601
43.73,1305052,649740
42.51,1354697,611233
42.52,1358997,673937
41.02,1367314,635845
42.44,1386068,643404
42.71,1405046,640012
47.88,1562466,679170
43.40,1565596,687432
42.04,1577251,643506
40.37,1560943,643027
40.88,1578485,610643
49.14,1740990,758131
47.41,1761134,911973
42.80,1761434,1071830
38.73,1755119,662816
37.36,1669686,686378
45.66,1674258,724208
42.56,1678241,949034
37.09,1666389,1375696
33.79,1624929,648083
33.58,1493805,661789
31.03,1500240,719587
28.23,1502977,1064467
27.33,1508093,1510470
23.84,1527517,668836
25.24,1422883,654714
38.95,1805767,796348
36.54,1812290,1402763
31.96,1782999,1575600
27.42,1744630,629169
29.16,1571046,606716
71.84,2274485,223096
72.20,2276902,228893
71.39,2274820,232118
71.76,2275340,230420
71.45,2272842,236297
71.53,2273511,229100
75.54,2395094,202802
74.62,2395340,209337
74.36,2378333,235372
74.57,2397588,209279
75.05,2377468,215012
74.98,2394380,214491
71.50,2594997,196423
69.65,2594233,230136
70.46,2604428,217289
71.35,2592611,204544
70.38,2595713,221666
70.40,2595168,220164
65.17,2993205,243569
65.74,2997409,257989
65.74,2993092,266246
65.50,2989586,257374
64.97,2986782,270966
65.85,3005404,270455
57.07,3331283,319492
56.36,3314802,357071
56.18,3340300,390602
56.94,3267093,370504
56.34,3363288,380355
56.61,3349579,364260
48.35,3074619,417518
48.73,3087788,464076
49.09,3082402,463514
48.18,3092453,512519
46.97,3064692,504255
49.23,3067677,449267
37.08,3549230,490158
37.01,3551062,448221
37.95,3544611,349955
36.78,3601407,549883
38.56,3571558,341417
38.44,3543468,322516
26.28,6492071,717931
26.06,6491467,825128
26.78,6492264,572047
26.26,6491203,727660
27.15,6494226,615894
26.80,6492408,602329
69.53,2274326,306302
69.77,2279845,315511
68.76,2276062,309377
67.66,2275425,328223
68.37,2274718,318643
68.39,2275552,334673
75.17,2391159,187145
74.01,2382037,199644
72.95,2393948,252964
73.81,2393616,216001
73.17,2397034,233789
74.35,2393965,225449
72.61,2595414,132424
71.47,2592258,170335
71.43,2595096,198678
72.43,2590736,185303
71.85,2588987,216797
69.70,2595073,229242
68.38,2974806,129046
68.96,2976520,142902
67.18,2960964,193705
67.85,2978930,164409
66.93,2981656,208176
66.66,2982922,224774
61.00,3321390,109212
60.81,3336160,147761
59.09,3268014,211569
60.55,3313282,158664
59.80,3328955,208957
58.77,3290056,231121
53.14,3145850,114927
53.24,3127653,142061
51.90,3153787,207252
52.06,3139796,164428
52.41,3147498,221958
51.99,3152114,215327
41.48,3727138,107100
41.84,3685493,118289
41.02,3742154,188793
41.41,3695519,140079
41.39,3707092,185457
40.95,3687145,192651
29.66,6594233,144809
29.74,6591716,162940
29.70,6588078,205969
28.52,6589734,282724
29.11,6586607,246207
29.70,6591845,222635
65.43,2242542,468110
64.29,2245350,463354
65.77,2245205,459416
66.59,2242700,456503
64.27,2245198,467932
66.02,2242246,486489
73.19,2350986,199562
75.29,2332766,221695
73.01,2351829,230317
72.85,2354501,241762
74.50,2350794,248949
70.40,2332638,349642
72.69,2544944,143704
71.33,2548178,182307
70.44,2541429,239337
71.66,2542131,203335
70.12,2542975,266636
68.11,2539433,292948
69.15,2921711,120385
68.36,2928333,158512
67.36,2917723,228098
69.12,2915611,182897
66.96,2931817,253843
66.38,2902149,284759
61.29,3190969,108457
60.32,3246852,154719
59.04,3201448,243036
60.24,3230776,180083
58.76,3245874,272488
58.08,3220232,291826
52.52,2900618,104419
52.12,2907785,153415
51.56,2903942,236055
52.14,2915584,178091
50.75,2891223,256763
50.68,2905162,295469
43.36,3547997,106847
42.81,3525202,164700
41.15,3527641,257561
42.39,3559509,185187
42.01,3493192,276187
41.65,3560936,302362
30.56,5956815,104912
30.40,5957563,170649
30.10,5944005,286253
30.32,5951279,191148
30.03,5942996,305605
30.00,5947652,342878
59.68,2233096,689971
55.52,2235977,756929
61.31,2231658,630385
58.38,2234980,711848
58.35,2235620,690310
62.77,2234892,614994
72.43,2347582,232194
74.12,2344710,253852
69.19,2343556,352118
69.96,2332158,307121
69.73,2350545,301540
69.83,2342720,376432
70.80,2542455,184348
68.64,2540146,235617
68.83,2540088,315709
69.45,2539553,272519
66.76,2528294,352537
66.76,2540592,376010
68.70,2902603,157939
67.03,2915502,216802
65.74,2915823,310387
66.08,2904425,245494
64.77,2887366,349051
64.06,2916356,402731
59.76,3270695,151227
59.06,3274455,223752
57.15,3276149,346269
58.43,3275265,255955
56.57,3264237,374139
55.12,3250703,420762
51.51,3056594,159937
51.64,3054036,221556
50.45,3017283,331899
51.58,3047482,253883
50.33,3009649,360015
49.40,3008361,421564
43.54,3102839,152173
42.88,3089240,233295
42.39,3117872,379775
42.62,3116301,274650
42.14,3097044,401313
41.92,3121484,441779
31.36,4232102,149730
31.17,4234535,244600
30.73,4237614,400951
31.09,4239612,282803
30.60,4235015,448531
30.59,4229249,494373
48.08,2242867,1198520
51.33,2245312,1093464
51.33,2243651,1092845
48.01,2242777,1183532
52.20,2241527,1074153
49.24,2248404,1060311
69.01,2362146,327120
67.64,2360416,397242
65.81,2347603,457595
67.88,2343462,428102
66.99,2360865,416296
66.80,2341031,413513
66.96,2556551,272543
64.61,2539866,350563
64.66,2551386,423273
64.63,2556850,408425
63.13,2553182,475897
63.07,2557959,508986
66.19,2894405,247101
63.55,2892937,336113
60.12,2906992,479938
62.38,2915579,393922
60.56,2896585,538964
58.31,2922904,593615
58.09,3228518,257647
56.57,3205618,356119
53.25,3220112,514635
54.76,3196682,411171
53.10,3203183,561676
51.93,3167839,647375
52.52,2489941,249974
50.79,2484685,345227
49.55,2458898,515121
50.40,2474965,391215
49.56,2469339,566338
48.87,2461963,622863
44.76,2508824,250542
43.87,2557693,359709
41.78,2556976,578127
42.80,2505395,441862
41.81,2555058,663354
41.50,2549850,748899
31.43,3613026,246599
30.93,3617861,392568
30.30,3636887,661223
31.02,3616291,450282
30.51,3638424,747689
30.00,3618419,815048
39.70,2233178,2007907
37.84,2235545,2011469
42.07,2235121,1751138
40.56,2232190,1970605
39.66,2231164,2029621
37.95,2224505,1954183
59.28,2333343,571179
58.98,2320287,600938
55.55,2323074,847239
58.38,2313171,685329
60.92,2323979,611733
57.61,2321082,783315
62.51,2481431,473392
59.08,2470116,599637
58.70,2439463,626696
61.05,2483850,607466
56.90,2463904,683474
56.40,2467466,783322
63.93,2780027,405171
60.70,2787032,581151
54.73,2776030,837326
60.85,2775402,628488
55.19,2781351,838409
52.74,2779095,928802
58.62,3096818,417307
56.76,3116453,592417
51.76,3101656,786702
54.27,3096022,682054
51.44,3098377,864749
49.50,3093615,988929
53.37,3347517,445177
51.64,3330778,570331
47.73,3285260,1025274
50.68,3314824,656355
46.35,3271367,1025884
47.48,3264836,1106248
46.33,3402136,445371
44.69,3407976,649872
41.30,3405945,951935
42.98,3405806,745347
39.76,3412833,1102859
40.94,3395295,1223836
34.18,4255452,423564
33.62,4246080,661446
32.56,4251903,1061909
33.58,4243447,783609
31.51,4255605,1234137
31.72,4254558,1341911
76.95,3880024,222096
76.84,3880460,241396
75.08,3880492,267159
76.68,3981334,202830
74.88,3983132,260595
75.21,3981209,290699
72.56,4192374,182807
70.42,4187466,279905
66.19,4184685,401843
66.83,4577352,159420
64.78,4555950,259252
59.97,4551912,388966
66.25,3044743,157650
64.51,3070640,244956
62.62,3038663,363098
57.19,2648997,155790
55.96,2645153,248655
54.53,2640388,355443
43.45,3288723,168178
43.13,3284215,244260
42.48,3285175,322457
39.03,6257695,159891
38.33,6273475,271285
37.60,6269542,301167
73.40,3855027,329087
71.18,3858305,371274
69.06,3858227,425522
71.76,3943030,331798
70.04,3940394,417895
69.66,3941175,466854
69.36,4138392,291454
65.29,4137871,451764
60.92,4132876,642161
63.54,4488097,284816
61.31,4496469,428263
56.73,4485396,652650
63.71,2925448,264705
61.63,2955372,390133
59.32,2842476,558061
57.64,2469545,257818
56.32,2487046,399698
54.02,2420277,566346
46.93,3225843,262393
44.68,3249071,399638
41.32,3263918,528301
39.68,5897920,266176
38.30,5892283,467342
37.37,5857254,551074
66.91,3824946,502203
66.63,3837196,557848
64.29,3845492,618855
64.77,3904423,567685
63.25,3927665,666128
62.92,3921848,751438
64.53,4115313,500553
58.79,4116675,746878
54.60,4110555,990148
60.54,4468887,448987
55.46,4484912,716472
50.88,4452508,1015383
60.44,3004651,446531
56.42,2956825,680991
52.65,2903437,965688
54.07,2536321,423748
52.35,2463020,639815
50.16,2391860,825531
45.21,2357254,432954
41.79,2342638,655706
39.48,2288858,800157
54.80,2390710,425216
49.58,2382759,727424
45.92,2287098,847081
57.93,3826770,817308
57.58,3827089,848001
55.84,3838853,913566
56.32,3904825,916618
54.06,3906232,1114757
52.49,3914558,1153296
58.13,4124799,704867
53.03,4125024,1095261
50.09,4099931,1362099
54.51,4481735,735457
52.75,4460124,1014777
47.22,4450690,1467075
54.11,3246182,669793
52.19,3192576,988220
46.79,3106151,1321293
49.67,2540527,646271
46.92,2453745,978591
45.72,2408589,1204016
42.75,1783083,649008
38.55,1754059,1024426
38.13,1678444,1196430
51.43,1341059,685704
42.25,1332110,1249663
43.26,1269679,1197422
43.71,3827181,1524148
44.36,3831622,1448949
45.71,3831354,1456705
47.62,3921702,1445501
43.47,3926222,1672317
43.13,3924785,1677284
45.84,4120481,1332799
45.06,4112678,1631312
39.51,4108454,1883093
44.08,4484546,1150980
41.08,4468726,1682045
36.63,4438157,2097743
44.56,3207775,1219836
42.29,3112624,1626643
41.30,3069971,1726496
46.73,2595790,1183022
41.84,2462333,1585313
35.99,2434179,1919381
39.18,2050285,1190013
36.82,2060067,1863126
29.03,2026139,1946750
38.40,1932037,1241374
35.30,1936521,2013032
27.17,1950880,2074431
36.26,3792810,2317216
35.09,3802597,2277667
34.85,3796931,2436387
36.02,3863856,2201638
34.16,3849684,2548596
37.62,3869915,2161232
35.93,3962646,2093055
36.04,3975189,2459517
31.97,3957058,2760049
34.03,4203229,2147688
31.52,4195843,2466204
31.02,4179336,2620292
34.79,4103432,2206607
31.66,4135652,2493395
31.31,4023092,2734293
32.44,3917600,1972807
31.78,3905773,2573224
27.52,3926187,3230182
32.42,3725330,2190088
27.06,3742901,2685589
25.90,3735631,2873119
34.47,3761410,2231803
34.34,3768231,3427825
24.98,3758609,3379852
78.12,2327779,193863
77.22,2337112,211506
76.43,2336061,236947
81.64,2454647,161794
81.30,2453712,200778
78.94,2454886,229754
79.13,2650368,133652
76.76,2648865,204499
76.03,2651670,271609
73.19,3030864,113352
71.94,3027450,185284
69.27,3019853,275240
62.92,3361696,110446
62.22,3342939,178988
60.43,3393481,264182
55.29,3173153,109852
54.28,3168685,172523
52.72,3229376,261633
41.63,3509887,103163
41.34,3540221,168524
40.92,3554837,239793
31.43,6237187,103376
31.03,6237002,170806
30.78,6237158,197282
72.94,2334354,281223
73.56,2340271,302217
74.55,2331956,321686
79.28,2456989,227195
75.81,2455759,302143
74.79,2458017,347703
76.41,2662333,193290
73.85,2654896,300841
71.82,2655893,422556
70.75,3056718,177015
68.77,3031522,293896
63.97,3034111,446541
62.62,3324273,177805
60.44,3321488,277752
59.07,3323135,428882
54.53,3216130,176503
54.22,3396826,270635
51.54,3221315,417918
42.46,3760640,175449
42.04,3835980,290047
39.89,3872522,429433
31.05,6386455,173880
30.39,6387546,316704
29.76,6386756,362884
68.27,2305925,427401
66.94,2318074,470180
67.80,2319818,486491
71.81,2420786,404905
69.47,2417442,501963
71.05,2415730,532503
74.04,2607460,294403
71.41,2598621,476238
64.76,2597098,713000
66.08,2973907,278988
63.40,2961662,461082
58.86,2946656,703711
59.91,3228961,284019
58.05,3223840,455457
53.45,3146561,685620
53.56,2968732,290272
51.03,2955401,450261
47.18,2963871,678478
41.33,3475566,268354
40.56,3488119,479584
37.47,3463566,671971
31.02,5785937,284728
30.11,5758099,501607
29.00,5709419,606481
60.45,2293703,661492
62.47,2291475,650915
61.66,2296891,659087
66.50,2399571,612782
65.54,2399632,698893
64.15,2408192,752871
66.36,2579806,488068
63.09,2578522,684561
59.13,2572549,984013
63.38,2921282,433011
62.00,2901547,664025
51.20,2904808,1033263
57.61,3179972,392000
50.83,3184224,716914
51.19,3104288,1002130
50.94,2847298,406667
46.57,2791882,671452
46.16,2759005,869655
42.33,2649186,428663
39.75,2633369,724178
39.39,2611410,933101
32.64,2962893,439445
31.38,2932656,746284
30.47,2842787,886163
50.12,2287859,1077191
51.61,2288643,1126201
47.86,2296726,1075408
52.32,2398753,1074161
52.09,2399895,1156823
52.69,2374924,1244371
54.70,2563251,850737
53.14,2576521,1055925
51.36,2563981,1360442
52.07,2908689,803416
47.88,2905797,1096566
43.95,2903952,1382915
48.55,3106003,827175
45.22,3115329,1138493
40.10,3010984,1424600
48.51,2227512,756541
45.13,2167899,1152087
41.15,2070427,1286351
39.94,1729210,739511
35.99,1746532,1243520
32.55,1699553,1385794
32.11,1572153,713588
29.89,1556707,1316811
26.00,1497286,1336268
37.73,2260997,1848197
39.44,2260299,1924654
38.41,2261397,1957428
41.63,2343931,1568869
41.97,2336630,1830024
40.56,2333052,1940275
44.49,2424283,1432557
43.23,2418175,1520485
41.12,2403584,1871853
47.92,2607240,1281751
43.34,2607129,1521839
36.77,2587102,1912657
40.69,2714636,1332724
40.76,2722430,1705982
34.21,2651323,2103571
39.11,2421823,1265619
34.86,2413907,1810805
30.05,2426647,2475890
41.08,2219397,1186247
33.17,2228223,2027968
28.82,2223250,2000573
37.38,2313778,1352913
35.20,2365707,2189174
29.72,2423366,2263152
79.15,2277026,235250
79.07,2280226,254029
77.58,2278066,263852
76.79,2281229,295663
76.60,2627227,168408
75.57,2631697,198923
74.50,2627128,242410
73.00,2624423,290069
70.38,3154112,135225
69.50,3153220,186027
67.41,3165300,218719
65.88,3146791,292753
60.77,3166572,103766
59.37,3183031,170353
57.70,3243688,207657
57.03,3189817,310118
43.50,4638457,112732
44.04,4584071,148484
43.28,4583203,202935
42.95,4599421,271722
26.64,8463914,94823
26.20,8440051,156858
26.01,8638559,215161
25.94,8632337,297232
13.63,17608382,109085
13.68,17643259,133442
13.64,17576646,182150
13.57,17710102,176251
7.06,35605935,93896
7.06,35625041,161603
7.01,35539185,219768
7.01,35682890,206451
74.96,2287634,348982
73.69,2281231,372644
73.37,2276768,406281
72.16,2278462,443488
75.11,2633070,218471
73.94,2623524,282310
70.61,2622406,355082
67.02,2624591,455330
69.20,3132306,164896
67.35,3143099,234824
65.35,3122716,312889
63.07,3131010,459174
60.09,3202819,149170
58.58,3185211,227835
57.96,3156418,302915
55.65,3165996,449684
43.69,4539869,144255
43.43,4542134,218490
42.32,4527001,313410
41.52,4517313,423013
26.10,8200735,148717
25.90,8291528,233936
25.76,8211941,337261
25.54,8238495,422194
12.88,17171033,146063
12.82,17384008,220522
12.83,17325363,298311
12.70,17582013,240906
7.08,35345181,156838
7.06,35290927,257326
7.06,35420694,326860
7.00,35628760,257796
68.85,2084885,544449
68.18,2081936,583744
67.12,2078202,623774
66.47,2072445,702333
70.72,2374482,332861
70.36,2367310,436104
65.78,2368578,540978
63.58,2366723,714157
66.26,2846671,263499
64.70,2841986,376457
63.42,2839416,483331
58.83,2835616,710265
59.40,2796576,223751
57.58,2820971,338830
56.27,2796204,456323
53.22,2801427,703546
45.38,3562859,220850
44.08,3576263,332604
43.54,3592550,464598
41.77,3550684,671041
27.50,6869296,236081
27.39,6754218,353692
27.02,6699769,481544
26.23,6859973,632131
13.17,15391297,231181
13.16,15251720,344178
13.12,15389711,453312
12.84,15735084,368781
7.18,31570683,238244
7.17,31544746,428549
7.16,31468164,503348
7.06,31998701,352291
65.12,1941155,755780
62.23,1946650,849801
60.28,1951569,878410
59.30,1961077,970900
64.22,2206944,535361
62.79,2201009,635953
60.86,2207209,765100
57.12,2219805,972081
61.03,2674055,419788
60.52,2667005,535693
58.50,2674203,674359
52.90,2669653,972066
56.73,2624361,331252
55.87,2599795,469909
52.05,2642404,611653
48.68,2644297,844745
45.43,3018075,340019
43.29,3041536,471482
41.54,3049055,644658
39.79,3011524,799894
30.74,4542483,350735
30.22,4497764,509260
29.39,4491538,674562
28.67,4404737,736884
15.00,7657044,362827
14.84,7672615,506592
14.83,7652226,619181
14.83,7559341,427103
8.44,14487759,338726
8.50,14354470,632804
8.32,14423277,762952
8.14,14419196,448106
52.29,1900897,1135190
48.79,1905883,1172644
48.99,1920317,1226623
48.51,1937746,1290624
53.72,2145680,831931
50.86,2153653,1042423
48.76,2164072,1135833
49.55,2168150,1297184
52.72,2542978,742856
53.89,2550140,810009
47.91,2562119,972193
43.76,2550509,1407129
49.49,2037111,603380
48.98,2012474,693892
46.33,2046613,797967
44.14,2043116,720894
42.66,1682819,607708
42.13,1695459,714054
40.05,1701495,935120
38.21,1624940,651353
34.24,1675955,567523
33.91,1656027,799989
32.04,1648045,980683
30.66,1496030,600071
26.24,1403574,567777
24.94,1406413,833236
22.88,1406479,1073888
22.87,1316410,524380
18.22,1864973,589309
17.63,1862270,1036877
16.56,1859038,1233248
16.02,1627228,551955
42.67,1804730,915070
40.66,1807995,950281
41.79,1818703,881222
43.01,1831075,883864
44.01,1939109,793914
41.22,1946803,862891
41.42,1952432,892305
42.12,1957666,863481
40.77,2116891,897475
40.71,2139497,869296
41.86,2147296,917902
42.52,2115980,925777
43.66,1868319,931191
38.94,1901487,1140083
37.88,1909503,1102613
37.46,1895221,1004280
40.47,1976559,1091705
40.86,1965888,1303067
35.90,1989209,1477939
35.96,1964777,847154
34.63,1925806,1147139
33.30,1935499,1411277
29.93,1935727,1662504
30.20,1939099,818502
28.97,1777587,1054587
25.76,1779456,1543056
24.75,1787117,1639125
24.67,1815921,835476
22.26,1780093,1048132
21.73,1787365,1813267
20.33,1794792,2118844
19.41,1839632,857680
79.22,2275298,236065
78.40,2274772,244836
77.83,2275289,264746
77.10,2273418,294067
76.51,2625259,165760
75.30,2623444,204042
73.69,2624580,238602
72.00,2621496,292215
70.16,3144017,126812
68.26,3150930,187591
67.73,3144437,222480
65.94,3137238,279276
58.55,3145423,133093
57.52,3140758,158339
57.75,3146403,210424
57.23,3159936,276809
44.10,4750839,99722
41.83,4737793,189989
42.57,4724468,206261
42.20,4688591,274457
29.59,7607543,122277
29.65,7479570,147233
29.32,7515714,249439
29.33,7462611,269872
14.18,17510618,89095
14.06,17676095,167934
14.11,17608725,192239
13.97,17783213,223653
7.14,35734786,341644
7.19,35704541,161122
7.19,35821399,201737
7.13,36064048,234086
75.93,2273996,353698
73.76,2272534,376872
72.68,2274658,404428
73.34,2270630,438678
74.64,2623032,222300
73.56,2622479,272124
70.98,2619090,353765
67.98,2614837,452621
68.84,3120261,165417
67.44,3126997,228663
65.01,3120373,314805
62.18,3108775,448258
59.87,3148357,150754
58.57,3174505,220659
57.70,3157685,297880
55.75,3161476,438666
44.22,4594377,145548
42.72,4563907,230082
42.31,4565071,304077
41.50,4555299,428385
27.34,8278506,145149
26.88,8362228,219642
26.84,8241510,323972
26.01,8424583,422042
12.45,17301216,145231
12.43,17360798,225381
12.43,17271909,322897
12.27,17422615,293153
7.28,35671613,156635
7.23,35662903,261910
7.23,35731519,328543
7.14,36162394,273627
68.67,2117093,555742
67.96,2110031,595720
66.99,2110540,650304
65.79,2104388,699792
71.34,2408539,315880
68.51,2404760,432568
65.53,2408847,552598
62.96,2398789,699286
66.38,2883178,258476
64.58,2883325,371007
61.84,2879202,480033
58.79,2864441,715149
59.53,2829998,227991
58.25,2835971,342332
54.86,2839925,462967
52.33,2821664,654160
44.66,3796168,229410
43.87,3792385,328197
42.56,3789956,455154
40.15,3758439,648620
27.95,7238891,221731
26.98,7497934,355488
27.16,7285917,496718
25.23,7782914,565777
12.88,15557375,245300
12.85,15550346,346574
12.76,15677604,481274
12.22,16100675,445213
7.38,32841008,227491
7.35,32788594,432661
7.34,32866410,537733
7.17,33872627,362936
61.51,1957986,794742
60.61,1959302,829462
61.31,1966316,900367
58.79,1976612,940029
64.80,2226391,533401
64.49,2226050,599756
60.71,2232126,748114
57.43,2234977,1001085
61.42,2687348,410910
61.06,2676174,513050
59.10,2693981,643079
53.72,2688186,1001440
57.07,2617994,344316
54.44,2636712,477617
53.67,2648529,589832
48.95,2649065,774558
44.81,3268388,340645
44.32,3272672,475158
41.36,3271402,630071
40.83,3240163,705555
30.80,5185680,322246
30.64,5023221,484433
29.84,5135031,687818
28.77,5173514,634013
17.86,8234936,350491
17.63,8239777,503164
17.31,8219459,676095
17.03,8201888,466669
9.99,14933724,359345
9.89,14944360,611648
9.67,14914876,784681
9.47,14724530,469297
53.27,1896191,1155715
50.24,1902847,1181079
52.24,1913420,1163748
48.32,1934074,1323338
54.82,2143246,833150
53.67,2145498,1032903
48.22,2163103,1215529
47.29,2173494,1349335
53.22,2518460,682113
52.84,2524223,869965
49.57,2529950,1050823
46.22,2545218,1285795
50.03,1988670,588817
48.38,1994083,689219
46.60,2034423,715393
45.08,2020163,751382
42.50,1716018,585408
40.69,1724205,760080
38.31,1742016,909213
39.67,1661160,604030
35.47,1577281,554171
34.01,1579121,796234
32.74,1632354,1109777
31.46,1522874,577294
25.90,1513851,587870
24.04,1518852,871313
23.22,1520298,1072742
22.57,1403898,523832
18.45,1899439,592705
17.86,1899520,1079177
16.63,1909715,1254413
16.11,1676652,559094
41.47,1804455,975741
42.10,1807319,887619
41.85,1820010,866301
41.60,1827925,899278
41.00,1943482,885142
41.75,1943461,864006
42.22,1954111,923077
41.38,1954884,872338
41.24,2128204,829004
41.79,2129160,863464
39.70,2137581,943802
39.98,2128369,954687
41.90,1876221,986393
40.70,1887106,1037705
38.98,1923868,1022740
39.63,1898538,864200
40.57,1975991,1100564
38.29,2005289,1287797
37.36,1984145,1415440
37.38,1972582,795883
35.73,1913746,979301
32.73,1910824,1394720
30.80,1905102,1618079
29.71,1896818,867134
28.27,1795992,1007933
27.13,1821154,1338452
25.10,1812947,1637616
24.47,1830280,907475
21.59,1877333,970378
20.92,1890687,1865408
19.79,1882082,2265398
18.72,1910043,926260
80.16,2282442,228523
79.81,2279027,246842
78.46,2277031,258693
77.47,2274600,280499
74.29,2650296,193422
76.41,2641736,204472
75.43,2645526,238867
73.62,2643147,285207
70.04,3194115,120423
69.49,3192378,170094
68.26,3187965,216869
66.78,3181382,278125
58.77,3166363,102233
58.39,3181325,158775
57.27,3149829,207968
56.67,3143411,283715
43.55,4719994,114089
43.38,4720816,145904
42.74,4722387,208652
41.99,4741787,272618
24.33,9915756,92569
25.13,9322322,216150
24.12,9918843,248903
24.31,9586513,331900
13.85,17281424,87348
13.71,17434748,134849
13.77,17559829,175082
13.62,17619233,179442
7.11,35752108,118258
7.11,35734093,179214
7.10,35786356,215095
7.05,35879339,225300
74.77,2283858,345771
73.66,2276361,378391
71.57,2280511,422036
72.59,2279759,437722
75.10,2647576,216605
73.41,2645809,286618
70.73,2642927,347260
68.90,2637719,447294
69.36,3178777,165587
67.79,3172824,237759
65.61,3173349,317339
62.96,3163881,453527
60.34,3202173,150057
59.86,3177925,223528
58.64,3172278,310646
56.21,3195430,462853
45.95,4762276,144293
44.68,4697523,231305
44.05,4712272,313209
43.37,4708159,439355
24.17,9686042,154734
24.07,9679288,224657
24.28,9504206,331891
24.02,9393580,476187
13.08,17193842,142313
13.09,17277752,217122
13.12,16997156,301165
12.79,17577748,236213
7.10,35537369,155827
7.09,35649795,258460
7.08,35699325,337837
7.05,36009113,251219
69.15,2070589,535821
68.36,2072216,582073
66.60,2067892,649318
67.62,2065759,686966
72.49,2375487,323938
70.82,2371664,413713
66.59,2375208,540985
62.30,2370295,713171
66.78,2866376,276121
64.93,2861000,366271
63.16,2857897,492282
59.49,2845210,717717
59.60,2828084,233454
56.47,2797615,345630
54.77,2824688,476551
53.00,2776758,679207
46.89,3849970,238962
46.43,3794097,337233
44.58,3803999,460022
42.06,3770981,666639
24.21,8268092,230015
24.68,7976209,354144
24.68,7835265,506701
24.08,7896233,731465
13.34,15345489,225158
13.31,15179960,349609
13.28,15286244,470290
12.82,15886261,352787
7.20,31758707,237966
7.19,31854201,419029
7.19,31766645,523419
7.09,32228974,352472
63.48,1929291,818900
61.83,1933297,810105
62.48,1945221,878863
60.87,1959003,958938
64.25,2195158,528864
62.97,2190854,635620
61.16,2204489,728378
58.17,2206892,1051176
63.88,2660047,399341
60.70,2652713,514857
58.42,2671754,662080
52.87,2671581,999882
57.80,2620577,331978
56.34,2619675,461026
54.85,2621676,618243
48.50,2622112,889310
47.00,3277091,334877
45.43,3229844,501758
44.46,3222263,631373
41.16,3167600,824331
26.18,6056420,346622
26.71,5917632,497483
25.84,5889271,700514
25.42,5768475,751574
14.59,7465544,346893
14.63,7298044,479206
14.55,7342882,669881
13.86,7346547,408856
8.07,12006497,349192
7.97,11972395,599608
7.98,11853066,787104
7.78,11506151,437185
52.15,1896314,1073716
50.92,1907946,1180464
48.76,1912825,1252129
49.49,1934492,1283172
55.27,2144285,832135
52.78,2150312,991813
49.09,2160652,1233382
47.31,2174072,1312568
55.03,2545015,635133
51.38,2546434,843765
47.67,2555343,1098499
46.10,2557966,1341970
51.73,2000415,590514
51.24,2005403,683907
47.46,2017303,776608
45.06,1988553,676084
45.14,1688654,584025
42.69,1687280,732797
39.90,1697150,945731
40.08,1631216,582523
35.77,1796511,555517
33.14,1803406,799429
32.04,1779408,1038452
32.20,1546905,569305
26.26,1427583,557879
24.92,1434085,872892
23.16,1434471,1023289
22.65,1331956,508461
18.46,1836664,590339
17.83,1836451,1097384
16.93,1852590,1146674
16.32,1618209,518156
43.52,1791525,864941
44.23,1805207,868074
42.61,1816164,922402
41.89,1830282,839211
41.54,1936163,846101
41.47,1940665,977035
40.44,1952700,897508
42.33,1954058,905242
42.65,2136289,843837
40.58,2136472,874853
40.60,2142215,828094
40.10,2142038,848919
44.67,1864267,978505
40.12,1890969,1084372
38.42,1902113,1061472
37.78,1892928,933427
43.14,1953189,1036123
39.75,1977801,1291844
38.04,1958050,1312767
36.12,1940595,880933
35.47,1959265,988864
33.41,1962187,1341776
29.64,1960390,1730018
29.17,1982823,887649
29.01,1776725,1006674
27.55,1784944,1324717
25.14,1787739,1791142
24.77,1822289,841055
22.81,1788597,1047560
22.05,1794651,1912733
20.04,1799112,2080265
19.72,1846908,844875
78.62,1755115,202695
79.54,1754359,226360
78.43,1754769,235309
77.35,1755631,243957
76.08,2088345,191045
76.13,2093991,186221
75.01,2088110,210431
74.64,2087150,248214
69.84,2650266,136471
68.93,2647670,167081
68.39,2646266,199811
66.35,2647091,238656
56.09,3578728,135057
55.67,3585689,191164
54.96,3590999,203733
57.34,3572844,226476
40.91,5493122,132548
40.93,5482955,210098
40.24,5523647,227556
40.44,5473392,232491
23.87,10310768,254047
23.94,10331100,234293
23.95,10347744,269447
23.87,10401259,251064
13.21,17979574,154720
13.19,17989308,145598
13.06,17881733,267975
13.15,18003656,274894
6.94,35997615,331343
7.01,36015063,132996
6.87,35988603,917781
7.01,36020151,196311
77.35,1753004,254369
76.70,1754294,277939
75.75,1750967,294479
76.62,1748685,311244
76.34,2084521,179791
74.71,2085133,222356
73.79,2085051,257826
72.49,2082198,321444
68.92,2660509,131657
68.13,2643581,181281
66.87,2642616,236548
64.16,2640245,325153
55.71,3596769,123228
55.37,3587310,170844
54.31,3580026,229361
54.68,3571122,327782
41.01,5520672,110203
40.69,5516384,174562
39.63,5516688,245230
39.36,5509112,346836
23.95,10234315,127975
24.07,10250499,175875
23.65,10337471,265165
23.44,10328948,418262
13.29,18035773,124084
13.22,17999734,181477
13.25,17992566,282858
13.18,18078889,412882
7.02,35967855,126348
7.02,35889257,206534
7.01,35979866,257089
7.01,36148418,218902
71.74,1733269,415225
70.99,1734528,431524
70.86,1730687,459060
69.41,1728033,497059
72.46,2041235,255952
71.33,2035465,310804
69.05,2036144,372989
67.28,2031136,512770
68.14,2547875,191545
65.14,2548914,280632
64.28,2548164,351050
60.75,2551752,507652
56.95,3421727,191328
56.24,3430843,252686
54.61,3437005,345784
51.33,3446717,530033
41.22,5203054,168550
40.36,5249594,263218
39.39,5213148,382080
38.32,5178151,546066
23.94,9876635,169063
23.73,9848769,278991
23.60,9839297,408912
23.10,9841957,632191
13.30,17897175,174920
13.12,17873497,292682
13.11,17863163,435574
13.03,17960954,565437
7.03,35661545,172344
7.00,35796189,314774
7.02,35751078,396132
7.01,36071528,290952
65.66,1547557,611092
66.42,1544194,630923
63.75,1540581,680920
63.15,1534283,701517
68.40,1826705,369318
65.42,1826168,475731
62.69,1821066,598219
62.20,1813325,741310
64.80,2324262,298244
62.65,2322604,389169
59.95,2320330,508255
55.49,2316045,761320
55.62,3177022,272130
54.93,3150762,375656
52.22,3155282,493355
49.02,3147217,743015
40.88,4601663,251245
40.22,4632992,362548
38.51,4641061,522721
36.96,4612852,776082
24.39,8581347,254124
24.33,8429418,381896
24.07,8498202,576131
23.32,8637099,866521
13.59,16054329,262132
13.57,16042696,419341
13.57,16047161,606886
13.34,16173644,678172
7.27,31925709,255690
7.24,31845612,471082
7.25,31901766,572810
7.18,32362865,393645
55.51,1386872,827431
55.03,1393668,863336
54.34,1405506,904649
54.76,1415314,1027422
58.83,1629804,625729
57.47,1635585,688825
53.40,1645430,854153
51.94,1654303,1033084
55.57,2092922,535371
55.38,2097436,646299
52.45,2108899,756219
48.40,2114214,1053963
52.28,2502657,461843
50.48,2521113,571972
48.20,2540557,732381
45.31,2531353,783348
42.04,2851480,402878
39.73,2875774,610097
37.69,2885945,792136
36.09,2824423,916222
29.37,3488738,420085
29.14,3493146,607397
28.15,3485694,800826
27.08,3332409,801028
21.30,2899303,392581
20.81,2901353,656244
20.51,2896244,897600
20.56,2625412,443025
13.91,3719294,399847
13.80,3728076,755353
13.62,3723549,901595
13.66,3328813,433619
45.01,1287789,616575
46.58,1295101,642936
45.13,1304912,684114
44.55,1314546,640261
44.02,1426941,608611
41.38,1436564,691621
45.07,1442908,654003
46.15,1428973,619441
43.05,1675532,629726
41.49,1680312,716834
40.65,1688624,721230
43.83,1665516,662455
51.16,1532385,675332
42.98,1545219,809931
41.57,1561167,710102
41.39,1505512,617277
45.06,1629479,724036
42.92,1653973,983696
39.08,1636280,1092116
36.55,1512716,644374
37.68,1900691,709890
36.14,1901163,949451
33.85,1855153,1192146
29.57,1691778,707186
32.75,1650077,716332
30.81,1653595,1112435
29.19,1649564,1402086
26.89,1542500,639523
19.05,2253277,743633
19.19,2253107,1359658
18.29,2146610,1698453
18.73,1971206,666990
76.04,2024066,143325
76.05,2026671,151012
75.83,2026564,165091
73.02,2027281,194197
74.93,2022509,192289
77.31,2241962,141983
76.64,2242943,163785
77.01,2243618,186467
75.10,2239205,207604
76.14,2224855,219384
74.76,2526487,129792
73.99,2525600,149192
73.45,2523626,191295
72.37,2520421,239391
71.06,2516285,330595
65.67,3105561,99128
65.16,3094111,136752
65.65,3045673,189508
63.71,3059264,244133
62.53,3051904,326804
54.01,4172183,94810
53.41,4164777,154039
52.87,4157021,209915
52.40,4139215,281784
51.07,4123961,392473
43.89,4944071,92871
43.58,4919514,143621
43.26,4926311,201278
42.65,4940032,305927
42.15,4912189,439964
27.44,7519071,88483
27.30,7484779,142544
27.25,7438183,211263
27.15,7545800,318346
26.73,7628703,388974
14.61,15731653,88165
14.57,15695709,194610
14.59,15712053,177901
14.62,15736016,176913
14.25,15737195,162658
73.29,2026722,193783
73.38,2023737,198817
71.33,2024884,220267
71.29,2023021,235155
71.96,2018354,249758
74.60,2237864,214019
73.76,2235750,244625
73.18,2237340,274767
72.02,2234778,321003
70.65,2230402,355162
73.36,2516578,163232
73.21,2513137,212215
70.95,2509797,280479
67.54,2516081,375943
66.28,2507705,558185
67.28,2987134,147770
66.52,3001509,201533
65.01,2988621,270785
62.61,2994170,374388
60.85,2977607,551531
54.01,4111783,141295
53.16,4091518,214860
52.70,4075532,296349
51.41,4049032,441566
49.13,4073485,661512
44.12,4771997,140061
43.69,4778234,209362
43.49,4760467,298057
41.60,4779356,464498
40.12,4770801,648076
27.79,7567624,141633
27.75,7531488,233382
27.63,7650668,342540
27.42,7626031,489778
26.79,7708089,375239
14.84,15772403,142659
14.73,15787871,250723
14.79,15776899,330659
14.83,15752818,256432
14.26,15835113,204331
67.37,1926137,275303
65.99,1931625,307330
67.00,1923591,315260
64.00,1922799,354452
65.79,1903792,339630
70.22,2088990,312463
68.87,2090449,365238
67.68,2086630,408612
67.07,2078962,451592
64.70,2072965,505016
69.99,2327061,255251
68.81,2324743,329776
66.75,2321408,421423
63.30,2327822,562258
60.36,2311946,793413
65.34,2737718,231871
63.86,2731801,316617
62.21,2733843,411581
59.83,2719886,571108
55.82,2712631,780797
54.20,3516241,238800
53.68,3514880,328681
51.41,3501757,461654
49.53,3468797,658205
46.69,3443863,950253
44.59,3977090,228436
43.99,3958150,333736
42.49,3962264,480104
40.63,3967184,681902
39.90,3920367,748278
28.79,6808786,223998
28.43,6877743,358976
28.27,6783525,535976
28.02,6690085,627875
27.05,7000229,395275
16.12,12893232,233735
15.73,13194672,410828
15.84,13020031,537545
15.93,12997668,359753
15.13,11660476,310985
60.44,1774143,358618
61.14,1773825,364226
61.01,1780174,366556
61.33,1790158,358459
59.41,1805929,391103
64.98,1887416,425167
62.81,1890144,496671
62.28,1897039,524420
60.91,1909277,565027
59.62,1927443,559059
64.16,2091541,375620
64.12,2094015,448625
60.86,2103414,558467
57.70,2116586,747525
56.61,2126000,1029414
63.16,2436258,348020
61.75,2442899,461656
59.54,2443139,560062
54.50,2462640,711323
52.11,2467429,916298
54.74,2875287,342508
53.30,2871980,481901
52.26,2846227,619604
47.81,2870794,869597
44.36,2854600,1064099
43.20,3117060,344799
41.95,3104370,525245
40.35,3102152,704793
38.66,3087373,909282
39.49,3080942,451052
29.22,3780440,330088
29.17,3728539,527705
28.69,3752315,736289
28.64,3792164,561782
26.64,3455626,383854
19.80,5776423,332831
19.76,5789996,604093
19.37,5744730,759953
19.67,5743011,470694
19.28,4912577,413271
49.89,1703435,530816
49.51,1711188,550917
49.29,1725162,560743
48.62,1754040,536544
51.03,1805914,497288
52.22,1804838,493487
51.68,1811958,541388
49.89,1823942,585648
52.47,1851021,513390
52.40,1899569,516746
49.65,1989447,550931
49.87,1999193,529189
49.58,2011533,563563
49.56,2036474,527356
49.31,2075012,548606
53.51,2315274,612753
51.09,2309920,699111
46.34,2340295,626834
45.64,2347566,714897
47.33,2395019,535417
48.60,2419999,596222
48.11,2443052,753915
45.01,2450619,930204
40.96,2440067,1160951
41.55,2406086,591586
42.52,1984018,576915
41.05,1988421,788828
38.75,1993556,1016139
37.31,1992246,685746
36.70,1822837,482643
37.25,1458082,616817
35.42,1464858,841490
33.64,1469007,1191264
31.42,1480114,533198
30.64,1397364,510527
38.73,1683258,584544
36.48,1685380,1071023
33.24,1684428,1186502
27.62,1648144,525300
26.86,1432501,526404
39.45,1691705,886826
38.55,1692228,935069
38.39,1712109,912541
40.71,1741842,808597
39.76,1785750,847042
38.17,1754401,906591
38.93,1763128,890499
39.88,1779352,839310
39.18,1806855,808579
39.36,1838492,822792
39.63,1871360,810398
37.83,1880419,915187
38.67,1855525,849782
39.30,1913961,910616
37.59,1937323,912073
43.55,2065482,976104
37.36,2073450,948500
36.01,2080305,993916
36.51,2099083,889320
36.53,2088201,920416
48.26,2024620,948407
38.90,2030777,1389581
38.54,2049889,1526484
36.61,2070619,840087
34.23,1988312,909157
39.98,2001406,986286
36.71,1997007,1418205
33.32,2000074,1807159
32.53,1993811,879164
33.93,1960543,848935
41.44,1791700,1089103
36.95,1796430,1460774
33.22,1798564,1867354
30.62,1810292,853624
30.09,1862100,782134
39.58,1828660,1044417
36.12,1834646,1776905
32.10,1838670,2030520
25.79,1856087,861286
25.05,1917617,932311
84.91,1846878,151762
84.81,1846051,163287
84.48,1847455,185978
82.86,1848808,195921
86.05,1991161,152756
85.44,1994198,169495
84.05,1991018,200170
83.42,1993353,224794
82.83,2224472,116125
81.01,2226794,165110
80.52,2224589,201491
77.33,2228157,298315
76.56,2672348,111825
76.48,2658522,144874
74.35,2668000,187112
72.02,2659226,269230
65.16,3546778,103054
62.52,3554152,158179
63.47,3516232,203173
61.33,3541507,280050
52.49,4231521,105110
52.26,4225598,144310
51.92,4212425,208236
50.50,4213305,322258
37.82,4609050,88644
37.81,4539388,142156
37.03,4562098,212453
36.24,4689000,320880
20.31,11718744,88431
20.13,11668986,151476
20.18,11741274,178071
19.67,12200673,177323
81.46,1848483,196365
80.32,1843948,216539
79.80,1845085,243130
80.58,1845211,258867
83.53,1993539,199413
82.02,1993322,243821
81.44,1991187,296485
79.95,1987840,330359
81.71,2222460,165472
79.18,2227614,226692
77.25,2227968,303574
73.80,2223003,442596
74.93,2658265,151414
73.94,2652618,213138
71.22,2659974,297143
68.75,2656099,436144
63.50,3545380,141557
62.56,3505605,223430
60.44,3533993,324187
59.32,3503057,477633
52.36,4249789,140862
51.59,4143089,217268
50.63,4140767,339370
49.38,4221492,544341
37.57,4900269,158058
37.32,4900957,229954
36.82,4869856,357445
35.63,4809098,528723
20.22,11625856,152932
20.23,11625696,250797
20.23,11661750,308956
19.41,12185642,234991
77.39,1802721,287719
75.62,1800909,328199
75.37,1798455,344351
73.97,1793361,374811
79.71,1923857,328290
76.59,1924494,385818
75.88,1920931,460178
73.85,1916918,520823
77.74,2138738,266558
76.01,2136057,340633
71.79,2133064,461361
66.21,2128761,707422
73.40,2517823,235454
71.83,2500366,333354
67.80,2501873,446751
63.46,2498712,693468
62.86,3227871,225952
61.38,3232118,346222
59.60,3220898,493008
54.12,3216707,769371
51.96,3737047,232342
51.13,3695668,349971
49.09,3678370,546198
46.50,3678938,830454
38.15,4694274,220804
37.53,4689982,377955
36.45,4683141,550996
34.95,4790594,792223
20.71,10741622,235261
20.66,10708806,413267
20.67,10601636,502405
19.36,11405077,336869
68.04,1736837,440904
68.83,1739233,471048
69.49,1742241,435056
67.19,1741543,532993
72.34,1840404,484758
71.13,1844651,552856
69.17,1848245,604666
66.16,1852671,720861
72.86,2033617,368980
70.21,2036050,511373
65.37,2037202,673865
62.48,2023794,952499
70.09,2366973,359626
66.91,2366533,481138
63.08,2380721,635522
57.49,2383555,935007
60.70,2922948,338278
59.48,2952124,514425
55.65,2927982,691571
50.55,2904146,1057263
51.41,3095006,329404
49.59,3101599,530185
47.94,3084493,751090
46.38,2995654,1079904
40.22,3437569,347116
38.85,3552077,553228
36.26,3535496,808924
34.36,3553034,944945
23.24,5872451,359606
23.19,5946481,630925
22.80,5874768,732147
20.71,5991814,454696
58.84,1701637,637480
58.28,1716215,607867
58.70,1728291,625717
57.92,1742647,619441
58.17,1809023,780670
57.79,1813292,764716
56.02,1825207,879468
60.10,1835113,853669
64.98,1982715,648853
58.00,1987260,813634
54.43,1997634,1009198
49.17,2002840,1373296
61.00,2320303,615431
58.89,2325221,789191
57.39,2329352,938109
47.72,2328801,1262747
57.29,2684893,617739
52.44,2668042,815542
49.64,2661733,1063311
44.14,2573080,1482484
49.44,2107561,588036
49.38,2031897,821540
43.24,2020259,1110916
43.01,1914986,734370
42.55,1591870,594984
39.25,1598688,835713
35.84,1620575,1121104
34.78,1488626,561606
37.93,1650821,601473
35.33,1654659,1060181
34.27,1655288,1204684
32.84,1391589,534758
48.32,1689167,980000
45.77,1696404,881903
46.58,1709710,909763
46.75,1719001,1004982
46.58,1758848,832985
47.12,1762012,827061
46.46,1773408,886476
47.51,1773385,856847
43.78,1861729,845256
44.29,1867100,957697
47.92,1874424,828341
47.10,1867826,841070
45.60,2058771,1050954
42.47,2059794,1033529
44.09,2064137,1001641
42.23,2022723,916765
50.68,2085990,941481
44.51,2092001,1362566
40.72,2089166,1448452
40.15,2013466,921904
46.89,1978843,996342
41.62,1975089,1409996
38.44,1960164,1786795
35.67,1883618,890681
42.52,1752780,1040815
39.15,1763927,1549572
35.05,1765738,1951281
32.14,1787565,858575
41.68,1820965,1134722
36.70,1832528,1796619
32.43,1816758,2067172
31.84,1842114,796684
79.74,2797014,245554
74.51,2801023,292221
80.05,2797275,241706
80.70,2795497,237942
79.95,2796643,245194
79.61,2797430,248039
82.97,2918753,207496
83.12,2917878,207460
80.47,2922846,226686
82.28,2918795,215519
81.66,2919012,223277
80.66,2921283,235893
79.62,3133212,198310
79.29,3131322,203153
78.75,3129359,216289
79.40,3127982,210615
79.43,3131304,215135
79.24,3133930,218950
71.24,3563183,243213
70.77,3560630,260151
70.65,3556169,273859
70.67,3575553,270021
70.36,3563400,279461
70.72,3573807,272518
63.43,3198737,353314
60.59,3191002,383578
62.16,3149490,358446
60.94,3200259,369783
62.54,3198693,357259
61.26,3187481,354420
50.64,3018652,495316
51.92,3018255,570448
51.67,3019408,514844
51.05,3007072,538733
51.50,3046005,536863
49.36,3007470,579417
37.80,3478074,531118
38.90,3479306,498640
38.49,3489724,527680
39.17,3478663,505887
40.89,3481242,323221
39.53,3500185,378095
28.48,6666382,1034205
30.45,6684054,789467
30.82,6685327,652009
29.06,6707958,886679
28.56,6711195,1048907
28.82,6675841,841438
76.02,2796655,328634
77.52,2796858,316343
75.88,2797092,330105
76.04,2798562,346306
75.74,2802828,345217
75.83,2796684,336649
82.02,2915521,205138
81.92,2917609,213718
83.68,2917182,191561
80.80,2920779,222025
81.63,2917095,237911
79.53,2917003,240671
82.23,3125096,133152
81.19,3126119,165627
78.94,3120929,198260
80.87,3123201,186439
79.49,3130070,217333
78.58,3124695,229684
74.71,3545317,112477
74.63,3539893,148031
73.71,3563820,203097
73.47,3542324,179475
73.43,3551291,213352
72.77,3545620,232357
67.20,3178596,116947
67.17,3229947,122655
65.43,3225309,201070
65.87,3225717,180767
65.17,3193624,232077
65.56,3223438,214139
58.16,3185447,105529
57.88,3190426,193453
58.08,3183019,182855
58.32,3185379,137456
56.81,3183886,234464
57.18,3202249,226448
44.61,3664857,87403
44.43,3673898,125891
43.61,3667851,192946
43.83,3672985,171569
43.06,3641811,245637
43.80,3655987,216501
34.41,6829455,90011
33.86,6856115,147649
33.64,6856831,249500
33.79,6879830,165664
33.74,6841136,223449
33.74,6845706,262886
70.57,2754790,498351
69.66,2754954,514264
70.71,2755470,511582
69.45,2755599,503425
71.17,2755343,501185
69.40,2754434,506389
81.21,2850108,226762
81.59,2867287,212321
81.38,2867349,249896
81.19,2865165,230422
77.16,2863953,353794
80.26,2865245,274352
81.91,3073999,136972
79.82,3067914,184246
78.26,3070946,245515
79.65,3066329,206393
77.47,3067285,258241
77.50,3066577,295330
76.39,3450020,114345
75.23,3471076,162383
73.59,3467234,229241
74.62,3454270,182574
72.68,3464822,255371
72.11,3447041,284689
67.93,3140396,107739
67.86,3175654,160100
65.75,3194304,240244
66.96,3181413,184448
66.01,3170679,260753
65.41,3173167,290751
59.83,2858983,105305
59.57,2863469,157726
58.12,2858723,254186
59.07,2862476,178984
57.88,2830528,256636
58.09,2859160,280600
47.57,3184645,105918
46.84,3185037,165311
45.43,3186674,271412
46.56,3189542,187578
45.30,3193930,289934
45.34,3194491,299390
36.58,5386293,104911
36.08,5389150,169810
35.71,5413304,291419
35.65,5452476,192246
35.34,5457028,304173
35.30,5406412,324480
60.58,2752299,801238
62.92,2754801,732956
60.94,2754484,747199
64.20,2753515,723354
61.24,2753559,770128
63.22,2753551,708183
78.95,2869366,264508
78.90,2865974,305894
80.37,2869054,268801
79.21,2861168,279280
78.32,2864385,311019
76.93,2868063,332170
79.54,3069228,180762
77.16,3069889,237529
75.58,3071296,306756
76.64,3069888,273315
75.42,3068606,339556
73.65,3059457,371930
74.42,3461712,157510
72.69,3466224,220020
70.12,3458596,313142
72.28,3470061,254796
69.27,3441717,348210
69.91,3443601,373126
67.05,3261707,153892
65.29,3270455,226089
64.53,3261668,323899
64.71,3291200,261143
62.57,3224214,365305
61.98,3210197,415007
59.92,3011437,149073
58.63,3004808,222436
56.47,2993523,328356
58.06,3003125,249790
56.62,2984334,362496
56.02,2985611,398634
48.84,2859312,150580
47.78,2854718,233116
46.04,2856949,366281
46.61,2859246,273591
45.73,2873968,404320
45.26,2873060,449020
40.98,3871033,153777
40.52,3860486,239600
40.18,3876581,407086
40.58,3872516,281045
39.65,3864048,445747
39.82,3870754,492069
47.44,2763932,1349124
48.26,2762609,1310121
47.00,2761223,1350168
48.71,2763020,1337981
49.18,2761179,1265793
49.21,2760317,1332432
74.83,2881995,380052
74.21,2881404,358366
74.94,2878889,374679
71.53,2878698,486443
73.30,2876044,390987
70.39,2884550,423124
74.22,3085451,282495
72.39,3083214,340309
72.16,3063074,387072
73.41,3083110,376936
72.61,3080622,412777
70.51,3081371,459852
69.96,3442232,259359
68.78,3473029,339782
65.60,3461454,466241
68.17,3465836,388540
63.81,3439420,509963
62.75,3463041,586862
65.07,3168872,255732
62.10,3211775,356192
61.12,3193594,510239
62.41,3172887,421268
61.71,3184366,555743
58.07,3182099,628800
59.49,2804462,250311
58.38,2808416,357112
56.66,2789991,543084
57.18,2805831,408056
55.59,2842325,597262
53.51,2782274,646522
47.70,2672046,243038
46.68,2674282,368694
44.27,2680457,616515
45.15,2670401,430283
43.39,2672322,649127
42.76,2672484,736389
39.59,3820708,247370
38.67,3826710,388172
36.89,3822841,701661
38.61,3824416,472174
37.41,3821783,738891
36.94,3822665,807099
38.21,2758560,2082067
37.54,2752959,2126573
39.61,2764502,2094715
43.92,2748142,1920312
40.55,2755874,2003301
40.46,2756179,2042531
67.25,2850818,494296
65.47,2847695,548069
66.84,2829416,503587
63.33,2852851,585793
61.57,2850640,716762
66.39,2844508,652062
69.34,2971063,419086
66.37,3010550,553676
66.21,2997514,564256
66.58,3006293,576609
64.34,3001835,646220
62.61,3003135,666053
66.56,3310059,414215
63.65,3274918,590072
59.61,3294667,716786
63.71,3315083,648642
59.29,3288000,848886
59.56,3297007,862096
64.20,3610111,415927
59.70,3607625,596570
56.78,3610420,834539
59.50,3632967,663613
54.27,3569525,945729
54.97,3590275,961673
57.34,3887807,423752
55.80,3865481,615676
51.53,3813176,878427
54.56,3876907,680291
52.07,3800293,967149
50.65,3788936,1062884
48.24,3915925,448478
47.52,3908177,654798
43.42,3896134,954792
44.84,3891220,731173
41.75,3904294,1110032
41.61,3882147,1240829
38.90,4697914,441021
37.33,4713419,699677
34.88,4722102,1151892
36.81,4706394,749668
34.75,4704690,1269823
34.76,4701986,1373675
83.38,2860756,194109
82.61,2859567,210161
81.53,2859031,239782
83.27,2972330,170245
81.55,2965675,222228
80.40,2966688,252927
79.17,3166988,152861
76.93,3173112,226954
75.07,3162307,321501
72.49,3551079,150815
71.57,3562059,207485
68.16,3565456,316369
66.26,3264500,125170
64.46,3262839,201180
62.59,3209304,295852
56.48,3107105,123838
56.10,3109037,198686
55.76,2885553,292189
43.24,3399561,119331
42.48,3412112,193760
41.82,3400466,265309
34.58,6307816,123183
34.14,6303224,195953
34.06,6280910,223582
77.61,2861672,294027
76.21,2862121,329596
75.20,2862675,340064
78.28,2967953,263945
76.23,2962330,344890
74.38,2945318,381901
75.62,3170649,234508
72.72,3171247,357112
69.53,3167348,504579
70.81,3550718,218709
67.71,3552407,334219
63.07,3537653,512321
63.52,3322482,209562
61.93,3282085,334228
58.80,3254582,476189
56.42,3128563,209720
55.89,3086396,324636
54.47,3079671,485744
44.04,3552259,205005
43.53,3639009,333527
41.74,3603276,470002
34.14,6532794,203972
33.38,6528835,350037
32.35,6544299,436904
70.36,2818677,475407
68.82,2825136,513448
67.56,2820508,555478
72.90,2909876,461648
70.55,2912734,556033
69.18,2912982,601402
71.64,3105700,371449
68.84,3101771,553415
62.02,3100261,791520
68.28,3441561,341177
62.80,3458477,537923
57.70,3440157,796482
60.57,3126820,356622
57.61,3129432,526740
55.32,3055352,740544
55.49,2749904,331764
53.46,2787968,527860
50.56,2641516,730554
44.74,2984662,327540
43.85,2973997,527523
39.24,2945066,761395
36.72,4695319,336121
35.00,4694915,579521
32.69,4677528,708751
62.92,2812146,663152
65.12,2814161,683195
65.68,2822605,680309
65.22,2907083,686786
64.89,2904395,795620
59.59,2907959,925056
67.35,3093750,547101
60.18,3095823,814736
54.77,3093408,1113137
62.95,3444556,512067
59.16,3442474,787543
56.66,3406116,1112404
56.79,3148521,535429
53.23,3185313,771331
50.68,3092364,1035042
52.54,2740912,471314
48.09,2815938,763236
46.56,2643749,1030507
43.65,2262057,524793
40.88,2295905,785478
36.97,2265883,1095572
38.50,2392544,526115
37.34,2372104,917536
32.80,2227398,990514
50.83,2806110,1189548
50.95,2812424,1213495
46.80,2812881,1569719
52.67,2914429,1180077
53.14,2908186,1286884
48.97,2889967,1421215
52.26,3098723,1037797
49.87,3069512,1349507
46.80,3086455,1556398
52.49,3436538,927171
48.16,3436371,1344469
44.94,3410023,1690791
48.33,3110661,868144
44.53,3116151,1291445
45.04,3008615,1611741
49.09,2316112,889624
45.92,2325053,1315926
39.26,2180231,1562954
40.82,1698745,829787
34.47,1729514,1437664
31.73,1676175,1667587
37.60,1567667,1019654
33.59,1570703,1655626
32.29,1552875,1511311
41.11,2769835,1919644
37.78,2777694,2023943
37.23,2775492,2136268
37.47,2858264,1900063
36.98,2856192,2083050
39.53,2860117,2077898
42.19,2958093,1590433
39.11,2955467,1910008
40.10,2942031,2040447
40.76,3163608,1548700
38.60,3151922,1923520
34.35,3144722,2175056
41.45,3160940,1652385
35.89,3165502,1956653
34.73,3106424,2223051
41.85,2862321,1603155
34.04,2869255,2042216
32.66,2910623,2453907
36.44,2713303,1608485
31.87,2711564,2324320
28.18,2712666,2654488
37.31,2743598,1745985
37.02,2750839,2128363
28.71,2742514,2587927
