perf,CACHE_MISS_L1,CACHE_MISS_L2
40.23,3285121,1263443
61.35,3491770,479054
60.19,3839805,595360
64.19,4336202,1006643
57.93,5495771,1232512
46.44,7692415,1353940
30.99,13393938,1438903
19.03,23265177,1524893
10.33,39477133,1482730
5.47,73202452,545113
62.95,3491278,478374
63.61,3828651,564381
65.52,4334941,997978
57.46,5490031,1272949
47.46,7697996,1351080
30.62,13465402,1428047
19.06,23248496,1508843
10.37,39662353,1483593
5.39,74475949,599603
63.99,3831137,509186
66.70,4341529,964246
57.90,5494756,1247177
47.48,7688398,1310821
30.99,13458019,1364693
18.94,23418435,1485789
10.49,39174820,1487851
5.45,73915287,700980
66.65,4332240,712498
59.12,5491221,873032
47.64,7724857,961504
30.99,13427428,1068903
19.00,23341548,1161285
10.52,39365526,1002231
5.44,73506609,870039
62.16,5493936,477892
48.76,7708450,541731
31.50,13543713,640366
19.33,23300361,640927
10.56,39132788,648368
5.41,73669319,420122
50.85,7639981,387239
30.90,13548735,540134
19.45,23353951,523210
10.60,39174204,407192
5.49,73683524,222723
32.44,13494685,362818
19.55,23358227,493449
10.48,39400593,332146
5.46,73381213,335231
19.25,23573987,408143
10.62,39193732,325436
5.48,73550467,365353
10.62,39259096,321299
5.49,73417271,528709
5.45,74130469,409721
35.81,3282228,1419108
50.04,3489485,671771
55.69,3843305,1014815
54.99,4350647,1869867
51.78,5500768,2160197
40.99,7748780,2298089
29.47,13461753,2320700
18.41,23429861,2394409
10.33,39412341,2248911
5.45,73586380,390816
55.31,3493294,620070
58.97,3829730,939507
60.18,4366176,1908765
53.02,5523221,2135614
44.10,7745013,2274916
29.65,13465811,2307414
18.27,23678020,2438831
10.39,39418049,2261795
5.44,73950583,388648
58.76,3834092,771021
59.85,4344505,1793761
53.80,5504473,2055079
45.10,7676087,2158731
29.87,13404540,2173973
18.42,23535155,2277553
10.41,39332243,2149557
5.41,74388249,457285
63.25,4354641,1060733
55.48,5503441,1271953
44.75,7764643,1384591
30.49,13443120,1403553
18.92,23367563,1483243
10.45,39314340,1352043
5.34,73615060,403313
59.60,5515127,555566
47.39,7739689,534045
31.85,13423393,592441
18.68,23779763,655694
10.55,39394708,505659
5.40,73423252,332209
49.98,7721085,357904
32.84,13366789,349828
19.31,23569550,372159
10.56,39332937,322132
5.49,73315977,238012
32.63,13438569,359740
19.31,23511208,341249
10.58,39413022,287928
5.43,73945485,291188
19.07,23457532,389478
10.55,39295934,280488
5.48,74066254,287491
10.55,39351074,279472
5.51,73482824,273500
5.53,73662477,324469
33.55,3022878,1848076
35.97,3185438,1326695
38.99,3526696,1163889
37.81,4088733,1104215
35.95,5249136,1087172
31.07,7527999,1088282
24.09,12883935,1080999
16.53,20101492,1091244
10.19,25876577,1177851
6.02,41015294,1173159
43.11,3148485,1323850
42.31,3452181,1162330
43.22,4038721,1105737
41.23,5180113,1085669
35.72,7419838,1088025
26.55,12646996,1089901
18.08,19292356,1102087
10.70,24797918,1169648
6.34,40571410,1166478
44.43,3455340,1169018
43.90,4017372,1116023
39.57,5183439,1092538
34.56,7410835,1100493
24.66,12632519,1105783
17.99,19403733,1125882
10.70,25022191,1163916
6.42,40502690,1159177
46.60,4032750,905989
42.23,5194488,914476
36.72,7430462,943985
27.72,12472923,944425
18.51,19105373,986786
10.72,25562355,953780
6.47,40685451,921894
53.98,5175789,389014
43.24,7384875,409837
29.89,12318379,420640
19.21,17948311,434200
10.89,24601417,421078
6.41,40614400,406253
45.71,7295026,344308
30.75,12239819,350513
19.53,17853628,374350
10.96,24528575,338216
6.48,41032594,364368
31.55,12234933,364316
19.73,18289821,398106
10.95,25060800,352484
6.42,40975136,330165
20.21,18515218,452690
11.21,24975095,388321
6.54,41658148,367322
11.31,25475484,404013
6.51,42220819,484358
6.55,43954522,620386
29.94,3289035,2177018
29.73,3440200,2152784
29.34,3652714,2130240
29.61,4151598,2129761
28.34,4907394,2130509
25.24,6351294,2129847
21.87,9201864,2122182
17.62,12851937,2129122
12.41,11826891,2173427
9.40,20386772,2249181
31.55,3362636,2137207
32.95,3568044,2120525
30.76,3962915,2125739
30.01,4752147,2124227
28.20,6141851,2117894
24.56,8858588,2119912
18.65,12530081,2133025
14.23,11607974,2156726
10.19,20251657,2226990
32.92,3580701,2112156
32.68,3980274,2121626
31.03,4745940,2118597
28.83,6184045,2118008
24.59,8916594,2122121
19.46,11656864,2143155
13.43,11620685,2145125
9.85,20230376,2208921
37.38,4020414,1441777
33.82,4807669,1403994
32.88,6189936,1454593
26.79,8875135,1478569
20.55,12637423,1475468
16.12,11690052,1427495
10.33,20381186,1489773
52.59,4860540,406726
45.68,6176035,425051
37.19,8719032,431057
26.39,12257605,423527
19.20,11651472,420668
10.93,20335682,431317
45.53,6237862,372025
38.41,8840368,373219
27.30,12330400,368836
19.48,11740656,372895
10.88,20352164,366109
38.56,8865581,408488
26.83,12567639,430668
19.29,11938744,361784
10.90,20618584,361554
28.27,12954413,461333
20.05,12358310,363836
11.15,21048775,380091
20.05,13198548,375784
11.18,21929295,363967
11.14,23548245,474738
40.19,4762320,2138219
63.62,4924494,782540
63.85,5208578,933441
63.86,5730779,1350246
57.96,6773165,1455416
50.30,8753985,1378583
37.24,12792563,1491803
23.15,20136076,1518461
11.23,30529478,362776
7.02,65154135,408459
63.77,4918862,828415
66.52,5206418,903653
62.85,5722465,1274076
58.68,6760929,1365137
49.21,8767579,1433809
37.47,12745795,1525913
23.16,20259598,1524179
11.08,30737667,372799
7.09,65181464,439911
67.91,5207002,828670
66.92,5715493,1234485
59.06,6772874,1351200
50.32,8781454,1334577
37.49,12658287,1461258
23.35,20192604,1446996
11.24,30711610,383970
7.15,64998811,398727
68.49,5724992,998855
62.88,6760512,1073479
50.67,8775603,1059271
37.75,12644540,1136179
23.68,20033046,1085277
11.13,30637888,389231
7.02,65013897,407195
63.39,6785390,514021
55.25,8760592,530015
39.90,12582194,562806
24.02,20144227,580609
11.20,30593687,343774
7.03,65154420,342545
56.03,8765952,333656
40.52,12637368,356854
24.06,20091188,413235
11.26,30667199,233999
7.12,65168835,240704
39.84,12581622,382776
24.34,20040168,366875
11.29,30762042,229177
7.09,65093950,234907
24.28,20212895,363398
11.36,30627379,235135
7.19,65043013,254444
11.38,30609779,245036
7.17,64952450,285585
7.21,64842929,309842
31.72,4763655,2405357
56.21,4931962,1274409
53.26,5209044,1723024
54.31,5723201,2439013
51.12,6759858,2624670
42.97,8769934,2549521
33.92,12794229,2832793
20.90,20180668,2543432
10.68,30971463,721927
7.00,65217569,757469
59.88,4922572,1240338
59.80,5202361,1644902
54.35,5709897,2510969
52.26,6748403,2500106
44.08,8747271,2497578
33.63,12706295,2774895
22.77,19907128,2561913
10.97,30999919,713495
7.01,65209682,800699
60.93,5204584,1450392
55.30,5714677,2444395
51.69,6747127,2505186
44.49,8764181,2513391
33.36,12610182,2698449
22.47,19981929,2308316
11.16,31085385,708131
7.09,65008581,736381
61.85,5714336,1500488
56.52,6764975,1691398
48.02,8790518,1767305
36.07,12684180,1734155
23.59,20140054,1480433
11.12,31058248,632688
7.12,65248822,653693
63.79,6765637,502105
53.69,8779781,569663
39.16,12617563,538734
24.06,20013861,530909
11.29,31172304,384200
7.17,65370244,396961
55.05,8744521,400625
39.76,12577387,401995
24.20,20160846,407039
11.28,31037601,306684
7.14,65401787,321207
40.10,12743159,418133
24.24,20188845,402596
11.26,31054789,302940
7.14,65389616,324956
24.17,19994816,505772
11.37,30932314,329758
7.17,65190177,323345
11.43,30872676,322974
7.22,65104617,318572
7.22,64661757,469385
34.39,4654085,3430456
38.71,4800464,2549091
38.03,5068648,3320973
35.29,5567626,5075014
33.81,6571825,5160899
29.58,8314564,5427481
25.66,9927214,5229993
21.01,10525805,2730311
15.99,9095184,2176101
12.07,11166641,2338252
42.50,4761657,2542656
42.35,5022207,3262829
37.06,5525990,4633127
36.17,6523114,4897845
33.05,8254167,5323656
27.58,9603491,5137504
22.76,10317332,2646788
16.92,8966744,2164018
13.10,10958838,2300182
44.45,5023386,2965125
39.60,5520185,4385780
36.36,6546214,4697841
34.39,8301417,4936272
28.17,9736369,4858659
23.19,10317571,2485264
17.23,8993894,2148221
13.03,11019755,2239731
47.83,5538562,2775488
43.64,6564404,2852509
40.14,8399808,2916574
31.70,9879205,2521043
24.28,10247098,1628833
17.50,9075515,1481752
13.20,11211568,1490240
63.15,6563904,483349
52.80,8417127,480516
39.96,9853876,505554
26.54,10259309,438419
18.45,9152164,432637
13.62,11270440,417271
54.96,8434206,408355
41.50,9791479,409989
26.72,10272996,395129
18.41,9238251,368702
13.62,11390907,384612
41.50,9958025,438945
26.73,10535353,441610
18.70,9404530,355561
13.63,11626491,363614
27.35,10925224,486175
18.70,9759231,346442
13.58,12095881,365202
18.83,10455924,338915
13.48,12965844,336177
13.26,14577102,434279
29.58,4751926,4239450
29.16,4826757,4218038
28.70,4946720,4202744
28.07,5244514,4200146
28.32,5832460,4198650
25.91,6849677,4198828
23.18,6461460,4208882
18.45,7613572,4213427
16.85,7652596,4214090
15.74,9499707,4399767
34.39,4713586,4199495
33.91,4857273,4187076
34.03,5137957,4187042
31.94,5690554,4186155
30.25,6689781,4186617
26.52,6017285,4195165
21.45,6850362,4203908
19.66,7509114,4204298
17.58,9302628,4341248
34.16,4870373,4178506
32.76,5141453,4184528
33.04,5701039,4179770
31.13,6725545,4182776
27.41,5984317,4192260
21.28,6871347,4204712
20.20,7524405,4196089
17.68,9315400,4259072
40.09,5206239,2406307
37.40,5759255,2397774
35.19,6784498,2475501
31.59,6111987,2437113
26.80,6998086,2358546
22.86,7615948,2450150
18.71,9434345,2485909
61.65,5860516,491154
54.98,6812390,537839
47.45,6171350,441022
36.86,7144732,440591
27.60,7696305,426913
20.96,9441068,436127
58.85,6918914,396999
49.78,6340323,405615
37.58,7241098,412071
28.41,7779545,356750
21.07,9544505,354168
49.84,6551509,448694
37.87,7467151,430462
28.33,7989724,319704
21.17,9765454,348481
38.56,7958188,482065
28.61,8385027,347011
21.49,10188692,349266
28.25,9130627,442817
21.29,11089121,399574
21.20,12492680,381200
32.12,3135837,2139350
32.06,3135343,2140112
32.56,3131188,2139076
32.27,3136721,2139808
32.07,3134435,2139090
31.93,3124384,2139181
33.11,3225027,2013571
33.66,3221540,1965894
33.30,3222440,1993006
32.41,3212076,1982299
33.11,3227173,1994752
32.95,3227417,1958973
47.31,3364320,619273
46.92,3379242,605989
47.62,3371203,608253
45.98,3385450,616147
47.17,3383888,564524
46.14,3384166,558553
62.68,3663346,345537
60.71,3654769,354596
62.53,3657994,346078
60.37,3665693,353793
61.97,3671723,367905
61.10,3784543,388015
62.30,4202287,337406
63.36,4207837,365532
63.00,4199685,414753
62.09,4199508,499994
59.93,4219161,638056
55.50,4327792,797110
59.58,5274022,273587
57.18,5242411,371098
58.14,5266282,496843
58.01,5254066,698455
56.24,5249460,983892
54.23,5247034,1426595
50.10,8047101,273118
50.01,8018486,407798
48.52,8023519,628301
46.87,8016773,911856
46.60,8061420,1104045
44.63,8049196,1782667
35.92,12970898,355294
35.01,13024848,487744
34.95,12976825,614642
34.45,12927467,944630
33.70,12943392,1358014
33.08,12876819,1978972
23.02,17960394,504982
22.99,18005922,399457
22.86,17970305,557105
22.70,17954212,888356
22.53,17928825,1367818
22.04,18004213,2023662
12.19,32355499,472601
12.18,32420282,455816
12.22,32352246,660303
12.18,32453584,351421
12.05,32216937,555048
11.94,32328137,246723
29.46,3139578,2140028
32.00,3134383,2143661
31.36,3141279,2144866
29.87,3135612,2144882
32.23,3141746,2143919
31.82,3133726,2140729
32.24,3226115,2035692
32.68,3224550,2021253
31.26,3215242,2041874
33.29,3227634,2040121
32.31,3223007,2032825
32.65,3242639,2039818
44.39,3371246,715706
42.72,3380705,764706
43.30,3386976,750587
41.06,3380355,780315
42.33,3382954,743373
42.97,3454094,724773
55.28,3682268,446717
55.87,3675398,460232
54.34,3682260,469164
54.28,3674005,492360
52.81,3690003,532415
53.37,3697430,572529
56.22,4215176,409681
54.43,4222733,451753
54.90,4205122,506157
54.59,4226353,606774
54.32,4223351,727874
52.72,4227414,885321
55.38,5293318,360963
52.31,5279250,495095
52.29,5278793,600129
51.39,5316080,824093
49.95,5296554,1128025
44.26,5272701,1690105
48.06,8100601,350171
43.19,8098554,593418
46.46,8022461,895025
41.72,8111413,1121713
40.88,8175708,1207830
38.38,8059969,1758387
36.61,12932187,377732
35.54,13010755,641113
33.56,13083887,901446
33.27,12929996,1516496
31.98,12951956,2100950
30.37,13002953,1927418
23.63,17990513,352418
23.32,18067022,583918
22.40,18003420,905515
22.45,17965058,1506312
21.48,18078625,2181794
20.72,18077957,1883681
12.48,32627111,346884
12.42,32627472,602000
12.42,32484022,754740
12.29,32452680,474060
12.31,32488183,409361
11.77,32653835,358722
30.68,2932243,2145259
26.21,2939243,2150614
27.53,2984855,2153395
30.84,2969497,2153442
27.01,3006826,2151572
28.98,3005328,2141095
31.65,2926886,2112682
32.42,2930795,2125047
32.16,2927883,2132442
29.51,2958195,2127385
32.05,2963473,2142884
29.24,2987194,2120166
33.93,3061082,1457573
35.78,3068566,1477080
35.45,3098167,1426256
35.39,3124340,1459999
33.99,3143856,1478845
34.31,3339891,1441870
29.25,3317543,1204258
39.06,3330135,1201330
38.43,3331957,1201147
36.74,3356310,1194296
33.05,3360735,1186586
34.66,3388066,1199505
29.18,3862883,1096682
40.90,3870075,1099321
37.26,3869329,1102798
38.46,4065148,1105484
37.38,3914091,1105208
38.53,3967690,1102888
37.92,4843077,1066293
35.85,4830454,1074091
38.48,4864796,1079241
35.77,4865871,1079868
37.19,4882573,1081456
35.68,4968661,1082832
28.40,7357895,1059059
32.62,7293723,1067809
30.69,7261878,1083190
33.19,7353050,1076796
32.83,7313630,1077515
33.02,7411171,1077317
38.09,10763815,1153782
36.36,10798452,1743381
33.63,10822013,2484009
29.98,11019790,2700099
25.99,11146687,1097060
23.03,10992449,1079786
26.13,13217599,1159345
25.67,13090864,1792068
24.87,13310926,2536028
22.83,13323959,2812987
20.57,13850524,1119762
20.54,12924706,1102214
14.94,24390944,1145097
14.77,24709474,2041896
14.67,24633000,2811607
13.65,23325438,1541237
14.31,23296960,1205777
14.55,19559631,1114883
26.82,3234257,2140163
25.70,3234420,2146747
27.06,3228744,2149488
28.64,3238209,2149762
29.10,3221714,2158010
29.06,3466834,2157102
32.33,3201786,2158868
31.33,3205755,2167247
30.97,3209506,2173481
30.08,3259550,2167901
29.91,3261712,2161389
26.51,3319076,2147588
30.91,3318771,2126712
30.76,3381538,2134904
27.52,3392765,2137342
22.23,3375895,2138518
29.42,3355338,2145549
28.74,3440094,2121019
30.87,3541985,2104222
29.82,3535781,2113212
21.73,3571225,2116669
28.56,3589074,2118146
28.07,3611285,2121917
29.64,3669276,2116160
31.01,3999696,2098366
31.70,3993938,2107458
30.07,4015082,2112505
31.26,4038907,2115065
28.90,4100506,2113472
27.74,4144069,2113995
30.59,4754900,2102443
30.79,4881664,2107540
30.37,4795962,2111550
29.62,4808574,2114182
29.49,4860960,2113756
24.97,4915917,2113211
28.95,7120978,2097038
28.84,7130081,2105820
27.77,7148746,2112587
27.98,7121950,2112391
27.25,7050486,2112656
22.52,7121692,2113558
40.05,9993052,2253133
34.37,10201518,3088161
28.41,10232756,3606023
26.72,10405694,2191339
25.41,10306402,2120162
24.27,10064970,2113864
34.74,10188607,2251635
31.67,10294760,3163609
27.52,10415224,3834781
24.00,10449656,2366869
21.28,10618144,2118622
21.69,10929546,2114331
24.88,15653468,2180092
23.81,15643125,3984517
23.00,15659301,4723162
20.20,15584911,2446269
21.25,15470598,2159931
15.98,15996059,2116170
30.53,4422103,4208276
31.13,4477554,3846427
47.90,4586335,1074732
58.16,4773128,745716
58.28,5117908,1003495
56.14,5885732,1368144
50.13,7436794,1451967
40.12,10594915,1502236
28.10,13737416,1439517
20.23,15439312,360809
31.48,4476852,3837288
51.19,4580265,989623
59.84,4767758,709983
60.01,5107592,986057
57.88,5875914,1276542
49.85,7565408,1398187
40.62,10615243,1476037
28.64,13709459,1429965
20.18,15422011,374547
51.65,4583683,899590
60.16,4771816,680654
62.01,5103687,882788
56.77,5868140,1319679
51.22,7584806,1280920
40.86,10619164,1358358
28.92,13766857,1401708
20.20,15399964,376304
61.03,4770050,567703
63.92,5107818,658104
59.51,5887538,895910
52.98,7532867,952136
42.42,10656903,1016575
29.25,13782310,1037709
20.48,15414796,387831
65.90,5109284,424607
62.53,5882321,464891
54.39,7568990,479085
43.81,10647026,508633
29.91,13770123,464456
20.71,15449372,321454
63.54,5877666,303430
55.98,7565113,344678
44.57,10687782,367363
30.62,13747812,305193
20.59,15455736,286322
56.28,7606604,313805
44.22,10677189,329538
30.37,13716417,264556
20.45,15500757,228718
44.74,10657749,328044
30.42,13787536,250807
20.76,15501153,248385
30.78,13729597,252625
20.82,15469319,277971
21.00,15460318,337555
30.17,4422481,4212866
30.42,4480258,3910947
42.74,4593421,1391458
50.06,4777224,1386671
50.99,5119092,1947184
47.06,5872784,2621177
42.35,7426654,2594174
35.48,10546864,2591095
26.32,13824151,2690879
19.27,15931537,669884
31.29,4472608,3882241
47.14,4578716,1329021
54.00,4769841,1278082
53.51,5108095,1902569
50.24,5851492,2589620
43.55,7536899,2576371
37.27,10551869,2646707
27.03,13804750,2643184
19.61,15820719,684633
44.48,4579776,1381291
54.00,4768354,1130307
55.32,5108865,1616186
50.44,5865926,2378777
45.75,7528272,2383678
37.94,10598512,2456864
26.97,13788809,2529103
19.30,15867530,685738
56.74,4765054,818400
59.05,5102937,993578
55.82,5871215,1405862
49.07,7552311,1403863
39.62,10501947,1642262
28.04,13802419,1518149
19.51,15906075,615753
64.44,5104299,429877
61.67,5881761,455415
54.45,7554444,470536
43.01,10598672,529269
29.92,13840337,483226
20.06,16015488,371092
63.65,5879707,347831
55.95,7563485,346054
44.66,10582384,371489
30.31,13915376,341597
20.02,16026128,313272
55.15,7553410,362633
44.62,10579920,375052
30.07,13831791,310516
19.90,16004033,298298
44.94,10600323,464805
29.59,13747762,391585
20.20,16018777,324380
30.45,13711623,281971
20.07,16035831,329834
20.61,15945867,320487
28.21,4394110,4218985
28.75,4446935,4121333
32.23,4540783,2773014
34.74,4724655,2770527
32.51,5054957,3937018
31.81,5771446,5217555
27.81,7187276,5399981
26.53,9464566,5871408
23.28,9652240,3913062
19.33,8527472,2167462
30.59,4406338,4067499
35.64,4500354,2765982
38.11,4680433,2642919
38.62,5006782,3708324
35.15,5714362,5013604
32.50,7206414,5179423
27.62,9320897,5647594
24.85,9507521,3861983
21.04,8324489,2149594
35.38,4502122,2845105
39.43,4681617,2534034
39.35,5002114,3325662
35.66,5718178,4655456
33.79,7190345,4701787
28.92,9407314,5294059
24.92,9458322,3677604
20.36,8327038,2134264
43.85,4685998,1707945
43.39,5016045,2047897
43.22,5721702,2461639
39.38,7209716,2540443
34.68,9463284,2644699
27.03,9430364,1768516
22.21,8277303,1451289
57.44,5016470,431245
60.27,5721957,416402
50.85,7218915,416432
43.16,9453452,449858
31.53,9226556,444650
24.05,8484247,413942
62.52,5728144,384370
54.04,7225325,396497
43.45,9529012,400328
31.80,9237426,370619
23.81,8552903,363044
52.72,7279225,452815
44.29,9526341,435116
32.79,9393421,381643
23.65,8684502,316981
43.94,9713897,552019
33.02,9665824,409075
24.30,8972618,316243
32.80,10145398,392486
24.11,9517529,391758
23.93,10616234,441030
23.25,4473632,4216780
25.91,4509278,4232154
23.64,4567801,4207159
24.58,4687966,4202616
25.41,4849122,4200622
22.60,5389685,4201074
23.15,6177301,4200514
22.16,6829643,4200526
19.67,6304922,4213645
22.32,7831624,4205471
29.16,4433378,4219583
29.62,4486921,4195294
29.29,4598010,4190204
29.22,4753912,4188731
28.00,5187711,4188247
28.20,6078210,4187408
26.90,6760893,4186430
23.40,6076528,4193283
24.28,7693210,4198626
29.60,4498392,4196193
30.50,4608996,4179870
30.06,4766728,4169392
28.82,5192163,4167779
28.18,6093550,4178339
26.49,6752687,4182210
23.55,6094282,4189363
25.13,7715074,4188105
35.77,4646620,2515205
35.45,4803139,2438203
33.84,5232912,2442210
33.26,6164193,2478191
30.82,6746874,2427921
27.68,6153538,2348354
27.77,7818508,2386704
56.04,4869303,470862
55.82,5296205,414920
50.22,6228817,446776
44.80,6795077,468497
38.90,6210310,484585
30.47,7889502,470764
58.16,5446514,387226
53.35,6346562,392820
47.12,6971002,381870
40.90,6316655,393253
31.21,7990982,377633
53.72,6589240,403625
47.88,7200504,424190
40.70,6596606,420853
31.33,8221873,357027
49.25,7694133,430198
42.18,6990550,451553
31.98,8603837,352855
41.07,7629951,366661
32.10,9317133,425796
32.42,10934096,327192
30.58,8409236,4311443
31.42,8373050,3933004
47.03,7759585,1041969
58.73,7618360,843345
58.83,7785701,1151572
53.99,8455027,1385581
46.74,10019146,1534403
37.89,13011853,1568167
27.60,15330848,1484161
18.93,15564891,358163
30.76,8533147,3901104
45.42,7817011,1085881
60.59,7576717,840322
61.29,7761644,1085907
54.87,8450636,1544029
47.34,10026643,1560162
38.53,12972421,1587721
27.63,15372819,1503506
19.30,15529140,346057
47.87,7757734,1043322
60.32,7562121,767475
61.10,7766981,1080698
54.42,8470558,1446545
48.33,9996896,1514547
38.14,12987368,1548520
28.15,15313985,1426078
19.51,15497777,370674
62.47,7577169,657400
63.44,7791725,853209
56.40,8477577,1197006
49.48,10043440,1192625
39.36,13033538,1131159
28.61,15440013,980102
19.71,15526428,370436
66.41,7754721,571457
61.54,8472864,634589
52.15,10097260,592580
41.22,13070066,574502
29.31,15333945,480407
19.96,15533814,314175
62.89,8480324,450199
53.41,10103074,428988
42.01,13043550,403808
29.63,15487483,324579
20.41,15529677,233285
53.82,10043568,448285
42.19,13048652,373349
29.56,15413822,328226
20.39,15570255,225000
41.65,13073860,415976
29.69,15434543,278314
20.64,15551699,232276
29.84,15301547,346344
20.50,15586890,257339
20.94,15533627,248306
28.92,8617328,4345382
31.30,8367777,3997488
35.95,7938748,1514452
53.36,7689085,1432826
53.23,7843006,1961842
47.64,8504137,2547815
42.01,10167540,2795179
33.89,13176417,2974769
25.85,15681087,2778159
18.65,16020316,673458
32.32,8354561,3972765
43.93,7906684,1441930
55.31,7671122,1378966
53.56,7839228,2002574
47.37,8517022,2637395
43.07,9931882,2686928
35.54,13045290,2783510
25.93,15681736,2876268
18.50,15977578,675414
43.83,7866370,1397266
56.80,7653129,1208177
55.04,7862027,1824931
49.85,8479368,2519210
43.10,9992418,2745178
34.90,13141927,2756248
26.22,15711106,2590407
19.29,15933153,682350
59.88,7641339,909853
59.36,7871276,1187807
52.70,8600937,1760901
46.83,10048751,1802487
37.10,13173788,1779646
27.32,15677347,1526376
19.66,15937536,616593
65.30,7823219,559976
60.41,8529564,565146
52.23,10052012,561413
40.19,13175309,585567
28.49,15741550,495266
19.89,16086285,388508
63.00,8507210,453327
52.99,10059279,431111
40.74,13180871,401649
28.91,15642493,380308
19.93,16093578,313729
53.77,10018887,428440
41.52,13138435,422185
29.17,15706047,361782
20.21,16075008,295729
40.72,13192139,487043
29.13,15623166,367975
20.45,16116804,294320
29.38,15484936,282953
20.49,16111639,290736
20.49,16077753,278893
28.47,8589479,4354550
28.44,8554006,4249882
29.76,8461673,2908639
37.27,8193758,2782279
34.51,8383042,4009445
31.19,9115614,5493100
27.39,10604795,5666608
26.07,12650924,6050046
21.97,13006077,4650237
17.67,11367592,2309827
30.64,8646475,4247789
34.41,8372819,2860206
39.48,8198892,2739871
37.88,8269988,3854546
33.93,8831611,5056918
31.06,10120645,5426946
26.46,12548284,5933771
23.71,12709141,4479840
19.09,11206333,2283022
34.73,8398745,2936805
40.22,8195360,2630880
40.70,8246160,3498187
34.57,8915632,4803623
32.34,10176691,5047881
26.89,12640834,5471071
23.58,12912354,3959873
18.89,11217009,2219902
44.20,8052540,1767411
46.14,8207415,2252635
42.48,8924998,2857817
37.79,10337221,3071454
31.77,12905377,2933097
26.24,12781163,1947776
20.56,11148246,1502894
61.43,7911637,474711
57.85,8630346,484426
48.55,10121705,493708
38.70,12686721,520099
28.97,12547256,432773
22.57,11328293,433568
60.48,8561719,433960
50.80,10057857,428480
39.77,12618887,429027
29.72,12382046,398566
22.77,11404524,369038
50.68,10070529,458234
40.48,12584834,475649
29.89,12550673,436161
23.09,11542787,344207
41.31,12646308,505956
30.39,12696286,487772
23.13,11824680,339609
30.65,12954707,364373
22.93,12363118,432849
22.70,13454083,479974
25.63,8765370,4369182
25.45,8735435,4336049
25.19,8831119,4260783
28.37,8866554,4236977
28.11,8869049,4255618
27.89,9228681,4268871
25.94,10193196,4255181
24.73,10844463,4302910
20.51,9546221,4329395
21.41,9863001,4655940
29.72,8642076,4286870
29.94,8682010,4245522
31.12,8589149,4238863
29.72,8740870,4237306
30.13,9138163,4248847
27.85,9839034,4227455
25.77,10317529,4250348
24.29,8964552,4262358
24.27,9625746,4609759
30.00,8687855,4224432
31.22,8607273,4235805
32.13,8571427,4235462
31.36,9137301,4237783
29.29,9839817,4227067
27.82,10241429,4224702
24.33,8986769,4241937
24.95,9689363,4406731
36.11,8256477,2552347
36.26,8344338,2573427
36.42,8638245,2547099
33.78,9643129,2598358
30.66,10207911,2542665
28.79,8889110,2448890
27.79,9860246,2453797
61.98,7729930,489221
55.56,8095428,583801
50.84,8988677,441938
44.55,9467893,444133
40.93,8341541,461312
31.10,9736169,446095
62.94,8169447,414084
52.46,9064077,413088
46.27,9652068,407153
42.15,8374851,399436
31.44,9843936,382063
52.71,9289408,446845
47.11,9849082,447791
42.08,8591800,450616
31.68,10089402,347779
47.67,10364257,522766
43.55,9014792,490075
31.85,10443044,418239
43.01,9504631,387509
31.64,11112874,370882
31.31,12555908,472869
27.09,7194520,6303787
29.94,7290700,5665907
47.91,7322179,1450009
59.41,7464066,1080745
58.92,7774347,1467586
51.57,8473828,1956665
45.11,10098267,2020405
38.79,11909305,2042667
30.52,11606170,1783504
19.07,21950623,500517
29.73,7316307,5636269
48.13,7312947,1389679
59.74,7453457,1049800
59.57,7767694,1466038
52.53,8463172,1995970
46.50,10071007,2078849
39.54,11861797,2078265
31.03,11913005,1869748
18.97,22004497,505940
46.48,7318372,1444770
61.72,7459125,949757
61.20,7770315,1359674
53.17,8464494,1961089
45.56,10081659,1924798
40.53,11848928,2105954
31.13,11838956,1745584
19.18,21871026,514836
63.71,7462954,767524
64.78,7774545,967785
58.04,8486211,1364338
50.21,10116780,1370907
41.75,11955059,1431640
32.45,11883240,1128517
19.40,22093224,500150
68.94,7782071,520474
64.30,8503023,548869
54.92,10141351,585591
44.21,12087565,553379
33.19,11948925,487692
19.79,22213944,341778
66.54,8505060,388381
56.42,10151492,386020
45.48,12102722,372910
33.84,11290226,324165
19.86,22257248,246056
56.82,10153506,360527
45.20,12126996,357541
34.27,11446407,294332
19.91,22232015,263075
45.83,12127079,403596
34.34,11688470,288031
20.30,22014452,268130
34.44,11324938,573948
20.46,22023797,274917
20.68,21521438,291653
26.50,7277913,6307310
28.07,7445467,5801484
40.90,7371546,2003472
49.26,7512702,2004985
49.03,7815285,2692833
41.79,8531848,3640192
38.60,10141898,3753149
34.53,11869799,3740882
28.49,12367786,2947195
18.11,22888928,1001753
30.33,7292183,5760260
43.52,7344555,2029992
53.49,7480066,1826389
51.39,7785919,2580399
43.97,8467776,3673757
37.98,10099604,3769270
35.33,11824877,3809184
28.59,12356775,2948579
18.37,22929687,994699
45.57,7338226,1906615
55.39,7479822,1582936
52.96,7799834,2320438
43.62,8485767,3464132
39.11,10102986,3515420
35.10,11830266,3644943
28.76,12200061,2743096
18.52,22919092,993333
59.68,7489272,1120326
58.01,7820200,1462100
52.32,8531553,2077289
46.34,10189258,2073034
38.81,12083401,2119985
30.73,12338910,1551475
18.79,22943182,822914
69.01,7816093,535873
64.14,8556473,532535
54.07,10221460,532314
43.07,12289010,579634
32.50,12422093,491069
19.10,22833786,394405
66.12,8551656,415384
55.57,10224594,416401
44.40,12260720,436367
32.99,11955940,382223
19.24,22943286,332624
56.37,10230616,449710
44.91,12270264,452276
33.21,12487412,375590
19.33,22630464,351026
44.87,12264135,506597
33.72,11981315,366376
19.76,22657602,349846
34.22,11853003,332839
20.16,22291493,345738
20.54,21958599,326467
26.43,7371103,6316897
26.58,7421657,6121549
31.54,7445740,4127924
33.03,7605910,3941384
31.02,7885744,4980026
28.07,8528996,6378834
24.70,10044521,7011941
25.50,9931390,6329019
24.27,7527379,3414139
22.28,7519612,3266373
28.66,7289945,6094784
33.23,7366104,4210520
35.66,7493666,3813240
34.94,7766433,4636194
31.41,8388288,5817442
26.58,9871654,6637433
27.73,9500101,6060254
26.61,7273446,3330359
24.45,7321241,3233053
33.18,7354134,4141132
36.29,7495293,3666185
37.27,7888132,4416886
33.28,8416339,5376961
28.92,9898168,6031559
28.96,9613744,5652745
25.54,7318586,3255672
23.95,7357166,3188577
42.15,7512261,2289500
42.04,7826193,3024933
39.41,8533922,3627908
36.69,10053905,3744154
34.07,10135251,2948236
28.49,7478474,2065937
27.16,7448372,1977218
66.30,7792572,509638
62.01,8499494,443944
51.73,10063539,515459
44.68,10349951,437039
37.69,7431369,426923
31.30,7548626,456394
63.68,8490179,432600
53.89,10079463,418321
44.13,10443219,404570
37.31,7493547,413972
32.28,7678106,380724
54.88,10079410,457843
45.64,10569546,437807
38.23,7699270,440862
32.54,7852300,379980
46.24,10816012,510799
38.60,8085405,480173
32.92,8270193,456514
38.43,8553189,315257
33.08,8973965,379525
32.65,10506610,426224
25.19,7382807,6314147
24.82,7462535,6316389
25.48,7469344,6282633
24.49,7763294,6280343
23.42,7763951,6277124
24.26,8075015,6276422
22.35,8881322,6277430
22.36,8512930,6282386
18.35,8530857,6294937
19.52,8753022,6288527
27.35,7132794,6289085
27.42,7135499,6262987
27.20,7223467,6258594
27.35,7401751,6259280
27.59,7734877,6259000
25.59,8564508,6258916
24.40,8061369,6266165
23.50,7992752,6271385
22.60,8430535,6267888
27.59,7248785,6256078
27.66,7280538,6241396
27.48,7454477,6257659
27.75,7747111,6245628
26.08,8574658,6246886
25.05,8074015,6261468
22.90,8041360,6260863
21.33,8454887,6262012
34.66,7378581,3502180
35.66,7553201,3461151
34.00,7903567,3522810
31.87,8788156,3458373
30.39,8120724,3428971
28.87,8182733,3276628
26.88,8632174,3416690
63.81,7508744,440210
61.15,7872058,415149
51.42,8732943,572157
47.68,8128088,588530
43.05,8115408,396692
35.92,8696251,480500
64.06,7981572,407916
56.63,8835039,395252
51.94,8261144,404976
43.86,8170336,417234
37.15,8805728,380803
55.91,9102600,438808
51.99,8552589,422179
45.47,8366223,431470
37.31,9048661,353647
53.01,9331621,483048
45.35,8757321,495871
37.74,9452746,400297
44.78,9068576,311992
37.73,9962010,358410
37.21,11738453,443492
26.11,7336685,6307902
24.37,7409435,5627579
45.46,7369146,1365495
56.55,7511803,1095275
56.09,7840920,1477810
49.32,8553776,2041321
44.53,10171731,1956301
38.25,11926823,2033284
31.52,11760675,1834465
17.88,21015805,515502
29.01,7363141,5692823
46.77,7366239,1411890
59.47,7511735,1056257
58.58,7834026,1454509
52.00,8532620,1982831
44.82,10190837,2061634
38.99,11905143,2112491
31.82,11875756,1827845
18.21,20832662,519988
45.66,7364024,1497607
60.92,7505602,944162
59.52,7835485,1361142
52.07,8533033,2011233
46.07,10175486,1976234
39.64,11879817,1972687
32.01,11992263,1737915
18.38,21073103,526154
62.23,7505960,768940
62.69,7845296,982919
56.60,8544521,1386770
49.30,10203841,1413348
41.39,11960646,1425335
32.89,11693907,1151715
18.78,20563051,500535
68.99,7846186,510935
63.57,8580589,578897
54.15,10258720,555087
44.05,12050195,567261
34.22,11725702,478517
18.86,21208276,366509
65.79,8578583,407966
56.10,10279224,365548
45.21,12062685,369305
34.45,11623296,342758
18.97,21243539,278790
56.61,10265779,354279
45.29,12060783,379263
34.65,11671343,335825
19.19,21113368,266462
45.50,12059441,411023
35.33,11447605,285339
19.50,21018503,369809
35.34,11139279,378902
19.83,20652924,278415
20.32,20485253,298529
25.26,7388266,6311721
26.73,7443227,5823782
42.45,7511586,2037429
49.43,7578798,1985830
46.91,7888312,2692323
42.55,8571040,3608272
38.05,10179198,3756614
33.86,11831487,3698504
28.09,12088096,2990490
16.79,21808789,1009254
28.26,7419809,5793959
42.64,7398112,2072255
51.84,7551195,1897744
49.17,7858643,2623773
43.41,8539944,3586173
38.38,10157140,3846252
34.06,11786888,3817984
28.46,12443529,2992629
17.16,21919729,1019799
42.38,7402429,1947901
53.15,7563292,1645087
51.77,7860984,2345139
44.29,8553174,3414360
39.91,10177944,3477639
35.02,11835420,3486415
28.88,12152092,2782671
17.60,21999430,1006424
57.26,7565319,1145504
56.96,7885409,1500256
51.16,8705960,2133430
46.18,10250108,2155330
39.84,12060265,2185580
30.70,12272891,1616182
18.10,21780178,818979
68.04,7882289,479545
61.79,8618739,537332
53.26,10324515,516709
43.39,12186623,565741
32.94,11886021,495519
18.24,21908968,400617
65.19,8628425,407805
55.40,10333938,426287
44.62,12171690,411439
33.35,12218607,414284
18.53,21730689,351452
56.25,10287853,445042
45.03,12213499,412307
34.18,11978571,363514
18.43,21825212,355746
45.36,12149217,432740
34.53,12027398,365122
18.92,21965249,334079
35.13,11441374,362062
19.32,21659833,341884
19.80,21010255,426130
24.62,7398900,6321863
25.24,7509542,6197110
29.38,7533283,4090789
32.57,7672022,3983878
31.91,7949959,4956369
27.79,8593989,6328929
26.22,10048648,6774904
24.81,9996267,5940090
24.18,7737691,3517195
21.40,7677049,3298238
27.16,7381896,6135342
31.82,7440077,4187064
34.60,7572238,3854002
34.09,7837348,4717794
30.12,8475692,5916389
26.91,9933073,6550711
28.17,9651708,5645511
25.43,7532584,3434821
23.13,7544373,3269188
32.54,7445335,4192653
36.87,7556725,3679797
34.84,7852010,4379822
31.57,8498425,5560536
28.59,9980907,6105466
28.20,9825593,5331464
26.68,7533885,3338690
23.57,7562893,3214083
42.57,7592235,2341960
41.53,7896434,3026616
40.10,8587509,3603023
36.93,10170921,3662907
33.98,10258744,2890687
29.69,7569251,2011509
27.22,7610818,2012839
63.81,7844102,447896
57.94,8550281,547467
52.63,10138111,450309
43.29,10393036,514008
36.40,7588114,442437
32.00,7762901,442571
63.68,8552569,391174
54.38,10149709,406223
45.17,10416792,398902
37.64,7647015,402144
32.50,7881793,373267
54.42,10160055,410962
46.71,10594824,415887
38.58,7877559,392855
33.51,8075428,337308
46.68,10874613,496393
38.88,8259578,444343
33.30,8476328,407245
38.75,8711204,470502
33.05,9214366,477958
31.69,10707038,783780
24.49,7513766,6317700
24.68,7547362,6322664
24.71,7596798,6287277
24.35,7688124,6283020
24.81,7801924,6280118
24.19,8214384,6280826
23.24,9044723,6278546
21.27,8809080,6294311
20.23,8640171,6304336
20.36,9065828,6334553
26.98,7333867,6294843
27.55,7322516,6265819
26.33,7412638,6262431
26.57,7614466,6263142
26.29,7959475,6263616
25.65,8720351,6261145
24.90,8404503,6273479
22.21,8307141,6279704
23.55,8771329,6301630
26.81,7386463,6256317
27.05,7433217,6260675
26.26,7585890,6257167
26.08,7958910,6241453
25.45,8777545,6257009
25.32,8434475,6249793
22.42,8324765,6273226
23.63,8787411,6274785
33.86,7481898,3382595
34.08,7651042,3464001
33.15,8003098,3484331
31.13,8879345,3642534
31.10,8568039,3442927
28.24,8404976,3422048
27.47,8922527,3412335
62.97,7582434,468980
57.71,8135528,530774
54.04,8799237,452778
51.04,8532669,443123
44.38,8313577,463500
35.61,9039931,515843
62.81,8041803,398370
55.59,8906776,389666
50.90,8610899,386119
44.99,8356360,412364
36.48,9132582,381036
56.40,9185488,401270
49.50,8927157,416892
44.99,8584251,436940
36.74,9344357,403891
52.26,9522036,524133
45.05,8970233,487257
37.39,9719485,385597
44.83,9174799,414805
37.07,10415555,425300
37.21,12013657,364831
