perf,l1_min,l1_max,l2_min,l2_max,l3_min,l3_max,c_red_size
8.600,39.062,42.285,122.656,132.617,70.536,70.536,1
8.600,82.568,89.417,122.656,132.617,70.536,70.536,1
8.900,55.176,89.417,82.812,132.617,70.536,70.536,1
9.000,62.024,89.417,92.773,132.617,70.536,70.536,1
9.000,29.395,42.285,92.773,132.617,70.536,70.536,1
9.100,55.176,82.568,82.812,122.656,70.536,70.536,1
9.400,75.720,89.417,112.695,132.617,70.536,70.536,1
9.400,68.872,82.568,102.734,122.656,70.536,70.536,1
9.600,68.872,89.417,102.734,132.617,70.536,70.536,1
9.600,75.720,82.568,112.695,122.656,70.536,70.536,1
9.700,32.617,35.840,102.734,112.695,70.536,70.536,1
9.700,32.617,42.285,102.734,132.617,70.536,70.536,1
9.700,68.872,75.720,102.734,112.695,70.536,70.536,1
10.100,29.395,35.840,92.773,112.695,70.536,70.536,1
10.100,62.024,75.720,92.773,112.695,70.536,70.536,1
10.200,55.176,75.720,82.812,112.695,70.536,70.536,1
10.200,21.338,24.561,82.812,82.812,70.536,70.536,1
10.500,89.417,96.265,87.793,87.793,70.536,70.536,1
10.600,55.176,103.113,87.793,87.793,70.536,70.536,1
10.600,62.024,68.872,92.773,102.734,70.536,70.536,1
10.700,55.176,75.720,87.793,87.793,70.536,70.536,1
10.700,109.961,109.961,82.812,82.812,70.536,70.536,1
10.800,21.338,24.561,67.871,77.832,70.536,70.536,1
10.800,39.062,42.285,82.812,82.812,70.536,70.536,1
10.800,109.961,123.657,87.793,87.793,70.536,70.536,1
10.800,82.568,96.265,87.793,87.793,70.536,70.536,1
10.800,55.176,62.024,87.793,87.793,70.536,70.536,1
10.800,55.176,82.568,87.793,87.793,70.536,70.536,1
10.800,75.720,82.568,87.793,87.793,70.536,70.536,1
10.800,55.176,103.113,42.969,77.832,70.536,70.536,1
10.900,75.720,89.417,87.793,87.793,70.536,70.536,1
10.900,29.395,42.285,82.812,82.812,70.536,70.536,1
10.900,62.024,96.265,87.793,87.793,70.536,70.536,1
10.900,35.840,45.508,82.812,82.812,70.536,70.536,1
10.900,55.176,68.872,82.812,102.734,70.536,70.536,1
10.900,55.176,62.024,82.812,92.773,70.536,70.536,1
10.900,55.176,89.417,87.793,87.793,70.536,70.536,1
10.900,55.176,96.265,87.793,87.793,70.536,70.536,1
10.900,68.872,82.568,87.793,87.793,70.536,70.536,1
11.000,82.568,96.265,62.891,72.852,70.536,70.536,1
11.000,68.872,96.265,87.793,87.793,70.536,70.536,1
11.000,26.172,26.172,82.812,82.812,70.536,70.536,1
11.000,21.338,22.949,42.969,42.969,70.536,70.536,1
11.100,29.395,35.840,82.812,82.812,70.536,70.536,1
11.100,32.617,35.840,82.812,82.812,70.536,70.536,1
11.100,55.176,55.176,82.812,82.812,70.536,70.536,1
11.100,42.285,48.730,82.812,82.812,70.536,70.536,1
11.100,26.172,26.172,82.812,82.812,70.536,70.536,1
11.100,55.176,89.417,45.459,45.459,70.536,70.536,1
11.100,62.024,68.872,87.793,87.793,70.536,70.536,1
11.100,89.417,96.265,67.871,72.852,70.536,70.536,1
11.100,35.840,48.730,82.812,82.812,70.536,70.536,1
11.100,89.417,103.113,67.871,77.832,70.536,70.536,1
11.200,26.172,42.285,23.047,23.047,70.536,70.536,1
11.200,21.338,22.949,23.047,23.047,70.536,70.536,1
11.200,55.176,68.872,87.793,87.793,70.536,70.536,1
11.200,55.176,75.720,42.969,57.910,70.536,70.536,1
11.200,26.172,32.617,23.047,23.047,70.536,70.536,1
11.200,32.617,42.285,82.812,82.812,70.536,70.536,1
11.200,55.176,89.417,42.969,67.871,70.536,70.536,1
11.300,55.176,62.024,45.459,45.459,70.536,70.536,1
11.300,109.961,123.657,45.459,45.459,70.536,70.536,1
11.300,82.568,89.417,62.891,67.871,70.536,70.536,1
11.300,55.176,103.113,23.047,40.479,70.536,70.536,1
11.300,21.338,24.561,42.969,42.969,70.536,70.536,1
11.300,75.720,96.265,57.910,72.852,70.536,70.536,1
11.300,55.176,75.720,23.047,30.518,70.536,70.536,1
11.300,55.176,82.568,42.969,62.891,70.536,70.536,1
11.300,26.172,42.285,21.875,33.594,70.536,70.536,1
11.300,55.176,82.568,23.047,33.008,70.536,70.536,1
11.400,26.172,32.617,21.875,26.562,70.536,70.536,1
11.400,62.024,89.417,47.949,67.871,70.536,70.536,1
11.400,35.840,39.062,23.047,23.047,70.536,70.536,1
11.400,109.961,109.961,23.047,23.047,70.536,70.536,1
11.400,55.176,96.265,42.969,72.852,70.536,70.536,1
11.400,55.176,55.176,23.047,23.047,70.536,70.536,1
11.400,75.720,82.568,57.910,62.891,70.536,70.536,1
11.400,26.172,29.395,40.625,45.312,70.536,70.536,1
11.400,62.024,96.265,47.949,72.852,70.536,70.536,1
11.400,32.617,39.062,23.047,23.047,70.536,70.536,1
11.400,26.172,45.508,42.969,42.969,70.536,70.536,1
11.400,32.617,45.508,23.047,23.047,70.536,70.536,1
11.400,26.172,35.840,42.969,42.969,70.536,70.536,1
11.400,82.568,96.265,33.008,37.988,70.536,70.536,1
11.500,32.617,45.508,26.562,35.938,70.536,70.536,1
11.500,55.176,96.265,23.047,37.988,70.536,70.536,1
11.500,68.872,96.265,52.930,72.852,70.536,70.536,1
11.500,32.617,39.062,26.562,31.250,70.536,70.536,1
11.500,35.840,39.062,28.906,31.250,70.536,70.536,1
11.500,68.872,89.417,52.930,67.871,70.536,70.536,1
11.500,75.720,89.417,57.910,67.871,70.536,70.536,1
11.500,75.720,103.113,57.910,77.832,70.536,70.536,1
11.500,26.172,39.062,42.969,42.969,70.536,70.536,1
11.500,89.417,103.113,35.498,40.479,70.536,70.536,1
11.500,42.285,45.508,42.969,42.969,70.536,70.536,1
11.500,109.961,109.961,42.969,42.969,70.536,70.536,1
11.500,89.417,96.265,35.498,37.988,70.536,70.536,1
11.600,26.172,48.730,42.969,42.969,70.536,70.536,1
11.600,75.720,96.265,30.518,37.988,70.536,70.536,1
11.600,62.024,89.417,25.537,35.498,70.536,70.536,1
11.600,55.176,62.024,24.292,24.292,70.536,70.536,1
11.600,62.024,75.720,47.949,57.910,70.536,70.536,1
11.600,55.176,68.872,42.969,52.930,70.536,70.536,1
11.600,68.872,75.720,52.930,57.910,70.536,70.536,1
11.600,68.872,82.568,52.930,62.891,70.536,70.536,1
11.600,82.568,89.417,33.008,35.498,70.536,70.536,1
11.600,55.176,68.872,45.459,45.459,70.536,70.536,1
11.600,39.062,45.508,42.969,42.969,70.536,70.536,1
11.600,75.720,89.417,30.518,35.498,70.536,70.536,1
11.600,29.395,32.617,42.969,42.969,70.536,70.536,1
11.600,75.720,82.568,45.459,45.459,70.536,70.536,1
11.600,68.872,89.417,28.027,35.498,70.536,70.536,1
11.600,62.024,68.872,25.537,28.027,70.536,70.536,1
11.600,68.872,96.265,45.459,45.459,70.536,70.536,1
11.600,75.720,103.113,30.518,40.479,70.536,70.536,1
11.700,68.872,82.568,45.459,45.459,70.536,70.536,1
11.700,29.395,45.508,42.969,42.969,70.536,70.536,1
11.700,62.024,96.265,25.537,37.988,70.536,70.536,1
11.700,35.840,42.285,42.969,42.969,70.536,70.536,1
11.700,62.024,68.872,47.949,52.930,70.536,70.536,1
11.700,68.872,75.720,28.027,30.518,70.536,70.536,1
11.700,62.024,75.720,25.537,30.518,70.536,70.536,1
11.800,55.176,55.176,42.969,42.969,70.536,70.536,1
12.200,81.714,95.203,87.793,87.793,70.536,70.536,1
12.700,81.714,95.203,62.891,72.852,70.536,70.536,1
13.000,38.867,45.215,23.047,23.047,70.536,70.536,1
13.000,81.714,95.203,45.459,45.459,70.536,70.536,1
13.000,81.714,95.203,33.008,37.988,70.536,70.536,1
14.700,57.227,92.505,82.812,132.617,70.536,70.536,2
14.800,20.703,22.363,122.656,132.617,70.536,70.536,2
14.800,40.625,43.945,122.656,132.617,70.536,70.536,2
15.500,85.449,92.505,122.656,132.617,70.536,70.536,2
15.500,57.227,106.616,87.793,87.793,70.536,70.536,2
15.700,22.656,24.414,122.656,132.617,70.536,70.536,4
15.800,30.664,43.945,92.773,132.617,70.536,70.536,2
16.200,43.750,47.266,122.656,132.617,70.536,70.536,4
16.300,64.282,92.505,92.773,132.617,70.536,70.536,2
16.600,22.363,25.684,82.812,82.812,70.536,70.536,2
16.600,91.211,98.682,122.656,132.617,70.536,70.536,4
16.700,78.394,85.449,112.695,122.656,70.536,70.536,2
16.800,57.227,85.449,82.812,122.656,70.536,70.536,2
16.800,78.394,92.505,112.695,132.617,70.536,70.536,2
16.900,71.338,85.449,102.734,122.656,70.536,70.536,2
16.900,33.984,43.945,102.734,132.617,70.536,70.536,2
16.900,33.984,37.305,102.734,112.695,70.536,70.536,2
17.100,71.338,92.505,102.734,132.617,70.536,70.536,2
17.200,85.449,99.561,87.793,87.793,70.536,70.536,2
17.200,71.338,78.394,102.734,112.695,70.536,70.536,2
17.200,92.505,99.561,87.793,87.793,70.536,70.536,2
17.300,57.227,106.616,42.969,77.832,70.536,70.536,2
17.300,22.363,25.684,67.871,77.832,70.536,70.536,2
17.600,30.664,37.305,92.773,112.695,70.536,70.536,2
17.700,57.227,85.449,87.793,87.793,70.536,70.536,2
17.800,20.703,22.363,82.812,82.812,70.536,70.536,2
17.800,43.945,50.586,82.812,82.812,70.536,70.536,2
17.900,33.203,47.266,92.773,132.617,70.536,70.536,4
17.900,68.799,98.682,92.773,132.617,70.536,70.536,4
17.900,85.449,99.561,62.891,72.852,70.536,70.536,2
18.200,20.703,24.023,42.969,42.969,70.536,70.536,2
18.200,71.338,99.561,87.793,87.793,70.536,70.536,2
18.300,37.305,47.266,82.812,82.812,70.536,70.536,2
18.300,22.363,24.023,42.969,42.969,70.536,70.536,2
18.300,92.505,99.561,67.871,72.852,70.536,70.536,2
18.300,61.328,91.211,82.812,122.656,70.536,70.536,4
18.400,20.703,22.363,62.891,67.871,70.536,70.536,2
18.400,57.227,106.616,23.047,40.479,70.536,70.536,2
18.400,57.227,78.394,82.812,112.695,70.536,70.536,2
18.400,113.672,127.783,87.793,87.793,70.536,70.536,2
18.400,64.282,71.338,92.773,102.734,70.536,70.536,2
18.400,57.227,92.505,42.969,67.871,70.536,70.536,2
18.400,40.625,43.945,82.812,82.812,70.536,70.536,2
18.500,92.505,106.616,67.871,77.832,70.536,70.536,2
18.600,57.227,92.505,87.793,87.793,70.536,70.536,2
18.600,64.282,78.394,92.773,112.695,70.536,70.536,2
18.600,76.270,91.211,102.734,122.656,70.536,70.536,4
18.800,61.328,98.682,82.812,132.617,70.536,70.536,4
18.800,27.344,50.586,42.969,42.969,70.536,70.536,2
18.800,27.344,27.344,82.812,82.812,70.536,70.536,2
19.000,71.338,85.449,87.793,87.793,70.536,70.536,2
19.000,83.740,91.211,112.695,122.656,70.536,70.536,4
19.100,78.394,99.561,57.910,72.852,70.536,70.536,2
19.100,78.394,85.449,87.793,87.793,70.536,70.536,2
19.200,83.740,98.682,112.695,132.617,70.536,70.536,4
19.300,20.898,24.414,112.695,132.617,70.536,70.536,4
19.300,20.703,24.023,23.047,23.047,70.536,70.536,2
19.300,57.227,99.561,87.793,87.793,70.536,70.536,2
19.400,85.449,99.561,33.008,37.988,70.536,70.536,2
19.400,22.363,25.684,42.969,42.969,70.536,70.536,2
19.400,30.664,43.945,82.812,82.812,70.536,70.536,2
19.400,22.363,24.023,23.047,23.047,70.536,70.536,2
19.400,92.505,106.616,35.498,40.479,70.536,70.536,2
19.500,57.227,78.394,42.969,57.910,70.536,70.536,2
19.500,78.394,92.505,87.793,87.793,70.536,70.536,2
19.500,30.664,37.305,82.812,82.812,70.536,70.536,2
19.500,36.719,47.266,102.734,132.617,70.536,70.536,4
19.500,40.625,47.266,42.969,42.969,70.536,70.536,2
19.600,43.945,47.266,42.969,42.969,70.536,70.536,2
19.600,85.449,92.505,62.891,67.871,70.536,70.536,2
19.600,64.282,99.561,87.793,87.793,70.536,70.536,2
19.700,57.227,78.394,87.793,87.793,70.536,70.536,2
19.700,57.227,71.338,87.793,87.793,70.536,70.536,2
19.700,92.505,99.561,35.498,37.988,70.536,70.536,2
19.700,57.227,85.449,42.969,62.891,70.536,70.536,2
19.800,64.282,71.338,87.793,87.793,70.536,70.536,2
19.800,33.984,43.945,82.812,82.812,70.536,70.536,2
19.900,78.394,99.561,30.518,37.988,70.536,70.536,2
20.000,57.227,71.338,82.812,102.734,70.536,70.536,2
20.000,76.270,83.740,102.734,112.695,70.536,70.536,4
20.000,57.227,99.561,42.969,72.852,70.536,70.536,2
20.000,33.203,40.234,92.773,112.695,70.536,70.536,4
20.000,64.282,92.505,47.949,67.871,70.536,70.536,2
20.100,57.227,64.282,45.459,45.459,70.536,70.536,2
20.100,33.984,37.305,82.812,82.812,70.536,70.536,2
20.100,57.227,64.282,87.793,87.793,70.536,70.536,2
20.100,71.338,99.561,52.930,72.852,70.536,70.536,2
20.100,37.305,50.586,82.812,82.812,70.536,70.536,2
20.200,36.719,40.234,102.734,112.695,70.536,70.536,4
20.200,27.344,27.344,82.812,82.812,70.536,70.536,2
20.200,76.270,98.682,102.734,132.617,70.536,70.536,4
20.300,20.703,22.363,42.969,42.969,70.536,70.536,2
20.400,57.227,92.505,45.459,45.459,70.536,70.536,2
20.400,33.984,47.266,23.047,23.047,70.536,70.536,2
20.500,33.984,47.266,26.562,35.938,70.536,70.536,2
20.600,85.449,92.505,33.008,35.498,70.536,70.536,2
20.700,71.338,99.561,45.459,45.459,70.536,70.536,2
20.700,113.672,127.783,45.459,45.459,70.536,70.536,2
20.700,57.227,64.282,82.812,92.773,70.536,70.536,2
20.700,71.338,92.505,52.930,67.871,70.536,70.536,2
20.700,27.344,43.945,23.047,23.047,70.536,70.536,2
20.800,68.799,83.740,92.773,112.695,70.536,70.536,4
20.800,78.394,92.505,57.910,67.871,70.536,70.536,2
20.800,27.344,47.266,42.969,42.969,70.536,70.536,2
20.800,113.672,113.672,82.812,82.812,70.536,70.536,2
20.800,64.282,92.505,25.537,35.498,70.536,70.536,2
20.800,57.227,99.561,23.047,37.988,70.536,70.536,2
20.900,71.338,78.394,52.930,57.910,70.536,70.536,2
20.900,27.344,40.625,42.969,42.969,70.536,70.536,2
20.900,27.344,43.945,21.875,33.594,70.536,70.536,2
21.000,78.394,106.616,57.910,77.832,70.536,70.536,2
21.000,37.305,40.625,23.047,23.047,70.536,70.536,2
21.000,57.227,78.394,23.047,30.518,70.536,70.536,2
21.000,64.282,99.561,47.949,72.852,70.536,70.536,2
21.000,57.227,57.227,42.969,42.969,70.536,70.536,2
21.000,57.227,57.227,82.812,82.812,70.536,70.536,2
21.100,33.984,40.625,23.047,23.047,70.536,70.536,2
21.100,33.984,40.625,26.562,31.250,70.536,70.536,2
21.100,71.338,92.505,28.027,35.498,70.536,70.536,2
21.200,78.394,85.449,57.910,62.891,70.536,70.536,2
21.200,37.305,40.625,28.906,31.250,70.536,70.536,2
21.200,64.282,78.394,47.949,57.910,70.536,70.536,2
21.300,27.344,37.305,42.969,42.969,70.536,70.536,2
21.300,57.227,85.449,23.047,33.008,70.536,70.536,2
21.300,71.338,85.449,52.930,62.891,70.536,70.536,2
21.300,37.305,43.945,42.969,42.969,70.536,70.536,2
21.400,30.664,47.266,42.969,42.969,70.536,70.536,2
21.400,57.227,71.338,42.969,52.930,70.536,70.536,2
21.400,71.338,78.394,28.027,30.518,70.536,70.536,2
21.400,71.338,85.449,45.459,45.459,70.536,70.536,2
21.500,78.394,106.616,30.518,40.479,70.536,70.536,2
21.500,78.394,85.449,45.459,45.459,70.536,70.536,2
21.600,27.344,33.984,21.875,26.562,70.536,70.536,2
21.700,64.282,99.561,25.537,37.988,70.536,70.536,2
21.700,78.394,92.505,30.518,35.498,70.536,70.536,2
21.800,27.344,30.664,40.625,45.312,70.536,70.536,2
21.800,30.664,33.984,42.969,42.969,70.536,70.536,2
21.800,64.282,71.338,47.949,52.930,70.536,70.536,2
21.900,64.282,78.394,25.537,30.518,70.536,70.536,2
21.900,113.672,113.672,23.047,23.047,70.536,70.536,2
21.900,27.344,33.984,23.047,23.047,70.536,70.536,2
22.000,57.227,57.227,23.047,23.047,70.536,70.536,2
22.000,57.227,71.338,45.459,45.459,70.536,70.536,2
22.100,113.672,113.672,42.969,42.969,70.536,70.536,2
22.100,64.282,71.338,25.537,28.027,70.536,70.536,2
22.200,57.227,64.282,24.292,24.292,70.536,70.536,2
22.200,47.266,54.297,82.812,82.812,70.536,70.536,4
22.300,20.898,26.172,82.812,82.812,70.536,70.536,4
22.300,83.740,91.211,87.793,87.793,70.536,70.536,4
22.500,24.414,27.930,82.812,82.812,70.536,70.536,4
22.700,61.328,83.740,82.812,112.695,70.536,70.536,4
22.700,83.740,97.437,87.793,87.793,70.536,70.536,2
22.800,91.211,106.152,87.793,87.793,70.536,70.536,4
22.800,22.656,24.414,82.812,82.812,70.536,70.536,4
22.800,76.270,91.211,87.793,87.793,70.536,70.536,4
22.800,98.682,106.152,87.793,87.793,70.536,70.536,4
22.900,68.799,76.270,92.773,102.734,70.536,70.536,4
23.200,76.270,106.152,87.793,87.793,70.536,70.536,4
23.200,20.898,27.930,82.812,82.812,70.536,70.536,4
23.500,24.414,27.930,67.871,77.832,70.536,70.536,4
23.500,43.750,47.266,82.812,82.812,70.536,70.536,4
23.500,61.328,113.623,87.793,87.793,70.536,70.536,4
23.700,61.328,98.682,87.793,87.793,70.536,70.536,4
23.800,83.740,97.437,62.891,72.852,70.536,70.536,2
24.000,61.328,91.211,87.793,87.793,70.536,70.536,4
24.000,40.234,50.781,82.812,82.812,70.536,70.536,4
24.100,83.740,98.682,87.793,87.793,70.536,70.536,4
24.200,20.898,26.172,57.910,72.852,70.536,70.536,4
24.200,91.211,106.152,62.891,72.852,70.536,70.536,4
24.300,22.656,24.414,62.891,67.871,70.536,70.536,4
24.400,68.799,106.152,87.793,87.793,70.536,70.536,4
24.600,61.328,113.623,42.969,77.832,70.536,70.536,4
24.700,98.682,113.623,67.871,77.832,70.536,70.536,4
24.700,33.203,47.266,82.812,82.812,70.536,70.536,4
24.700,24.414,26.172,42.969,42.969,70.536,70.536,4
24.800,83.740,97.437,45.459,45.459,70.536,70.536,2
24.800,98.682,106.152,67.871,72.852,70.536,70.536,4
24.900,83.740,106.152,57.910,72.852,70.536,70.536,4
25.000,22.656,26.172,42.969,42.969,70.536,70.536,4
25.100,20.898,24.121,23.047,23.047,70.536,70.536,2
25.100,40.234,54.297,82.812,82.812,70.536,70.536,4
25.100,83.740,97.437,33.008,37.988,70.536,70.536,2
25.200,40.234,46.680,23.047,23.047,70.536,70.536,2
25.200,91.211,98.682,62.891,67.871,70.536,70.536,4
25.400,36.719,47.266,82.812,82.812,70.536,70.536,4
25.500,68.799,98.682,47.949,67.871,70.536,70.536,4
25.700,24.414,26.172,23.047,23.047,70.536,70.536,4
25.700,61.328,83.740,87.793,87.793,70.536,70.536,4
25.800,24.414,27.930,42.969,42.969,70.536,70.536,4
25.800,22.656,26.172,23.047,23.047,70.536,70.536,4
25.800,26.562,28.516,122.656,132.617,70.536,70.536,8
25.900,61.328,91.211,42.969,62.891,70.536,70.536,4
25.900,43.750,50.781,42.969,42.969,70.536,70.536,4
25.900,20.898,27.930,57.910,77.832,70.536,70.536,4
25.900,47.266,50.781,42.969,42.969,70.536,70.536,4
25.900,36.719,40.234,82.812,82.812,70.536,70.536,4
26.000,29.688,54.297,42.969,42.969,70.536,70.536,4
26.000,61.328,68.799,82.812,92.773,70.536,70.536,4
26.100,98.682,113.623,35.498,40.479,70.536,70.536,4
26.100,20.898,22.656,23.047,23.047,70.536,70.536,4
26.100,33.203,40.234,82.812,82.812,70.536,70.536,4
26.200,20.898,24.414,42.969,42.969,70.536,70.536,4
26.200,20.898,22.656,28.906,31.250,70.536,70.536,4
26.300,22.656,24.414,42.969,42.969,70.536,70.536,4
26.300,50.000,53.906,122.656,132.617,70.536,70.536,8
26.300,102.734,111.035,122.656,132.617,70.536,70.536,8
26.400,83.740,113.623,57.910,77.832,70.536,70.536,4
26.400,68.799,76.270,87.793,87.793,70.536,70.536,4
26.500,91.211,98.682,33.008,35.498,70.536,70.536,4
26.500,61.328,98.682,42.969,67.871,70.536,70.536,4
26.500,76.270,91.211,52.930,62.891,70.536,70.536,4
26.600,20.898,26.172,42.969,42.969,70.536,70.536,4
26.600,36.719,43.750,26.562,31.250,70.536,70.536,4
26.600,91.211,106.152,33.008,37.988,70.536,70.536,4
26.600,83.740,98.682,57.910,67.871,70.536,70.536,4
26.600,98.682,106.152,35.498,37.988,70.536,70.536,4
26.700,61.328,68.799,87.793,87.793,70.536,70.536,4
26.800,76.270,83.740,52.930,57.910,70.536,70.536,4
26.900,61.328,106.152,87.793,87.793,70.536,70.536,4
26.900,40.234,47.266,42.969,42.969,70.536,70.536,4
27.000,40.234,43.750,28.906,31.250,70.536,70.536,4
27.000,83.740,106.152,30.518,37.988,70.536,70.536,4
27.000,29.688,43.750,42.969,42.969,70.536,70.536,4
27.000,61.328,76.270,82.812,102.734,70.536,70.536,4
27.100,76.270,106.152,52.930,72.852,70.536,70.536,4
27.100,20.898,24.414,23.047,23.047,70.536,70.536,4
27.100,76.270,91.211,45.459,45.459,70.536,70.536,4
27.100,76.270,98.682,52.930,67.871,70.536,70.536,4
27.200,36.719,43.750,23.047,23.047,70.536,70.536,4
27.200,40.234,43.750,23.047,23.047,70.536,70.536,4
27.200,38.281,53.906,92.773,132.617,70.536,70.536,8
27.300,61.328,113.623,23.047,40.479,70.536,70.536,4
27.300,36.719,50.781,26.562,35.938,70.536,70.536,4
27.500,69.531,102.734,82.812,122.656,70.536,70.536,8
27.500,61.328,76.270,87.793,87.793,70.536,70.536,4
27.500,68.799,98.682,25.537,35.498,70.536,70.536,4
27.600,29.688,47.266,21.875,33.594,70.536,70.536,4
27.600,83.740,113.623,30.518,40.479,70.536,70.536,4
27.600,61.328,98.682,45.459,45.459,70.536,70.536,4
27.600,29.688,47.266,23.047,23.047,70.536,70.536,4
27.700,20.898,27.930,42.969,42.969,70.536,70.536,4
27.700,36.719,50.781,23.047,23.047,70.536,70.536,4
27.800,76.270,106.152,45.459,45.459,70.536,70.536,4
27.800,83.740,91.211,57.910,62.891,70.536,70.536,4
27.800,61.328,91.211,23.047,33.008,70.536,70.536,4
27.900,24.609,28.516,112.695,132.617,70.536,70.536,8
28.000,68.799,76.270,47.949,52.930,70.536,70.536,4
28.100,77.832,111.035,92.773,132.617,70.536,70.536,8
28.100,76.270,83.740,28.027,30.518,70.536,70.536,4
28.100,20.703,24.609,92.773,112.695,70.536,70.536,8
28.200,76.270,98.682,28.027,35.498,70.536,70.536,4
28.200,33.203,50.781,42.969,42.969,70.536,70.536,4
28.200,68.799,83.740,47.949,57.910,70.536,70.536,4
28.300,20.703,28.516,92.773,132.617,70.536,70.536,8
28.300,83.740,91.211,45.459,45.459,70.536,70.536,4
28.400,61.328,68.799,45.459,45.459,70.536,70.536,4
28.500,68.799,106.152,47.949,72.852,70.536,70.536,4
28.600,83.740,98.682,30.518,35.498,70.536,70.536,4
28.600,86.133,102.734,102.734,122.656,70.536,70.536,8
28.700,61.328,106.152,42.969,72.852,70.536,70.536,4
28.700,22.656,24.609,102.734,112.695,70.536,70.536,8
28.900,61.328,83.740,42.969,57.910,70.536,70.536,4
28.900,29.688,29.688,82.812,82.812,70.536,70.536,4
29.000,42.188,46.094,102.734,112.695,70.536,70.536,8
29.100,69.531,111.035,82.812,132.617,70.536,70.536,8
29.200,87.793,101.904,87.793,87.793,70.536,70.536,4
29.200,42.188,53.906,102.734,132.617,70.536,70.536,8
29.200,61.328,61.328,82.812,82.812,70.536,70.536,4
29.300,86.133,111.035,102.734,132.617,70.536,70.536,8
29.300,68.799,83.740,25.537,30.518,70.536,70.536,4
29.300,61.328,83.740,23.047,30.518,70.536,70.536,4
29.500,94.434,111.035,112.695,132.617,70.536,70.536,8
29.500,94.434,102.734,112.695,122.656,70.536,70.536,8
29.700,29.688,40.234,42.969,42.969,70.536,70.536,4
29.900,86.133,94.434,102.734,112.695,70.536,70.536,8
29.900,29.688,29.688,82.812,82.812,70.536,70.536,4
30.000,22.656,28.516,102.734,132.617,70.536,70.536,8
30.100,121.094,121.094,82.812,82.812,70.536,70.536,4
30.300,77.832,94.434,92.773,112.695,70.536,70.536,8
30.300,33.203,36.719,42.969,42.969,70.536,70.536,4
30.300,38.281,46.094,92.773,112.695,70.536,70.536,8
30.500,68.799,76.270,25.537,28.027,70.536,70.536,4
30.900,61.328,61.328,42.969,42.969,70.536,70.536,4
31.000,29.688,50.781,42.969,42.969,70.536,70.536,4
31.200,20.703,22.656,92.773,102.734,70.536,70.536,8
31.500,87.793,101.904,62.891,72.852,70.536,70.536,4
31.900,77.832,86.133,92.773,102.734,70.536,70.536,8
31.900,61.328,68.799,24.292,24.292,70.536,70.536,4
32.000,61.328,106.152,23.047,37.988,70.536,70.536,4
32.000,61.328,76.270,42.969,52.930,70.536,70.536,4
32.200,69.531,119.336,87.793,87.793,70.536,70.536,8
32.200,68.799,106.152,25.537,37.988,70.536,70.536,4
32.200,69.531,94.434,82.812,112.695,70.536,70.536,8
32.400,29.688,33.203,40.625,45.312,70.536,70.536,4
32.800,61.328,61.328,23.047,23.047,70.536,70.536,4
33.000,29.688,36.719,21.875,26.562,70.536,70.536,4
33.000,61.328,76.270,45.459,45.459,70.536,70.536,4
33.000,121.094,121.094,42.969,42.969,70.536,70.536,4
33.100,121.094,121.094,23.047,23.047,70.536,70.536,4
33.300,29.688,36.719,23.047,23.047,70.536,70.536,4
33.400,69.531,111.035,87.793,87.793,70.536,70.536,8
34.200,69.531,77.832,87.793,87.793,70.536,70.536,8
34.200,34.375,34.375,82.812,82.812,70.536,70.536,8
34.300,69.531,86.133,87.793,87.793,70.536,70.536,8
34.300,69.531,69.531,82.812,82.812,70.536,70.536,8
34.400,86.133,119.336,87.793,87.793,70.536,70.536,8
34.500,94.434,102.734,87.793,87.793,70.536,70.536,8
34.500,69.531,94.434,87.793,87.793,70.536,70.536,8
34.500,22.656,28.516,82.812,82.812,70.536,70.536,8
34.600,86.133,102.734,87.793,87.793,70.536,70.536,8
34.700,26.562,28.516,82.812,82.812,70.536,70.536,8
34.700,28.516,32.422,82.812,82.812,70.536,70.536,8
34.800,46.094,61.719,82.812,82.812,70.536,70.536,8
35.000,69.531,102.734,87.793,87.793,70.536,70.536,8
35.000,69.531,86.133,82.812,102.734,70.536,70.536,8
35.100,23.047,26.367,23.047,23.047,70.536,70.536,4
35.100,22.656,24.609,82.812,82.812,70.536,70.536,8
35.100,69.531,127.637,87.793,87.793,70.536,70.536,8
35.100,24.609,32.422,82.812,82.812,70.536,70.536,8
35.300,77.832,86.133,87.793,87.793,70.536,70.536,8
35.300,87.793,101.904,33.008,37.988,70.536,70.536,4
35.300,53.906,61.719,82.812,82.812,70.536,70.536,8
35.400,102.734,119.336,87.793,87.793,70.536,70.536,8
35.400,46.094,57.812,82.812,82.812,70.536,70.536,8
35.500,24.609,30.469,82.812,82.812,70.536,70.536,8
35.600,94.434,111.035,87.793,87.793,70.536,70.536,8
35.700,87.793,101.904,45.459,45.459,70.536,70.536,4
35.900,111.035,119.336,87.793,87.793,70.536,70.536,8
36.100,24.609,30.469,57.910,72.852,70.536,70.536,8
36.100,50.000,53.906,82.812,82.812,70.536,70.536,8
36.100,38.281,53.906,82.812,82.812,70.536,70.536,8
36.100,28.516,32.422,67.871,77.832,70.536,70.536,8
36.200,42.969,49.609,23.047,23.047,70.536,70.536,4
36.200,20.703,28.516,82.812,82.812,70.536,70.536,8
36.500,42.188,53.906,82.812,82.812,70.536,70.536,8
36.800,69.531,111.035,42.969,67.871,70.536,70.536,8
36.800,69.531,102.734,42.969,62.891,70.536,70.536,8
36.800,34.375,34.375,82.812,82.812,70.536,70.536,8
36.900,42.188,46.094,82.812,82.812,70.536,70.536,8
36.900,69.531,127.637,42.969,77.832,70.536,70.536,8
37.000,24.609,32.422,57.910,77.832,70.536,70.536,8
37.000,26.562,28.516,62.891,67.871,70.536,70.536,8
37.000,77.832,119.336,87.793,87.793,70.536,70.536,8
37.000,69.531,69.531,42.969,42.969,70.536,70.536,8
37.100,69.531,77.832,82.812,92.773,70.536,70.536,8
37.200,20.703,28.516,47.949,67.871,70.536,70.536,8
37.300,20.703,24.609,82.812,82.812,70.536,70.536,8
37.300,94.434,119.336,57.910,72.852,70.536,70.536,8
37.400,102.734,111.035,62.891,67.871,70.536,70.536,8
37.800,102.734,119.336,62.891,72.852,70.536,70.536,8
37.800,111.035,127.637,67.871,77.832,70.536,70.536,8
37.900,20.703,24.609,47.949,57.910,70.536,70.536,8
37.900,34.375,50.000,42.969,42.969,70.536,70.536,8
38.000,22.656,24.609,52.930,57.910,70.536,70.536,8
38.100,69.531,119.336,23.047,37.988,70.536,70.536,8
38.100,94.434,127.637,57.910,77.832,70.536,70.536,8
38.300,111.035,119.336,67.871,72.852,70.536,70.536,8
38.400,77.832,111.035,47.949,67.871,70.536,70.536,8
38.600,86.133,94.434,52.930,57.910,70.536,70.536,8
38.600,22.656,28.516,52.930,67.871,70.536,70.536,8
38.600,69.531,77.832,45.459,45.459,70.536,70.536,8
38.700,86.133,111.035,52.930,67.871,70.536,70.536,8
38.700,38.281,46.094,82.812,82.812,70.536,70.536,8
38.700,69.531,127.637,23.047,40.479,70.536,70.536,8
38.700,24.609,28.516,42.969,42.969,70.536,70.536,8
38.700,69.531,86.133,45.459,45.459,70.536,70.536,8
38.700,28.516,30.469,42.969,42.969,70.536,70.536,8
38.700,69.531,94.434,42.969,57.910,70.536,70.536,8
38.800,77.832,94.434,47.949,57.910,70.536,70.536,8
38.800,94.434,111.035,57.910,67.871,70.536,70.536,8
38.800,86.133,119.336,52.930,72.852,70.536,70.536,8
38.800,26.562,30.469,42.969,42.969,70.536,70.536,8
38.900,22.656,26.562,23.047,23.047,70.536,70.536,8
38.900,24.609,26.562,23.047,23.047,70.536,70.536,8
39.300,69.531,102.734,23.047,33.008,70.536,70.536,8
39.300,69.531,94.434,23.047,30.518,70.536,70.536,8
39.300,22.656,26.562,26.562,31.250,70.536,70.536,8
39.400,34.375,61.719,42.969,42.969,70.536,70.536,8
39.400,69.531,119.336,42.969,72.852,70.536,70.536,8
39.400,34.375,53.906,23.047,23.047,70.536,70.536,8
39.500,24.609,26.562,28.906,31.250,70.536,70.536,8
39.500,22.656,30.469,26.562,35.938,70.536,70.536,8
39.500,69.531,69.531,23.047,23.047,70.536,70.536,8
39.500,34.375,57.812,42.969,42.969,70.536,70.536,8
39.600,26.562,30.469,23.047,23.047,70.536,70.536,8
39.600,28.516,32.422,42.969,42.969,70.536,70.536,8
39.700,111.035,127.637,35.498,40.479,70.536,70.536,8
39.700,22.656,30.469,23.047,23.047,70.536,70.536,8
39.700,50.000,57.812,42.969,42.969,70.536,70.536,8
39.800,26.562,28.516,42.969,42.969,70.536,70.536,8
39.800,94.434,119.336,30.518,37.988,70.536,70.536,8
39.800,94.434,102.734,57.910,62.891,70.536,70.536,8
39.900,102.734,111.035,33.008,35.498,70.536,70.536,8
39.900,46.094,50.000,28.906,31.250,70.536,70.536,8
39.900,53.906,57.812,42.969,42.969,70.536,70.536,8
39.900,28.516,30.469,23.047,23.047,70.536,70.536,8
39.900,86.133,102.734,52.930,62.891,70.536,70.536,8
39.900,34.375,42.188,21.875,26.562,70.536,70.536,8
40.000,69.531,111.035,45.459,45.459,70.536,70.536,8
40.000,24.609,30.469,42.969,42.969,70.536,70.536,8
40.100,46.094,53.906,42.969,42.969,70.536,70.536,8
40.100,46.094,50.000,23.047,23.047,70.536,70.536,8
40.100,86.133,94.434,28.027,30.518,70.536,70.536,8
40.100,77.832,86.133,47.949,52.930,70.536,70.536,8
40.100,24.609,28.516,23.047,23.047,70.536,70.536,8
40.200,42.188,50.000,26.562,31.250,70.536,70.536,8
40.200,86.133,119.336,45.459,45.459,70.536,70.536,8
40.300,34.375,46.094,42.969,42.969,70.536,70.536,8
40.300,86.133,111.035,28.027,35.498,70.536,70.536,8
40.400,86.133,102.734,45.459,45.459,70.536,70.536,8
40.400,102.734,119.336,33.008,37.988,70.536,70.536,8
40.400,77.832,94.434,25.537,30.518,70.536,70.536,8
40.400,34.375,53.906,21.875,33.594,70.536,70.536,8
40.400,42.188,50.000,23.047,23.047,70.536,70.536,8
40.400,111.035,119.336,35.498,37.988,70.536,70.536,8
40.400,42.188,57.812,23.047,23.047,70.536,70.536,8
40.500,77.832,111.035,25.537,35.498,70.536,70.536,8
40.700,69.531,86.133,42.969,52.930,70.536,70.536,8
40.700,94.434,127.637,30.518,40.479,70.536,70.536,8
40.700,42.188,57.812,26.562,35.938,70.536,70.536,8
40.700,22.656,24.609,42.969,42.969,70.536,70.536,8
40.800,94.434,102.734,45.459,45.459,70.536,70.536,8
40.800,94.434,111.035,30.518,35.498,70.536,70.536,8
40.900,34.375,36.719,122.656,132.617,70.536,70.536,16
40.900,22.656,28.516,42.969,42.969,70.536,70.536,8
41.100,20.703,22.656,42.969,42.969,70.536,70.536,8
41.100,24.609,32.422,42.969,42.969,70.536,70.536,8
41.200,20.312,21.484,122.656,132.617,70.536,70.536,16
41.200,20.703,28.516,42.969,42.969,70.536,70.536,8
41.200,62.500,67.188,122.656,132.617,70.536,70.536,16
41.400,25.000,34.375,82.812,122.656,70.536,70.536,16
41.800,95.898,110.840,87.793,87.793,70.536,70.536,8
41.800,34.375,38.281,40.625,45.312,70.536,70.536,8
41.900,77.832,86.133,25.537,28.027,70.536,70.536,8
41.900,77.832,119.336,47.949,72.852,70.536,70.536,8
41.900,34.375,42.188,23.047,23.047,70.536,70.536,8
42.000,20.703,22.656,23.047,23.047,70.536,70.536,8
42.400,38.281,42.188,42.969,42.969,70.536,70.536,8
42.500,20.703,24.609,42.969,42.969,70.536,70.536,8
42.700,27.344,36.719,92.773,132.617,70.536,70.536,16
42.800,20.703,30.469,23.047,23.047,70.536,70.536,8
42.800,20.703,30.469,42.969,42.969,70.536,70.536,8
43.000,32.031,36.719,112.695,132.617,70.536,70.536,16
43.500,69.531,77.832,24.292,24.292,70.536,70.536,8
43.700,95.898,115.820,92.773,112.695,70.536,70.536,16
43.700,38.281,57.812,42.969,42.969,70.536,70.536,8
44.200,77.832,119.336,25.537,37.988,70.536,70.536,8
44.200,85.938,125.781,82.812,122.656,70.536,70.536,16
44.400,105.859,115.820,102.734,112.695,70.536,70.536,16
44.700,26.562,32.812,92.773,132.617,70.536,70.536,32
44.700,115.820,125.781,112.695,122.656,70.536,70.536,16
44.800,48.438,67.188,92.773,132.617,70.536,70.536,16
44.800,95.898,110.840,62.891,72.852,70.536,70.536,8
44.800,53.125,57.812,102.734,112.695,70.536,70.536,16
45.200,53.125,67.188,102.734,132.617,70.536,70.536,16
45.300,27.344,32.031,92.773,112.695,70.536,70.536,16
45.300,29.688,36.719,102.734,132.617,70.536,70.536,16
45.300,85.938,125.781,87.793,87.793,70.536,70.536,16
45.500,105.859,125.781,102.734,122.656,70.536,70.536,16
45.500,29.688,32.031,102.734,112.695,70.536,70.536,16
45.700,31.250,32.812,122.656,132.617,70.536,70.536,32
45.700,87.500,93.750,122.656,132.617,70.536,70.536,32
45.900,50.000,53.125,122.656,132.617,70.536,70.536,32
46.100,21.875,22.656,122.656,132.617,70.536,70.536,32
46.100,43.750,53.125,102.734,132.617,70.536,70.536,32
46.200,85.938,95.898,82.812,92.773,70.536,70.536,16
46.300,48.438,57.812,92.773,112.695,70.536,70.536,16
46.600,43.750,46.875,102.734,112.695,70.536,70.536,32
46.700,27.344,29.688,92.773,102.734,70.536,70.536,16
47.100,40.625,53.125,92.773,132.617,70.536,70.536,32
47.200,85.938,115.820,42.969,57.910,70.536,70.536,16
47.500,28.125,32.812,102.734,132.617,70.536,70.536,32
47.500,85.938,115.820,82.812,112.695,70.536,70.536,16
47.600,25.000,31.250,82.812,122.656,70.536,70.536,32
47.900,85.938,85.938,42.969,42.969,70.536,70.536,16
47.900,25.000,32.031,82.812,112.695,70.536,70.536,16
47.900,95.898,105.859,92.773,102.734,70.536,70.536,16
47.900,85.938,85.938,82.812,82.812,70.536,70.536,16
47.900,25.000,25.000,82.812,82.812,70.536,70.536,16
48.100,85.938,105.859,87.793,87.793,70.536,70.536,16
48.400,75.000,81.250,102.734,112.695,70.536,70.536,32
48.400,21.094,22.656,112.695,132.617,70.536,70.536,32
48.400,95.898,110.840,45.459,45.459,70.536,70.536,8
48.600,95.898,110.840,33.008,37.988,70.536,70.536,8
48.700,85.938,95.898,87.793,87.793,70.536,70.536,16
48.700,43.750,43.750,82.812,82.812,70.536,70.536,16
48.900,29.688,32.812,112.695,132.617,70.536,70.536,32
49.000,27.344,30.859,23.047,23.047,70.536,70.536,8
49.300,28.125,31.250,102.734,122.656,70.536,70.536,32
49.300,24.219,26.172,87.793,87.793,70.536,70.536,16
49.400,75.000,93.750,102.734,132.617,70.536,70.536,32
49.400,28.125,29.688,102.734,112.695,70.536,70.536,32
49.500,20.312,22.656,102.734,132.617,70.536,70.536,32
49.500,25.000,27.344,87.793,87.793,70.536,70.536,16
49.800,37.500,50.000,82.812,122.656,70.536,70.536,32
49.900,115.820,125.781,87.793,87.793,70.536,70.536,16
50.000,20.312,21.094,102.734,112.695,70.536,70.536,32
50.100,85.938,95.898,45.459,45.459,70.536,70.536,16
50.100,46.875,53.125,112.695,132.617,70.536,70.536,32
50.200,85.938,105.859,82.812,102.734,70.536,70.536,16
50.300,48.438,55.469,23.047,23.047,70.536,70.536,8
50.400,68.750,93.750,92.773,132.617,70.536,70.536,32
50.400,21.484,23.828,82.812,82.812,70.536,70.536,16
50.500,21.094,21.875,112.695,122.656,70.536,70.536,32
50.600,85.938,115.820,87.793,87.793,70.536,70.536,16
50.700,29.688,31.250,112.695,122.656,70.536,70.536,32
50.700,105.859,125.781,87.793,87.793,70.536,70.536,16
50.800,37.500,46.875,82.812,112.695,70.536,70.536,32
50.800,40.625,46.875,92.773,112.695,70.536,70.536,32
50.900,26.562,29.688,92.773,112.695,70.536,70.536,32
50.900,67.188,76.562,82.812,82.812,70.536,70.536,16
50.900,62.500,62.500,82.812,82.812,70.536,70.536,32
51.100,57.812,76.562,82.812,82.812,70.536,70.536,16
51.200,20.312,21.484,82.812,82.812,70.536,70.536,16
51.200,20.312,21.875,102.734,122.656,70.536,70.536,32
51.300,95.898,105.859,87.793,87.793,70.536,70.536,16
51.700,48.438,57.812,82.812,82.812,70.536,70.536,16
51.700,68.750,81.250,92.773,112.695,70.536,70.536,32
51.800,85.938,125.781,42.969,62.891,70.536,70.536,16
51.800,21.484,23.828,67.871,77.832,70.536,70.536,16
51.800,40.625,43.750,92.773,102.734,70.536,70.536,32
51.800,43.750,50.781,82.812,112.695,70.536,70.536,64
51.900,62.500,67.188,87.793,87.793,70.536,70.536,64
51.900,118.750,118.750,82.812,82.812,70.536,70.536,32
52.000,57.812,71.875,82.812,82.812,70.536,70.536,16
52.000,53.125,67.188,82.812,82.812,70.536,70.536,16
52.100,34.375,36.719,82.812,82.812,70.536,70.536,16
52.100,62.500,67.188,82.812,82.812,70.536,70.536,16
52.100,118.750,132.031,82.812,92.773,70.536,70.536,32
52.200,36.719,41.406,67.871,77.832,70.536,70.536,16
52.200,29.688,36.719,82.812,82.812,70.536,70.536,16
52.200,25.000,32.812,82.812,132.617,70.536,70.536,32
52.200,27.344,32.031,82.812,82.812,70.536,70.536,16
52.200,27.344,36.719,47.949,67.871,70.536,70.536,16
52.300,32.031,41.406,82.812,82.812,70.536,70.536,16
52.300,25.000,25.000,82.812,82.812,70.536,70.536,32
52.300,36.719,41.406,82.812,82.812,70.536,70.536,16
52.400,25.000,25.000,82.812,82.812,70.536,70.536,16
52.500,32.031,39.062,82.812,82.812,70.536,70.536,16
52.500,29.688,32.031,82.812,82.812,70.536,70.536,16
52.700,27.344,36.719,82.812,82.812,70.536,70.536,16
52.700,85.938,95.898,24.292,24.292,70.536,70.536,16
52.800,29.688,32.031,52.930,57.910,70.536,70.536,16
52.800,53.125,55.469,122.656,132.617,70.536,70.536,64
52.900,20.312,22.656,62.891,72.852,70.536,70.536,16
52.900,37.500,37.500,82.812,82.812,70.536,70.536,32
52.900,85.938,125.781,23.047,33.008,70.536,70.536,16
53.000,53.125,57.812,82.812,82.812,70.536,70.536,16
53.200,48.438,67.188,82.812,82.812,70.536,70.536,16
53.200,34.375,34.375,82.812,82.812,70.536,70.536,64
53.300,39.062,40.234,122.656,132.617,70.536,70.536,64
53.300,32.031,39.062,57.910,72.852,70.536,70.536,16
53.300,20.312,21.484,62.891,67.871,70.536,70.536,16
53.400,21.484,22.656,67.871,72.852,70.536,70.536,16
53.400,81.250,85.938,122.656,132.617,70.536,70.536,64
53.400,34.375,36.719,62.891,67.871,70.536,70.536,16
53.600,29.688,36.719,52.930,67.871,70.536,70.536,16
53.600,62.500,81.250,82.812,122.656,70.536,70.536,64
53.700,46.094,55.469,92.773,132.617,70.536,70.536,64
53.800,43.750,67.188,21.875,33.594,70.536,70.536,16
53.900,48.438,50.781,102.734,112.695,70.536,70.536,64
54.200,85.938,105.859,42.969,52.930,70.536,70.536,16
54.200,67.188,85.938,92.773,132.617,70.536,70.536,64
54.300,85.938,105.859,45.459,45.459,70.536,70.536,16
54.300,21.484,23.828,35.498,40.479,70.536,70.536,16
54.300,21.484,22.656,23.047,23.047,70.536,70.536,16
54.400,85.938,115.820,23.047,30.518,70.536,70.536,16
54.500,95.898,115.820,47.949,57.910,70.536,70.536,16
54.500,71.875,85.938,102.734,132.617,70.536,70.536,64
54.600,36.719,39.062,42.969,42.969,70.536,70.536,16
54.600,32.031,41.406,57.910,77.832,70.536,70.536,16
54.600,43.750,53.125,23.047,23.047,70.536,70.536,16
54.700,20.312,22.656,42.969,42.969,70.536,70.536,16
54.700,37.500,37.500,42.969,42.969,70.536,70.536,32
54.700,85.938,85.938,23.047,23.047,70.536,70.536,16
54.700,25.000,25.000,42.969,42.969,70.536,70.536,16
54.700,25.000,29.688,82.812,112.695,70.536,70.536,32
54.900,112.500,112.500,42.969,42.969,70.536,70.536,128
54.900,81.250,89.062,87.793,87.793,70.536,70.536,128
54.900,35.547,40.234,92.773,132.617,70.536,70.536,64
54.900,25.000,41.406,42.969,42.969,70.536,70.536,16
55.000,25.000,32.031,42.969,42.969,70.536,70.536,16
55.000,57.812,67.188,42.969,42.969,70.536,70.536,16
55.100,21.484,22.656,42.969,42.969,70.536,70.536,16
55.200,118.750,128.125,102.734,112.695,70.536,70.536,64
55.200,25.000,34.375,23.047,23.047,70.536,70.536,16
55.200,57.812,62.500,23.047,23.047,70.536,70.536,16
55.200,21.484,23.828,42.969,42.969,70.536,70.536,16
55.200,27.344,32.031,47.949,57.910,70.536,70.536,16
55.300,112.109,128.711,87.793,87.793,70.536,70.536,16
55.300,81.250,96.875,42.969,62.891,70.536,70.536,128
55.300,43.750,55.469,82.812,132.617,70.536,70.536,64
55.400,65.625,71.484,87.793,87.793,70.536,70.536,128
55.400,48.438,71.875,42.969,42.969,70.536,70.536,16
55.400,35.547,37.891,92.773,112.695,70.536,70.536,64
55.400,105.859,125.781,45.459,45.459,70.536,70.536,16
55.400,26.562,28.125,92.773,102.734,70.536,70.536,32
55.400,25.000,34.375,42.969,42.969,70.536,70.536,16
55.400,20.312,21.484,33.008,35.498,70.536,70.536,16
55.400,25.000,28.125,87.793,87.793,70.536,70.536,32
55.400,105.859,115.820,52.930,57.910,70.536,70.536,16
55.500,27.344,39.062,42.969,42.969,70.536,70.536,16
55.600,115.820,125.781,57.910,62.891,70.536,70.536,16
55.700,115.820,125.781,45.459,45.459,70.536,70.536,16
55.700,71.875,76.562,102.734,112.695,70.536,70.536,64
55.700,43.750,53.125,82.812,122.656,70.536,70.536,64
55.800,50.781,55.469,112.695,132.617,70.536,70.536,64
55.800,34.375,37.891,87.793,87.793,70.536,70.536,64
55.800,53.125,71.875,23.047,23.047,70.536,70.536,16
55.800,20.312,22.656,23.047,23.047,70.536,70.536,16
55.800,48.438,55.469,102.734,132.617,70.536,70.536,64
55.800,67.188,76.562,92.773,112.695,70.536,70.536,64
55.800,32.031,34.375,23.047,23.047,70.536,70.536,16
55.900,34.375,39.062,42.969,42.969,70.536,70.536,16
55.900,105.859,115.820,28.027,30.518,70.536,70.536,16
55.900,43.750,76.562,42.969,42.969,70.536,70.536,16
56.000,65.625,73.438,87.793,87.793,70.536,70.536,128
56.000,32.031,36.719,42.969,42.969,70.536,70.536,16
56.000,95.898,105.859,47.949,52.930,70.536,70.536,16
56.100,25.000,27.344,21.875,24.219,70.536,70.536,16
56.100,62.500,71.875,42.969,42.969,70.536,70.536,16
56.100,43.750,67.188,23.047,23.047,70.536,70.536,16
56.200,43.750,43.750,82.812,82.812,70.536,70.536,16
56.200,25.000,26.562,87.793,87.793,70.536,70.536,32
56.200,25.000,36.719,21.875,33.594,70.536,70.536,16
56.200,95.898,115.820,25.537,30.518,70.536,70.536,16
56.200,105.859,125.781,52.930,62.891,70.536,70.536,16
56.200,46.094,50.781,92.773,112.695,70.536,70.536,64
56.300,34.375,36.719,42.969,42.969,70.536,70.536,16
56.300,36.719,40.234,102.734,132.617,70.536,70.536,64
56.300,43.750,71.875,42.969,42.969,70.536,70.536,16
56.300,25.000,39.062,23.047,23.047,70.536,70.536,16
56.400,25.000,32.031,23.047,23.047,70.536,70.536,16
56.400,62.500,62.500,82.812,82.812,70.536,70.536,32
56.400,34.375,39.062,82.812,122.656,70.536,70.536,64
56.500,43.750,43.750,42.969,42.969,70.536,70.536,64
56.500,29.688,39.062,26.562,35.938,70.536,70.536,16
56.500,36.719,41.406,42.969,42.969,70.536,70.536,16
56.500,43.750,57.812,42.969,42.969,70.536,70.536,16
56.500,43.750,53.125,82.812,82.812,70.536,70.536,32
56.600,76.562,85.938,112.695,132.617,70.536,70.536,64
56.600,27.344,32.031,42.969,42.969,70.536,70.536,16
56.600,67.188,71.875,42.969,42.969,70.536,70.536,16
56.600,53.125,62.500,23.047,23.047,70.536,70.536,16
56.600,118.750,132.031,87.793,87.793,70.536,70.536,32
56.600,20.312,21.484,42.969,42.969,70.536,70.536,16
56.600,36.719,37.891,102.734,112.695,70.536,70.536,64
56.700,25.000,27.344,40.625,45.312,70.536,70.536,16
56.700,37.500,40.625,87.793,87.793,70.536,70.536,32
56.700,34.375,39.062,23.047,23.047,70.536,70.536,16
56.700,29.688,34.375,26.562,31.250,70.536,70.536,16
56.700,27.344,29.688,42.969,42.969,70.536,70.536,16
56.800,65.625,69.531,82.812,102.734,70.536,70.536,128
56.800,48.438,53.125,42.969,42.969,70.536,70.536,16
56.800,32.031,39.062,42.969,42.969,70.536,70.536,16
56.800,34.375,40.234,82.812,132.617,70.536,70.536,64
56.800,25.000,41.406,23.047,23.047,70.536,70.536,16
56.800,20.312,21.484,23.047,23.047,70.536,70.536,16
56.900,67.188,71.875,92.773,102.734,70.536,70.536,64
56.900,29.688,39.062,23.047,23.047,70.536,70.536,16
57.000,25.000,36.719,23.047,23.047,70.536,70.536,16
57.000,43.750,62.500,42.969,42.969,70.536,70.536,16
57.000,43.750,50.781,23.047,23.047,70.536,70.536,64
57.000,29.688,36.719,42.969,42.969,70.536,70.536,16
57.000,34.375,35.547,87.793,87.793,70.536,70.536,64
57.000,29.688,34.375,23.047,23.047,70.536,70.536,16
57.100,29.688,32.031,42.969,42.969,70.536,70.536,16
57.100,32.031,41.406,42.969,42.969,70.536,70.536,16
57.100,36.719,39.062,23.047,23.047,70.536,70.536,16
57.200,109.375,128.125,92.773,112.695,70.536,70.536,64
57.200,25.000,28.125,82.812,102.734,70.536,70.536,32
57.300,57.812,62.500,28.906,31.250,70.536,70.536,16
57.300,34.375,36.719,82.812,102.734,70.536,70.536,64
57.300,34.375,37.891,82.812,112.695,70.536,70.536,64
57.300,37.500,37.500,82.812,82.812,70.536,70.536,32
57.400,53.125,71.875,26.562,35.938,70.536,70.536,16
57.500,27.344,39.062,23.047,23.047,70.536,70.536,16
57.500,24.219,26.172,62.891,72.852,70.536,70.536,16
57.500,32.031,34.375,28.906,31.250,70.536,70.536,16
57.500,21.484,23.828,23.047,23.047,70.536,70.536,16
57.600,25.000,39.062,42.969,42.969,70.536,70.536,16
57.600,28.125,31.250,87.793,87.793,70.536,70.536,32
57.700,28.125,34.375,87.793,87.793,70.536,70.536,32
57.700,27.344,36.719,42.969,42.969,70.536,70.536,16
57.700,32.031,36.719,23.047,23.047,70.536,70.536,16
57.700,112.109,128.711,62.891,72.852,70.536,70.536,16
57.700,93.750,106.250,82.812,82.812,70.536,70.536,32
57.800,43.750,48.438,40.625,45.312,70.536,70.536,16
57.800,65.625,73.438,82.812,122.656,70.536,70.536,128
57.800,53.125,62.500,26.562,31.250,70.536,70.536,16
57.800,62.500,76.562,82.812,112.695,70.536,70.536,64
57.800,21.875,23.438,87.793,87.793,70.536,70.536,32
58.000,25.000,32.812,87.793,87.793,70.536,70.536,32
58.000,25.000,29.688,21.875,26.562,70.536,70.536,16
58.000,36.719,39.062,102.734,122.656,70.536,70.536,64
58.000,27.344,29.688,23.047,23.047,70.536,70.536,16
58.000,65.625,65.625,42.969,42.969,70.536,70.536,128
58.100,62.500,95.312,42.969,42.969,70.536,70.536,64
58.200,25.000,35.938,42.969,77.832,70.536,70.536,32
58.200,81.250,85.156,87.793,87.793,70.536,70.536,128
58.200,50.781,53.125,112.695,122.656,70.536,70.536,64
58.200,37.891,39.062,112.695,122.656,70.536,70.536,64
58.200,48.438,53.125,102.734,122.656,70.536,70.536,64
58.200,25.000,25.000,42.969,42.969,70.536,70.536,16
58.300,69.531,75.391,102.734,132.617,70.536,70.536,128
58.300,43.750,53.125,21.875,26.562,70.536,70.536,16
58.300,65.625,73.438,42.969,62.891,70.536,70.536,128
58.300,25.000,29.688,23.047,23.047,70.536,70.536,16
58.400,34.375,36.719,87.793,87.793,70.536,70.536,64
58.400,43.750,43.750,82.812,82.812,70.536,70.536,64
58.400,85.156,92.969,92.773,112.695,70.536,70.536,128
58.400,69.531,71.484,102.734,112.695,70.536,70.536,128
58.500,22.656,23.438,87.793,87.793,70.536,70.536,32
58.600,81.250,96.875,42.969,42.969,70.536,70.536,128
58.600,29.688,31.250,87.793,87.793,70.536,70.536,32
58.700,22.656,24.219,67.871,77.832,70.536,70.536,32
58.700,37.891,40.234,112.695,132.617,70.536,70.536,64
58.700,34.375,39.062,23.047,33.008,70.536,70.536,64
58.800,81.250,92.969,42.969,57.910,70.536,70.536,128
58.800,21.094,21.875,87.793,87.793,70.536,70.536,32
58.800,37.500,40.625,40.625,45.312,70.536,70.536,32
58.800,35.547,36.719,92.773,102.734,70.536,70.536,64
58.800,20.312,23.438,87.793,87.793,70.536,70.536,32
58.800,26.562,29.688,47.949,57.910,70.536,70.536,32
58.900,25.000,34.375,42.969,42.969,70.536,70.536,32
58.900,53.125,59.375,67.871,77.832,70.536,70.536,32
58.900,87.500,93.750,82.812,82.812,70.536,70.536,32
58.900,73.438,75.391,122.656,132.617,70.536,70.536,128
59.000,43.750,46.875,82.812,82.812,70.536,70.536,32
59.000,53.125,59.375,82.812,82.812,70.536,70.536,32
59.000,25.000,25.000,23.047,23.047,70.536,70.536,32
59.100,34.375,41.406,87.793,87.793,70.536,70.536,64
59.100,28.125,29.688,52.930,57.910,70.536,70.536,32
59.100,75.000,81.250,82.812,82.812,70.536,70.536,32
59.100,35.938,39.844,23.047,23.047,70.536,70.536,16
59.100,21.094,23.438,57.910,72.852,70.536,70.536,32
59.100,50.000,53.125,82.812,82.812,70.536,70.536,32
59.100,32.812,34.375,67.871,72.852,70.536,70.536,32
59.100,40.625,53.125,47.949,67.871,70.536,70.536,32
59.300,25.000,31.250,42.969,62.891,70.536,70.536,32
59.300,22.656,24.219,82.812,82.812,70.536,70.536,32
59.300,20.312,21.875,87.793,87.793,70.536,70.536,32
59.300,46.094,48.438,92.773,102.734,70.536,70.536,64
59.400,40.625,53.125,82.812,82.812,70.536,70.536,32
59.400,43.750,48.438,23.047,23.047,70.536,70.536,64
59.400,62.500,81.250,42.969,42.969,70.536,70.536,64
59.400,100.000,109.375,40.625,45.312,70.536,70.536,64
59.400,21.875,22.656,62.891,67.871,70.536,70.536,32
59.500,21.094,22.656,87.793,87.793,70.536,70.536,32
59.500,95.898,105.859,25.537,28.027,70.536,70.536,16
59.500,81.250,96.875,82.812,122.656,70.536,70.536,128
59.500,89.062,100.781,102.734,132.617,70.536,70.536,128
59.500,85.156,100.781,92.773,132.617,70.536,70.536,128
59.600,67.578,75.391,92.773,132.617,70.536,70.536,128
59.600,32.812,35.938,67.871,77.832,70.536,70.536,32
59.700,28.125,29.688,82.812,82.812,70.536,70.536,32
59.700,29.688,35.938,57.910,77.832,70.536,70.536,32
59.700,112.109,128.711,45.459,45.459,70.536,70.536,16
59.700,31.250,32.812,62.891,67.871,70.536,70.536,32
59.700,46.875,56.250,82.812,82.812,70.536,70.536,32
59.800,28.125,32.812,82.812,82.812,70.536,70.536,32
59.800,29.688,34.375,57.910,72.852,70.536,70.536,32
59.800,65.625,65.625,82.812,82.812,70.536,70.536,128
59.800,37.500,59.375,23.047,23.047,70.536,70.536,32
59.800,29.688,34.375,82.812,82.812,70.536,70.536,32
59.900,21.875,22.656,82.812,82.812,70.536,70.536,32
59.900,46.875,56.250,57.910,72.852,70.536,70.536,32
59.900,26.562,32.812,82.812,82.812,70.536,70.536,32
59.900,96.875,100.781,122.656,132.617,70.536,70.536,128
59.900,65.625,73.438,23.047,23.047,70.536,70.536,128
59.900,37.500,46.875,23.047,23.047,70.536,70.536,32
60.000,65.625,67.578,82.812,92.773,70.536,70.536,128
60.000,48.438,53.125,87.793,87.793,70.536,70.536,64
60.000,31.250,34.375,62.891,72.852,70.536,70.536,32
60.000,43.750,53.125,52.930,67.871,70.536,70.536,32
60.000,34.375,39.062,23.047,23.047,70.536,70.536,64
60.100,65.625,73.438,23.047,33.008,70.536,70.536,128
60.100,81.250,81.250,42.969,42.969,70.536,70.536,128
60.100,50.000,53.125,62.891,67.871,70.536,70.536,32
60.200,81.250,100.781,87.793,87.793,70.536,70.536,128
60.200,31.250,32.812,82.812,82.812,70.536,70.536,32
60.200,81.250,92.969,42.969,42.969,70.536,70.536,128
60.200,25.000,32.812,21.875,33.594,70.536,70.536,32
60.200,20.312,22.656,82.812,82.812,70.536,70.536,32
60.200,65.625,65.625,23.047,23.047,70.536,70.536,128
60.200,43.750,46.094,87.793,87.793,70.536,70.536,64
60.200,68.750,93.750,82.812,82.812,70.536,70.536,32
60.200,62.500,67.188,21.875,24.219,70.536,70.536,64
60.300,81.250,81.250,82.812,82.812,70.536,70.536,128
60.300,68.750,81.250,82.812,82.812,70.536,70.536,32
60.300,112.500,112.500,42.969,42.969,70.536,70.536,128
60.300,62.500,62.500,82.812,82.812,70.536,70.536,64
60.300,21.094,24.219,82.812,82.812,70.536,70.536,32
60.300,29.688,35.938,82.812,82.812,70.536,70.536,32
60.300,100.000,100.000,82.812,82.812,70.536,70.536,64
60.400,20.312,21.094,82.812,82.812,70.536,70.536,32
60.400,24.219,26.172,23.047,23.047,70.536,70.536,16
60.400,32.812,35.938,82.812,82.812,70.536,70.536,32
60.400,81.250,100.000,82.812,82.812,70.536,70.536,32
60.500,81.250,106.250,82.812,82.812,70.536,70.536,32
60.500,25.000,25.000,82.812,82.812,70.536,70.536,32
60.500,34.375,34.375,23.047,23.047,70.536,70.536,64
60.500,25.000,25.000,42.969,42.969,70.536,70.536,32
60.500,81.250,85.156,45.459,45.459,70.536,70.536,128
60.500,26.562,32.812,47.949,67.871,70.536,70.536,32
60.600,81.250,96.875,23.047,23.047,70.536,70.536,128
60.600,75.000,93.750,82.812,82.812,70.536,70.536,32
60.600,34.375,39.062,87.793,87.793,70.536,70.536,64
60.600,81.250,104.688,42.969,72.852,70.536,70.536,128
60.700,65.625,65.625,42.969,42.969,70.536,70.536,128
60.700,81.250,81.250,23.047,23.047,70.536,70.536,128
60.800,92.969,100.781,112.695,132.617,70.536,70.536,128
60.800,40.625,46.875,47.949,57.910,70.536,70.536,32
60.800,112.500,112.500,82.812,82.812,70.536,70.536,128
60.800,112.500,128.125,21.875,26.562,70.536,70.536,128
60.800,89.062,92.969,102.734,112.695,70.536,70.536,128
60.900,25.000,25.000,23.047,23.047,70.536,70.536,32
61.000,43.750,46.875,52.930,57.910,70.536,70.536,32
61.000,46.875,59.375,57.910,77.832,70.536,70.536,32
61.000,25.000,26.562,40.625,45.312,70.536,70.536,32
61.000,40.234,42.578,67.871,77.832,70.536,70.536,64
61.100,81.250,89.062,82.812,102.734,70.536,70.536,128
61.100,46.875,59.375,82.812,82.812,70.536,70.536,32
61.100,112.109,128.711,33.008,37.988,70.536,70.536,16
61.100,20.312,21.094,52.930,57.910,70.536,70.536,32
61.100,67.578,69.531,92.773,102.734,70.536,70.536,128
61.200,28.125,32.812,52.930,67.871,70.536,70.536,32
61.200,43.750,57.812,42.969,42.969,70.536,70.536,64
61.300,26.562,28.125,47.949,52.930,70.536,70.536,32
61.300,26.562,34.375,47.949,72.852,70.536,70.536,32
61.300,29.688,32.812,57.910,67.871,70.536,70.536,32
61.400,81.250,81.250,42.969,42.969,70.536,70.536,128
61.400,67.188,85.938,47.949,67.871,70.536,70.536,64
61.500,34.375,37.891,42.969,57.910,70.536,70.536,64
61.500,118.750,118.750,42.969,42.969,70.536,70.536,32
61.500,21.875,23.438,62.891,72.852,70.536,70.536,32
61.500,81.250,89.062,23.047,23.047,70.536,70.536,128
61.600,43.750,43.750,23.047,23.047,70.536,70.536,64
61.700,43.750,48.438,82.812,102.734,70.536,70.536,64
61.700,40.625,46.875,82.812,82.812,70.536,70.536,32
61.800,37.500,59.375,42.969,42.969,70.536,70.536,32
61.800,65.625,71.484,42.969,57.910,70.536,70.536,128
61.800,43.750,50.781,42.969,42.969,70.536,70.536,64
61.800,43.750,55.469,87.793,87.793,70.536,70.536,64
61.800,50.781,53.125,87.793,87.793,70.536,70.536,64
61.800,65.625,79.297,42.969,42.969,70.536,70.536,128
61.900,67.578,71.484,92.773,112.695,70.536,70.536,128
61.900,39.062,40.234,62.891,67.871,70.536,70.536,64
61.900,21.094,23.438,82.812,82.812,70.536,70.536,32
61.900,20.312,22.656,42.969,42.969,70.536,70.536,32
62.000,65.625,67.578,45.459,45.459,70.536,70.536,128
62.000,25.000,29.688,42.969,57.910,70.536,70.536,32
62.000,85.156,89.062,92.773,102.734,70.536,70.536,128
62.000,29.688,32.812,42.969,42.969,70.536,70.536,32
62.000,25.000,28.125,23.047,23.047,70.536,70.536,32
62.000,37.500,50.000,42.969,42.969,70.536,70.536,32
62.100,28.125,29.688,28.027,30.518,70.536,70.536,32
62.100,120.312,128.125,92.773,102.734,70.536,70.536,128
62.100,21.094,24.219,57.910,77.832,70.536,70.536,32
62.100,34.375,37.891,42.969,42.969,70.536,70.536,64
62.100,22.656,23.438,67.871,72.852,70.536,70.536,32
62.100,20.312,22.656,52.930,67.871,70.536,70.536,32
62.100,36.719,39.062,87.793,87.793,70.536,70.536,64
62.100,22.656,24.219,35.498,40.479,70.536,70.536,32
62.200,65.625,77.344,42.969,72.852,70.536,70.536,128
62.200,43.750,43.750,82.812,82.812,70.536,70.536,64
62.200,81.250,89.062,21.875,26.562,70.536,70.536,128
62.200,118.750,118.750,23.047,23.047,70.536,70.536,32
62.200,118.750,132.031,24.292,24.292,70.536,70.536,32
62.300,32.812,35.938,35.498,40.479,70.536,70.536,32
62.300,26.562,29.688,82.812,82.812,70.536,70.536,32
62.300,43.750,48.438,21.875,26.562,70.536,70.536,64
62.300,25.000,35.938,23.047,23.047,70.536,70.536,32
62.300,69.531,73.438,102.734,122.656,70.536,70.536,128
62.300,31.250,32.812,33.008,35.498,70.536,70.536,32
62.300,112.500,120.312,87.793,87.793,70.536,70.536,128
62.400,37.500,46.875,42.969,42.969,70.536,70.536,32
62.400,37.500,56.250,42.969,42.969,70.536,70.536,32
62.400,25.000,31.250,23.047,23.047,70.536,70.536,32
62.400,65.625,65.625,82.812,82.812,70.536,70.536,128
62.400,81.250,85.938,62.891,67.871,70.536,70.536,64
62.500,25.000,34.375,23.047,23.047,70.536,70.536,32
62.500,85.938,95.312,67.871,77.832,70.536,70.536,64
62.500,67.188,85.938,82.812,82.812,70.536,70.536,64
62.500,43.750,50.000,26.562,31.250,70.536,70.536,32
62.500,29.688,34.375,30.518,37.988,70.536,70.536,32
62.600,59.375,67.188,23.047,23.047,70.536,70.536,16
62.600,25.000,28.125,21.875,26.562,70.536,70.536,32
62.600,43.750,56.250,26.562,35.938,70.536,70.536,32
62.600,36.719,41.406,87.793,87.793,70.536,70.536,64
62.600,50.000,56.250,42.969,42.969,70.536,70.536,32
62.600,43.750,53.125,42.969,42.969,70.536,70.536,32
62.600,100.781,108.594,67.871,77.832,70.536,70.536,128
62.600,39.062,41.406,87.793,87.793,70.536,70.536,32
62.700,25.000,34.375,42.969,72.852,70.536,70.536,32
62.700,55.469,60.156,67.871,77.832,70.536,70.536,64
62.800,89.062,96.875,102.734,122.656,70.536,70.536,128
62.800,65.625,79.297,87.793,87.793,70.536,70.536,128
62.800,100.000,128.125,42.969,42.969,70.536,70.536,64
62.800,81.250,100.781,82.812,132.617,70.536,70.536,128
62.800,31.250,32.812,42.969,42.969,70.536,70.536,32
62.800,81.250,92.969,82.812,112.695,70.536,70.536,128
62.800,34.375,34.375,42.969,42.969,70.536,70.536,64
62.900,20.312,23.438,52.930,72.852,70.536,70.536,32
62.900,53.125,56.250,42.969,42.969,70.536,70.536,32
62.900,112.500,112.500,82.812,82.812,70.536,70.536,128
62.900,25.000,31.250,42.969,42.969,70.536,70.536,32
62.900,71.484,73.438,112.695,122.656,70.536,70.536,128
62.900,28.125,32.812,28.027,35.498,70.536,70.536,32
62.900,36.719,40.234,52.930,67.871,70.536,70.536,64
63.000,43.750,50.000,23.047,23.047,70.536,70.536,32
63.000,65.625,75.391,82.812,132.617,70.536,70.536,128
63.000,53.125,55.469,82.812,82.812,70.536,70.536,64
63.000,62.500,81.250,42.969,42.969,70.536,70.536,32
63.100,31.250,34.375,42.969,42.969,70.536,70.536,32
63.100,34.375,40.234,87.793,87.793,70.536,70.536,64
63.100,62.500,106.250,42.969,42.969,70.536,70.536,32
63.100,40.625,56.250,42.969,42.969,70.536,70.536,32
63.200,62.500,62.500,42.969,42.969,70.536,70.536,64
63.200,20.312,21.875,52.930,62.891,70.536,70.536,32
63.200,25.000,35.938,42.969,42.969,70.536,70.536,32
63.200,71.484,75.391,112.695,132.617,70.536,70.536,128
63.200,32.031,33.203,87.793,87.793,70.536,70.536,32
63.200,43.750,48.438,87.793,87.793,70.536,70.536,64
63.300,25.000,26.562,45.459,45.459,70.536,70.536,32
63.300,29.688,35.938,30.518,40.479,70.536,70.536,32
63.400,89.062,92.969,52.930,57.910,70.536,70.536,128
63.400,37.891,41.406,57.910,72.852,70.536,70.536,64
63.400,65.625,71.484,82.812,112.695,70.536,70.536,128
63.400,40.234,42.578,35.498,40.479,70.536,70.536,64
63.400,71.875,76.562,52.930,57.910,70.536,70.536,64
63.500,21.875,23.438,33.008,37.988,70.536,70.536,32
63.500,40.234,41.406,87.793,87.793,70.536,70.536,64
63.500,92.969,96.875,112.695,122.656,70.536,70.536,128
63.500,32.812,34.375,42.969,42.969,70.536,70.536,32
63.500,29.688,34.375,42.969,42.969,70.536,70.536,32
63.500,34.375,42.578,87.793,87.793,70.536,70.536,64
63.500,65.625,69.531,87.793,87.793,70.536,70.536,128
63.600,118.750,132.031,45.459,45.459,70.536,70.536,32
63.600,50.781,60.156,42.969,42.969,70.536,70.536,64
63.600,32.812,35.938,42.969,42.969,70.536,70.536,32
63.600,26.562,34.375,42.969,42.969,70.536,70.536,32
63.600,53.125,59.375,42.969,42.969,70.536,70.536,32
63.700,22.656,24.219,42.969,42.969,70.536,70.536,32
63.700,35.547,36.719,87.793,87.793,70.536,70.536,64
63.700,21.094,22.656,57.910,67.871,70.536,70.536,32
63.700,55.469,60.156,82.812,82.812,70.536,70.536,64
63.700,48.438,57.812,87.793,87.793,70.536,70.536,64
63.700,20.312,23.438,45.459,45.459,70.536,70.536,32
63.700,28.125,32.812,42.969,42.969,70.536,70.536,32
63.800,32.812,34.375,23.047,23.047,70.536,70.536,32
63.800,34.375,39.062,42.969,42.969,70.536,70.536,64
63.800,40.625,43.750,42.969,42.969,70.536,70.536,32
63.800,29.688,35.938,42.969,42.969,70.536,70.536,32
63.800,76.562,90.625,57.910,72.852,70.536,70.536,64
63.800,34.375,42.578,42.969,77.832,70.536,70.536,64
63.800,43.750,60.156,42.969,77.832,70.536,70.536,64
63.800,26.562,32.812,25.537,35.498,70.536,70.536,32
63.800,21.875,23.438,42.969,42.969,70.536,70.536,32
63.800,46.875,50.000,28.906,31.250,70.536,70.536,32
63.900,53.125,57.812,62.891,72.852,70.536,70.536,64
63.900,29.688,31.250,28.906,31.250,70.536,70.536,32
63.900,37.891,40.234,87.793,87.793,70.536,70.536,64
63.900,81.250,87.500,23.047,23.047,70.536,70.536,32
63.900,25.000,25.000,42.969,42.969,70.536,70.536,32
63.900,37.500,53.125,23.047,23.047,70.536,70.536,32
63.900,20.312,21.875,45.459,45.459,70.536,70.536,32
64.000,21.875,22.656,33.008,35.498,70.536,70.536,32
64.000,43.750,53.125,23.047,23.047,70.536,70.536,64
64.000,21.094,22.656,42.969,42.969,70.536,70.536,32
64.000,21.094,21.875,57.910,62.891,70.536,70.536,32
64.000,43.750,56.250,23.047,23.047,70.536,70.536,32
64.000,21.094,23.438,30.518,37.988,70.536,70.536,32
64.000,69.531,75.391,52.930,67.871,70.536,70.536,128
64.000,22.656,24.219,23.047,23.047,70.536,70.536,32
64.000,37.891,39.062,87.793,87.793,70.536,70.536,64
64.000,28.125,34.375,23.047,23.047,70.536,70.536,32
64.000,22.656,23.438,23.047,23.047,70.536,70.536,32
64.100,46.875,56.250,42.969,42.969,70.536,70.536,32
64.100,53.125,55.469,62.891,67.871,70.536,70.536,64
64.100,43.750,53.125,42.969,62.891,70.536,70.536,64
64.100,20.312,22.656,28.027,35.498,70.536,70.536,32
64.100,81.250,85.938,82.812,82.812,70.536,70.536,64
64.100,65.625,75.391,87.793,87.793,70.536,70.536,128
64.100,28.125,31.250,26.562,31.250,70.536,70.536,32
64.200,32.812,35.938,23.047,23.047,70.536,70.536,32
64.200,65.625,67.578,87.793,87.793,70.536,70.536,128
64.200,26.562,29.688,42.969,42.969,70.536,70.536,32
64.200,43.750,43.750,42.969,42.969,70.536,70.536,64
64.200,50.781,57.812,57.910,72.852,70.536,70.536,64
64.200,26.562,28.125,42.969,42.969,70.536,70.536,32
64.200,85.156,100.781,47.949,67.871,70.536,70.536,128
64.200,21.094,23.438,42.969,42.969,70.536,70.536,32
64.200,65.625,71.484,42.969,42.969,70.536,70.536,128
64.200,22.656,23.438,35.498,37.988,70.536,70.536,32
64.300,34.375,35.547,82.812,92.773,70.536,70.536,64
64.300,39.062,41.406,87.793,87.793,70.536,70.536,64
64.300,48.438,50.781,82.812,82.812,70.536,70.536,64
64.300,35.547,37.891,82.812,82.812,70.536,70.536,64
64.300,46.094,55.469,47.949,67.871,70.536,70.536,64
64.300,93.750,100.000,42.969,42.969,70.536,70.536,32
64.300,53.125,56.250,23.047,23.047,70.536,70.536,32
64.300,46.875,53.125,42.969,42.969,70.536,70.536,32
64.300,76.562,90.625,82.812,82.812,70.536,70.536,64
64.300,20.312,21.094,42.969,42.969,70.536,70.536,32
64.300,87.500,100.000,42.969,42.969,70.536,70.536,32
64.300,62.500,76.562,42.969,42.969,70.536,70.536,64
64.400,28.125,34.375,26.562,35.938,70.536,70.536,32
64.400,32.031,33.203,62.891,72.852,70.536,70.536,32
64.400,69.531,71.484,52.930,57.910,70.536,70.536,128
64.400,109.375,128.125,82.812,82.812,70.536,70.536,64
64.400,37.500,40.625,21.875,24.219,70.536,70.536,32
64.400,43.750,50.781,42.969,57.910,70.536,70.536,64
64.400,20.312,21.875,26.562,31.250,70.536,70.536,32
64.400,76.562,95.312,57.910,77.832,70.536,70.536,64
64.400,71.875,85.938,52.930,67.871,70.536,70.536,64
64.400,89.062,104.688,87.793,87.793,70.536,70.536,128
64.500,34.375,34.375,82.812,82.812,70.536,70.536,64
64.500,46.875,59.375,42.969,42.969,70.536,70.536,32
64.500,29.688,31.250,23.047,23.047,70.536,70.536,32
64.500,21.875,23.438,23.047,23.047,70.536,70.536,32
64.500,89.062,100.781,52.930,67.871,70.536,70.536,128
64.500,92.969,104.688,57.910,72.852,70.536,70.536,128
64.500,37.500,43.750,23.047,23.047,70.536,70.536,32
64.600,65.625,69.531,42.969,52.930,70.536,70.536,128
64.600,31.250,32.812,23.047,23.047,70.536,70.536,32
64.600,21.094,24.219,23.047,23.047,70.536,70.536,32
64.600,118.750,128.125,82.812,82.812,70.536,70.536,64
64.600,46.875,50.000,23.047,23.047,70.536,70.536,32
64.600,40.625,53.125,42.969,42.969,70.536,70.536,32
64.600,26.562,29.688,25.537,30.518,70.536,70.536,32
64.600,34.375,41.406,23.047,37.988,70.536,70.536,64
64.600,21.875,22.656,42.969,42.969,70.536,70.536,32
64.600,62.500,100.000,42.969,42.969,70.536,70.536,32
64.700,71.484,73.438,87.793,87.793,70.536,70.536,128
64.700,37.500,56.250,23.047,23.047,70.536,70.536,32
64.700,34.375,36.719,21.875,26.562,70.536,70.536,64
64.700,50.781,60.156,57.910,77.832,70.536,70.536,64
64.700,40.234,42.578,82.812,82.812,70.536,70.536,64
64.700,36.719,40.234,82.812,82.812,70.536,70.536,64
64.700,48.438,50.781,52.930,57.910,70.536,70.536,64
64.700,50.000,53.125,42.969,42.969,70.536,70.536,32
64.700,29.688,34.375,23.047,23.047,70.536,70.536,32
64.800,34.375,36.719,45.459,45.459,70.536,70.536,64
64.800,62.500,62.500,82.812,82.812,70.536,70.536,64
64.800,50.781,55.469,57.910,67.871,70.536,70.536,64
64.800,20.312,23.438,23.047,23.047,70.536,70.536,32
64.800,39.062,40.234,82.812,82.812,70.536,70.536,64
64.800,39.062,41.406,62.891,72.852,70.536,70.536,32
64.800,37.500,43.750,21.875,26.562,70.536,70.536,32
64.900,36.719,37.891,52.930,57.910,70.536,70.536,64
64.900,21.094,21.875,45.459,45.459,70.536,70.536,32
64.900,40.234,41.406,67.871,72.852,70.536,70.536,64
64.900,50.781,60.156,82.812,82.812,70.536,70.536,64
64.900,67.578,71.484,47.949,57.910,70.536,70.536,128
64.900,65.625,65.625,23.047,23.047,70.536,70.536,128
64.900,65.625,69.531,23.047,23.047,70.536,70.536,128
64.900,46.094,50.781,47.949,57.910,70.536,70.536,64
64.900,22.656,23.438,42.969,42.969,70.536,70.536,32
64.900,29.688,35.938,23.047,23.047,70.536,70.536,32
64.900,81.250,93.750,42.969,42.969,70.536,70.536,32
65.000,39.062,41.406,62.891,72.852,70.536,70.536,64
65.000,65.625,67.578,24.292,24.292,70.536,70.536,128
65.000,37.500,53.125,21.875,33.594,70.536,70.536,32
65.000,85.938,95.312,82.812,82.812,70.536,70.536,64
65.000,100.000,118.750,21.875,26.562,70.536,70.536,64
65.000,21.094,24.219,42.969,42.969,70.536,70.536,32
65.000,35.547,41.406,87.793,87.793,70.536,70.536,64
65.000,62.500,93.750,23.047,23.047,70.536,70.536,32
65.000,37.500,50.000,23.047,23.047,70.536,70.536,32
65.000,68.750,100.000,42.969,42.969,70.536,70.536,32
65.000,62.500,87.500,42.969,42.969,70.536,70.536,32
65.100,48.438,55.469,52.930,67.871,70.536,70.536,64
65.100,92.969,108.594,57.910,77.832,70.536,70.536,128
65.100,68.750,75.000,42.969,42.969,70.536,70.536,32
65.100,40.625,43.750,23.047,23.047,70.536,70.536,32
65.100,40.625,56.250,23.047,23.047,70.536,70.536,32
65.100,81.250,108.594,42.969,77.832,70.536,70.536,128
65.200,81.250,81.250,82.812,82.812,70.536,70.536,128
65.200,43.750,46.875,42.969,42.969,70.536,70.536,32
65.200,20.312,23.438,26.562,35.938,70.536,70.536,32
65.200,25.000,29.688,42.969,42.969,70.536,70.536,32
65.200,65.625,71.484,23.047,30.518,70.536,70.536,128
65.200,85.156,92.969,47.949,57.910,70.536,70.536,128
65.200,37.891,41.406,82.812,82.812,70.536,70.536,64
65.200,26.562,32.812,42.969,42.969,70.536,70.536,32
65.300,50.000,56.250,23.047,23.047,70.536,70.536,32
65.300,96.875,100.781,62.891,67.871,70.536,70.536,128
65.300,21.875,22.656,23.047,23.047,70.536,70.536,32
65.300,67.188,76.562,47.949,57.910,70.536,70.536,64
65.300,20.312,21.094,28.027,30.518,70.536,70.536,32
65.300,50.781,57.812,82.812,82.812,70.536,70.536,64
65.300,75.391,79.297,67.871,77.832,70.536,70.536,128
65.300,75.000,100.000,26.562,35.938,70.536,70.536,32
65.300,25.000,32.812,23.047,23.047,70.536,70.536,32
65.300,37.891,42.578,57.910,77.832,70.536,70.536,64
65.300,21.094,22.656,23.047,23.047,70.536,70.536,32
65.400,89.062,100.781,82.812,82.812,70.536,70.536,128
65.400,31.250,34.375,23.047,23.047,70.536,70.536,32
65.400,71.484,79.297,57.910,77.832,70.536,70.536,128
65.400,46.094,57.812,47.949,72.852,70.536,70.536,64
65.400,81.250,87.500,28.906,31.250,70.536,70.536,32
65.400,62.500,75.000,21.875,26.562,70.536,70.536,32
65.500,92.969,96.875,87.793,87.793,70.536,70.536,128
65.500,100.000,100.000,82.812,82.812,70.536,70.536,64
65.500,21.094,22.656,30.518,35.498,70.536,70.536,32
65.500,69.531,73.438,87.793,87.793,70.536,70.536,128
65.500,28.125,31.250,23.047,23.047,70.536,70.536,32
65.500,69.531,77.344,87.793,87.793,70.536,70.536,128
65.500,20.312,22.656,23.047,23.047,70.536,70.536,32
65.500,40.625,46.875,42.969,42.969,70.536,70.536,32
65.500,71.875,76.562,82.812,82.812,70.536,70.536,64
65.500,28.125,29.688,23.047,23.047,70.536,70.536,32
65.500,26.562,32.812,23.047,23.047,70.536,70.536,32
65.500,73.438,75.391,82.812,82.812,70.536,70.536,128
65.600,85.156,89.062,47.949,52.930,70.536,70.536,128
65.600,20.312,21.875,23.047,23.047,70.536,70.536,32
65.600,67.188,76.562,82.812,82.812,70.536,70.536,64
65.600,76.562,95.312,82.812,82.812,70.536,70.536,64
65.600,55.469,57.812,67.871,72.852,70.536,70.536,64
65.600,96.875,100.781,33.008,35.498,70.536,70.536,128
65.600,25.000,29.688,23.047,23.047,70.536,70.536,32
65.700,67.578,75.391,47.949,67.871,70.536,70.536,128
65.700,75.000,87.500,26.562,31.250,70.536,70.536,32
65.700,43.750,53.125,42.969,42.969,70.536,70.536,64
65.700,25.000,26.562,21.875,24.219,70.536,70.536,32
65.800,34.375,35.547,24.292,24.292,70.536,70.536,64
65.800,65.625,79.297,42.969,77.832,70.536,70.536,128
65.800,65.625,73.438,42.969,42.969,70.536,70.536,128
65.800,55.469,60.156,35.498,40.479,70.536,70.536,64
65.800,28.125,29.688,42.969,42.969,70.536,70.536,32
65.800,65.625,69.531,45.459,45.459,70.536,70.536,128
65.800,62.500,67.188,40.625,45.312,70.536,70.536,64
65.800,75.000,100.000,23.047,23.047,70.536,70.536,32
65.900,28.125,32.812,23.047,23.047,70.536,70.536,32
65.900,43.750,57.812,42.969,72.852,70.536,70.536,64
65.900,48.438,55.469,82.812,82.812,70.536,70.536,64
65.900,62.500,93.750,21.875,33.594,70.536,70.536,32
65.900,71.484,79.297,82.812,82.812,70.536,70.536,128
65.900,46.875,53.125,23.047,23.047,70.536,70.536,32
65.900,34.375,37.891,23.047,30.518,70.536,70.536,64
66.000,34.375,35.547,45.459,45.459,70.536,70.536,64
66.000,21.094,23.438,23.047,23.047,70.536,70.536,32
66.000,62.500,95.312,23.047,23.047,70.536,70.536,64
66.000,46.094,55.469,82.812,82.812,70.536,70.536,64
66.000,69.531,71.484,28.027,30.518,70.536,70.536,128
66.000,75.000,87.500,23.047,23.047,70.536,70.536,32
66.000,81.250,92.969,23.047,23.047,70.536,70.536,128
66.100,26.562,34.375,23.047,23.047,70.536,70.536,32
66.100,71.484,79.297,30.518,40.479,70.536,70.536,128
66.100,92.969,108.594,30.518,40.479,70.536,70.536,128
66.100,26.562,28.125,23.047,23.047,70.536,70.536,32
66.100,43.750,60.156,23.047,23.047,70.536,70.536,64
66.100,69.531,77.344,26.562,35.938,70.536,70.536,128
66.200,21.094,21.875,28.906,31.250,70.536,70.536,32
66.200,21.094,21.875,23.047,23.047,70.536,70.536,32
66.200,34.375,39.062,42.969,62.891,70.536,70.536,64
66.200,37.500,37.500,42.969,42.969,70.536,70.536,32
66.200,67.578,77.344,47.949,72.852,70.536,70.536,128
66.300,81.250,85.156,40.625,45.312,70.536,70.536,128
66.300,37.891,42.578,82.812,82.812,70.536,70.536,64
66.300,112.500,128.125,23.047,23.047,70.536,70.536,128
66.300,71.875,85.938,82.812,82.812,70.536,70.536,64
66.400,34.375,41.406,42.969,72.852,70.536,70.536,64
66.400,71.484,77.344,57.910,72.852,70.536,70.536,128
66.400,29.688,32.812,23.047,23.047,70.536,70.536,32
66.400,67.578,71.484,25.537,30.518,70.536,70.536,128
66.400,96.875,104.688,62.891,72.852,70.536,70.536,128
66.400,53.125,55.469,33.008,35.498,70.536,70.536,64
66.400,71.484,75.391,87.793,87.793,70.536,70.536,128
66.500,62.500,75.000,23.047,23.047,70.536,70.536,32
66.500,20.312,21.094,23.047,23.047,70.536,70.536,32
66.500,34.375,40.234,42.969,67.871,70.536,70.536,64
66.600,53.125,57.812,23.047,23.047,70.536,70.536,32
66.600,48.438,50.781,28.027,30.518,70.536,70.536,64
66.600,34.375,34.375,23.047,23.047,70.536,70.536,64
66.600,43.750,57.812,23.047,23.047,70.536,70.536,64
66.700,100.781,108.594,82.812,82.812,70.536,70.536,128
66.700,89.062,92.969,82.812,82.812,70.536,70.536,128
66.700,34.375,35.547,21.875,24.219,70.536,70.536,64
66.700,67.578,75.391,82.812,82.812,70.536,70.536,128
66.700,21.094,24.219,30.518,40.479,70.536,70.536,32
66.700,69.531,77.344,52.930,72.852,70.536,70.536,128
66.800,69.531,75.391,28.027,35.498,70.536,70.536,128
66.800,36.719,37.891,82.812,82.812,70.536,70.536,64
66.800,85.938,90.625,42.969,42.969,70.536,70.536,64
66.800,112.500,120.312,40.625,45.312,70.536,70.536,128
66.800,71.484,77.344,30.518,37.988,70.536,70.536,128
66.800,85.156,100.781,25.537,35.498,70.536,70.536,128
66.800,69.531,75.391,82.812,82.812,70.536,70.536,128
66.800,73.438,77.344,87.793,87.793,70.536,70.536,128
66.800,34.375,40.234,45.459,45.459,70.536,70.536,64
66.800,46.094,50.781,82.812,82.812,70.536,70.536,64
66.900,85.156,92.969,82.812,82.812,70.536,70.536,128
66.900,65.625,69.531,21.875,26.562,70.536,70.536,128
66.900,39.062,41.406,33.008,37.988,70.536,70.536,64
66.900,53.125,57.812,23.047,23.047,70.536,70.536,64
66.900,81.250,81.250,23.047,23.047,70.536,70.536,128
66.900,96.875,100.781,82.812,82.812,70.536,70.536,128
66.900,92.969,100.781,57.910,67.871,70.536,70.536,128
66.900,34.375,42.578,23.047,23.047,70.536,70.536,64
67.000,50.781,57.812,30.518,37.988,70.536,70.536,64
67.000,67.578,69.531,25.537,28.027,70.536,70.536,128
67.000,35.547,41.406,47.949,72.852,70.536,70.536,64
67.000,92.969,108.594,82.812,82.812,70.536,70.536,128
67.000,34.375,34.375,42.969,42.969,70.536,70.536,64
67.000,35.547,40.234,47.949,67.871,70.536,70.536,64
67.000,36.719,39.062,52.930,62.891,70.536,70.536,64
67.000,89.062,104.688,23.047,23.047,70.536,70.536,128
67.100,65.625,77.344,42.969,42.969,70.536,70.536,128
67.100,62.500,68.750,40.625,45.312,70.536,70.536,32
67.100,48.438,55.469,42.969,42.969,70.536,70.536,64
67.100,81.250,85.156,21.875,24.219,70.536,70.536,128
67.100,43.750,46.094,45.459,45.459,70.536,70.536,64
67.100,85.156,89.062,42.969,42.969,70.536,70.536,128
67.100,89.062,92.969,28.027,30.518,70.536,70.536,128
67.100,65.625,77.344,87.793,87.793,70.536,70.536,128
67.100,89.062,96.875,87.793,87.793,70.536,70.536,128
67.100,43.750,43.750,23.047,23.047,70.536,70.536,64
67.100,92.969,96.875,28.906,31.250,70.536,70.536,128
67.100,36.719,41.406,52.930,72.852,70.536,70.536,64
67.100,96.875,104.688,42.969,42.969,70.536,70.536,128
67.100,67.578,69.531,42.969,42.969,70.536,70.536,128
67.200,71.484,75.391,57.910,67.871,70.536,70.536,128
67.200,46.094,48.438,47.949,52.930,70.536,70.536,64
67.200,73.438,75.391,62.891,67.871,70.536,70.536,128
67.200,35.547,37.891,47.949,57.910,70.536,70.536,64
67.200,71.484,75.391,23.047,23.047,70.536,70.536,128
67.200,35.547,40.234,82.812,82.812,70.536,70.536,64
67.200,85.938,95.312,42.969,42.969,70.536,70.536,64
67.200,37.891,40.234,30.518,35.498,70.536,70.536,64
67.300,92.969,104.688,82.812,82.812,70.536,70.536,128
67.300,120.312,128.125,42.969,42.969,70.536,70.536,128
67.300,65.625,71.484,23.047,23.047,70.536,70.536,128
67.300,34.375,42.578,23.047,40.479,70.536,70.536,64
67.400,75.391,79.297,35.498,40.479,70.536,70.536,128
67.400,40.234,41.406,42.969,42.969,70.536,70.536,64
67.400,69.531,77.344,45.459,45.459,70.536,70.536,128
67.400,76.562,90.625,42.969,42.969,70.536,70.536,64
67.500,34.375,35.547,40.625,45.312,70.536,70.536,64
67.500,46.094,55.469,25.537,35.498,70.536,70.536,64
67.500,32.031,33.203,33.008,37.988,70.536,70.536,32
67.500,89.062,100.781,28.027,35.498,70.536,70.536,128
67.500,37.891,40.234,23.047,23.047,70.536,70.536,64
67.500,37.891,40.234,42.969,42.969,70.536,70.536,64
67.500,69.531,71.484,82.812,82.812,70.536,70.536,128
67.500,96.875,100.781,42.969,42.969,70.536,70.536,128
67.500,34.375,36.719,42.969,52.930,70.536,70.536,64
67.600,37.891,40.234,57.910,67.871,70.536,70.536,64
67.600,40.234,41.406,35.498,37.988,70.536,70.536,64
67.600,55.469,57.812,42.969,42.969,70.536,70.536,64
67.600,34.375,36.719,23.047,23.047,70.536,70.536,64
67.600,32.031,33.203,45.459,45.459,70.536,70.536,32
67.600,50.781,60.156,30.518,40.479,70.536,70.536,64
67.600,85.156,92.969,42.969,42.969,70.536,70.536,128
67.600,39.062,40.234,33.008,35.498,70.536,70.536,64
67.600,40.234,42.578,42.969,42.969,70.536,70.536,64
67.600,81.250,90.625,42.969,42.969,70.536,70.536,64
67.600,69.531,73.438,52.930,62.891,70.536,70.536,128
67.600,75.391,79.297,82.812,82.812,70.536,70.536,128
67.600,120.312,128.125,23.047,23.047,70.536,70.536,128
67.600,89.062,96.875,26.562,31.250,70.536,70.536,128
67.600,73.438,77.344,62.891,72.852,70.536,70.536,128
67.600,26.562,29.688,23.047,23.047,70.536,70.536,32
67.600,75.391,77.344,42.969,42.969,70.536,70.536,128
67.700,36.719,40.234,28.027,35.498,70.536,70.536,64
67.700,71.484,75.391,30.518,35.498,70.536,70.536,128
67.700,62.500,71.875,21.875,26.562,70.536,70.536,64
67.700,69.531,73.438,45.459,45.459,70.536,70.536,128
67.700,67.578,71.484,82.812,82.812,70.536,70.536,128
67.700,85.156,100.781,82.812,82.812,70.536,70.536,128
67.700,46.094,55.469,42.969,42.969,70.536,70.536,64
67.700,71.875,81.250,26.562,31.250,70.536,70.536,64
67.700,62.500,71.875,23.047,23.047,70.536,70.536,64
67.700,100.781,104.688,67.871,72.852,70.536,70.536,128
67.700,75.391,77.344,67.871,72.852,70.536,70.536,128
67.800,50.781,53.125,28.906,31.250,70.536,70.536,64
67.800,62.500,85.938,21.875,33.594,70.536,70.536,64
67.800,48.438,55.469,28.027,35.498,70.536,70.536,64
67.800,65.625,75.391,42.969,67.871,70.536,70.536,128
67.800,85.156,104.688,47.949,72.852,70.536,70.536,128
67.800,81.250,108.594,23.047,23.047,70.536,70.536,128
67.800,92.969,104.688,30.518,37.988,70.536,70.536,128
67.800,43.750,60.156,42.969,42.969,70.536,70.536,64
67.800,71.875,90.625,26.562,35.938,70.536,70.536,64
67.800,67.578,75.391,23.047,23.047,70.536,70.536,128
67.900,35.547,40.234,25.537,35.498,70.536,70.536,64
67.900,36.719,41.406,45.459,45.459,70.536,70.536,64
67.900,67.578,69.531,47.949,52.930,70.536,70.536,128
67.900,81.250,100.781,23.047,23.047,70.536,70.536,128
67.900,55.469,60.156,42.969,42.969,70.536,70.536,64
67.900,100.781,108.594,35.498,40.479,70.536,70.536,128
67.900,39.062,40.234,42.969,42.969,70.536,70.536,64
67.900,39.062,40.234,23.047,23.047,70.536,70.536,64
67.900,69.531,75.391,42.969,42.969,70.536,70.536,128
67.900,67.578,75.391,25.537,35.498,70.536,70.536,128
68.000,67.578,69.531,87.793,87.793,70.536,70.536,128
68.000,48.438,57.812,26.562,35.938,70.536,70.536,64
68.000,35.547,36.719,47.949,52.930,70.536,70.536,64
68.000,92.969,96.875,23.047,23.047,70.536,70.536,128
68.000,92.969,100.781,42.969,42.969,70.536,70.536,128
68.100,48.438,57.812,23.047,23.047,70.536,70.536,64
68.100,39.062,41.406,23.047,23.047,70.536,70.536,64
68.100,65.625,79.297,23.047,40.479,70.536,70.536,128
68.100,37.891,39.062,57.910,62.891,70.536,70.536,64
68.100,85.156,89.062,23.047,23.047,70.536,70.536,128
68.100,40.234,42.578,23.047,23.047,70.536,70.536,64
68.100,35.547,37.891,25.537,30.518,70.536,70.536,64
68.100,85.156,100.781,42.969,42.969,70.536,70.536,128
68.100,100.781,108.594,42.969,42.969,70.536,70.536,128
68.100,62.500,85.938,23.047,23.047,70.536,70.536,64
68.100,37.891,39.062,28.906,31.250,70.536,70.536,64
68.100,62.500,76.562,23.047,23.047,70.536,70.536,64
68.200,39.062,41.406,42.969,42.969,70.536,70.536,64
68.200,55.469,57.812,23.047,23.047,70.536,70.536,64
68.200,71.875,90.625,23.047,23.047,70.536,70.536,64
68.200,65.625,77.344,23.047,37.988,70.536,70.536,128
68.200,81.250,104.688,23.047,23.047,70.536,70.536,128
68.200,69.531,75.391,23.047,23.047,70.536,70.536,128
68.200,36.719,39.062,45.459,45.459,70.536,70.536,64
68.200,73.438,75.391,33.008,35.498,70.536,70.536,128
68.200,62.500,90.625,42.969,42.969,70.536,70.536,64
68.200,35.547,41.406,23.047,23.047,70.536,70.536,64
68.200,65.625,79.297,23.047,23.047,70.536,70.536,128
68.200,35.547,37.891,42.969,42.969,70.536,70.536,64
68.200,35.547,36.719,42.969,42.969,70.536,70.536,64
68.200,81.250,104.688,42.969,42.969,70.536,70.536,128
68.200,92.969,100.781,23.047,23.047,70.536,70.536,128
68.300,81.250,85.938,42.969,42.969,70.536,70.536,64
68.300,75.391,77.344,87.793,87.793,70.536,70.536,128
68.300,100.781,104.688,42.969,42.969,70.536,70.536,128
68.300,92.969,108.594,42.969,42.969,70.536,70.536,128
68.300,53.125,55.469,42.969,42.969,70.536,70.536,64
68.400,36.719,40.234,42.969,42.969,70.536,70.536,64
68.400,85.156,104.688,23.047,23.047,70.536,70.536,128
68.400,71.484,73.438,57.910,62.891,70.536,70.536,128
68.400,65.625,75.391,23.047,23.047,70.536,70.536,128
68.400,81.250,108.594,42.969,42.969,70.536,70.536,128
68.400,81.250,90.625,23.047,23.047,70.536,70.536,32
68.400,53.125,57.812,42.969,42.969,70.536,70.536,64
68.400,71.484,73.438,28.906,31.250,70.536,70.536,128
68.400,55.469,60.156,23.047,23.047,70.536,70.536,64
68.400,67.578,77.344,87.793,87.793,70.536,70.536,128
68.500,67.578,77.344,25.537,37.988,70.536,70.536,128
68.500,43.750,55.469,23.047,23.047,70.536,70.536,64
68.500,48.438,53.125,26.562,31.250,70.536,70.536,64
68.500,35.547,41.406,25.537,37.988,70.536,70.536,64
68.500,89.062,104.688,26.562,35.938,70.536,70.536,128
68.500,37.891,39.062,45.459,45.459,70.536,70.536,64
68.600,37.891,41.406,42.969,42.969,70.536,70.536,64
68.600,37.891,41.406,30.518,37.988,70.536,70.536,64
68.600,73.438,77.344,33.008,37.988,70.536,70.536,128
68.600,100.781,104.688,23.047,23.047,70.536,70.536,128
68.600,46.094,48.438,42.969,42.969,70.536,70.536,64
68.600,43.750,55.469,21.875,33.594,70.536,70.536,64
68.600,71.484,77.344,82.812,82.812,70.536,70.536,128
68.600,62.500,90.625,23.047,23.047,70.536,70.536,64
68.600,89.062,92.969,42.969,42.969,70.536,70.536,128
68.600,92.969,104.688,42.969,42.969,70.536,70.536,128
68.700,35.547,41.406,42.969,42.969,70.536,70.536,64
68.700,46.094,57.812,42.969,42.969,70.536,70.536,64
68.700,85.156,104.688,42.969,42.969,70.536,70.536,128
68.700,50.781,57.812,42.969,42.969,70.536,70.536,64
68.700,36.719,37.891,42.969,42.969,70.536,70.536,64
68.800,89.062,96.875,23.047,23.047,70.536,70.536,128
68.800,39.062,41.406,23.047,23.047,70.536,70.536,32
68.800,35.547,40.234,23.047,23.047,70.536,70.536,64
68.800,50.781,55.469,42.969,42.969,70.536,70.536,64
68.800,69.531,73.438,23.047,23.047,70.536,70.536,128
68.800,76.562,85.938,42.969,42.969,70.536,70.536,64
68.800,100.000,118.750,23.047,23.047,70.536,70.536,64
68.800,89.062,100.781,23.047,23.047,70.536,70.536,128
68.900,34.375,42.578,42.969,42.969,70.536,70.536,64
68.900,59.375,60.938,87.793,87.793,70.536,70.536,64
68.900,34.375,40.234,23.047,23.047,70.536,70.536,64
68.900,48.438,53.125,23.047,23.047,70.536,70.536,64
69.000,65.625,75.391,45.459,45.459,70.536,70.536,128
69.000,67.188,85.938,42.969,42.969,70.536,70.536,64
69.000,43.750,46.094,40.625,45.312,70.536,70.536,64
69.000,89.062,100.781,42.969,42.969,70.536,70.536,128
69.000,76.562,81.250,23.047,23.047,70.536,70.536,64
69.000,85.156,92.969,25.537,30.518,70.536,70.536,128
69.100,36.719,41.406,23.047,23.047,70.536,70.536,64
69.100,62.500,81.250,23.047,23.047,70.536,70.536,64
69.100,73.438,75.391,23.047,23.047,70.536,70.536,128
69.100,71.875,76.562,42.969,42.969,70.536,70.536,64
69.100,73.438,75.391,42.969,42.969,70.536,70.536,128
69.100,71.875,85.938,42.969,42.969,70.536,70.536,64
69.200,48.438,50.781,42.969,42.969,70.536,70.536,64
69.200,67.188,76.562,42.969,42.969,70.536,70.536,64
69.200,81.250,90.625,23.047,23.047,70.536,70.536,64
69.200,62.500,62.500,42.969,42.969,70.536,70.536,64
69.200,81.250,100.781,21.875,33.594,70.536,70.536,128
69.200,85.156,100.781,23.047,23.047,70.536,70.536,128
69.200,67.578,77.344,23.047,23.047,70.536,70.536,128
69.200,34.375,41.406,42.969,42.969,70.536,70.536,64
69.200,67.188,90.625,42.969,42.969,70.536,70.536,64
69.200,53.125,55.469,23.047,23.047,70.536,70.536,64
69.300,50.781,53.125,23.047,23.047,70.536,70.536,64
69.300,34.375,37.891,23.047,23.047,70.536,70.536,64
69.300,67.188,71.875,23.047,23.047,70.536,70.536,64
69.300,71.484,73.438,45.459,45.459,70.536,70.536,128
69.300,73.438,77.344,42.969,42.969,70.536,70.536,128
69.300,37.891,42.578,30.518,40.479,70.536,70.536,64
69.300,68.750,71.875,87.793,87.793,70.536,70.536,64
69.300,69.531,71.484,23.047,23.047,70.536,70.536,128
69.400,48.438,55.469,23.047,23.047,70.536,70.536,64
69.400,40.234,41.406,23.047,23.047,70.536,70.536,64
69.400,75.391,77.344,35.498,37.988,70.536,70.536,128
69.400,69.531,71.484,42.969,42.969,70.536,70.536,128
69.400,100.781,108.594,23.047,23.047,70.536,70.536,128
69.400,75.391,77.344,23.047,23.047,70.536,70.536,128
69.400,67.188,71.875,42.969,42.969,70.536,70.536,64
69.400,67.578,71.484,42.969,42.969,70.536,70.536,128
69.400,46.094,55.469,23.047,23.047,70.536,70.536,64
69.400,50.781,57.812,23.047,23.047,70.536,70.536,64
69.500,67.578,77.344,42.969,42.969,70.536,70.536,128
69.500,37.891,41.406,23.047,23.047,70.536,70.536,64
69.500,71.875,81.250,23.047,23.047,70.536,70.536,64
69.500,76.562,81.250,28.906,31.250,70.536,70.536,64
69.500,75.391,79.297,42.969,42.969,70.536,70.536,128
69.500,37.891,42.578,42.969,42.969,70.536,70.536,64
69.600,46.094,57.812,23.047,23.047,70.536,70.536,64
69.600,50.781,55.469,23.047,23.047,70.536,70.536,64
69.600,92.969,108.594,23.047,23.047,70.536,70.536,128
69.600,67.188,90.625,23.047,23.047,70.536,70.536,64
69.600,32.031,33.203,23.047,23.047,70.536,70.536,32
69.600,46.094,50.781,42.969,42.969,70.536,70.536,64
69.600,85.938,90.625,23.047,23.047,70.536,70.536,64
69.600,67.578,71.484,23.047,23.047,70.536,70.536,128
69.600,69.531,77.344,23.047,23.047,70.536,70.536,128
69.700,67.578,69.531,23.047,23.047,70.536,70.536,128
69.700,46.094,48.438,23.047,23.047,70.536,70.536,64
69.700,36.719,41.406,26.562,35.938,70.536,70.536,64
69.700,71.484,77.344,42.969,42.969,70.536,70.536,128
69.700,65.625,67.578,40.625,45.312,70.536,70.536,128
69.700,89.062,92.969,23.047,23.047,70.536,70.536,128
69.800,96.875,104.688,23.047,23.047,70.536,70.536,128
69.800,96.875,100.781,23.047,23.047,70.536,70.536,128
69.800,112.500,120.312,21.875,24.219,70.536,70.536,128
69.800,68.750,71.875,62.891,72.852,70.536,70.536,64
69.900,34.375,41.406,23.047,23.047,70.536,70.536,64
69.900,37.891,42.578,23.047,23.047,70.536,70.536,64
69.900,35.547,36.719,25.537,28.027,70.536,70.536,64
69.900,71.484,77.344,23.047,23.047,70.536,70.536,128
69.900,67.578,75.391,42.969,42.969,70.536,70.536,128
70.000,36.719,40.234,23.047,23.047,70.536,70.536,64
70.000,109.375,118.750,42.969,42.969,70.536,70.536,64
70.000,36.719,39.062,26.562,31.250,70.536,70.536,64
70.100,46.094,50.781,25.537,30.518,70.536,70.536,64
70.100,37.891,39.062,23.047,23.047,70.536,70.536,64
70.100,35.547,40.234,42.969,42.969,70.536,70.536,64
70.100,76.562,95.312,42.969,42.969,70.536,70.536,64
70.100,65.625,75.391,21.875,33.594,70.536,70.536,128
70.200,73.438,77.344,23.047,23.047,70.536,70.536,128
70.200,92.969,104.688,23.047,23.047,70.536,70.536,128
70.200,59.375,60.938,45.459,45.459,70.536,70.536,64
70.200,36.719,39.062,23.047,23.047,70.536,70.536,64
70.200,36.719,37.891,28.027,30.518,70.536,70.536,64
70.300,71.484,75.391,42.969,42.969,70.536,70.536,128
70.300,76.562,85.938,23.047,23.047,70.536,70.536,64
70.300,43.750,46.094,21.875,24.219,70.536,70.536,64
70.400,85.156,92.969,23.047,23.047,70.536,70.536,128
70.400,48.438,50.781,23.047,23.047,70.536,70.536,64
70.400,75.391,79.297,23.047,23.047,70.536,70.536,128
70.500,69.531,73.438,26.562,31.250,70.536,70.536,128
70.500,50.781,60.156,23.047,23.047,70.536,70.536,64
70.500,34.375,40.234,21.875,33.594,70.536,70.536,64
70.600,71.484,79.297,42.969,42.969,70.536,70.536,128
70.600,46.094,50.781,23.047,23.047,70.536,70.536,64
70.600,71.484,73.438,23.047,23.047,70.536,70.536,128
70.600,65.625,77.344,23.047,23.047,70.536,70.536,128
70.600,71.484,79.297,23.047,23.047,70.536,70.536,128
70.800,35.547,36.719,23.047,23.047,70.536,70.536,64
70.800,59.375,60.938,33.008,37.988,70.536,70.536,64
71.100,59.375,60.938,62.891,72.852,70.536,70.536,64
71.300,128.125,132.812,87.793,87.793,70.536,70.536,128
71.300,35.547,37.891,23.047,23.047,70.536,70.536,64
71.500,36.719,37.891,23.047,23.047,70.536,70.536,64
71.700,65.625,67.578,21.875,24.219,70.536,70.536,128
72.300,128.125,132.812,62.891,72.852,70.536,70.536,128
72.300,87.500,93.750,23.047,23.047,70.536,70.536,64
72.500,68.750,71.875,23.047,23.047,70.536,70.536,64
72.600,59.375,60.938,23.047,23.047,70.536,70.536,64
73.100,114.062,116.406,87.793,87.793,70.536,70.536,128
73.400,114.062,116.406,45.459,45.459,70.536,70.536,128
73.400,114.062,116.406,62.891,72.852,70.536,70.536,128
73.800,114.062,116.406,33.008,37.988,70.536,70.536,128
74.400,114.062,116.406,23.047,23.047,70.536,70.536,128
74.400,128.125,132.812,23.047,23.047,70.536,70.536,128
