perf,CACHE_MISS_L1,CACHE_MISS_L2,scheme
56.16,1738743,108017,"[V f; U (2, f); U (14, y); T (16, c); Hoist_vars [c]; T (14, x); T (3, w);  T (3, h); T (2, f); T (16, c); T (1, x); T (1, y); T (4, f); T (1, c)]"
41.65,2648264,126883,"[V f; U (2, f); U (14, y); T (8, c); Hoist_vars [c]; T (14, x); T (3, w);  T (3, h); T (2, f); T (32, c); T (1, x); T (1, y); T (4, f); T (1, c)]"
70.12,1220468,97230,"[V f; U (1, f); U (14, y); U (3, h); T (16, c); Hoist_vars [c]; T (14, x);  T (3, w); T (1, h); T (4, f); T (16, c); T (1, x); T (1, y); T (4, f);  T (1, c)]"
58.40,1825315,106528,"[V f; U (1, f); U (14, y); U (3, h); T (8, c); Hoist_vars [c]; T (14, x);  T (3, w); T (1, h); T (4, f); T (32, c); T (1, x); T (1, y); T (4, f);  T (1, c)]"
57.77,1740571,100303,"[V f; U (2, f); U (14, y); T (16, c); Hoist_vars [c]; T (14, x); T (3, w);  T (3, h); T (2, f); T (8, c); T (1, x); T (1, y); T (4, f); T (2, c)]"
41.18,2647671,130924,"[V f; U (2, f); U (14, y); T (8, c); Hoist_vars [c]; T (14, x); T (3, w);  T (3, h); T (2, f); T (16, c); T (1, x); T (1, y); T (4, f); T (2, c)]"
69.41,1227487,92989,"[V f; U (1, f); U (14, y); U (3, h); T (16, c); Hoist_vars [c]; T (14, x);  T (3, w); T (1, h); T (4, f); T (8, c); T (1, x); T (1, y); T (4, f);  T (2, c)]"
58.59,1820738,100236,"[V f; U (1, f); U (14, y); U (3, h); T (8, c); Hoist_vars [c]; T (14, x);  T (3, w); T (1, h); T (4, f); T (16, c); T (1, x); T (1, y); T (4, f);  T (2, c)]"
77.00,831854,84987,"[V f; U (1, f); U (14, y); U (3, h); T (64, c); Hoist_vars [c]; T (14, x);  T (3, w); T (1, h); T (16, f); T (4, c); T (1, x); T (1, y); T (1, f);  T (1, c)]"
79.57,832846,82963,"[V f; U (1, f); U (14, y); U (3, h); T (64, c); Hoist_vars [c]; T (14, x);  T (3, w); T (1, h); T (16, f); T (2, c); T (1, x); T (1, y); T (1, f);  T (2, c)]"
79.12,830024,89191,"[V f; U (1, f); U (14, y); U (3, h); T (64, c); Hoist_vars [c]; T (14, x);  T (3, w); T (1, h); T (16, f); T (1, c); T (1, x); T (1, y); T (1, f);  T (4, c)]"
79.54,828931,88576,"[V f; U (1, f); U (14, y); U (3, h); T (64, c); Hoist_vars [c]; T (14, x);  T (3, w); T (1, h); T (1, f); T (1, c); T (1, x); T (1, y); T (16, f);  T (4, c)]"
75.44,969533,99549,"[V f; U (1, f); U (14, y); U (3, h); T (32, c); Hoist_vars [c]; T (14, x);  T (3, w); T (1, h); T (1, f); T (2, c); T (1, x); T (1, y); T (16, f);  T (4, c)]"
69.21,1227697,92873,"[V f; U (1, f); U (14, y); U (3, h); T (16, c); Hoist_vars [c]; T (14, x);  T (3, w); T (1, h); T (1, f); T (4, c); T (1, x); T (1, y); T (16, f);  T (4, c)]"
56.78,1831999,94865,"[V f; U (1, f); U (14, y); U (3, h); T (8, c); Hoist_vars [c]; T (14, x);  T (3, w); T (1, h); T (1, f); T (8, c); T (1, x); T (1, y); T (16, f);  T (4, c)]"
73.79,821538,114730,"[V f; U (1, f); U (14, y); U (3, h); T (64, c); Hoist_vars [c]; T (7, x);  T (3, w); T (1, h); T (1, f); T (1, c); T (2, x); T (1, y); T (16, f);  T (4, c)]"
72.33,957603,120365,"[V f; U (1, f); U (14, y); U (3, h); T (32, c); Hoist_vars [c]; T (7, x);  T (3, w); T (1, h); T (1, f); T (2, c); T (2, x); T (1, y); T (16, f);  T (4, c)]"
64.15,1206190,126970,"[V f; U (1, f); U (14, y); U (3, h); T (16, c); Hoist_vars [c]; T (7, x);  T (3, w); T (1, h); T (1, f); T (4, c); T (2, x); T (1, y); T (16, f);  T (4, c)]"
54.44,1787149,121216,"[V f; U (1, f); U (14, y); U (3, h); T (8, c); Hoist_vars [c]; T (7, x);  T (3, w); T (1, h); T (1, f); T (8, c); T (2, x); T (1, y); T (16, f);  T (4, c)]"
71.71,712859,84693,"[V f; U (1, f); U (14, y); U (3, h); T (64, c); Hoist_vars [c]; T (2, x);  T (3, w); T (1, h); T (1, f); T (1, c); T (7, x); T (1, y); T (16, f);  T (4, c)]"
70.13,839398,93716,"[V f; U (1, f); U (14, y); U (3, h); T (32, c); Hoist_vars [c]; T (2, x);  T (3, w); T (1, h); T (1, f); T (2, c); T (7, x); T (1, y); T (16, f);  T (4, c)]"
63.54,1051001,109403,"[V f; U (1, f); U (14, y); U (3, h); T (16, c); Hoist_vars [c]; T (2, x);  T (3, w); T (1, h); T (1, f); T (4, c); T (7, x); T (1, y); T (16, f);  T (4, c)]"
54.82,1432062,102751,"[V f; U (1, f); U (14, y); U (3, h); T (8, c); Hoist_vars [c]; T (2, x);  T (3, w); T (1, h); T (1, f); T (8, c); T (7, x); T (1, y); T (16, f);  T (4, c)]"
67.22,696396,95533,"[V f; U (1, f); U (14, y); U (3, h); T (64, c); Hoist_vars [c]; T (1, x);  T (3, w); T (1, h); T (1, f); T (1, c); T (14, x); T (1, y); T (16, f);  T (4, c)]"
60.67,798437,113401,"[V f; U (1, f); U (14, y); U (3, h); T (32, c); Hoist_vars [c]; T (1, x);  T (3, w); T (1, h); T (1, f); T (2, c); T (14, x); T (1, y); T (16, f);  T (4, c)]"
61.85,932152,103455,"[V f; U (1, f); U (14, y); U (3, h); T (16, c); Hoist_vars [c]; T (1, x);  T (3, w); T (1, h); T (1, f); T (4, c); T (14, x); T (1, y); T (16, f);  T (4, c)]"
59.26,1129550,88269,"[V f; U (1, f); U (14, y); U (3, h); T (8, c); Hoist_vars [c]; T (1, x);  T (3, w); T (1, h); T (1, f); T (8, c); T (14, x); T (1, y); T (16, f);  T (4, c)]"
78.42,830893,99810,"[V f; U (1, f); U (14, y); U (3, h); T (64, c); Hoist_vars [c]; T (14, x);  T (3, w); T (1, h); T (8, f); T (4, c); T (1, x); T (1, y); T (2, f);  T (1, c)]"
78.13,832213,94579,"[V f; U (1, f); U (14, y); U (3, h); T (64, c); Hoist_vars [c]; T (14, x);  T (3, w); T (1, h); T (8, f); T (2, c); T (1, x); T (1, y); T (2, f);  T (2, c)]"
76.39,830753,87572,"[V f; U (1, f); U (14, y); U (3, h); T (64, c); Hoist_vars [c]; T (14, x);  T (3, w); T (1, h); T (8, f); T (1, c); T (1, x); T (1, y); T (2, f);  T (4, c)]"
65.31,1310909,162168,"[V f; U (2, f); U (14, y); T (32, c); Hoist_vars [c]; T (14, x); T (3, w);  T (3, h); T (1, f); T (8, c); T (1, x); T (1, y); T (8, f); T (1, c)]"
55.01,1741012,161605,"[V f; U (2, f); U (14, y); T (16, c); Hoist_vars [c]; T (14, x); T (3, w);  T (3, h); T (1, f); T (16, c); T (1, x); T (1, y); T (8, f); T (1, c)]"
39.90,2681774,181016,"[V f; U (2, f); U (14, y); T (8, c); Hoist_vars [c]; T (14, x); T (3, w);  T (3, h); T (1, f); T (32, c); T (1, x); T (1, y); T (8, f); T (1, c)]"
75.23,961710,132881,"[V f; U (1, f); U (14, y); U (3, h); T (32, c); Hoist_vars [c]; T (14, x);  T (3, w); T (1, h); T (2, f); T (8, c); T (1, x); T (1, y); T (8, f);  T (1, c)]"
67.98,1224575,135265,"[V f; U (1, f); U (14, y); U (3, h); T (16, c); Hoist_vars [c]; T (14, x);  T (3, w); T (1, h); T (2, f); T (16, c); T (1, x); T (1, y); T (8, f);  T (1, c)]"
56.88,1826025,148797,"[V f; U (1, f); U (14, y); U (3, h); T (8, c); Hoist_vars [c]; T (14, x);  T (3, w); T (1, h); T (2, f); T (32, c); T (1, x); T (1, y); T (8, f);  T (1, c)]"
56.19,1741899,87506,"[V f; U (2, f); U (14, y); T (16, c); Hoist_vars [c]; T (14, x); T (3, w);  T (3, h); T (2, f); T (4, c); T (1, x); T (1, y); T (4, f); T (4, c)]"
41.99,2635020,83362,"[V f; U (2, f); U (14, y); T (8, c); Hoist_vars [c]; T (14, x); T (3, w);  T (3, h); T (2, f); T (8, c); T (1, x); T (1, y); T (4, f); T (4, c)]"
77.77,833236,110528,"[V f; U (1, f); U (14, y); U (3, h); T (64, c); Hoist_vars [c]; T (14, x);  T (3, w); T (1, h); T (4, f); T (4, c); T (1, x); T (1, y); T (4, f);  T (1, c)]"
77.81,829940,105857,"[V f; U (1, f); U (14, y); U (3, h); T (64, c); Hoist_vars [c]; T (14, x);  T (3, w); T (1, h); T (4, f); T (2, c); T (1, x); T (1, y); T (4, f);  T (2, c)]"
77.87,830841,88449,"[V f; U (1, f); U (14, y); U (3, h); T (64, c); Hoist_vars [c]; T (14, x);  T (3, w); T (1, h); T (4, f); T (1, c); T (1, x); T (1, y); T (4, f);  T (4, c)]"
70.41,1229562,81334,"[V f; U (1, f); U (14, y); U (3, h); T (16, c); Hoist_vars [c]; T (14, x);  T (3, w); T (1, h); T (4, f); T (4, c); T (1, x); T (1, y); T (4, f);  T (4, c)]"
57.93,1832064,74460,"[V f; U (1, f); U (14, y); U (3, h); T (8, c); Hoist_vars [c]; T (14, x);  T (3, w); T (1, h); T (4, f); T (8, c); T (1, x); T (1, y); T (4, f);  T (4, c)]"
62.28,1177917,319385,"[V f; U (4, f); U (7, y); U (3, w); T (256, c); Hoist_vars [c]; T (14, x);  T (1, w); T (3, h); T (4, f); T (1, c); T (1, x); T (2, y); T (1, f);  T (1, c)]"
56.39,1178876,430940,"[V f; U (4, f); U (7, y); U (3, w); T (256, c); Hoist_vars [c]; T (14, x);  T (1, w); T (3, h); T (2, f); T (1, c); T (1, x); T (2, y); T (2, f);  T (1, c)]"
58.01,1177909,401016,"[V f; U (4, f); U (7, y); U (3, w); T (256, c); Hoist_vars [c]; T (14, x);  T (1, w); T (3, h); T (1, f); T (1, c); T (1, x); T (2, y); T (4, f);  T (1, c)]"
64.85,1317734,146476,"[V f; U (2, f); U (14, y); T (32, c); Hoist_vars [c]; T (14, x); T (3, w);  T (3, h); T (1, f); T (4, c); T (1, x); T (1, y); T (8, f); T (2, c)]"
55.79,1745630,150325,"[V f; U (2, f); U (14, y); T (16, c); Hoist_vars [c]; T (14, x); T (3, w);  T (3, h); T (1, f); T (8, c); T (1, x); T (1, y); T (8, f); T (2, c)]"
40.82,2682665,158893,"[V f; U (2, f); U (14, y); T (8, c); Hoist_vars [c]; T (14, x); T (3, w);  T (3, h); T (1, f); T (16, c); T (1, x); T (1, y); T (8, f); T (2, c)]"
74.09,966848,122620,"[V f; U (1, f); U (14, y); U (3, h); T (32, c); Hoist_vars [c]; T (14, x);  T (3, w); T (1, h); T (2, f); T (4, c); T (1, x); T (1, y); T (8, f);  T (2, c)]"
