perf,CACHE_MISS_L1,CACHE_MISS_L2,scheme
55.81,2054926,178417,"[V f; U (2, f); ULambda y; T (16, c); Hoist_vars [c]; T (17, x); T (1, x);  T (1, y); T (4, f); T (32, c); T (2, x);  Lambda_apply y [((Iter 1), (Arg 10)); ((Iter 2), (Arg 12))]; T (2, f);  T (1, c); T (1, y)]"
55.94,2053577,170690,"[V f; U (2, f); ULambda y; T (16, c); Hoist_vars [c]; T (17, x); T (1, x);  T (1, y); T (4, f); T (32, c); T (2, x); T (1, y); T (2, f); T (1, c);  Lambda_apply y [((Iter 1), (Arg 10)); ((Iter 2), (Arg 12))]]"
55.57,2060223,180466,"[V f; U (2, f); ULambda y; T (16, c); Hoist_vars [c]; T (1, x); T (17, x);  T (1, y); T (4, f); T (32, c); T (2, x);  Lambda_apply y [((Iter 1), (Arg 10)); ((Iter 2), (Arg 12))]; T (2, f);  T (1, c); T (1, y)]"
55.57,2048091,175231,"[V f; U (2, f); ULambda y; T (16, c); Hoist_vars [c]; T (1, x); T (17, x);  T (1, y); T (4, f); T (32, c); T (2, x); T (1, y); T (2, f); T (1, c);  Lambda_apply y [((Iter 1), (Arg 10)); ((Iter 2), (Arg 12))]]"
58.23,2163824,177899,"[V f; U (2, f); ULambda y; T (16, c); Hoist_vars [c]; T (17, x); T (1, x);  T (1, y); T (4, f); T (32, c); T (2, x);  Lambda_apply y [((Iter 2), (Arg 11)); ((Iter 1), (Arg 12))]; T (2, f);  T (1, c); T (1, y)]"
58.09,2158330,173855,"[V f; U (2, f); ULambda y; T (16, c); Hoist_vars [c]; T (17, x); T (1, x);  T (1, y); T (4, f); T (32, c); T (2, x); T (1, y); T (2, f); T (1, c);  Lambda_apply y [((Iter 2), (Arg 11)); ((Iter 1), (Arg 12))]]"
57.81,2153222,179487,"[V f; U (2, f); ULambda y; T (16, c); Hoist_vars [c]; T (1, x); T (17, x);  T (1, y); T (4, f); T (32, c); T (2, x);  Lambda_apply y [((Iter 2), (Arg 11)); ((Iter 1), (Arg 12))]; T (2, f);  T (1, c); T (1, y)]"
58.08,2159617,172565,"[V f; U (2, f); ULambda y; T (16, c); Hoist_vars [c]; T (1, x); T (17, x);  T (1, y); T (4, f); T (32, c); T (2, x); T (1, y); T (2, f); T (1, c);  Lambda_apply y [((Iter 2), (Arg 11)); ((Iter 1), (Arg 12))]]"
64.02,2192612,194362,"[V f; U (2, f); ULambda y; T (32, c); Hoist_vars [c]; T (17, x); T (1, x);  Lambda_apply y [((Iter 1), (Arg 8)); ((Iter 1), (Arg 9))]; T (4, f);  T (16, c); T (2, x); T (2, y); T (2, f); T (1, c); T (1, y)]"
55.03,1804935,212655,"[V f; U (2, f); ULambda y; T (16, c); Hoist_vars [c]; T (17, x); T (1, x);  Lambda_apply y [((Iter 1), (Arg 8)); ((Iter 1), (Arg 9))]; T (4, f);  T (32, c); T (2, x); T (2, y); T (2, f); T (1, c); T (1, y)]"
42.25,2886209,228023,"[V f; U (2, f); ULambda y; T (8, c); Hoist_vars [c]; T (17, x); T (1, x);  Lambda_apply y [((Iter 1), (Arg 8)); ((Iter 1), (Arg 9))]; T (4, f);  T (64, c); T (2, x); T (2, y); T (2, f); T (1, c); T (1, y)]"
64.18,2196257,191807,"[V f; U (2, f); ULambda y; T (32, c); Hoist_vars [c]; T (17, x); T (1, x);  Lambda_apply y [((Iter 1), (Arg 8)); ((Iter 1), (Arg 9))]; T (4, f);  T (16, c); T (2, x); T (1, y); T (2, f); T (1, c); T (2, y)]"
57.50,1819608,195460,"[V f; U (2, f); ULambda y; T (16, c); Hoist_vars [c]; T (17, x); T (1, x);  Lambda_apply y [((Iter 1), (Arg 8)); ((Iter 1), (Arg 9))]; T (4, f);  T (32, c); T (2, x); T (1, y); T (2, f); T (1, c); T (2, y)]"
41.95,2889430,217442,"[V f; U (2, f); ULambda y; T (8, c); Hoist_vars [c]; T (17, x); T (1, x);  Lambda_apply y [((Iter 1), (Arg 8)); ((Iter 1), (Arg 9))]; T (4, f);  T (64, c); T (2, x); T (1, y); T (2, f); T (1, c); T (2, y)]"
65.02,2197783,180446,"[V f; U (2, f); ULambda y; T (32, c); Hoist_vars [c]; T (17, x); T (1, x);  T (1, y); T (4, f); T (16, c); T (2, x);  Lambda_apply y [((Iter 1), (Arg 8)); ((Iter 1), (Arg 9))]; T (2, f);  T (1, c); T (2, y)]"
58.88,1844788,181459,"[V f; U (2, f); ULambda y; T (16, c); Hoist_vars [c]; T (17, x); T (1, x);  T (1, y); T (4, f); T (32, c); T (2, x);  Lambda_apply y [((Iter 1), (Arg 8)); ((Iter 1), (Arg 9))]; T (2, f);  T (1, c); T (2, y)]"
42.09,2928625,204373,"[V f; U (2, f); ULambda y; T (8, c); Hoist_vars [c]; T (17, x); T (1, x);  T (1, y); T (4, f); T (64, c); T (2, x);  Lambda_apply y [((Iter 1), (Arg 8)); ((Iter 1), (Arg 9))]; T (2, f);  T (1, c); T (2, y)]"
63.94,2201190,181249,"[V f; U (2, f); ULambda y; T (32, c); Hoist_vars [c]; T (17, x); T (1, x);  T (1, y); T (4, f); T (16, c); T (2, x); T (2, y); T (2, f); T (1, c);  Lambda_apply y [((Iter 1), (Arg 8)); ((Iter 1), (Arg 9))]]"
59.09,1843388,186018,"[V f; U (2, f); ULambda y; T (16, c); Hoist_vars [c]; T (17, x); T (1, x);  T (1, y); T (4, f); T (32, c); T (2, x); T (2, y); T (2, f); T (1, c);  Lambda_apply y [((Iter 1), (Arg 8)); ((Iter 1), (Arg 9))]]"
40.26,2944004,201257,"[V f; U (2, f); ULambda y; T (8, c); Hoist_vars [c]; T (17, x); T (1, x);  T (1, y); T (4, f); T (64, c); T (2, x); T (2, y); T (2, f); T (1, c);  Lambda_apply y [((Iter 1), (Arg 8)); ((Iter 1), (Arg 9))]]"
64.05,2192437,188541,"[V f; U (2, f); ULambda y; T (32, c); Hoist_vars [c]; T (1, x); T (17, x);  Lambda_apply y [((Iter 1), (Arg 8)); ((Iter 1), (Arg 9))]; T (4, f);  T (16, c); T (2, x); T (2, y); T (2, f); T (1, c); T (1, y)]"
57.77,1810734,198246,"[V f; U (2, f); ULambda y; T (16, c); Hoist_vars [c]; T (1, x); T (17, x);  Lambda_apply y [((Iter 1), (Arg 8)); ((Iter 1), (Arg 9))]; T (4, f);  T (32, c); T (2, x); T (2, y); T (2, f); T (1, c); T (1, y)]"
64.10,2194084,191403,"[V f; U (2, f); ULambda y; T (32, c); Hoist_vars [c]; T (1, x); T (17, x);  Lambda_apply y [((Iter 1), (Arg 8)); ((Iter 1), (Arg 9))]; T (4, f);  T (16, c); T (2, x); T (1, y); T (2, f); T (1, c); T (2, y)]"
58.45,1813647,191096,"[V f; U (2, f); ULambda y; T (16, c); Hoist_vars [c]; T (1, x); T (17, x);  Lambda_apply y [((Iter 1), (Arg 8)); ((Iter 1), (Arg 9))]; T (4, f);  T (32, c); T (2, x); T (1, y); T (2, f); T (1, c); T (2, y)]"
66.27,2193992,177666,"[V f; U (2, f); ULambda y; T (32, c); Hoist_vars [c]; T (1, x); T (17, x);  T (1, y); T (4, f); T (16, c); T (2, x);  Lambda_apply y [((Iter 1), (Arg 8)); ((Iter 1), (Arg 9))]; T (2, f);  T (1, c); T (2, y)]"
58.84,1845770,182511,"[V f; U (2, f); ULambda y; T (16, c); Hoist_vars [c]; T (1, x); T (17, x);  T (1, y); T (4, f); T (32, c); T (2, x);  Lambda_apply y [((Iter 1), (Arg 8)); ((Iter 1), (Arg 9))]; T (2, f);  T (1, c); T (2, y)]"
65.52,2200327,182114,"[V f; U (2, f); ULambda y; T (32, c); Hoist_vars [c]; T (1, x); T (17, x);  T (1, y); T (4, f); T (16, c); T (2, x); T (2, y); T (2, f); T (1, c);  Lambda_apply y [((Iter 1), (Arg 8)); ((Iter 1), (Arg 9))]]"
59.09,1844573,185529,"[V f; U (2, f); ULambda y; T (16, c); Hoist_vars [c]; T (1, x); T (17, x);  T (1, y); T (4, f); T (32, c); T (2, x); T (2, y); T (2, f); T (1, c);  Lambda_apply y [((Iter 1), (Arg 8)); ((Iter 1), (Arg 9))]]"
64.92,2166829,180148,"[V f; U (2, f); ULambda y; T (32, c); Hoist_vars [c]; T (17, x); T (1, x);  T (1, y); T (4, f); T (16, c); T (2, x);  Lambda_apply y [((Iter 3), (Arg 8)); ((Iter 1), (Arg 10))]; T (2, f);  T (1, c); T (1, y)]"
58.20,1831841,186350,"[V f; U (2, f); ULambda y; T (16, c); Hoist_vars [c]; T (17, x); T (1, x);  T (1, y); T (4, f); T (32, c); T (2, x);  Lambda_apply y [((Iter 3), (Arg 8)); ((Iter 1), (Arg 10))]; T (2, f);  T (1, c); T (1, y)]"
65.47,2169905,174521,"[V f; U (2, f); ULambda y; T (32, c); Hoist_vars [c]; T (17, x); T (1, x);  T (1, y); T (4, f); T (16, c); T (2, x); T (1, y); T (2, f); T (1, c);  Lambda_apply y [((Iter 3), (Arg 8)); ((Iter 1), (Arg 10))]]"
59.62,1820633,173658,"[V f; U (2, f); ULambda y; T (16, c); Hoist_vars [c]; T (17, x); T (1, x);  T (1, y); T (4, f); T (32, c); T (2, x); T (1, y); T (2, f); T (1, c);  Lambda_apply y [((Iter 3), (Arg 8)); ((Iter 1), (Arg 10))]]"
63.86,2171514,193540,"[V f; U (2, f); ULambda y; T (32, c); Hoist_vars [c]; T (1, x); T (17, x);  T (1, y); T (4, f); T (16, c); T (2, x);  Lambda_apply y [((Iter 3), (Arg 8)); ((Iter 1), (Arg 10))]; T (2, f);  T (1, c); T (1, y)]"
59.38,1826342,188918,"[V f; U (2, f); ULambda y; T (16, c); Hoist_vars [c]; T (1, x); T (17, x);  T (1, y); T (4, f); T (32, c); T (2, x);  Lambda_apply y [((Iter 3), (Arg 8)); ((Iter 1), (Arg 10))]; T (2, f);  T (1, c); T (1, y)]"
65.76,2174966,170208,"[V f; U (2, f); ULambda y; T (32, c); Hoist_vars [c]; T (1, x); T (17, x);  T (1, y); T (4, f); T (16, c); T (2, x); T (1, y); T (2, f); T (1, c);  Lambda_apply y [((Iter 3), (Arg 8)); ((Iter 1), (Arg 10))]]"
59.50,1815627,176657,"[V f; U (2, f); ULambda y; T (16, c); Hoist_vars [c]; T (1, x); T (17, x);  T (1, y); T (4, f); T (32, c); T (2, x); T (1, y); T (2, f); T (1, c);  Lambda_apply y [((Iter 3), (Arg 8)); ((Iter 1), (Arg 10))]]"
74.05,1903917,192132,"[V f; U (4, f); ULambda y; T (64, c); Hoist_vars [c]; T (17, x); T (1, x);  T (1, y); T (2, f); T (8, c); T (2, x);  Lambda_apply y [((Iter 1), (Arg 6)); ((Iter 4), (Arg 7))]; T (2, f);  T (1, c); T (1, y)]"
67.58,2227724,181334,"[V f; U (4, f); ULambda y; T (32, c); Hoist_vars [c]; T (17, x); T (1, x);  T (1, y); T (2, f); T (16, c); T (2, x);  Lambda_apply y [((Iter 1), (Arg 6)); ((Iter 4), (Arg 7))]; T (2, f);  T (1, c); T (1, y)]"
62.61,1312096,175806,"[V f; U (4, f); ULambda y; T (16, c); Hoist_vars [c]; T (17, x); T (1, x);  T (1, y); T (2, f); T (32, c); T (2, x);  Lambda_apply y [((Iter 1), (Arg 6)); ((Iter 4), (Arg 7))]; T (2, f);  T (1, c); T (1, y)]"
72.67,1905510,173891,"[V f; U (4, f); ULambda y; T (64, c); Hoist_vars [c]; T (17, x); T (1, x);  T (1, y); T (2, f); T (8, c); T (2, x); T (1, y); T (2, f); T (1, c);  Lambda_apply y [((Iter 1), (Arg 6)); ((Iter 4), (Arg 7))]]"
67.04,2220518,163425,"[V f; U (4, f); ULambda y; T (32, c); Hoist_vars [c]; T (17, x); T (1, x);  T (1, y); T (2, f); T (16, c); T (2, x); T (1, y); T (2, f); T (1, c);  Lambda_apply y [((Iter 1), (Arg 6)); ((Iter 4), (Arg 7))]]"
62.03,1316173,157909,"[V f; U (4, f); ULambda y; T (16, c); Hoist_vars [c]; T (17, x); T (1, x);  T (1, y); T (2, f); T (32, c); T (2, x); T (1, y); T (2, f); T (1, c);  Lambda_apply y [((Iter 1), (Arg 6)); ((Iter 4), (Arg 7))]]"
73.33,1903360,201273,"[V f; U (4, f); ULambda y; T (64, c); Hoist_vars [c]; T (1, x); T (17, x);  T (1, y); T (2, f); T (8, c); T (2, x);  Lambda_apply y [((Iter 1), (Arg 6)); ((Iter 4), (Arg 7))]; T (2, f);  T (1, c); T (1, y)]"
66.79,2222714,180287,"[V f; U (4, f); ULambda y; T (32, c); Hoist_vars [c]; T (1, x); T (17, x);  T (1, y); T (2, f); T (16, c); T (2, x);  Lambda_apply y [((Iter 1), (Arg 6)); ((Iter 4), (Arg 7))]; T (2, f);  T (1, c); T (1, y)]"
60.61,1325786,189970,"[V f; U (4, f); ULambda y; T (16, c); Hoist_vars [c]; T (1, x); T (17, x);  T (1, y); T (2, f); T (32, c); T (2, x);  Lambda_apply y [((Iter 1), (Arg 6)); ((Iter 4), (Arg 7))]; T (2, f);  T (1, c); T (1, y)]"
74.51,1903160,167557,"[V f; U (4, f); ULambda y; T (64, c); Hoist_vars [c]; T (1, x); T (17, x);  T (1, y); T (2, f); T (8, c); T (2, x); T (1, y); T (2, f); T (1, c);  Lambda_apply y [((Iter 1), (Arg 6)); ((Iter 4), (Arg 7))]]"
68.11,2220779,168013,"[V f; U (4, f); ULambda y; T (32, c); Hoist_vars [c]; T (1, x); T (17, x);  T (1, y); T (2, f); T (16, c); T (2, x); T (1, y); T (2, f); T (1, c);  Lambda_apply y [((Iter 1), (Arg 6)); ((Iter 4), (Arg 7))]]"
61.97,1307957,162501,"[V f; U (4, f); ULambda y; T (16, c); Hoist_vars [c]; T (1, x); T (17, x);  T (1, y); T (2, f); T (32, c); T (2, x); T (1, y); T (2, f); T (1, c);  Lambda_apply y [((Iter 1), (Arg 6)); ((Iter 4), (Arg 7))]]"
55.53,2037498,178171,"[V f; U (2, f); ULambda y; T (16, c); Hoist_vars [c]; T (17, x); T (1, x);  T (1, y); T (4, f); T (16, c); T (2, x);  Lambda_apply y [((Iter 1), (Arg 10)); ((Iter 2), (Arg 12))]; T (2, f);  T (2, c); T (1, y)]"
55.12,2048640,172303,"[V f; U (2, f); ULambda y; T (16, c); Hoist_vars [c]; T (17, x); T (1, x);  T (1, y); T (4, f); T (16, c); T (2, x); T (1, y); T (2, f); T (2, c);  Lambda_apply y [((Iter 1), (Arg 10)); ((Iter 2), (Arg 12))]]"
