perf,CACHE_MISS_L1,CACHE_MISS_L2,scheme
69.44,11661639,1001099,"[V f; U (1, f); ULambda y; U (3, h); T (64, c); Hoist_vars [c]; T (17, x);  T (3, w); T (1, h); T (32, f); T (2, x);  Lambda_apply y [((Iter 1), (Arg 10)); ((Iter 2), (Arg 12))]; T (1, x);  T (1, f); T (4, c)]"
69.48,11650503,997262,"[V f; U (1, f); ULambda y; U (3, h); T (64, c); Hoist_vars [c]; T (17, x);  T (3, w); T (1, h); T (32, f); T (1, x);  Lambda_apply y [((Iter 1), (Arg 10)); ((Iter 2), (Arg 12))]; T (2, x);  T (1, f); T (4, c)]"
69.39,11608615,1011572,"[V f; U (1, f); ULambda y; U (3, h); T (64, c); Hoist_vars [c]; T (17, x);  T (3, w); T (1, h); T (32, f); T (2, x);  Lambda_apply y [((Iter 2), (Arg 10)); ((Iter 1), (Arg 14))]; T (1, x);  T (1, f); T (4, c)]"
69.52,11621713,1035739,"[V f; U (1, f); ULambda y; U (3, h); T (64, c); Hoist_vars [c]; T (17, x);  T (3, w); T (1, h); T (32, f); T (1, x);  Lambda_apply y [((Iter 2), (Arg 10)); ((Iter 1), (Arg 14))]; T (2, x);  T (1, f); T (4, c)]"
69.07,11584008,989335,"[V f; U (1, f); ULambda y; U (3, h); T (64, c); Hoist_vars [c]; T (17, x);  T (3, w); T (1, h); T (32, f); T (2, x);  Lambda_apply y [((Iter 2), (Arg 11)); ((Iter 1), (Arg 12))]; T (1, x);  T (1, f); T (4, c)]"
68.38,11598101,980161,"[V f; U (1, f); ULambda y; U (3, h); T (64, c); Hoist_vars [c]; T (17, x);  T (3, w); T (1, h); T (32, f); T (1, x);  Lambda_apply y [((Iter 2), (Arg 11)); ((Iter 1), (Arg 12))]; T (2, x);  T (1, f); T (4, c)]"
67.27,11647833,1055210,"[V f; U (1, f); ULambda y; U (3, h); T (64, c); Hoist_vars [c]; T (17, x);  T (3, w); T (1, h); T (16, f); T (2, x);  Lambda_apply y [((Iter 1), (Arg 10)); ((Iter 2), (Arg 12))]; T (1, x);  T (2, f); T (4, c)]"
69.46,11663793,1060508,"[V f; U (1, f); ULambda y; U (3, h); T (64, c); Hoist_vars [c]; T (17, x);  T (3, w); T (1, h); T (16, f); T (1, x);  Lambda_apply y [((Iter 1), (Arg 10)); ((Iter 2), (Arg 12))]; T (2, x);  T (2, f); T (4, c)]"
69.23,11624770,1063797,"[V f; U (1, f); ULambda y; U (3, h); T (64, c); Hoist_vars [c]; T (17, x);  T (3, w); T (1, h); T (16, f); T (2, x);  Lambda_apply y [((Iter 2), (Arg 10)); ((Iter 1), (Arg 14))]; T (1, x);  T (2, f); T (4, c)]"
70.22,11617032,1061729,"[V f; U (1, f); ULambda y; U (3, h); T (64, c); Hoist_vars [c]; T (17, x);  T (3, w); T (1, h); T (16, f); T (1, x);  Lambda_apply y [((Iter 2), (Arg 10)); ((Iter 1), (Arg 14))]; T (2, x);  T (2, f); T (4, c)]"
68.87,11594229,1033951,"[V f; U (1, f); ULambda y; U (3, h); T (64, c); Hoist_vars [c]; T (17, x);  T (3, w); T (1, h); T (16, f); T (2, x);  Lambda_apply y [((Iter 2), (Arg 11)); ((Iter 1), (Arg 12))]; T (1, x);  T (2, f); T (4, c)]"
68.85,11585587,1036156,"[V f; U (1, f); ULambda y; U (3, h); T (64, c); Hoist_vars [c]; T (17, x);  T (3, w); T (1, h); T (16, f); T (1, x);  Lambda_apply y [((Iter 2), (Arg 11)); ((Iter 1), (Arg 12))]; T (2, x);  T (2, f); T (4, c)]"
34.91,13968494,11555761,"[V f; U (4, f); ULambda y; U (3, w); T (256, c); Hoist_vars [c]; T (34, x);  T (1, w); T (3, h); T (2, f); T (1, x);  Lambda_apply y [((Iter 1), (Arg 6)); ((Iter 4), (Arg 7))]; T (1, x);  T (4, f); T (1, c)]"
33.68,13968473,11628184,"[V f; U (4, f); ULambda y; U (3, w); T (256, c); Hoist_vars [c]; T (34, x);  T (1, w); T (3, h); T (1, f); T (1, x);  Lambda_apply y [((Iter 1), (Arg 6)); ((Iter 4), (Arg 7))]; T (1, x);  T (8, f); T (1, c)]"
46.45,14339958,4165716,"[V f; U (2, f); ULambda y; T (64, c); Hoist_vars [c]; T (2, x); T (3, w);  T (3, h); T (1, f); T (1, x);  Lambda_apply y [((Iter 3), (Arg 8)); ((Iter 1), (Arg 10))]; T (17, x);  T (16, f); T (4, c)]"
37.28,13105427,6453905,"[V f; U (2, f); ULambda y; T (64, c); Hoist_vars [c]; T (1, x); T (3, w);  T (3, h); T (1, f); T (2, x);  Lambda_apply y [((Iter 3), (Arg 8)); ((Iter 1), (Arg 10))]; T (17, x);  T (16, f); T (4, c)]"
37.18,13366046,6217042,"[V f; U (2, f); ULambda y; T (64, c); Hoist_vars [c]; T (1, x); T (3, w);  T (3, h); T (1, f); T (1, x);  Lambda_apply y [((Iter 3), (Arg 8)); ((Iter 1), (Arg 10))]; T (34, x);  T (16, f); T (4, c)]"
48.55,12629271,3467872,"[V f; U (2, f); ULambda y; T (64, c); Hoist_vars [c]; T (2, x); T (3, w);  T (3, h); T (1, f); T (1, x);  Lambda_apply y [((Iter 1), (Arg 8)); ((Iter 2), (Arg 13))]; T (17, x);  T (16, f); T (4, c)]"
39.56,11498810,5127372,"[V f; U (2, f); ULambda y; T (64, c); Hoist_vars [c]; T (1, x); T (3, w);  T (3, h); T (1, f); T (2, x);  Lambda_apply y [((Iter 1), (Arg 8)); ((Iter 2), (Arg 13))]; T (17, x);  T (16, f); T (4, c)]"
39.40,11756465,5167046,"[V f; U (2, f); ULambda y; T (64, c); Hoist_vars [c]; T (1, x); T (3, w);  T (3, h); T (1, f); T (1, x);  Lambda_apply y [((Iter 1), (Arg 8)); ((Iter 2), (Arg 13))]; T (34, x);  T (16, f); T (4, c)]"
49.14,12762407,3502878,"[V f; U (2, f); ULambda y; T (64, c); Hoist_vars [c]; T (2, x); T (3, w);  T (3, h); T (1, f); T (1, x);  Lambda_apply y [((Iter 1), (Arg 10)); ((Iter 2), (Arg 12))]; T (17, x);  T (16, f); T (4, c)]"
38.91,11199433,5108842,"[V f; U (2, f); ULambda y; T (64, c); Hoist_vars [c]; T (1, x); T (3, w);  T (3, h); T (1, f); T (2, x);  Lambda_apply y [((Iter 1), (Arg 10)); ((Iter 2), (Arg 12))]; T (17, x);  T (16, f); T (4, c)]"
38.78,11520446,5230735,"[V f; U (2, f); ULambda y; T (64, c); Hoist_vars [c]; T (1, x); T (3, w);  T (3, h); T (1, f); T (1, x);  Lambda_apply y [((Iter 1), (Arg 10)); ((Iter 2), (Arg 12))]; T (34, x);  T (16, f); T (4, c)]"
48.24,12667603,3503344,"[V f; U (2, f); ULambda y; T (64, c); Hoist_vars [c]; T (2, x); T (3, w);  T (3, h); T (1, f); T (1, x);  Lambda_apply y [((Iter 2), (Arg 10)); ((Iter 1), (Arg 14))]; T (17, x);  T (16, f); T (4, c)]"
39.32,11384293,5140742,"[V f; U (2, f); ULambda y; T (64, c); Hoist_vars [c]; T (1, x); T (3, w);  T (3, h); T (1, f); T (2, x);  Lambda_apply y [((Iter 2), (Arg 10)); ((Iter 1), (Arg 14))]; T (17, x);  T (16, f); T (4, c)]"
39.06,11685050,5283178,"[V f; U (2, f); ULambda y; T (64, c); Hoist_vars [c]; T (1, x); T (3, w);  T (3, h); T (1, f); T (1, x);  Lambda_apply y [((Iter 2), (Arg 10)); ((Iter 1), (Arg 14))]; T (34, x);  T (16, f); T (4, c)]"
47.73,12809639,3469879,"[V f; U (2, f); ULambda y; T (64, c); Hoist_vars [c]; T (2, x); T (3, w);  T (3, h); T (1, f); T (1, x);  Lambda_apply y [((Iter 2), (Arg 11)); ((Iter 1), (Arg 12))]; T (17, x);  T (16, f); T (4, c)]"
38.48,11210739,5110217,"[V f; U (2, f); ULambda y; T (64, c); Hoist_vars [c]; T (1, x); T (3, w);  T (3, h); T (1, f); T (2, x);  Lambda_apply y [((Iter 2), (Arg 11)); ((Iter 1), (Arg 12))]; T (17, x);  T (16, f); T (4, c)]"
37.41,11502688,5274677,"[V f; U (2, f); ULambda y; T (64, c); Hoist_vars [c]; T (1, x); T (3, w);  T (3, h); T (1, f); T (1, x);  Lambda_apply y [((Iter 2), (Arg 11)); ((Iter 1), (Arg 12))]; T (34, x);  T (16, f); T (4, c)]"
43.78,10666478,3388841,"[V f; U (1, f); ULambda y; U (3, h); T (64, c); Hoist_vars [c]; T (2, x);  T (3, w); T (1, h); T (2, f); T (1, x);  Lambda_apply y [((Iter 1), (Arg 10)); ((Iter 2), (Arg 12))]; T (17, x);  T (16, f); T (4, c)]"
35.61,10433346,5091232,"[V f; U (1, f); ULambda y; U (3, h); T (64, c); Hoist_vars [c]; T (1, x);  T (3, w); T (1, h); T (2, f); T (2, x);  Lambda_apply y [((Iter 1), (Arg 10)); ((Iter 2), (Arg 12))]; T (17, x);  T (16, f); T (4, c)]"
35.50,10835890,5260914,"[V f; U (1, f); ULambda y; U (3, h); T (64, c); Hoist_vars [c]; T (1, x);  T (3, w); T (1, h); T (2, f); T (1, x);  Lambda_apply y [((Iter 1), (Arg 10)); ((Iter 2), (Arg 12))]; T (34, x);  T (16, f); T (4, c)]"
43.37,10644680,3498760,"[V f; U (1, f); ULambda y; U (3, h); T (64, c); Hoist_vars [c]; T (2, x);  T (3, w); T (1, h); T (2, f); T (1, x);  Lambda_apply y [((Iter 2), (Arg 10)); ((Iter 1), (Arg 14))]; T (17, x);  T (16, f); T (4, c)]"
35.56,10409977,4882716,"[V f; U (1, f); ULambda y; U (3, h); T (64, c); Hoist_vars [c]; T (1, x);  T (3, w); T (1, h); T (2, f); T (2, x);  Lambda_apply y [((Iter 2), (Arg 10)); ((Iter 1), (Arg 14))]; T (17, x);  T (16, f); T (4, c)]"
35.15,10773446,5152115,"[V f; U (1, f); ULambda y; U (3, h); T (64, c); Hoist_vars [c]; T (1, x);  T (3, w); T (1, h); T (2, f); T (1, x);  Lambda_apply y [((Iter 2), (Arg 10)); ((Iter 1), (Arg 14))]; T (34, x);  T (16, f); T (4, c)]"
37.99,10620492,3434633,"[V f; U (1, f); ULambda y; U (3, h); T (64, c); Hoist_vars [c]; T (2, x);  T (3, w); T (1, h); T (2, f); T (1, x);  Lambda_apply y [((Iter 2), (Arg 11)); ((Iter 1), (Arg 12))]; T (17, x);  T (16, f); T (4, c)]"
34.43,10365671,5078185,"[V f; U (1, f); ULambda y; U (3, h); T (64, c); Hoist_vars [c]; T (1, x);  T (3, w); T (1, h); T (2, f); T (2, x);  Lambda_apply y [((Iter 2), (Arg 11)); ((Iter 1), (Arg 12))]; T (17, x);  T (16, f); T (4, c)]"
35.27,10773349,4959696,"[V f; U (1, f); ULambda y; U (3, h); T (64, c); Hoist_vars [c]; T (1, x);  T (3, w); T (1, h); T (2, f); T (1, x);  Lambda_apply y [((Iter 2), (Arg 11)); ((Iter 1), (Arg 12))]; T (34, x);  T (16, f); T (4, c)]"
48.68,9642703,3367282,"[V f; U (2, f); ULambda y; U (3, h); T (64, c); Hoist_vars [c]; T (2, x);  T (3, w); T (1, h); T (1, f); T (1, x);  Lambda_apply y [((Iter 1), (Arg 10)); ((Iter 2), (Arg 12))]; T (17, x);  T (16, f); T (4, c)]"
38.77,9353817,5025528,"[V f; U (2, f); ULambda y; U (3, h); T (64, c); Hoist_vars [c]; T (1, x);  T (3, w); T (1, h); T (1, f); T (2, x);  Lambda_apply y [((Iter 1), (Arg 10)); ((Iter 2), (Arg 12))]; T (17, x);  T (16, f); T (4, c)]"
38.47,9759263,5058074,"[V f; U (2, f); ULambda y; U (3, h); T (64, c); Hoist_vars [c]; T (1, x);  T (3, w); T (1, h); T (1, f); T (1, x);  Lambda_apply y [((Iter 1), (Arg 10)); ((Iter 2), (Arg 12))]; T (34, x);  T (16, f); T (4, c)]"
47.43,9592253,3279822,"[V f; U (2, f); ULambda y; U (3, h); T (64, c); Hoist_vars [c]; T (2, x);  T (3, w); T (1, h); T (1, f); T (1, x);  Lambda_apply y [((Iter 2), (Arg 11)); ((Iter 1), (Arg 12))]; T (17, x);  T (16, f); T (4, c)]"
38.25,9300910,5230655,"[V f; U (2, f); ULambda y; U (3, h); T (64, c); Hoist_vars [c]; T (1, x);  T (3, w); T (1, h); T (1, f); T (2, x);  Lambda_apply y [((Iter 2), (Arg 11)); ((Iter 1), (Arg 12))]; T (17, x);  T (16, f); T (4, c)]"
37.73,9692235,5077149,"[V f; U (2, f); ULambda y; U (3, h); T (64, c); Hoist_vars [c]; T (1, x);  T (3, w); T (1, h); T (1, f); T (1, x);  Lambda_apply y [((Iter 2), (Arg 11)); ((Iter 1), (Arg 12))]; T (34, x);  T (16, f); T (4, c)]"
34.95,16253089,13815785,"[V f; U (4, f); ULambda y; U (3, w); T (256, c); Hoist_vars [c]; T (34, x);  T (1, w); T (3, h); T (2, f); T (1, x);  Lambda_apply y [((Iter 1), (Arg 4)); ((Iter 5), (Arg 6))]; T (1, x);  T (4, f); T (1, c)]"
34.20,16267894,14020656,"[V f; U (4, f); ULambda y; U (3, w); T (256, c); Hoist_vars [c]; T (34, x);  T (1, w); T (3, h); T (1, f); T (1, x);  Lambda_apply y [((Iter 1), (Arg 4)); ((Iter 5), (Arg 6))]; T (1, x);  T (8, f); T (1, c)]"
32.71,13943326,11388188,"[V f; U (4, f); ULambda y; U (3, w); T (256, c); Hoist_vars [c]; T (34, x);  T (1, w); T (3, h); T (4, f); T (1, x);  Lambda_apply y [((Iter 1), (Arg 6)); ((Iter 4), (Arg 7))]; T (1, x);  T (2, f); T (1, c)]"
69.50,11641427,1118775,"[V f; U (1, f); ULambda y; U (3, h); T (64, c); Hoist_vars [c]; T (17, x);  T (3, w); T (1, h); T (8, f); T (2, x);  Lambda_apply y [((Iter 1), (Arg 10)); ((Iter 2), (Arg 12))]; T (1, x);  T (4, f); T (4, c)]"
69.69,11652283,1122007,"[V f; U (1, f); ULambda y; U (3, h); T (64, c); Hoist_vars [c]; T (17, x);  T (3, w); T (1, h); T (8, f); T (1, x);  Lambda_apply y [((Iter 1), (Arg 10)); ((Iter 2), (Arg 12))]; T (2, x);  T (4, f); T (4, c)]"
69.42,11617313,1147243,"[V f; U (1, f); ULambda y; U (3, h); T (64, c); Hoist_vars [c]; T (17, x);  T (3, w); T (1, h); T (8, f); T (2, x);  Lambda_apply y [((Iter 2), (Arg 10)); ((Iter 1), (Arg 14))]; T (1, x);  T (4, f); T (4, c)]"
