perf, CACHE_MISS_L1, CACHE_MISS_L2
46.64,915904,492886
58.44,891748,585613
28.95,4385349,505235
52.31,580716,507080
27.56,1218839,432088
55.16,692438,361633
30.17,3601632,630669
54.74,710763,321720
37.17,887751,487024
25.15,928786,438006
57.62,667557,546825
27.51,3517880,558528
23.22,6510470,569236
26.92,1224248,485026
23.23,7306842,468110
23.28,6537409,540450
29.21,1233194,505243
53.11,595798,549410
24.99,965670,390569
49.30,1266822,296837
50.08,699390,752330
30.87,1819204,1192838
52.15,725253,367617
11.07,13735212,1536823
51.86,599575,486990
38.89,864434,541621
32.21,928992,457716
52.22,754112,423311
49.23,799227,400484
31.55,930761,501718
29.17,938552,610038
21.05,4513377,520788
51.97,594153,475904
49.51,816742,591561
52.34,771984,584312
52.87,675528,543688
27.89,1145361,529571
54.95,820805,412793
36.95,2350141,557235
19.58,3894016,560234
15.66,7298344,513231
49.43,531360,725925
41.98,976989,707311
26.77,2738101,1273205
26.84,2729390,1206775
25.16,2723929,1176220
42.08,694347,326629
11.91,10883805,4861072
28.90,2746594,779993
17.69,5453573,1491901
12.51,10896972,3055229
17.67,5465582,1502825
17.45,5447680,1508338
37.70,1123564,331732
23.00,3241242,1111488
23.09,3240331,1088791
48.98,493275,344537
46.11,493379,348208
31.25,1390936,1226657
23.82,2548757,2238622
49.25,668431,387348
45.85,811892,571361
23.67,2541617,2308437
39.16,775227,614923
17.25,4983418,4408090
17.31,4981200,4367618
23.69,2472416,2621080
39.37,773932,655361
31.08,1337204,1249382
30.90,1337614,1230816
17.69,4792514,4723269
17.67,4798517,4787946
17.51,4788727,4794545
50.08,662011,386999
40.00,1173828,930989
40.13,1164413,864790
31.81,1140141,965995
19.76,3526796,2465096
40.04,690775,607230
19.24,3513016,2949445
18.99,3514585,3069130
19.38,3518704,2945236
33.24,1154408,386623
23.29,2959244,414491
23.20,2960220,347866
50.49,1383082,204826
48.91,1444011,202753
48.66,1449337,337258
48.05,1457940,208201
32.70,2424573,372261
21.45,3672108,187640
35.76,2530090,188458
32.80,2422643,344823
21.46,3664535,227907
46.17,556582,710084
43.75,587628,880033
11.42,10858102,5427624
44.02,567608,792215
32.01,1919244,1650743
15.69,5430012,2679874
11.60,10870157,5256995
16.02,5437981,2629827
16.06,5434979,2638477
11.48,10855515,5392467
22.99,2725446,1386732
33.22,1379553,458284
17.25,5442722,1702965
17.03,5440921,1706927
17.19,5451216,1723658
24.46,3751782,1827967
17.10,5445869,1705674
17.27,5440625,1685702
17.50,5440755,1654386
12.19,10875843,3437410
12.16,10881266,3453865
47.58,598411,334839
27.75,1927166,616392
45.51,633492,410255
22.77,3321390,1122374
35.06,1751340,888945
22.64,3318610,1133245
16.64,6293841,2261007
16.69,6236622,2189439
23.29,3310712,1112198
22.70,3325303,1130342
16.45,6325538,2296201
28.88,2481027,2047401
23.65,2598088,2568783
17.04,5130404,5077117
36.62,788865,669843
36.67,792168,663849
23.44,2572503,2614087
23.40,2606130,2590352
16.76,5161081,5145720
29.46,1326659,1354395
42.50,835140,604978
29.17,1334799,1379177
23.73,2475096,2499791
23.42,2509022,2683158
36.43,769597,708016
29.14,2346773,2058858
29.00,1694108,1598362
17.16,4901498,5027629
46.29,484297,347449
43.28,452711,376919
19.08,3720918,2678127
46.45,492586,360669
43.76,670249,498709
43.21,735730,517277
18.78,3742291,2906705
14.98,3750257,3045329
44.00,592439,279004
22.15,3011316,532001
22.57,3024216,388093
22.26,3034649,510384
20.73,3539091,314527
30.98,2250875,418575
33.84,1581534,193158
20.45,3565917,415674
51.29,1012622,476964
62.87,519959,412147
56.19,958133,364864
62.48,767495,563360
62.23,675275,442830
60.55,1521855,817910
48.15,1623877,452628
47.22,2049063,665352
44.66,1241016,1031308
45.13,1224492,549367
43.33,2133081,563441
60.59,2141709,728065
56.64,1870032,570625
60.52,2095862,499448
64.09,2131794,441928
49.32,2088434,1157468
61.13,764388,632494
60.77,1260719,542100
44.01,1222804,360791
62.12,2089940,441460
60.13,1270790,522220
56.93,2139739,770515
42.51,964871,686999
16.57,7576482,4720176
52.18,562410,490936
50.25,544081,295643
26.79,6216402,595680
49.55,588629,322813
38.19,2532519,604236
52.30,1326311,474283
48.99,1308596,555231
45.67,982059,376439
38.31,2542843,568069
44.68,1346988,385792
53.59,1371560,466889
40.33,899971,543211
42.28,1298284,911339
37.21,1349965,904570
45.43,849096,493662
46.05,1408767,439098
22.34,3779022,2595383
13.22,7529734,5056119
31.00,2923758,523685
45.16,777847,411449
34.98,1925012,711207
38.11,1679018,417832
40.54,1570998,597803
40.84,1199298,570545
40.02,1525400,676452
44.56,938337,320614
51.83,651072,496909
25.46,1257196,473562
44.31,721098,485999
31.77,1679868,608915
43.40,785277,470951
24.89,5074127,510238
51.69,1340105,595998
43.73,723311,567811
27.12,2929926,462658
43.75,1216545,440525
32.64,1248592,651392
49.90,1225808,373386
11.42,7401882,7487883
33.90,1024525,448716
25.22,2738291,636288
39.62,883849,497825
40.10,898312,523670
30.81,1690670,509730
38.69,841739,526313
36.31,598011,362174
38.44,812305,462443
25.41,2759672,550031
21.03,5457295,557518
21.55,2744302,603581
39.86,891181,550101
22.23,2746005,491733
34.98,903896,412100
50.16,351610,217570
37.99,1318695,815433
27.04,2593997,1590055
21.59,5148773,3160958
21.51,5149359,3192266
35.61,2411812,3029384
37.43,1314568,817128
52.16,370378,290294
50.48,383351,177046
46.45,705770,333276
39.37,1348355,648380
39.07,1350823,652268
29.03,2631742,1304051
23.51,5180097,2591880
40.87,2048643,371935
27.14,4322641,2163704
40.98,1208827,606852
31.09,2215008,1178002
26.80,4321877,2307297
45.78,735159,618493
45.91,735422,637818
45.56,736553,662869
27.32,3623785,3451986
30.90,1980149,2196487
27.15,3620916,3351612
26.00,3625207,3784999
41.02,2030540,334512
40.01,1120321,1230985
49.34,548527,368966
30.70,1898065,2233682
27.22,3447359,3734068
46.59,1160222,1077679
39.87,1118604,1359145
26.18,3450031,4338834
51.12,2071100,501690
39.96,1164913,915862
40.03,1166447,1016097
39.47,1163735,1015593
45.35,1149367,301226
46.04,972305,216339
42.27,1176582,359084
39.49,1496177,235818
45.43,1143950,281228
39.02,1494224,448973
46.04,960828,245836
34.39,3166111,689335
31.62,2153524,1015661
27.46,3507049,3119957
42.43,1764876,315554
35.27,2833581,388945
34.67,2856323,497068
43.48,461689,508314
43.15,460336,509907
16.65,5005775,4195939
36.34,652589,553297
47.67,1247231,342114
37.62,675641,421286
31.80,1296328,816410
18.38,5021826,3119060
37.41,668319,432004
18.39,5019165,3153115
31.90,1295460,830222
18.42,5020180,3146618
24.70,2539460,1661878
20.82,4301888,2486578
44.00,516960,356368
40.90,393790,232172
38.07,658863,412325
26.33,2180805,1426934
33.70,1108356,881629
26.53,1982530,1691840
33.40,1105325,994785
26.36,1982300,1964650
47.55,1252314,308522
38.35,674812,562714
26.66,1968337,2119230
38.27,677835,644363
44.87,681282,343483
34.59,1074390,927274
19.93,3298733,5879892
36.24,1171967,296964
34.40,1219396,883038
41.48,1725192,331379
29.67,3685683,187749
29.47,3691449,320621
48.44,1229040,167553
28.67,3716330,546869
35.53,1769191,1567558
27.53,3785372,983428
28.32,2574079,1751387
38.89,341306,342576
29.42,1274087,1202716
22.17,2504294,2348089
35.18,648873,613082
38.91,336916,330853
35.11,648824,611657
41.17,521529,458911
30.35,1290708,918470
39.18,353333,278091
30.27,1295416,915927
17.90,4992828,3568723
30.95,1915036,1962085
24.97,2185529,1616868
24.91,2187486,1697479
44.77,1121543,306634
25.71,1986109,1948714
36.65,665345,567625
20.82,3844250,3302711
31.86,1106104,1067691
25.67,1985713,2021597
36.89,666977,576036
31.97,1101439,1098657
20.90,3833418,3500055
20.99,3836830,3579170
36.90,668639,598088
26.52,1826019,1721378
22.83,3303270,2990062
41.66,643298,324253
38.48,812821,229478
29.50,2919661,373579
28.61,1752381,570121
31.76,1165479,1502455
41.73,1594115,188395
38.52,1601993,204702
31.46,2262341,368672
43.42,1048949,224735
28.43,3607197,515810
27.26,3670923,977687
42.82,976231,665774
32.95,2991935,584395
33.59,3038601,407061
31.06,5901149,389337
51.00,1173887,733155
31.40,5936633,381562
48.06,638618,332268
42.75,967745,602692
47.54,864951,442853
40.33,1320257,1136413
47.32,1856092,613124
34.97,1378758,450479
35.66,2160929,471485
39.11,3479033,611783
38.53,3474510,648762
51.11,1513669,603846
49.67,623039,351183
31.60,3092787,417896
38.84,3331466,637822
41.61,1480059,552748
51.85,1084966,549676
43.98,962905,311638
41.97,1183560,669888
46.85,648078,342100
40.65,1227058,903880
50.08,1338432,486567
40.66,1203829,351725
27.06,857768,728861
47.46,1287548,421643
26.49,868792,678093
30.53,1266749,802017
53.63,641681,492224
27.19,2473020,1522396
21.65,4880850,3044947
27.38,2497436,1528944
36.44,2258903,1688731
36.36,2256075,1688389
54.42,478733,189143
56.47,785647,365024
44.87,686996,328217
37.78,1312976,645352
37.24,2352795,1430677
36.98,2355047,1435929
37.11,2353955,1432650
23.24,4937041,2519463
45.68,686331,282769
26.94,4045098,2076108
38.61,1153140,548845
53.24,618688,314423
51.89,527848,359167
29.81,1962354,1895905
44.29,735263,600311
52.00,528662,351279
38.70,1149231,1055908
29.88,1961584,1872105
39.68,2063879,351764
44.38,724081,692590
44.12,731766,706616
44.13,727363,717387
25.89,3331071,4065474
44.17,727003,716771
38.49,1114068,1267122
29.67,1941323,2218752
29.85,1949455,2340424
50.46,812563,330700
39.02,1170763,924597
38.88,1171158,947665
39.55,2269106,1726394
25.28,1845111,1559327
43.39,834350,558506
38.71,1170288,906205
38.56,1171444,969873
33.21,3125146,468614
42.23,1203477,354638
40.10,2631133,431147
33.16,3123365,478658
33.01,2072861,279494
37.86,1500091,419447
33.17,3115183,425669
33.02,2074924,296482
32.85,3123309,537940
39.65,2025648,297531
37.22,2046319,326052
35.69,2377066,183289
30.62,3086674,322927
32.44,4342147,253320
32.23,4328518,363084
39.84,2025738,209313
50.33,2124362,231167
35.63,2385270,208325
35.73,2371554,190993
30.82,3097860,186888
30.82,3095319,181108
32.61,4314617,189767
30.62,3092673,196238
32.39,4327039,181214
50.87,1278800,420983
50.42,543373,280944
50.29,540120,290031
47.26,384754,255900
47.17,383221,257440
33.62,1278045,905874
24.89,2475826,1807659
46.81,383411,247321
17.88,4861574,3591151
41.22,679591,478461
17.79,4861416,3598956
18.08,4860297,3557982
53.05,1282960,410272
19.48,4900852,2707948
35.12,1307100,692875
34.34,2127464,1533191
35.01,1309454,700582
26.22,2600786,1479681
19.20,4900919,2764674
19.36,4898045,2753257
53.75,1288258,346277
48.11,443574,184500
21.98,4204174,2055990
50.78,601289,252262
50.64,598226,252196
42.89,682575,306445
37.05,1167729,535269
21.81,4188301,2099988
42.96,681996,301818
42.97,681934,299732
28.76,2132900,1079754
43.24,681027,306039
28.56,2118197,1079421
28.71,2117701,1046931
28.50,2120165,1065778
36.86,1161692,551049
53.33,1299448,315145
28.67,2056092,1255804
21.91,3818280,2409107
28.56,2057333,1260489
22.06,3811798,2435697
36.42,1169754,895820
28.40,2139845,1639944
36.49,1171774,868156
35.63,2071337,1991841
28.13,2070119,1775575
28.13,2059354,1699094
51.02,916973,401378
23.27,3407560,2694785
43.19,736947,576537
37.34,1125358,966439
29.60,1897301,1644083
24.42,3401264,2415266
43.74,1166309,812459
23.69,3416889,2708592
29.37,1893516,1673336
32.50,1812726,322414
28.29,3005117,395048
28.26,3007867,402359
28.05,2992503,509807
39.57,1217101,276198
28.37,2999318,389472
45.32,908937,227706
39.85,1208956,231816
28.36,3006346,521743
51.17,1266043,201227
49.28,1209492,301915
46.84,1401729,173101
51.57,1263659,168802
49.77,1211947,171739
49.60,1211951,176761
46.66,1401061,204089
41.53,1741699,206180
41.58,2459198,212336
35.40,2393175,196138
35.19,2393549,194478
29.26,3708524,246688
29.56,3707910,184046
44.07,572584,549881
47.01,553967,355053
31.93,1278734,983585
39.14,684533,500179
46.63,763972,581051
44.50,592690,448643
39.39,708391,412832
32.90,1310167,776393
39.28,703881,404022
18.37,4898432,3025601
27.77,2148527,1048354
21.48,4218230,2099829
35.04,1173949,538319
27.52,2145068,1108903
27.70,2136827,1090696
35.18,1159316,715240
47.92,646408,310295
21.19,3841492,2594092
40.07,708865,413463
27.15,2058518,1364907
21.52,3836104,2570471
47.61,654700,330087
47.47,656138,327971
44.88,490961,305281
43.88,491045,324196
34.71,1164337,967344
27.14,2054443,1755975
47.66,871937,399798
44.66,492171,307045
39.91,1108710,980105
34.14,2070184,1988494
34.11,2034657,1945203
27.55,2074598,1823565
21.38,3849114,2885813
40.59,1112162,773591
47.35,903010,362907
47.47,963967,394942
45.10,533123,344975
40.90,747374,618815
21.89,3632012,2555174
22.05,3623411,2611378
49.52,1153199,257574
48.66,1159151,508946
45.49,890628,328997
37.57,1170113,388917
31.38,1782026,329862
45.83,928711,351833
37.91,1174970,235855
27.13,2974956,480543
27.82,2972607,293034
27.49,2977695,373906
33.84,2293883,271057
33.78,2283662,359527
29.62,3547321,330702
43.80,1285293,346130
40.57,1614510,341855
53.77,691491,597336
46.32,916486,553611
40.46,862106,453653
21.19,1193715,524480
48.48,1075477,366418
27.97,4082073,532774
20.38,1237982,656297
27.05,2604549,604801
52.55,846653,581034
39.96,1068152,513353
38.99,1194023,482405
27.86,4062543,493692
35.86,1721195,600865
22.43,4641093,526043
46.68,695357,506235
29.61,3478257,581769
56.17,900621,557332
48.63,1528186,836762
18.06,8398659,511726
21.57,3269153,529847
50.14,1549555,495375
14.64,12119426,1088680
50.21,733126,327917
22.59,4440406,505286
18.07,8411028,539973
57.51,1087282,438898
51.19,1183755,553351
36.29,1204453,469234
38.64,2475293,570442
22.95,4633431,486288
21.37,3289755,593037
47.65,937924,765987
43.25,976040,452477
33.07,1224232,993455
38.93,2387137,582565
29.75,3479076,563409
18.23,8385366,514822
50.01,1117653,571947
50.48,891820,461213
31.51,1239368,517586
61.30,1138986,194523
50.78,1177278,492420
56.20,1061982,599509
58.14,924853,578317
37.47,2502952,582640
56.72,925412,612089
23.57,4368474,530270
17.82,8819877,525295
48.76,1076982,582309
31.79,2290957,552344
49.05,1202407,670608
31.73,3215334,590135
17.98,8416611,511503
28.17,1057881,558288
18.10,1934494,427186
56.76,1152654,353153
51.74,995738,370890
31.81,2869000,2586771
9.92,14474404,8370294
28.16,4527736,625639
39.07,2437164,594737
29.58,3028584,686166
54.65,1064099,696410
36.97,964600,1067685
47.98,930716,456698
21.30,6158078,699993
14.85,12061177,905421
52.67,754560,464470
19.07,8381536,528653
52.85,650349,463495
45.02,967687,395750
34.67,1006025,460504
36.13,1681525,339628
38.88,2430178,599471
28.52,2317446,511231
19.03,8390580,516149
45.46,1266541,468944
50.20,832511,313630
57.52,948176,418549
28.54,4322584,590494
23.27,1374902,536641
49.41,937794,494590
34.59,1361828,506907
47.90,464803,284835
34.51,2070229,1290619
48.70,665736,641310
12.01,10867543,4321317
12.08,10869857,4255654
36.91,2109607,917895
12.51,10893178,2773023
19.03,5471401,1416178
19.10,5470791,1397116
19.04,5475420,1405693
52.86,588888,334706
45.88,1103389,530015
37.97,1963400,950965
23.91,3189265,1103363
18.44,5857755,2049365
37.76,1976766,955721
29.92,2535808,1082098
23.89,3193849,1072204
18.26,5856106,2108373
46.90,508908,355758
46.88,932640,585207
47.31,501165,341336
24.22,2482666,2441911
24.52,2487209,2265988
18.67,4694031,4179158
24.24,2486441,2314178
18.54,4690657,4393425
18.50,4689859,4480868
32.16,1348089,1260535
24.18,2480911,2460406
24.24,2482490,2357858
24.26,2478440,2359022
24.35,2478026,2485301
18.58,4689405,4232285
24.50,2309670,2612432
46.42,519835,358534
24.32,2307362,2636228
24.42,2300969,2665711
40.22,1492135,1116315
24.49,2306220,2587780
39.78,1490013,1099437
32.10,1867821,1815206
32.68,1637423,1228341
20.29,3345579,2948816
20.58,3336084,2823902
26.06,1855466,1793341
32.73,1116709,1064138
20.64,3338980,2734445
25.70,1849783,1775660
26.10,1856277,1791585
44.59,751912,287473
40.41,1571860,422092
33.71,1235454,378656
24.44,3019849,613026
33.68,1751162,263893
23.54,3008776,299396
24.78,3039104,382239
24.52,3034381,611237
45.12,1496383,180651
26.77,3950996,322226
34.99,2269892,359392
26.80,3943570,217365
27.47,4095716,203351
36.49,1376629,590463
16.12,5451914,2294785
12.07,10878717,4626115
45.35,922481,528977
25.49,3047897,1498856
12.01,10864215,4570808
25.42,2729190,1144411
12.01,10863557,4590362
11.99,10868491,4639124
51.71,474621,218819
52.72,632701,393127
38.61,1394697,381595
17.80,5463734,1467595
38.30,1902473,830116
27.74,3152291,1059673
12.67,10905753,2854386
52.43,497587,243536
17.88,6047381,2163873
40.22,1136543,331686
31.45,2021142,659247
18.10,6048081,2106466
40.49,1137184,327395
31.61,1952601,590110
31.69,1946287,592318
17.99,6003902,2162753
18.13,6042725,2106267
18.36,4839796,4008876
33.36,1349161,1107833
33.53,1354786,1129673
18.33,4838305,4038194
18.66,4855226,3989797
49.65,512117,394371
33.33,1340005,1406400
23.76,2442437,2806170
18.41,4644722,4781206
18.31,4637600,4922250
43.10,1173069,860589
34.48,1380671,1120649
20.46,3403125,2701550
53.57,528366,328440
53.30,525179,344272
42.87,707433,665386
34.52,1123302,1039679
25.82,1872308,1611736
24.95,1884344,1747442
20.45,3404720,2674976
43.32,1323702,280922
52.94,759073,239809
35.83,1193316,313475
27.82,1808121,434747
43.13,879458,256123
36.39,1191103,217784
34.74,1453693,261993
35.82,1193853,377948
28.04,1808036,313454
45.98,1856919,330644
33.47,2645970,268905
50.91,1280068,197071
51.15,1271757,189986
38.57,1826256,207107
22.90,3785025,180229
22.98,3858725,211835
22.74,3784417,354893
25.06,7743754,855088
56.98,577306,456953
56.79,579334,285660
58.22,1355879,650894
44.93,1428849,834296
56.40,580448,285502
51.82,760836,500511
54.68,1234467,615503
45.74,1423828,667198
32.48,1168200,676391
56.72,832453,612655
55.17,1241524,569997
47.40,1741678,376958
54.45,1243598,605048
46.42,2005806,573035
52.68,1725747,405552
42.68,2130023,1500868
56.23,899092,525905
54.21,678538,490143
35.26,2614220,640176
46.73,1422101,713375
39.71,1697425,429123
46.95,635684,562649
36.02,1634175,618974
47.64,923715,430802
39.18,3058813,607376
50.72,1488245,461020
40.93,1549362,734214
48.31,1492473,594340
48.92,1224046,416404
42.60,1511106,406705
37.31,1689721,391216
45.49,867325,1259577
46.92,536395,378212
47.66,678036,529806
30.92,2785809,560502
41.92,745102,865743
47.14,1187977,444653
48.60,863673,806043
47.78,1281657,568660
47.19,569251,317569
29.11,1278072,716018
48.44,857160,535586
40.62,935354,476744
29.83,1288400,561530
49.16,1324196,532655
45.46,1177381,507173
39.95,1574918,497792
41.96,1022350,548146
41.12,684425,734155
41.50,689143,571723
43.87,975706,424180
36.31,932626,789859
30.49,1284137,570238
29.67,1235679,483327
37.61,1470196,662944
37.17,956449,483158
39.86,758925,511127
33.82,2109502,609068
26.85,1540165,504882
38.48,1060009,1068548
43.24,1055777,551752
29.08,1268917,559980
37.05,881894,510615
43.26,1026799,450171
37.17,784377,452267
29.30,1249745,495751
40.97,979383,569598
27.18,2542546,573777
40.51,944212,378809
28.18,1260019,743592
38.18,996790,506151
28.97,3207712,3391230
23.52,6317498,925592
46.82,947791,602345
41.50,854942,690333
50.25,1644874,537805
47.77,652406,503708
38.90,1508859,575091
41.91,1743685,698555
32.85,3338028,649732
38.97,1524426,499005
35.90,2288004,469081
28.19,4097384,533376
51.36,1666826,427919
32.23,1553916,1965316
47.68,811902,476342
29.73,3133040,469967
47.56,1015048,466301
51.90,1812999,719863
61.85,954478,596281
34.51,4192087,668369
47.78,880362,519853
35.63,1081118,434314
60.99,1728640,641895
63.05,1819095,499839
40.69,1604076,1381591
58.47,1702580,601592
61.75,1733041,622317
47.83,1377504,625385
56.04,1894811,577786
42.27,3170358,396186
42.43,2685789,583705
33.31,1090428,656429
59.98,636804,445573
44.89,1010646,588725
53.12,1890663,1340078
47.29,1864173,539116
43.82,1920771,780342
63.30,1735876,624240
65.02,1149165,528980
50.11,1653684,1795044
62.71,533497,308284
44.81,1249536,514316
45.69,1622644,625522
42.80,2438962,611946
61.33,924727,467111
50.16,1416804,494588
39.37,1628132,1365948
62.35,666759,492900
42.56,2664029,568235
45.03,1356834,515782
56.61,1001814,376920
44.24,1603362,1599600
61.43,1563621,403065
55.10,888622,521478
61.68,1744556,593772
50.18,1942673,988958
43.82,1629493,767769
38.91,1182193,582326
54.65,1583006,688259
48.44,1976040,496781
64.60,1164171,440741
29.17,1675615,1449182
37.61,1602318,2221895
47.93,696037,503229
36.93,1553877,582513
48.33,835921,573677
31.56,2277902,726985
40.37,1198452,1297925
31.53,2810865,610099
30.04,1368871,579021
44.16,1630343,567941
43.83,1531670,549118
49.48,1062613,505889
47.24,751928,424050
44.20,1483743,536721
37.11,1522206,463969
30.74,1691858,375024
50.73,1324798,458989
45.45,1255124,414842
27.79,6234706,529783
48.17,880405,497405
46.00,705466,439976
52.72,1579345,1120908
39.80,3501432,1105494
55.96,1577940,663932
43.77,2409661,681945
41.12,1258653,502870
48.52,1765971,485081
55.75,926698,546605
53.77,1202682,655605
44.05,2659272,601807
50.64,1511820,463015
40.24,1260487,532440
32.15,1770572,568240
56.44,1612209,544029
47.71,1074896,993218
34.59,2315796,533087
50.05,1545758,388578
40.90,1719822,650364
42.14,1188644,595043
46.40,1091778,547288
25.76,1658826,531325
45.46,566918,312367
46.07,1200727,519032
37.56,1286675,623540
32.41,1377776,452486
46.34,1207608,540376
48.99,1248978,468842
49.45,1302356,334852
49.94,518729,625152
30.30,3354143,4008240
31.90,3826176,1081481
35.44,3385948,581408
49.10,605699,315609
50.29,1292746,459408
36.81,3333545,1656424
32.24,3826245,1064999
50.62,1418486,567322
46.59,1098263,620846
50.81,681024,465955
45.55,1275537,515950
46.88,619677,438499
43.84,1530589,614001
37.72,1156397,449310
27.67,1473226,1856988
50.22,946732,549290
48.45,1454791,1247377
39.40,1353414,1051765
50.28,1193871,467436
53.05,1402548,483622
48.52,1360051,492696
49.99,1398992,299841
42.66,1706560,1467521
49.36,1154611,540386
15.70,7488052,2868967
29.64,3368906,506662
43.98,841262,669472
37.33,860022,457314
51.57,924245,628189
42.52,1676431,582968
47.89,1151840,567765
43.57,565468,478293
43.56,990661,684335
43.17,841909,789098
37.05,863386,495227
51.55,1191568,559882
36.49,2704486,592230
43.32,672062,471223
36.07,1161694,745470
45.55,1200717,1047109
31.60,1133072,468976
26.34,1454836,545498
33.13,1156410,447114
26.02,1446084,590026
46.49,1360280,326431
45.51,1024490,531426
40.75,792244,1341674
37.03,1057262,751400
40.94,580125,330572
41.94,779981,458929
22.68,1883157,615560
41.43,816343,1029909
21.86,3770176,2071337
42.67,913659,655126
33.18,1658793,526159
32.95,1386668,655257
26.89,2497049,535401
37.89,617751,694026
43.19,935752,518566
39.97,965531,642155
40.45,620272,496977
33.36,1690154,483203
41.78,1039900,983476
40.95,1176005,513383
42.09,747110,531892
40.83,800369,486908
27.92,1138860,728850
39.30,941953,519225
34.66,1319842,685523
14.01,7442361,3917078
41.75,765443,519446
41.85,960917,495919
19.18,6987126,825905
41.40,603883,441745
27.37,2496414,542448
41.65,963382,480686
38.60,621945,687711
41.23,937064,590917
42.02,907989,434694
43.87,997218,560274
26.42,1373424,627393
27.03,3130436,504194
42.07,629996,409779
31.98,1160884,441094
39.71,984297,465087
30.83,1267327,409049
39.44,635017,541422
39.55,965450,532791
39.25,1028881,499705
33.42,1072711,562082
41.90,998033,344508
19.27,6978604,932842
44.18,1021360,534042
45.12,989145,648605
43.61,774003,475277
38.76,967372,515336
43.57,537318,402781
28.38,3156018,567497
42.78,586071,439218
42.43,961228,552690
47.67,1056084,544228
39.20,1484125,556823
43.04,1022496,564285
41.95,592223,493070
34.00,1404672,612950
28.99,2736649,638154
23.32,4743953,586694
33.88,1148417,445006
39.22,1200815,1018907
43.02,808246,431941
34.84,950326,407652
48.05,1669152,404808
25.02,2561190,1853942
32.94,2072343,2678819
18.89,5077887,3653769
27.16,2639433,1460126
34.85,2082515,1742793
36.88,1194328,632716
28.50,2212933,1211628
23.82,4334037,2334481
41.60,1128922,997597
28.76,2252159,1231606
44.23,1643857,292957
48.82,1687498,379021
28.66,2075866,2376492
28.91,2058775,2144141
28.77,2095871,2383619
23.46,3757117,3582622
23.32,3773119,3698180
23.51,3751872,3795623
41.26,702892,702513
36.23,1123558,1416862
23.54,3655429,4416621
27.59,1959131,3074093
44.34,1635524,275159
26.82,3225385,2652092
41.04,755048,709574
28.42,1923120,2550006
32.73,3053571,346672
30.57,1978084,1065569
28.85,2099979,1754440
33.64,2627876,385166
33.57,3913687,390057
42.62,1658027,249821
32.57,2745501,986068
39.21,658651,487508
39.37,660197,484422
39.37,657442,492248
24.09,2543885,1863903
32.28,1288816,949864
32.34,1290049,946426
17.58,5056384,3716882
33.75,1314820,716566
19.54,5079804,2767036
33.50,1320471,729371
45.12,365502,202184
45.21,408943,194330
47.95,470410,319856
45.12,409253,207850
27.72,2254574,1176005
40.43,1231747,1058840
34.34,2156899,1966744
22.39,4303469,2352570
28.08,2064827,1823932
35.28,1144732,1098662
22.84,3867968,3381104
40.47,701485,680573
21.96,3746469,4589857
47.26,579585,299664
40.30,696493,719230
27.38,2006144,2536228
26.76,1997635,2686870
26.75,1994876,3058376
21.99,3754091,4901047
46.69,702255,304235
45.44,550667,408964
45.64,544044,367370
22.47,3253442,4608177
47.55,1548935,678800
45.70,942856,276257
35.85,1300588,510995
35.01,1301887,878157
29.50,1960544,1011287
28.59,1961466,1696280
27.02,3222172,1943678
42.99,1402163,296850
31.86,2614400,197612
31.65,2616086,357332
38.61,1947080,445316
43.20,1406662,219280
40.39,1621224,431875
32.30,3904915,509278
35.10,1994623,1536873
26.65,4116555,3197634
46.24,448881,474572
24.26,2532898,1980803
17.53,5038531,3891756
38.25,654872,527749
17.05,5033031,3994218
17.13,5031707,3954202
18.88,5054937,2974770
44.86,398783,202773
27.93,2193227,1220790
27.78,2189059,1252355
21.58,4298128,2340142
35.14,1175740,725008
27.22,2198024,1439435
40.45,683930,512430
28.00,2019229,1764052
45.70,469128,299523
40.34,688972,512852
27.83,2019595,1810016
21.78,3865575,3001630
21.57,3867492,3129210
40.26,856436,807917
21.43,3796335,4030880
20.92,3803719,4338788
20.43,3800453,5264237
40.84,715747,603225
46.89,522425,352217
40.71,709149,595249
40.17,711546,710937
40.51,715925,671369
32.05,1827735,430466
48.89,909371,226032
31.79,1830867,532419
28.88,3062574,1150558
36.60,1273382,887822
35.06,1269552,1512527
27.11,3108700,1867683
23.48,3363196,3265521
31.04,3837923,361068
49.25,1285721,403733
34.01,2494004,522424
41.66,1904268,423200
46.22,1644760,382191
61.74,793471,479374
27.60,1609191,565582
34.82,4768498,599629
37.48,976942,410768
59.59,1608074,420573
53.06,1577064,375836
34.08,5413686,494884
60.30,1709863,600715
61.84,734321,421367
46.65,1612486,462248
52.47,761950,507411
41.86,1664139,781168
62.60,1577805,727968
54.07,2014768,513587
24.40,7365330,990909
39.70,1546241,496306
58.39,980220,642577
63.01,1583370,575810
47.68,1632807,584934
25.45,2131745,751837
56.34,892491,559368
36.43,934455,687036
60.00,1436504,422420
49.63,877525,498033
47.04,938821,548348
51.32,1482789,891165
63.74,727711,437583
63.63,1506191,461131
34.46,919159,598476
44.87,1685267,447136
41.84,1117216,981444
25.92,2470184,1641496
19.70,4875803,3264328
36.22,1275124,826436
19.58,4876977,3319562
36.42,1306254,669853
21.09,4925400,2605627
20.82,4924224,2648610
27.24,2507866,1321329
21.56,4928483,2585843
43.57,696799,346218
26.92,2510661,1312304
21.34,4932204,2638537
49.99,445944,173673
38.13,1169599,539444
38.20,1170143,529301
29.54,2124642,1033705
29.75,2127251,1016167
52.11,576967,242618
24.04,4127120,2045047
24.02,4119220,2002871
32.06,1160523,786313
24.05,3674370,2693217
52.00,642474,320458
37.93,1162608,833157
37.81,1163115,826454
29.07,2019977,1506086
24.01,3667583,2683917
37.93,1163973,815084
28.85,2024978,1486651
24.08,3677601,2706544
37.67,1148724,1139554
37.69,2011670,2075615
50.47,799595,565867
29.25,2014547,1935465
23.90,3613019,3234617
37.66,1147630,1081201
23.60,3604228,3463931
28.91,2011287,2075390
23.81,3606950,3391509
50.03,902054,571450
30.28,1991774,1788273
50.00,911825,521603
30.35,1880617,1622800
43.48,789060,627298
26.31,3281882,2541888
25.91,3285560,2670077
32.74,1954007,428351
39.93,2287616,444731
33.00,1952268,426976
30.38,3100276,439806
47.04,875808,338493
43.32,1062073,362214
43.75,1061737,243339
40.24,2266067,299129
30.46,3090131,290677
38.71,2058389,204073
31.93,2731871,186123
32.30,2741681,344496
42.09,1720604,331215
31.83,2729413,208330
41.10,3101700,197809
31.94,4184258,198379
44.48,641899,636838
44.35,642884,636413
18.20,4879745,3594382
44.73,380180,258720
24.34,2484762,1842760
39.27,679116,474015
39.30,676907,484919
18.40,4879600,3594600
18.50,4892414,3592737
32.55,1285106,921271
33.07,1285894,913048
18.46,4892610,3600949
24.49,2493285,1823877
18.14,4879984,3603602
18.21,4879267,3622292
43.64,1425496,417566
19.31,4933314,2933482
39.88,705266,390179
19.15,4922650,2924127
25.45,2535730,1469014
19.10,4921106,2933561
39.80,1087844,772666
33.47,1312699,753386
33.15,2207271,1651140
22.76,4324965,1989156
40.67,696247,309355
34.20,2214502,1413509
40.72,698859,312886
27.89,2229393,1059762
22.84,4310960,2040090
46.79,633606,318854
40.14,725209,405127
22.79,3825999,2359193
22.55,3791259,2393887
22.74,3824520,2350210
22.60,3801169,2379141
40.07,1120986,893198
22.59,3824747,2351810
35.28,1175342,716447
22.67,3811111,2384236
28.07,2101082,1283371
22.74,3814525,2377287
48.17,1505974,329485
28.09,2197691,1904915
45.34,781931,552821
21.96,3746693,2937707
35.20,2085192,1984041
27.86,2055324,1812123
22.17,3744302,2982650
43.94,1431372,308182
45.66,871160,558268
45.78,903316,571791
24.21,3587803,2579011
44.95,1117828,287935
44.92,948172,235362
31.42,1894971,410737
40.57,964176,385286
31.40,1997230,290922
37.49,2242978,367915
29.08,3093187,487200
31.00,2499988,205009
36.72,1824544,198937
30.95,2502400,205198
30.77,2501423,192043
37.49,2898193,196641
49.12,630188,548060
42.54,667935,434960
35.32,1269128,856586
51.08,798020,620409
25.94,2469021,1695753
19.25,4882546,3373024
18.92,4881369,3372129
26.54,2473978,1687094
18.88,4882379,3404255
35.10,1273905,856753
18.64,4871596,3428327
26.21,2468218,1704927
18.79,4871906,3359287
19.26,4873392,3396334
19.02,4871296,3394932
35.94,1304660,673988
27.29,2523043,1316790
48.74,394113,186247
27.18,2507435,1323879
20.17,4923563,2612848
27.38,2505820,1325316
35.71,1299872,670694
35.64,1303668,670974
35.67,2177197,1356737
29.13,2123415,1035064
23.24,4133836,2065862
48.74,440537,170128
29.29,2125790,1035532
23.17,4131630,2077491
28.76,2065082,1549840
36.99,1179107,725676
23.32,3806376,2741872
48.13,508169,270795
48.08,511125,300353
42.74,1268264,1032658
36.52,1181180,802145
28.74,2070893,1511870
28.59,2067724,1511524
28.69,2067821,1493876
49.19,794569,576228
42.08,733236,589943
42.11,731597,616192
47.80,514067,359948
36.32,1178553,1138431
28.32,2058632,2080311
43.96,1550200,509129
36.82,1131871,944204
36.89,1134513,913231
29.25,1856354,1630815
47.47,989148,281815
47.41,1143940,397698
37.73,1314394,292925
29.95,3074899,436931
44.94,840714,209330
31.60,1919919,323168
29.61,3055519,562163
30.18,3071386,482493
49.88,1689897,246776
30.90,2641079,334308
31.08,2638482,345408
53.86,522856,266663
43.95,672385,456677
51.42,373746,237260
44.12,671226,453253
35.36,1272156,891478
26.61,2479960,1765920
37.26,1301997,685878
27.71,2503219,1328826
19.82,4915947,2648822
19.91,4913934,2637285
27.94,2505281,1333767
19.83,4915904,2639728
37.45,1305588,681532
27.75,2506088,1343117
51.58,440011,170835
45.38,682521,290467
45.21,680026,300954
30.39,2122834,1016665
45.33,681175,299816
37.63,2018042,1266515
39.17,1162467,547698
29.97,2122350,1072664
45.04,723732,422286
22.72,3819821,2627898
51.06,499974,278991
45.25,726149,433389
45.12,724773,411144
29.79,2066592,1429092
29.45,2071867,1426921
22.72,3820723,2586709
54.70,1420624,320353
51.17,506405,345777
38.48,1176742,1044578
44.91,729185,530304
50.99,505187,349171
29.67,2065637,1861673
29.84,2061210,1905842
51.57,561640,384245
25.39,3257860,2336717
45.85,1153271,795945
30.62,1870603,1632876
25.67,3253856,2514627
39.08,1850115,1499455
30.82,1882399,1552447
54.80,1161572,353498
46.93,954154,354135
54.14,952569,307692
47.46,951112,231871
51.52,775848,334517
33.61,1863212,297265
47.10,952044,361117
41.35,1255468,267317
33.52,1853072,453150
52.68,1278664,297823
43.48,2548949,218644
34.79,2561257,170843
34.82,2563016,346382
47.96,1488529,360949
42.95,1874175,202077
48.72,1492660,170917
43.34,1821562,180730
