perf, CACHE_MISS_L1, CACHE_MISS_L2
10.86,58179119,15239250
51.32,4319398,1466598
43.12,4435930,2459328
25.41,4378809,3139193
23.92,5816222,4737733
38.84,4544417,4012342
37.77,5466064,3341637
10.90,58088944,16638677
33.32,7120386,2632000
28.07,10379007,2269120
28.38,3901964,730561
35.35,2341481,2148896
37.05,7930548,5321245
47.07,4596214,7041315
26.07,6342443,3669992
36.53,4592274,1171308
49.74,1698601,1266078
24.84,3038905,1723682
34.40,3789674,1140676
33.12,2971695,1462241
28.44,4206546,1662228
48.61,4021518,1025430
34.14,4323486,3807198
49.99,8004346,1022855
6.42,57996985,54514918
22.33,14755983,4709569
47.02,4126704,1025294
51.39,4764401,1818871
46.05,4234720,1145355
15.61,27785193,14161410
18.92,4181538,2848443
17.61,3444468,872937
47.14,4114306,1033889
49.90,3518298,2736753
45.03,2977582,1206935
40.39,1668665,1436775
51.04,3773271,1376933
44.69,3008568,1222560
29.79,7076239,6493643
50.99,4791550,1923924
23.54,14106329,1731321
40.27,2760766,1063283
17.76,5056414,1918746
45.01,3092874,1164449
47.35,3101305,1098772
34.08,1980993,1187825
36.68,2864978,1906502
41.00,2806776,1574824
49.75,5558809,1355508
47.46,3011071,1635746
44.50,2843606,1310690
47.20,2541205,1316929
45.18,2845262,945961
46.93,5075143,2951313
47.28,2434054,595881
50.36,5283786,2398815
47.15,4941657,3606541
39.95,2700951,864340
20.68,5982256,6477024
48.47,4404428,578690
21.80,7236134,5001816
47.67,2562345,699390
30.34,5579556,4239442
47.35,2416491,630706
40.35,2587230,1010994
38.01,4934728,7974624
42.43,3823717,930745
27.27,4471353,4280685
20.93,6969976,6208090
38.04,4972683,8056875
32.69,4385931,2023156
27.18,8404626,3063050
48.82,5125180,1120670
47.45,4957960,3544009
27.67,4842934,2434496
40.43,2589118,924133
41.88,3841904,615193
23.04,8117521,2439349
42.19,4890584,6663147
32.90,3291850,864941
39.51,5155736,12438264
41.55,4606390,4921718
25.96,11016491,3206050
45.81,5320524,1445698
43.72,4850347,2717425
35.20,4205743,11072960
45.32,4659044,1783806
46.11,4635112,2105018
36.22,3855449,2078087
41.80,4773241,4028997
39.74,4670198,6675216
39.58,3405779,1694766
45.68,5344373,1259530
29.00,5967539,3683276
38.38,2223772,1154373
40.94,4393906,5972097
44.27,2215245,620316
31.13,3003342,912315
21.35,7988767,3328772
40.57,4436589,6006106
30.86,3694970,1585705
22.48,8651597,1038350
38.94,3732876,1396457
32.23,4198211,740971
44.41,4153916,1625938
42.73,8286370,10343254
63.80,8442719,1680802
56.65,4352637,1802477
64.31,9754383,1643864
51.43,6636906,1575644
63.92,8436047,2171837
56.97,6470919,3328908
51.72,6750672,1936583
50.59,6732548,3125807
38.97,12113015,5689244
28.23,24496021,7759119
60.99,7932764,3505246
61.87,7769486,3159509
40.65,5537726,3458437
48.93,7929014,8483902
63.28,7731392,631032
64.90,7724714,701905
47.26,6486296,2562474
46.93,8288151,5689596
59.67,3907805,1584336
61.51,7764632,3402727
59.19,5261801,665428
60.66,7837955,3601599
63.93,7913149,1239542
48.73,3800981,2772762
59.45,2948553,1955153
59.51,2935801,1941769
43.74,5481597,3172438
41.28,4938843,3733044
41.67,4929956,3546254
41.73,7097604,6338291
39.68,7694351,7605355
47.47,7960461,4433201
63.92,7943135,971224
44.67,9662034,6513513
48.14,6602715,1691659
57.96,7745417,4737629
63.32,3517737,1546172
43.30,8460858,2431261
39.80,7680253,7209563
45.20,7837294,4027332
34.21,9279107,2224878
40.21,7688070,7520508
46.63,3197574,1583754
53.78,5436775,819906
53.94,5434631,992577
53.66,2531181,778115
22.69,22042792,9500068
42.93,4605656,4043286
49.36,2895215,1514587
45.81,4706665,3727611
48.57,2830601,900279
34.41,7252556,3497162
36.69,6375033,2921180
54.28,5437171,878395
54.02,2499313,638021
54.04,2709620,760619
49.02,5150827,5208763
41.52,4625889,4550698
49.89,4697121,3019858
48.64,4775378,3555816
49.62,2615225,1263269
45.95,5142866,5426745
55.31,5088754,690333
53.40,5436408,1438529
53.29,5231886,2795665
43.13,4150943,3635578
42.39,4806026,6108809
26.40,6660929,5353254
36.90,4628879,4422609
50.37,4883811,1832215
52.51,2681389,1589359
49.98,4628461,2897793
29.70,8590767,8599742
29.03,9765460,5688535
38.09,4035237,3689776
32.21,12170915,4127109
49.52,2846966,954208
40.70,5598622,1978760
44.56,4151891,1037633
29.03,6863544,2074877
37.10,6457747,1205252
38.93,6367139,1474642
36.46,6899120,1695743
52.95,4175297,561471
52.44,6658194,913414
34.22,9797977,3449446
53.57,2319694,1077206
46.31,2868210,1788353
16.69,22849173,17193888
42.44,4517286,3780261
53.18,4427208,2501604
39.15,5707419,2803573
48.55,3060820,1325896
19.22,21515134,18965520
47.29,4607409,4473516
53.32,3977438,1940749
34.62,7787390,8401707
51.17,3981609,3257936
23.61,8995508,7417234
52.46,5124000,2372062
54.92,3755365,980984
53.39,5193108,2364438
42.96,7409924,6764099
55.22,5200533,2304934
47.83,4884419,2663639
54.31,5238387,1444420
42.17,5970498,3279853
22.82,12970085,9414636
25.52,6542811,7262690
42.84,4609805,3115130
42.50,5523097,3907918
28.31,8653664,7006137
55.19,2666035,841918
46.30,3097302,2040485
36.80,11787996,3068618
39.77,3917683,2459026
46.36,4579372,2477913
42.97,3729982,1929969
42.56,3049841,1977188
34.19,3928981,3795221
33.91,4011361,3859741
52.19,4264511,734040
26.93,11066552,6952527
40.17,4422961,4253586
54.08,2842180,941664
37.18,9113454,2932212
50.90,4494843,1354642
39.66,2988508,2240716
34.19,5627369,3350646
53.23,4262241,2375682
38.72,3865116,2700266
34.05,4087485,3956904
49.66,4249374,1295053
39.63,7692792,3355390
29.13,9001304,7766541
48.20,2633211,1919551
48.71,2636739,1782786
34.24,4197767,2997557
48.55,2904913,749179
26.97,10234523,2754321
49.39,4693917,1473212
36.44,4167847,2597374
45.94,5805447,601784
33.85,8309263,1007760
48.02,5913497,826411
34.03,9698207,1491785
40.69,3013502,2959929
36.54,2901842,2608519
36.93,2899913,2640059
34.06,3248982,1102564
22.92,10802669,6719839
41.98,3341429,953475
39.11,3427153,1283728
41.26,3002184,1938454
41.47,3340868,1050228
29.69,5782905,2806416
22.57,10402328,11150054
40.09,2762688,2338107
35.56,3053734,1498892
32.12,3051446,1564643
19.22,8287404,7046896
41.09,3000958,2648357
39.46,3410836,1087478
17.73,21096106,11508237
16.99,20608117,12026891
39.13,3417279,1872739
18.31,20167625,14987921
26.04,5255513,4035844
17.94,20924187,10337733
40.87,3313720,1962808
33.15,3986489,1915712
41.35,3871240,1615226
18.08,20432202,11138590
35.16,3299598,2215289
36.88,2626061,2532330
39.85,3283646,1980410
41.71,2798679,765045
27.23,4846059,3212675
41.11,3057675,1979155
41.04,3865102,2058106
34.73,3334558,853650
25.10,8218146,3147934
35.40,2649651,2130986
38.54,3211245,1631347
34.20,4195194,2031994
31.78,4221121,1095360
26.39,7339675,2223534
22.26,12678755,3244943
22.49,12741130,3458925
31.79,3351893,1392934
34.02,4316474,1509476
37.11,2704794,3318735
35.26,3571636,1097845
23.91,9111088,695323
31.48,2537816,2309888
36.72,2899044,2361566
38.04,2843104,772930
34.74,4230824,1344128
28.28,13253660,2825714
51.01,2471875,1241965
50.20,3459571,782496
39.37,6774553,1367337
32.72,7604598,8584887
51.43,2733224,1276584
39.83,4784123,2571004
30.41,7256706,4934478
40.34,10050614,7893902
50.72,2256691,1155974
27.98,12177970,5687054
46.04,3667091,2177983
31.65,10580929,10898233
40.85,4463908,2155907
39.87,7289903,1995397
41.34,7868763,937032
41.11,6464156,1641228
39.76,9147449,1880438
40.27,9688511,2685781
33.25,4223485,2339020
25.48,8175717,5000752
23.43,15878320,8370331
47.22,5053164,1112825
28.44,8328908,4720084
42.27,2543700,1304559
28.75,6008400,5486016
26.24,9840769,9165916
46.05,4895470,1409740
39.22,4893186,1652795
32.30,5720185,2735533
40.73,4666625,4118640
47.98,4787319,1459064
35.82,3503553,2663858
40.79,2275652,1279984
47.29,4731389,1748222
41.18,4524914,4257811
27.28,10110040,9443190
44.61,5108468,1805889
43.59,4753755,2003758
43.64,4360400,1476693
40.23,2497333,1319131
38.61,2460342,1645195
42.97,3818080,1021459
42.43,2757544,721588
27.97,7637395,5964012
26.38,9687696,8602144
27.90,8405754,6336723
41.11,2309502,923875
33.18,6183321,1573261
44.93,5169621,1210255
41.94,2871591,644813
39.98,2214301,1080683
42.73,4274561,4127896
38.90,3318422,1118344
40.68,4201322,2192276
25.22,8650431,6239502
34.18,4316088,1506828
26.40,8262979,6951409
21.58,15703790,13887601
39.21,2406788,867527
29.95,5567830,3180519
24.97,9848698,11096477
25.28,8724589,6011133
40.18,2366265,831958
41.39,2653474,611064
26.03,11394375,8583016
43.06,4392531,1499900
38.93,2347617,1646062
28.84,6599030,5075913
27.62,6503782,6887744
37.78,4493814,1920341
36.43,6045702,3819009
29.54,6250011,4189011
42.58,4232599,4817888
43.44,4430584,1353510
44.05,4226900,920096
37.90,4076537,2952431
38.25,3968050,5395661
41.73,4521427,2761722
43.20,4219457,1548381
36.39,3542341,1233607
41.41,4279136,2371345
30.41,7535098,822564
45.87,3410045,1130720
32.03,11007892,1715078
42.14,4672292,1527369
49.65,5305200,2803975
34.29,6020449,1760435
29.85,3837727,1198902
29.26,2862381,2309537
46.14,3991634,1905280
49.41,5216675,3061106
44.58,5132035,825160
39.30,3918679,1942369
38.52,7897159,1989593
27.60,7084320,5853985
27.76,5283477,2736482
44.76,8854487,3302776
51.89,1963238,810646
28.88,13348002,8360611
49.68,8765591,1831531
30.88,5255547,3387408
28.34,7168460,4965223
52.14,1979188,894203
36.48,8300952,2306036
25.31,7667073,20271518
36.91,6978693,1109629
43.29,2841923,882966
37.14,6911000,644273
47.43,9101554,3086919
49.14,4758476,2367557
47.89,3775275,1999320
51.32,5543336,1057446
49.80,5043290,1415484
26.29,6004108,5748886
49.75,4592158,611420
43.51,4766411,4473826
42.36,2520550,1846788
41.20,4695040,5461727
50.46,4826446,2095489
49.81,5425040,1700607
45.97,4524682,799287
39.44,4417320,1792308
46.84,4862121,2133714
47.25,4874177,1929651
49.14,5404925,832859
40.48,2345608,1078031
39.90,4133497,3171548
36.30,4017503,2095140
41.90,4269568,4625808
36.10,3547677,2247526
44.55,4235266,725885
42.73,5157993,2559614
46.79,4509636,3865517
46.56,5183122,1603736
46.64,4664782,1638683
40.31,2488653,2120276
35.19,4079867,11399327
31.81,5550674,627446
47.12,4876434,1979280
20.81,30360096,5162061
17.14,27561233,1835820
53.56,4099174,3558406
41.83,2663167,1416279
55.35,5763980,1903079
21.42,29092706,2127562
11.79,58479859,7014341
57.24,4853023,2167014
46.07,2815077,1260560
16.53,10609627,5792321
55.30,4997051,2252609
17.52,2821168,1998323
36.33,2315430,1095910
50.32,4431075,832039
8.68,58449056,42612517
8.27,58157590,45517340
49.21,4207804,1118010
53.68,3697554,1552839
48.05,5863184,1772298
44.01,4870240,3774573
25.99,14666428,3618844
52.24,4793356,2158510
52.28,3362527,1640917
40.20,3257303,1950288
20.86,4290350,2482687
27.05,3278137,1322506
36.94,8612812,2940759
20.73,4307037,2484844
26.85,15976661,1867259
43.95,3970059,4323419
52.89,2004705,696901
48.18,3868828,1224838
36.66,5995726,2657101
16.48,3522169,2993408
52.08,3257335,1434110
39.68,5325064,1748486
42.28,2285417,1626317
19.79,2806069,1502929
17.51,3845613,1508757
34.68,3837088,2785978
28.30,3576003,2986013
37.95,3867782,2310773
10.39,58205851,14946712
36.18,9626476,2270620
38.82,5357211,2083917
43.65,3530206,5388524
28.74,2731066,2224505
10.65,58280165,14015023
23.03,8675315,1798048
17.61,14545660,1698704
48.08,4052210,5572171
49.17,4219259,974601
27.37,14708241,1962150
36.54,6683753,1826702
20.91,3365128,2989641
36.20,5959407,1548923
12.71,44791902,19562024
33.86,3179219,2096744
34.85,3243699,2788173
45.60,4334881,1188798
40.54,2756167,600898
41.09,4083669,808672
21.54,8746496,808755
13.81,29013889,21955427
19.34,29113268,3553795
53.24,5144107,1929801
52.95,3637556,1615140
21.53,24839377,1761860
35.65,3044340,2291207
49.65,6248036,1470090
36.75,7453527,1816413
22.15,22976172,1681507
35.86,4017282,3511506
49.13,4237265,1190622
16.33,3521015,2063787
15.31,10677603,7954659
46.67,4455873,2237533
53.09,4907735,3135317
29.43,8282500,2093045
24.69,9919807,1721535
24.30,8870187,2489623
41.99,2241908,1697914
21.68,4847760,2095678
47.38,3979687,1172917
22.87,3626226,1137642
18.72,15034427,1830571
38.68,4106355,3327943
45.38,4055697,4039416
31.65,2449309,718406
36.54,4321091,3509638
48.14,2960252,1679897
35.11,8063182,3659549
38.52,7698666,2280188
24.98,9728994,7421474
20.00,15168711,7416974
38.70,3693119,2404977
44.35,5810195,1332141
45.25,4381406,1491137
28.07,4216306,3484115
40.50,6427764,8349348
34.69,5402194,4705405
44.09,3199842,1578530
36.93,4946978,745438
43.20,5408978,1922500
34.86,5941665,8378626
34.90,7249317,3948722
39.80,5355358,1950064
26.69,8565962,6685037
31.17,7809157,3684645
23.33,8886334,6504205
22.39,10018712,5021342
43.49,3184195,1950094
34.76,4654641,1631801
28.58,5799419,15555767
28.62,5824158,15413070
28.57,5880937,15660582
33.96,6526631,746509
53.73,5962808,1936883
51.13,5670589,2353737
39.72,5747385,1605790
47.97,2858815,1340480
41.93,5004228,2126712
38.48,5734065,13766380
42.00,5894053,2327770
39.67,5138295,1703853
52.00,5693059,1380151
46.84,3130524,1165601
32.01,12308135,4882121
19.82,21937927,8181021
26.36,7765267,5427302
21.12,6850012,7110027
19.81,7871703,5182935
29.73,6126912,4223416
12.60,43008082,16299868
43.43,5487110,5627841
49.60,3331605,1394631
38.21,3488198,1490627
40.17,6035702,9958242
37.84,5869590,8196202
29.43,6685687,2683370
42.50,3446147,2715607
41.89,5429689,7411141
30.13,7092203,5601125
37.15,5215971,2414940
25.23,7967266,6451196
33.62,5245143,13815110
38.01,5261119,1991679
30.83,6111157,3394141
49.63,2686690,1602815
39.87,3341355,1127330
43.60,5817383,5898580
29.18,6022689,3870368
51.74,5632836,1167527
40.36,6070697,782911
39.92,6210403,10383215
44.80,6121839,4253193
40.90,10660609,4422690
56.40,7356560,3321091
58.71,8129327,1571216
58.29,7721806,2456336
52.56,3665796,1851411
57.05,7669367,2499325
57.41,2644474,1251783
54.26,2954320,992474
40.15,6965192,6263551
57.51,7192232,3203229
56.23,4251431,2945130
50.92,2938522,1520714
33.35,10667249,7078171
31.99,6901191,6964122
57.75,4529488,809923
59.48,2584043,666929
35.53,11723739,4317915
58.30,7003091,1323575
58.42,2797731,951366
36.58,11693436,5783678
54.37,2920206,1363406
52.40,4174449,2953765
50.91,4809513,3286345
42.62,6128693,6113695
49.33,5101627,1508150
30.44,9601146,5095282
57.95,6829914,1802642
39.50,11861933,4842550
57.83,6530675,1424914
43.48,6140676,6174891
45.46,6394316,7531689
48.64,6294961,3893180
33.61,6232368,4627787
38.95,6209671,4087698
57.29,6337667,634625
46.48,4346315,3490905
58.03,6430840,869483
43.04,6131812,6186776
51.49,6611033,2833214
40.80,6259974,3787887
56.97,6575043,2008022
58.45,4088306,1091863
42.54,6556008,2905692
37.49,6173050,5959659
40.18,6269136,3510636
42.90,6131952,6460138
42.69,6139229,6179272
41.33,6230243,6084737
57.17,5088618,1527352
40.89,5036089,586932
56.36,8029066,2217498
40.18,9827624,746161
38.86,12172649,1032684
35.96,10737260,979191
34.87,10411619,1427125
53.31,2413041,1028231
29.63,11329066,6564313
38.28,9867574,3716862
42.86,5574904,4736727
54.02,5698312,868486
40.22,4705233,3108806
39.58,4282734,2517092
46.17,5148597,4601394
40.17,5003957,4810699
51.90,5438373,1074813
48.89,2802327,939713
34.39,4461078,3727646
54.05,5264438,613042
49.92,4244084,932919
37.11,7427896,3555908
53.68,5956505,1261463
54.63,2831517,1132727
52.91,5602898,1478108
23.56,13117017,8335991
48.78,5102659,4069945
52.71,5527514,1249463
48.71,3087069,1905728
37.50,5157855,4208028
54.04,3489554,621347
46.74,5140546,1943855
51.22,5761716,1976823
51.70,5604307,2276236
26.72,12189799,5646878
51.84,5974874,1822355
52.33,2809724,1430393
39.48,4105686,1588247
25.42,13693581,10311105
49.52,5365605,1572163
39.12,7811518,2295993
53.40,5477670,1061787
53.93,6262294,2016789
43.90,3852456,1224596
30.77,6920124,2437276
49.03,5361209,1667723
53.22,5375219,1184068
50.94,4733044,771930
44.97,5065931,922639
43.84,5174823,5202605
54.73,3448915,862462
37.85,5655836,1657976
35.43,5494653,3647382
52.41,4473455,795984
24.47,11491988,8415412
15.93,21866085,15763712
48.57,4912689,1175449
43.28,3334136,902825
44.70,4894116,3915438
46.51,4496407,1955295
27.86,9039294,8536166
28.90,9024774,7423722
29.30,5806588,5585554
46.15,4378968,1275011
45.86,3170029,1139167
33.81,4103293,2831094
46.50,4800108,2623093
46.02,2996848,986333
42.01,4508392,3278495
49.68,4664915,1588293
19.12,21854638,11784209
40.65,4002103,2829210
27.71,8930481,8474975
23.26,15956712,6044449
20.92,16289920,13231429
37.53,6711403,3986179
26.22,8763273,5724088
45.37,2961535,1148843
46.18,4936809,3779106
47.74,4741766,3321939
46.92,3189528,598026
21.47,17084848,13111358
47.97,4079275,805056
47.81,4802779,1358093
48.14,5535256,2284809
22.49,17151626,8175193
24.30,9913893,7835452
38.61,2804374,1673407
38.40,3294808,1942714
37.00,4476456,2815395
48.78,4132156,876743
39.07,6012149,4336045
32.58,5244294,2294590
35.78,5178388,3988765
32.23,4031655,3859501
35.48,4067606,2551899
39.01,6978225,4677891
44.90,4348261,3413479
36.21,4110408,3836788
40.52,4396951,4796924
36.17,5058458,3372737
44.84,4651895,2282389
43.31,6428656,2116674
34.04,9540860,2728809
37.57,3444171,3439277
22.33,10986271,9529484
38.91,3441942,2710317
35.79,3146113,1215946
37.20,3443333,3322636
18.94,20914865,10527919
42.34,3824272,1533879
30.07,5412959,4391528
25.44,10142084,7292235
17.98,18991621,16778274
40.12,3354376,1317940
38.16,3158340,3606820
43.99,3128429,649238
25.80,6236549,3670877
40.83,3654410,2961937
39.22,4323609,1526658
38.75,4610205,2652959
17.97,21173434,8635780
43.16,3868625,940510
36.82,3267567,1376910
42.01,3530832,1770834
20.02,11101114,13490918
34.88,3036467,2569312
38.43,3130722,2781685
42.01,3848734,943045
41.97,3901017,1431288
39.14,4018753,2307655
42.03,3706341,568134
31.86,5620332,3175568
21.13,11907354,9924759
39.61,3638292,1555451
34.78,3342411,2315141
43.41,3138559,707054
36.34,3414221,2738447
40.16,3277023,1725596
43.65,3339949,806262
39.91,3381226,3106914
40.49,3329764,2804082
40.59,3170981,1459409
24.13,8435061,2634196
34.50,3179223,1882742
24.20,9170347,1156716
32.26,3322805,2887409
40.79,3612264,2342788
43.31,3311449,1240599
30.60,5229082,765563
34.54,5969744,3490908
33.59,9567985,5950093
43.32,3424969,1002742
50.34,5728802,2022612
29.16,11515793,6447871
43.36,3021357,2088883
43.34,5279713,4041886
23.34,14367043,10540946
47.88,5556022,1738925
42.87,3111575,1042785
45.28,5350277,4043415
50.01,5236499,749541
29.47,11722786,6435371
37.94,4864893,3324102
38.16,5180905,4569464
49.80,5464503,847956
49.68,3735367,673563
39.27,4868577,1646343
28.75,7817504,3521648
44.89,3344114,893120
31.58,6272141,3137256
44.02,6025494,5785140
30.78,6074177,2628787
34.88,5003801,4833962
42.65,5336495,4170326
32.22,6010692,2121968
43.40,5045272,1436758
37.87,5838193,2239737
40.18,5859923,3656884
47.83,4047299,646716
33.22,7348449,2107836
47.95,5188095,1537992
38.32,6377125,1030387
46.14,6590634,2774331
47.92,5499292,1365747
63.78,6923329,2466282
50.50,6132646,3839298
54.53,3295849,1053862
63.53,2623736,977987
40.63,6897144,6026875
43.08,6839942,5326052
43.16,5683778,6126500
55.83,5671715,4412313
49.82,5591120,4868560
58.50,5896202,2469721
50.12,3446568,2166979
49.39,5699960,5646259
62.06,4805568,2065198
30.30,6726243,5574611
64.61,6289632,1332014
64.24,6462160,886211
63.51,2354997,707335
49.82,6236432,1389466
49.18,6230301,1669350
45.95,6122751,5583630
61.60,6288575,1834430
63.29,6465633,1241210
53.86,3469544,1706119
38.09,11516062,5994895
60.85,5836928,2533173
64.09,2507367,1025181
53.66,4039114,1677947
30.33,11046239,7164143
43.27,5680988,5591231
44.67,5680393,5656127
57.89,5592434,1218361
64.62,6469413,771192
40.97,11682515,4701839
48.07,4146778,1937220
41.86,6381909,4369556
56.05,3544730,1179085
55.72,4188712,1953812
45.69,6938090,4401073
29.56,13854451,7227741
56.66,6475642,4278738
62.85,6722327,2837217
63.44,4230110,1686646
55.43,4761538,4138124
41.80,4645555,4562830
49.29,6418029,5525246
64.23,4464079,988489
43.88,6765864,6173524
63.13,6655252,2805840
53.10,4286030,2373212
34.46,11456731,4010564
55.04,5835579,1977657
45.15,5901192,4305099
61.16,5887137,1374598
64.50,2957967,818400
38.78,6771628,2473843
43.15,5528289,4857457
58.49,5919973,1417952
61.49,5856644,901326
53.11,5294873,1062528
59.48,3410484,843752
64.46,6458133,975079
63.42,2489019,792078
45.79,6143740,1926457
37.57,11563127,4609502
37.45,11543944,4556339
63.55,6267912,2019175
45.76,10021233,5241645
60.67,2876111,1562474
57.72,2882201,1579818
48.57,4362822,2753823
29.48,12350572,9082553
29.70,13014532,9589697
48.32,5723195,4783754
41.91,6558140,5491266
43.41,6490498,5945578
46.07,6763503,4390263
55.51,3354671,1199947
25.87,23484688,7429196
63.75,6278433,2012661
54.34,3505204,1619628
65.29,2683666,1265863
36.55,6735501,5373938
51.95,5773391,4081226
50.30,3710173,1403478
61.82,5932132,1462296
55.73,3566290,1698379
37.13,11772639,5325956
53.33,4339342,1731190
59.44,6090617,1917716
56.53,3256062,917401
38.90,6287970,2767159
64.15,2627390,1443555
50.83,4382594,2733399
51.06,4448006,3445929
40.91,7314038,6239232
55.60,5868349,4404270
53.10,3629586,2125469
32.75,9910615,5426195
63.79,3596116,982993
60.07,4823433,2741607
37.51,6333391,3120789
61.32,5931320,1173244
42.00,7158930,3425084
49.08,4426578,2652348
29.50,11877637,3360204
44.47,5938228,1298907
42.12,5616926,5495921
51.24,5726719,4677495
60.56,3189031,980809
64.58,3798527,642986
43.22,5691974,917620
33.51,12419178,739207
30.72,12363513,3706556
39.12,9144144,613893
40.48,7671312,765911
51.63,5280451,2311035
50.18,4909560,1454895
48.74,2933555,1001173
20.63,21847451,6922250
18.33,21727746,10355456
49.90,4478317,2325812
31.59,8969036,3549661
23.03,15846401,10034060
38.65,3988262,3890978
30.93,4471538,4050813
35.80,4028781,2604792
45.90,5683105,3316568
48.66,2966625,740230
50.87,4901189,1494382
45.76,5539603,1338015
48.29,4485878,2248685
50.83,4735438,1315200
47.21,4280250,3366815
43.35,4259786,3750588
33.97,3939873,3680458
51.27,4677409,1834268
36.73,5100976,3857345
45.56,3178242,1377282
23.41,16604243,8493905
38.83,4112779,4461428
38.51,4067220,3949184
35.48,4124771,2782049
35.08,4182981,3096312
35.59,4182460,2879551
51.26,4175170,837653
37.08,5142418,3883781
22.80,16633904,8364754
42.57,4182529,1766887
50.76,3053203,546406
27.35,11097546,2445606
42.84,4184886,4078232
36.06,4109355,3415511
38.29,4241674,4586121
33.95,3965540,3824233
36.97,4347505,4033013
45.37,4213376,2329168
57.46,5968508,782196
37.54,11324342,3629209
45.37,6279367,2520537
25.62,22564646,9150498
54.89,5357314,2533268
52.15,3025935,2389325
38.40,5054811,4710964
38.14,5098438,5000596
39.35,5097885,3485985
39.46,5099408,3454188
55.69,4214421,1001832
39.79,5816023,2797520
56.53,5741969,1729986
24.40,22396967,12026112
44.68,4252593,3993189
44.18,6764179,5187777
51.17,5312060,4160247
56.70,2952189,1215509
29.88,9191046,7259687
54.49,5448037,1335484
55.29,5150826,1303216
54.47,4346553,782949
54.54,6055816,2284470
51.86,3033535,1404128
56.50,3237996,691861
57.38,5137401,620632
49.28,5742700,6237951
37.09,6861254,4235765
51.03,5735151,5451407
43.33,7120090,6700768
46.52,6847719,2817260
39.93,5177241,3460174
30.71,9536272,5175085
53.18,3225102,1174585
36.52,7859906,2697160
38.45,5079876,4879505
40.20,5180205,3400048
46.66,4828198,2184019
52.62,5286809,1626897
55.75,4744804,1272321
29.25,16151230,5262517
27.14,11614167,8033332
43.55,4519573,3314313
47.73,2996332,701096
43.35,3345538,1223968
36.50,9452787,3798279
47.92,4860915,2716331
46.42,4269390,3054035
24.81,9295166,10014699
49.23,4262816,649396
43.60,3484422,1182591
31.45,11243320,5404461
42.37,3147352,2127456
47.69,3122986,1266591
38.02,3748501,1778796
47.08,3132883,1075834
48.36,4706493,1801307
41.71,4278695,5014507
42.16,4283261,4912727
47.22,4472397,1765177
46.89,4447470,1476993
43.62,2696135,981979
37.74,3897281,1807834
22.91,9506747,6870439
40.78,4315939,2300568
39.95,4509885,2762332
26.38,7887110,6435661
23.97,11097039,6944415
42.49,4319274,3451381
42.38,3171277,2051746
36.42,5120686,3169493
36.95,4105194,2351705
40.00,3358841,1981059
25.09,10147304,4128385
49.08,4331702,983085
41.12,5195820,1802373
31.53,5653565,3535321
42.19,4826912,2721654
37.25,4041403,2601954
41.06,4174200,4158294
41.60,4085900,3806237
35.33,6547606,1796862
47.07,4610106,1817225
48.44,3122844,877283
44.84,3228378,615403
34.44,6858136,991152
46.82,4557330,1032131
43.86,4545665,967641
28.19,9989507,1963810
34.65,5122084,990058
52.84,5162850,1071779
47.06,3220958,2208374
37.75,5013369,4138182
49.58,4906113,1698551
45.22,5104069,2021674
24.32,12093275,7609787
52.75,5315743,1743537
52.54,5427828,1935889
53.01,5453477,1070794
51.86,5159486,1680051
52.54,3066898,824692
47.75,4004159,1787469
41.00,4526621,2904183
41.34,3921909,1788032
41.40,7948012,5233518
39.73,6208972,2853443
36.17,11539854,5613504
47.60,3038796,969877
36.78,4553272,4384459
37.01,4554325,4384257
49.66,4374307,1001995
46.49,4541685,1630687
51.46,5716200,2490347
37.27,6105087,3681588
43.01,4817401,4938037
39.19,4660749,3045838
51.74,5290400,1521792
29.58,14050664,6213732
50.14,4870550,1621164
49.91,4876413,1691861
35.13,5611422,2081895
26.18,12890588,3942014
51.58,4121593,1113745
49.34,3006267,938831
35.11,10671338,3051399
42.58,6255935,2489524
36.73,6127479,1221106
51.09,5309545,1782752
45.87,5010423,3051155
38.81,6951818,1076122
36.89,4600786,4386015
27.15,14275863,3392530
50.38,7663034,1409143
36.13,7720147,813653
49.49,4156482,2062627
49.64,4274297,2153937
50.44,4355333,2261690
49.88,4059219,1877529
36.71,7315650,2532071
30.25,11188244,3997564
52.00,4543174,1532138
36.69,8773397,4287985
35.58,5685795,3418611
31.27,11034155,4351576
42.38,4337698,4244835
38.57,4006146,2942992
21.04,21744546,6739889
44.31,3725350,3120321
46.15,4006400,2073166
43.31,4886496,2194506
50.38,4359588,2150572
30.08,5536315,3512724
49.12,4686438,2157683
39.87,6476477,3613080
49.07,3045605,885899
47.82,4449295,2660254
36.18,7599825,6084674
21.59,18836450,14211770
48.37,3128241,1480403
31.40,5747408,2417738
40.36,6299847,3185967
48.34,4156187,2223704
27.14,10882239,2881905
48.52,4447683,1723901
27.22,10201306,2349491
47.51,3545070,612275
28.53,8743400,1242635
48.59,5042023,1653244
42.67,5704686,810116
35.59,6392051,3117351
13.97,21125663,18259009
32.16,7541272,4003599
45.41,4474302,1947978
44.75,3873443,1391211
33.27,7000390,5019050
27.21,10420298,5795286
44.56,3530517,2899631
34.41,5285591,5124658
39.86,3021254,3253048
30.46,2990121,2935030
43.06,3094958,1155975
44.92,4053104,1538189
41.88,4694415,2363418
45.89,3839840,2315049
25.97,9983302,8654955
20.07,18757019,10498415
33.43,3678103,2416267
37.03,3048937,3396728
38.35,3210564,3230038
44.16,2959221,1020559
37.22,3446320,3444472
44.84,3890300,1397936
42.05,4652839,1783302
42.60,4686026,1747359
35.00,6154072,1630833
25.75,11092409,5918739
45.48,4323949,1177146
42.75,4434407,1859219
38.89,3171103,1595191
18.98,18666663,15092009
20.08,8993766,6967477
40.16,2679302,1339616
41.84,3468407,1758740
31.72,3084685,2284388
42.12,3281372,1157351
37.58,3164086,2849274
37.43,3316569,2276981
43.98,3212094,1032774
40.73,3261437,3108101
42.66,3443707,3593299
35.21,5804318,1927253
37.09,3448795,2356584
44.98,3688299,1481196
44.64,4266754,1629696
41.93,4492158,1797727
30.88,7021392,1567522
37.43,3233574,4271344
28.73,6605948,1538932
41.10,4224110,3417497
31.25,6300581,1508800
22.31,10982117,9205041
24.95,10851958,4424337
44.35,3863036,1393160
32.73,5715855,3495337
39.20,3375735,2244765
43.97,3823923,1353452
41.94,3261808,2684717
21.59,10785584,10479189
20.24,10664456,13219283
34.72,2982604,2767892
25.82,4463509,5853643
30.71,2927123,2778756
30.50,2992308,2926826
24.38,10919661,4358423
45.34,3585318,1482489
25.29,11056689,5532903
43.20,3803614,1819421
37.74,3821275,3466819
33.53,3782914,3836721
20.52,10627288,12155641
34.38,3055427,3118842
39.92,2350002,1200116
22.20,6736404,8719916
21.51,7488188,6330071
25.21,11130152,5603864
44.47,3845327,944571
37.43,3166846,3498634
28.15,4579096,4434114
38.27,3448669,2325848
25.91,8377062,5415332
33.24,5688527,3324612
26.28,10583140,6101509
43.24,3114822,853238
22.79,7911300,4184260
38.10,3780190,1723436
40.69,3397743,2422528
27.60,10181736,2954456
19.63,19446104,12492142
37.97,3792708,1722581
34.81,2961772,2411399
43.19,3502451,1273038
28.86,6137230,1757437
28.75,12637726,2640079
30.54,3320657,2875500
42.75,3500351,1505973
33.13,5663302,742614
44.77,3874930,1499346
14.56,21088435,19207404
33.48,5675878,2174455
42.80,3264881,1112406
34.37,8573544,4036982
20.57,21151667,5679826
44.96,3870991,1256168
38.41,3399673,2939529
44.36,3801889,1816792
42.49,4483620,2873215
38.96,2639640,2346823
26.97,6092652,4691952
41.34,2300948,1264163
36.38,2888214,1587528
20.95,8543732,7246177
30.61,2991696,2923534
43.35,3267740,1201947
42.59,3203004,1001151
20.32,21826542,8130351
26.52,10029833,8234399
42.40,3272475,2572568
43.11,3106983,1286541
38.58,3154832,3732426
40.43,2513601,995486
35.12,3148117,2101570
41.29,3296592,1931985
40.39,3445160,2481588
32.78,5371060,4580504
39.60,3165024,3354647
36.36,3446463,3010781
28.06,6562754,5120509
41.03,2268023,1218586
28.73,4913628,2534816
45.01,3649108,1479735
45.86,3158141,760460
26.46,10352638,6448279
20.47,19369590,11232699
29.69,6872029,2348970
24.76,11449597,3553646
34.09,2995270,2836438
40.91,3281874,3496746
41.90,3544585,3818542
44.73,4338722,2003582
40.49,4167134,1501049
26.88,8879105,678176
41.96,4128066,1527847
31.40,6254204,2672716
36.62,4266089,2441869
24.37,16940948,8060639
46.30,3279290,1250713
34.11,4710975,2920842
46.19,2198039,832510
44.90,3601356,1504490
43.72,6383329,1818772
45.87,7547701,2290113
40.17,4694042,1509658
38.62,4713962,2796258
35.13,6089117,7251376
43.13,6484189,1642338
42.55,6210817,2397223
44.60,3203538,860848
41.07,6312699,2277954
42.77,6240096,2279084
46.52,2632363,825351
42.51,6218298,2518768
44.08,5364472,717517
39.44,6298544,1711944
44.44,2815602,1347138
28.77,6031330,16144846
41.07,6332235,2049310
37.14,6698178,1330452
36.56,4075336,2859479
45.92,6920340,761818
42.68,9764244,1482743
45.61,2041951,842594
45.94,3816128,1095417
24.70,17033002,7720576
42.26,5861911,1589149
36.24,4521257,3059532
45.93,3721597,1698268
30.76,4701909,2897994
46.62,6562175,836937
40.77,5967715,1932990
27.61,7551265,5196600
28.69,5479302,15049503
36.65,5870804,1471937
42.24,6114300,942786
46.12,2147010,799322
45.94,2601350,872280
45.17,6189873,3873523
42.91,3212481,682867
32.38,4531548,2623399
44.09,2532881,1346814
28.39,6767681,4803291
27.16,10622370,10873075
40.05,5956807,2322562
30.33,5455009,3622449
31.14,5651547,5167351
39.01,5690215,3665993
40.58,6098564,10489645
36.05,5708461,5762540
28.19,5517676,14915538
44.52,6478020,2927917
39.69,7821428,2299948
28.60,5532779,15118828
31.72,8125640,1478506
23.98,16123540,5822081
24.91,16343846,6901472
47.94,5318779,2060035
48.99,5192610,2093459
45.43,2697880,1289550
42.70,2462674,961302
42.09,2395901,1183952
50.46,5322254,1549635
38.35,5009499,6791343
30.18,6183981,5439896
49.92,5570604,1009872
30.93,5162256,2642308
27.39,6648414,5310302
34.35,5078232,10306121
42.78,2502159,1236617
38.46,3711779,3052550
46.62,5614898,2618106
38.19,5009268,8095862
48.45,5281675,1064961
36.58,5114103,7006102
32.03,10704358,987004
35.54,7228809,1644951
24.19,21030746,9114132
33.60,10136793,4217581
56.95,2635599,1081279
49.75,3647639,1860994
49.69,2806626,1280240
48.14,5810209,6521141
43.63,3606900,2007273
44.30,6473047,1615371
46.25,2250373,751688
45.20,2455463,973575
37.50,6221337,5730808
46.02,3794860,1192177
38.27,3426258,2144345
34.03,4112689,3459966
41.38,5758213,769932
43.65,6640796,1212464
28.79,6156216,16505378
34.08,6268836,6179107
43.55,6378115,2192152
34.56,6192746,7876704
36.43,3676516,3393741
36.77,6363055,6666666
45.07,3977932,1159256
27.73,7091991,6774857
28.80,7435757,3725922
28.31,8639940,4668822
43.71,2783460,1002979
30.19,7532578,1477141
45.24,4911237,840668
42.22,5404208,1698847
27.80,7933979,4698613
44.20,2630287,1262348
43.74,3078524,1268957
27.36,5430309,3973219
41.71,5649459,1203994
44.59,4227267,1919050
42.45,3134162,1645260
43.75,3125592,1171154
35.76,3602072,2444284
32.61,5161195,9174787
42.88,5911549,5991361
24.33,7980917,5358788
28.50,5103955,14009194
40.43,5387112,1782967
41.43,2485781,1197309
41.53,3975275,1871828
27.37,6755012,6410113
44.07,5739260,5548351
40.84,2668170,1270333
25.82,9302774,9710754
39.50,3274584,1644405
31.35,5227141,8353835
39.93,4730778,1206625
37.63,5277268,4440908
40.99,5405439,2296198
32.52,5235562,7570406
26.25,10079731,5531671
43.57,3074126,1062598
30.53,5510136,1922828
40.65,5187052,1127485
36.21,5766920,1531344
36.66,5364200,5134699
38.92,5233848,790127
43.10,2109259,1060088
42.78,6173764,1037806
26.36,15109053,5942170
28.25,5673593,4401547
39.82,5803921,3533792
25.90,7704756,5733930
24.15,7760911,5280878
30.43,5727632,9292611
40.76,5863905,1385423
28.14,6930062,2877043
28.60,6952686,2947960
35.10,5831966,5516574
26.74,15139591,5387513
46.33,2625977,1185000
26.91,9661590,9290014
46.45,6658243,2585437
46.22,6938659,1551196
28.45,8047764,4521437
31.22,5751873,8633144
44.56,3015784,834862
42.88,3736708,830979
28.13,6325183,4317845
41.93,5855205,2500263
31.22,5751781,7724192
32.32,8467582,4253564
41.20,6048273,1168709
27.99,5641556,15574063
37.53,5589715,2170976
40.58,5360857,965919
31.53,5991665,974324
41.48,5600742,869454
39.92,5580719,1413369
50.18,3685163,2048378
46.34,2289935,901553
30.69,7833451,3090033
41.99,5186544,5334105
48.93,3618797,2378462
45.33,2573066,1322156
42.91,5269851,5469544
48.34,5586587,4748030
24.34,16004527,10628873
51.44,5506205,957626
45.25,5491782,8684241
37.89,5151638,8264401
25.86,6613178,6205041
33.13,5755158,3149368
45.12,3900157,2969018
24.85,8011500,7133480
45.99,4902368,1295452
39.19,7225094,4727011
36.14,5206854,8869989
34.23,4558617,1485230
33.34,5194058,1698686
33.15,7368685,773640
