perf, CACHE_MISS_L1, CACHE_MISS_L2
50.08,66288,46050
49.59,66322,49027
52.02,75710,62526
48.65,66336,59990
53.78,75647,28397
54.30,75714,33638
50.20,66389,40835
51.46,76499,69171
53.21,64906,16178
52.39,64656,25769
50.75,65740,40744
51.68,76034,69402
54.09,52291,15314
52.67,54023,25203
51.40,59074,40568
48.85,66361,60798
55.22,48681,14162
53.77,51150,23810
51.57,56263,38146
48.30,66308,60641
58.26,48041,14693
56.30,53683,26507
52.39,54714,37708
48.42,66256,61263
48.49,80455,38003
48.33,84610,36952
49.16,80786,18292
49.54,80929,15371
50.35,80125,14098
48.67,78461,13869
54.25,79852,29373
54.65,91814,47438
53.17,80060,46569
53.85,91322,73369
56.53,79854,17049
56.45,80034,24996
53.98,79988,37725
52.21,79867,62835
57.42,68658,15023
57.07,70565,25550
54.11,73875,40847
51.73,80099,62765
58.47,63149,14314
57.47,65802,23666
55.82,70625,39225
53.72,91627,72288
59.29,62042,13757
58.69,70148,26655
54.74,69450,40076
51.97,79987,61207
59.38,58162,13430
58.38,65984,26766
56.90,73460,44868
52.59,92027,71672
54.32,79800,32407
54.32,79841,37158
53.73,79836,47770
52.05,79806,62172
58.14,92219,18788
55.56,80129,26224
54.54,79979,38199
52.38,79847,61476
57.95,69194,14289
58.04,81069,27551
54.32,74083,39919
52.07,80014,61217
57.42,71675,15366
57.43,65837,23102
54.64,71140,38763
51.58,79892,61717
59.01,62073,13302
57.42,64747,22732
55.87,77490,45135
51.75,79965,62268
59.29,58115,12943
52.13,62101,23398
56.09,73502,44760
51.69,79810,62220
55.64,80026,28482
54.01,79981,33541
53.57,80025,46627
52.25,79983,61872
57.02,80204,19301
55.85,92062,30525
54.70,80145,37166
52.94,92053,73674
57.70,69576,15354
57.98,70767,25695
54.91,74042,41029
51.39,80079,62735
60.10,63541,14267
57.17,65792,24404
56.31,70573,38775
52.38,80069,61113
59.04,62226,14377
57.93,65370,23913
56.01,70144,38825
52.44,80019,61138
60.76,58079,13515
58.64,61465,22961
55.11,66152,38549
52.16,80030,61188
45.92,92195,36056
49.33,97320,37140
46.77,92297,18080
47.56,91097,14801
50.49,91963,14115
47.53,86561,12812
39.37,91459,37126
39.82,91173,31840
40.06,91947,20181
41.14,90318,14734
42.18,83933,13127
41.72,86851,12745
