IdRun;NameConv;Time(ms);std;NbMicroKernel;AxeFuse;SizeAxeFuse;Schema;Time_search
-1;ttile;4.3080174922943115;0;0;0;0;0;4.3080174922943115
0;MobilNet_4;0.39896300000000007;0.006770996381626571;2;axe_out_channels1_0,axe_yy1_0,axe_xx1_0,axe_out_channels1_1;11;[V f, U (2, f), ULambda y, T (64, c), Hoist_vars [c], T (3, h), T (7, x),  T (3, w), T (2, c), T (1, f), T (4, x),  Lambda_apply y [((Iter 2), (Arg 8)), ((Iter 1), (Arg 12))], T (4, f)];5.825088739395142
1;MobilNet_4;0.3929784;0.004944702927375926;2;axe_out_channels1_0,axe_yy1_0,axe_xx1_0,axe_out_channels1_1;10;[V f, U (2, f), ULambda y, T (64, c), Hoist_vars [c], T (3, h), T (7, x),  T (3, w), T (2, c), T (1, f), T (4, x),  Lambda_apply y [((Iter 1), (Arg 8)), ((Iter 2), (Arg 10))], T (4, f)];7.354916095733643
2;MobilNet_4;0.5401788;0.006603157226660582;2;axe_xx1_0;28;[V f, U (1, f), ULambda y, U (3, h), T (128, c), Hoist_vars [c], T (3, w),  T (28, x), T (1, c), T (8, f),  Lambda_apply y [((Iter 2), (Arg 9)), ((Iter 1), (Arg 10))], T (1, f)];8.648012399673462
3;MobilNet_4;0.7561163000000001;0.007261081958633994;2;axe_out_channels1_0,axe_yy1_0,axe_xx1_0,axe_out_channels1_1;6;[V f, U (4, f), ULambda y, U (3, w), T (128, c), Hoist_vars [c], T (28, x),  T (3, h), T (1, c), T (1, f), T (1, x),  Lambda_apply y [((Iter 2), (Arg 5)), ((Iter 3), (Arg 6))], T (2, f)];10.045825242996216
4;MobilNet_4;0.39815120000000004;0.003701743016472105;1;axe_out_channels_0,axe_yy_0,axe_xx_0,axe_out_channels_1;9;[V f, U (4, f), U (7, y), U (3, w), T (128, c), Hoist_vars [c], T (14, x),  T (3, h), T (1, c), T (1, f), T (2, x), T (4, y), T (2, f)];11.359294414520264
5;MobilNet_4;0.3734805;0.004493842993474519;2;axe_out_channels1_0,axe_yy1_0,axe_xx1_0,axe_out_channels1_1;10;[V f, U (2, f), ULambda y, T (32, c), Hoist_vars [c], T (3, h), T (7, x),  T (3, w), T (4, c), T (2, f), T (4, x),  Lambda_apply y [((Iter 2), (Arg 9)), ((Iter 1), (Arg 10))], T (2, f)];12.803518295288086
6;MobilNet_4;0.3668613;0.002843856186588907;1;axe_out_channels_0,axe_yy_0,axe_xx_0,axe_out_channels_1;12;[V f, U (4, f), U (4, y), U (3, w), T (128, c), Hoist_vars [c], T (14, x),  T (3, h), T (1, c), T (1, f), T (2, x), T (7, y), T (2, f)];14.029026508331299
7;MobilNet_4;0.4496231;0.006465764339194561;1;axe_xx_0;28;[V f, U (1, f), U (14, y), U (3, h), T (128, c), Hoist_vars [c], T (3, w),  T (28, x), T (1, c), T (4, f), T (2, y), T (2, f)];15.161989212036133
8;MobilNet_4;0.5459081;0.007152777760422884;2;axe_xx1_0;28;[V f, U (1, f), ULambda y, U (3, h), T (128, c), Hoist_vars [c], T (3, w),  T (28, x), T (1, c), T (2, f),  Lambda_apply y [((Iter 2), (Arg 9)), ((Iter 1), (Arg 10))], T (4, f)];16.46489381790161
9;MobilNet_4;0.4421018;0.007156224169211019;1;axe_xx_0;28;[V f, U (1, f), U (14, y), U (3, h), T (128, c), Hoist_vars [c], T (3, w),  T (28, x), T (1, c), T (8, f), T (2, y), T (1, f)];17.556687116622925
10;MobilNet_4;0.9832050999999999;0.008499332543794242;2;axe_out_channels1_0,axe_yy1_0,axe_xx1_0,axe_out_channels1_1;8;[V f, U (2, f), ULambda y, U (3, h), T (32, c), Hoist_vars [c], T (28, x),  T (3, w), T (4, c), T (1, f), T (1, x),  Lambda_apply y [((Iter 2), (Arg 9)), ((Iter 1), (Arg 10))], T (4, f)];18.947937726974487
11;MobilNet_4;0.8074507000000001;0.004305615706260848;2;axe_xx1_0;28;[V f, U (1, f), ULambda y, U (3, h), T (32, c), Hoist_vars [c], T (3, w),  T (28, x), T (4, c), T (8, f),  Lambda_apply y [((Iter 2), (Arg 9)), ((Iter 1), (Arg 10))], T (1, f)];20.223413944244385
12;MobilNet_4;0.6387305;0.004336253619197132;1;axe_out_channels_0,axe_yy_0,axe_xx_0,axe_out_channels_1;9;[V f, U (2, f), U (14, y), T (32, c), Hoist_vars [c], T (3, h), T (14, x),  T (3, w), T (4, c), T (1, f), T (2, x), T (2, y), T (4, f)];21.337952375411987
13;MobilNet_4;0.3341376;0.0059406913436064;2;axe_out_channels1_0,axe_yy1_0,axe_xx1_0,axe_out_channels1_1;10;[V f, U (2, f), ULambda y, T (64, c), Hoist_vars [c], T (3, h), T (7, x),  T (3, w), T (2, c), T (2, f), T (4, x),  Lambda_apply y [((Iter 2), (Arg 8)), ((Iter 1), (Arg 12))], T (2, f)];22.809699773788452
14;MobilNet_4;0.4957745;0.0034337228557354527;1;axe_out_channels_0,axe_yy_0,axe_xx_0,axe_out_channels_1;10;[V f, U (2, f), U (14, y), T (16, c), Hoist_vars [c], T (3, h), T (7, x),  T (3, w), T (8, c), T (2, f), T (4, x), T (2, y), T (2, f)];23.90648913383484
15;MobilNet_4;0.4389739;0.004860606350034931;1;axe_xx_0;28;[V f, U (1, f), U (14, y), U (3, h), T (128, c), Hoist_vars [c], T (3, w),  T (28, x), T (1, c), T (2, f), T (2, y), T (4, f)];25.0167396068573
16;MobilNet_4;0.3642299;0.0027889332171997213;1;axe_out_channels_0,axe_yy_0,axe_xx_0,axe_out_channels_1;11;[V f, U (2, f), U (14, y), T (16, c), Hoist_vars [c], T (3, h), T (7, x),  T (3, w), T (8, c), T (4, f), T (4, x), T (2, y), T (1, f)];26.12711811065674
17;MobilNet_4;0.39336390000000004;0.004539058811031201;2;axe_out_channels1_0,axe_yy1_0,axe_xx1_0,axe_out_channels1_1;11;[V f, U (2, f), ULambda y, T (64, c), Hoist_vars [c], T (3, h), T (7, x),  T (3, w), T (2, c), T (1, f), T (4, x),  Lambda_apply y [((Iter 2), (Arg 9)), ((Iter 1), (Arg 10))], T (4, f)];27.604356050491333
18;MobilNet_4;0.4520911000000001;0.008591703503380472;1;axe_out_channels_0,axe_yy_0,axe_xx_0,axe_out_channels_1;11;[V f, U (4, f), U (4, y), U (3, w), T (128, c), Hoist_vars [c], T (28, x),  T (3, h), T (1, c), T (1, f), T (1, x), T (7, y), T (2, f)];28.70180892944336
19;MobilNet_4;0.3407008;0.003101997833654959;1;axe_out_channels_0,axe_yy_0,axe_xx_0,axe_out_channels_1;14;[V f, U (2, f), U (14, y), T (64, c), Hoist_vars [c], T (3, h), T (4, x),  T (3, w), T (2, c), T (1, f), T (7, x), T (2, y), T (4, f)];29.848918676376343
20;MobilNet_4;0.47404920000000006;0.0015747727328094046;2;axe_out_channels1_0,axe_yy1_0,axe_xx1_0,axe_out_channels1_1;10;[V f, U (2, f), ULambda y, T (32, c), Hoist_vars [c], T (3, h), T (7, x),  T (3, w), T (4, c), T (1, f), T (4, x),  Lambda_apply y [((Iter 1), (Arg 8)), ((Iter 2), (Arg 10))], T (4, f)];31.29011106491089
21;MobilNet_4;1.0117378;0.006139251270309777;2;axe_out_channels1_0,axe_yy1_0,axe_xx1_0,axe_out_channels1_1;8;[V f, U (2, f), ULambda y, T (32, c), Hoist_vars [c], T (3, h), T (28, x),  T (3, w), T (4, c), T (1, f), T (1, x),  Lambda_apply y [((Iter 2), (Arg 9)), ((Iter 1), (Arg 10))], T (4, f)];32.65506911277771
22;MobilNet_4;0.3249376;0.0022361722742221713;2;axe_out_channels1_0,axe_yy1_0,axe_xx1_0,axe_out_channels1_1;11;[V f, U (2, f), ULambda y, U (3, h), T (64, c), Hoist_vars [c], T (7, x),  T (3, w), T (2, c), T (4, f), T (4, x),  Lambda_apply y [((Iter 2), (Arg 9)), ((Iter 1), (Arg 10))], T (1, f)];34.099321603775024
23;MobilNet_4;1.0600112000000002;0.00780393690133386;2;axe_out_channels1_0,axe_yy1_0,axe_xx1_0,axe_out_channels1_1;7;[V f, U (2, f), ULambda y, T (32, c), Hoist_vars [c], T (3, h), T (28, x),  T (3, w), T (4, c), T (4, f), T (1, x),  Lambda_apply y [((Iter 1), (Arg 8)), ((Iter 2), (Arg 10))], T (1, f)];35.4402117729187
24;MobilNet_4;1.1100096999999998;0.010224624316325742;1;axe_out_channels_0,axe_yy_0,axe_xx_0,axe_out_channels_1;8;[V f, U (4, f), U (7, y), T (16, c), Hoist_vars [c], T (3, h), T (28, x),  T (3, w), T (8, c), T (1, f), T (1, x), T (4, y), T (2, f)];36.57826781272888
25;MobilNet_4;0.5453548999999999;0.006440119555567288;1;axe_out_channels_0,axe_yy_0,axe_xx_0,axe_out_channels_1;11;[V f, U (2, f), U (14, y), T (64, c), Hoist_vars [c], T (3, h), T (7, x),  T (3, w), T (2, c), T (1, f), T (4, x), T (2, y), T (4, f)];37.670175075531006
26;MobilNet_4;0.3394269;0.0039817348593295405;1;axe_out_channels_0,axe_yy_0,axe_xx_0,axe_out_channels_1;12;[V f, U (4, f), U (4, y), U (3, w), T (128, c), Hoist_vars [c], T (14, x),  T (3, h), T (1, c), T (2, f), T (2, x), T (7, y), T (1, f)];38.811543703079224
27;MobilNet_4;0.3497208;0.0025646341571459925;1;axe_out_channels_0,axe_yy_0,axe_xx_0,axe_out_channels_1;9;[V f, U (4, f), U (7, y), T (32, c), Hoist_vars [c], T (3, h), T (14, x),  T (3, w), T (4, c), T (2, f), T (2, x), T (4, y), T (1, f)];40.00902485847473
28;MobilNet_4;0.6564173000000001;0.00423476896772422;2;axe_out_channels1_0,axe_yy1_0,axe_xx1_0,axe_out_channels1_1;8;[V f, U (2, f), ULambda y, U (3, h), T (32, c), Hoist_vars [c], T (14, x),  T (3, w), T (4, c), T (2, f), T (2, x),  Lambda_apply y [((Iter 2), (Arg 9)), ((Iter 1), (Arg 10))], T (2, f)];41.35061454772949
29;MobilNet_4;0.7813301;0.006257069449031219;1;axe_out_channels_0,axe_yy_0,axe_xx_0,axe_out_channels_1;9;[V f, U (2, f), U (14, y), T (16, c), Hoist_vars [c], T (3, h), T (14, x),  T (3, w), T (8, c), T (1, f), T (2, x), T (2, y), T (4, f)];42.49423694610596
30;MobilNet_4;0.9348483999999999;0.010740082785528241;1;axe_out_channels_0,axe_yy_0,axe_xx_0,axe_out_channels_1;9;[V f, U (4, f), U (7, y), T (16, c), Hoist_vars [c], T (3, h), T (14, x),  T (3, w), T (8, c), T (1, f), T (2, x), T (4, y), T (2, f)];43.76834177970886
31;MobilNet_4;0.7892296999999999;0.010239200604051079;1;axe_out_channels_0,axe_yy_0,axe_xx_0,axe_out_channels_1;11;[V f, U (2, f), U (14, y), T (16, c), Hoist_vars [c], T (3, h), T (7, x),  T (3, w), T (8, c), T (1, f), T (4, x), T (2, y), T (4, f)];44.87224245071411
32;MobilNet_4;0.32860100000000003;0.002532059398987307;1;axe_out_channels_0,axe_yy_0,axe_xx_0,axe_out_channels_1;14;[V f, U (2, f), U (14, y), T (16, c), Hoist_vars [c], T (3, h), T (4, x),  T (3, w), T (8, c), T (4, f), T (7, x), T (2, y), T (1, f)];46.022512674331665
33;MobilNet_4;0.8675464999999999;0.00710693699493672;1;axe_xx_0;28;[V f, U (1, f), U (14, y), U (3, h), T (16, c), Hoist_vars [c], T (3, w),  T (28, x), T (8, c), T (1, f), T (2, y), T (8, f)];47.14124059677124
34;MobilNet_4;0.6166355;0.004426502349485417;1;axe_out_channels_0,axe_yy_0,axe_xx_0,axe_out_channels_1;9;[V f, U (4, f), U (7, y), T (32, c), Hoist_vars [c], T (3, h), T (14, x),  T (3, w), T (4, c), T (1, f), T (2, x), T (4, y), T (2, f)];48.39984631538391
35;MobilNet_4;0.6250577;0.008611363179543632;2;axe_xx1_0;28;[V f, U (1, f), ULambda y, U (3, h), T (64, c), Hoist_vars [c], T (3, w),  T (28, x), T (2, c), T (1, f),  Lambda_apply y [((Iter 2), (Arg 9)), ((Iter 1), (Arg 10))], T (8, f)];49.69050192832947
36;MobilNet_4;0.5483107;0.010521168956442058;1;axe_out_channels_0,axe_yy_0,axe_xx_0,axe_out_channels_1;8;[V f, U (4, f), U (7, y), U (3, w), T (128, c), Hoist_vars [c], T (28, x),  T (3, h), T (1, c), T (2, f), T (1, x), T (4, y), T (1, f)];50.82632255554199
37;MobilNet_4;0.49454280000000006;0.003927014127807543;1;axe_xx_0;28;[V f, U (1, f), U (14, y), U (3, h), T (64, c), Hoist_vars [c], T (3, w),  T (28, x), T (2, c), T (1, f), T (2, y), T (8, f)];51.95080757141113
38;MobilNet_4;1.1071764000000002;0.00676091131727076;2;axe_out_channels1_0,axe_yy1_0,axe_xx1_0,axe_out_channels1_1;8;[V f, U (2, f), ULambda y, T (32, c), Hoist_vars [c], T (3, h), T (28, x),  T (3, w), T (4, c), T (4, f), T (1, x),  Lambda_apply y [((Iter 2), (Arg 9)), ((Iter 1), (Arg 10))], T (1, f)];53.29878878593445
39;MobilNet_4;0.3612879;0.0038745028184271634;2;axe_out_channels1_0,axe_yy1_0,axe_xx1_0,axe_out_channels1_1;10;[V f, U (2, f), ULambda y, T (32, c), Hoist_vars [c], T (3, h), T (7, x),  T (3, w), T (4, c), T (4, f), T (4, x),  Lambda_apply y [((Iter 1), (Arg 8)), ((Iter 2), (Arg 10))], T (1, f)];54.69584774971008
40;MobilNet_4;0.44381830000000005;0.0024161663456806967;1;axe_out_channels_0,axe_yy_0,axe_xx_0,axe_out_channels_1;9;[V f, U (4, f), U (7, y), U (3, w), T (64, c), Hoist_vars [c], T (14, x),  T (3, h), T (2, c), T (1, f), T (2, x), T (4, y), T (2, f)];56.02384305000305
41;MobilNet_4;0.49492080000000005;0.006711196552031538;1;axe_xx_0;28;[V f, U (1, f), U (14, y), U (3, h), T (64, c), Hoist_vars [c], T (3, w),  T (28, x), T (2, c), T (4, f), T (2, y), T (2, f)];57.12686729431152
42;MobilNet_4;0.6098283999999999;0.02677703119914528;1;axe_out_channels_0,axe_yy_0,axe_xx_0,axe_out_channels_1;14;[V f, U (2, f), U (14, y), T (16, c), Hoist_vars [c], T (3, h), T (4, x),  T (3, w), T (8, c), T (1, f), T (7, x), T (2, y), T (4, f)];58.27704834938049
43;MobilNet_4;0.7299509000000001;0.005704826893955689;2;axe_out_channels1_0,axe_yy1_0,axe_xx1_0,axe_out_channels1_1;8;[V f, U (2, f), ULambda y, T (32, c), Hoist_vars [c], T (3, h), T (14, x),  T (3, w), T (4, c), T (2, f), T (2, x),  Lambda_apply y [((Iter 2), (Arg 8)), ((Iter 1), (Arg 12))], T (2, f)];59.5730414390564
44;MobilNet_4;0.7806523999999999;0.005523004041280442;2;axe_out_channels1_0,axe_yy1_0,axe_xx1_0,axe_out_channels1_1;8;[V f, U (2, f), ULambda y, T (32, c), Hoist_vars [c], T (3, h), T (14, x),  T (3, w), T (4, c), T (1, f), T (2, x),  Lambda_apply y [((Iter 1), (Arg 13)), ((Iter 1), (Arg 15))], T (4, f)];60.931899309158325
45;MobilNet_4;0.49143;0.0031737748502375022;1;axe_out_channels_0,axe_yy_0,axe_xx_0,axe_out_channels_1;11;[V f, U (4, f), U (4, y), U (3, w), T (64, c), Hoist_vars [c], T (28, x),  T (3, h), T (2, c), T (1, f), T (1, x), T (7, y), T (2, f)];62.02895498275757
46;MobilNet_4;0.31013480000000004;0.00373327343761477;1;axe_out_channels_0,axe_yy_0,axe_xx_0,axe_out_channels_1;13;[V f, U (2, f), U (14, y), T (32, c), Hoist_vars [c], T (3, h), T (4, x),  T (3, w), T (4, c), T (2, f), T (7, x), T (2, y), T (2, f)];63.16137742996216
47;MobilNet_4;0.6206113;0.0030504318071381104;1;axe_out_channels_0,axe_yy_0,axe_xx_0,axe_out_channels_1;9;[V f, U (4, f), U (7, y), U (3, h), T (32, c), Hoist_vars [c], T (14, x),  T (3, w), T (4, c), T (1, f), T (2, x), T (4, y), T (2, f)];64.46670699119568
48;MobilNet_4;0.3514696;0.001068582069847715;1;axe_out_channels_0,axe_yy_0,axe_xx_0,axe_out_channels_1;9;[V f, U (4, f), U (7, y), U (3, w), T (128, c), Hoist_vars [c], T (14, x),  T (3, h), T (1, c), T (2, f), T (2, x), T (4, y), T (1, f)];65.70556473731995
49;MobilNet_4;0.6369077000000001;0.01040618190356098;2;axe_xx1_0;28;[V f, U (1, f), ULambda y, U (3, h), T (64, c), Hoist_vars [c], T (3, w),  T (28, x), T (2, c), T (4, f),  Lambda_apply y [((Iter 2), (Arg 9)), ((Iter 1), (Arg 10))], T (2, f)];66.97392249107361
50;MobilNet_4;0.6143888;0.0063626198817782476;1;axe_xx_0;28;[V f, U (1, f), U (14, y), U (3, h), T (32, c), Hoist_vars [c], T (3, w),  T (28, x), T (4, c), T (4, f), T (2, y), T (2, f)];68.08195996284485
51;MobilNet_4;1.2590647;0.006832195387282186;2;axe_out_channels1_0,axe_yy1_0,axe_xx1_0,axe_out_channels1_1;8;[V f, U (2, f), ULambda y, T (32, c), Hoist_vars [c], T (3, h), T (14, x),  T (3, w), T (4, c), T (4, f), T (2, x),  Lambda_apply y [((Iter 1), (Arg 13)), ((Iter 1), (Arg 15))], T (1, f)];69.41913962364197
52;MobilNet_4;0.6160321999999999;0.007423131977810986;1;axe_xx_0;28;[V f, U (1, f), U (14, y), U (3, h), T (32, c), Hoist_vars [c], T (3, w),  T (28, x), T (4, c), T (8, f), T (2, y), T (1, f)];70.52012014389038
53;MobilNet_4;0.28801;0.003750891813955709;1;axe_out_channels_0,axe_yy_0,axe_xx_0,axe_out_channels_1;14;[V f, U (2, f), U (14, y), T (64, c), Hoist_vars [c], T (3, h), T (4, x),  T (3, w), T (2, c), T (4, f), T (7, x), T (2, y), T (1, f)];71.64350485801697
54;MobilNet_4;0.44385979999999997;0.0031822921864593074;2;axe_out_channels1_0,axe_yy1_0,axe_xx1_0,axe_out_channels1_1;9;[V f, U (2, f), ULambda y, T (64, c), Hoist_vars [c], T (3, h), T (7, x),  T (3, w), T (2, c), T (2, f), T (4, x),  Lambda_apply y [((Iter 1), (Arg 13)), ((Iter 1), (Arg 15))], T (2, f)];72.96442937850952
55;MobilNet_4;0.32524;0.0031447975133543932;2;axe_out_channels1_0,axe_yy1_0,axe_xx1_0,axe_out_channels1_1;10;[V f, U (2, f), ULambda y, T (64, c), Hoist_vars [c], T (3, h), T (7, x),  T (3, w), T (2, c), T (4, f), T (4, x),  Lambda_apply y [((Iter 1), (Arg 8)), ((Iter 2), (Arg 10))], T (1, f)];74.37423133850098
56;MobilNet_4;0.5140486999999999;0.003498899514132968;1;axe_out_channels_0,axe_yy_0,axe_xx_0,axe_out_channels_1;8;[V f, U (4, f), U (7, y), U (3, w), T (128, c), Hoist_vars [c], T (28, x),  T (3, h), T (1, c), T (1, f), T (1, x), T (4, y), T (2, f)];75.51438593864441
57;MobilNet_4;0.40937589999999996;0.00438627658612632;1;axe_out_channels_0,axe_yy_0,axe_xx_0,axe_out_channels_1;10;[V f, U (2, f), U (14, y), T (32, c), Hoist_vars [c], T (3, h), T (7, x),  T (3, w), T (4, c), T (2, f), T (4, x), T (2, y), T (2, f)];76.60067248344421
58;MobilNet_4;0.7199549;0.005527434639143181;2;axe_out_channels1_0,axe_yy1_0,axe_xx1_0,axe_out_channels1_1;8;[V f, U (2, f), ULambda y, T (32, c), Hoist_vars [c], T (3, h), T (14, x),  T (3, w), T (4, c), T (4, f), T (2, x),  Lambda_apply y [((Iter 1), (Arg 8)), ((Iter 2), (Arg 10))], T (1, f)];77.88106679916382
59;MobilNet_4;0.3080223;0.0034794196944318272;1;axe_out_channels_0,axe_yy_0,axe_xx_0,axe_out_channels_1;11;[V f, U (2, f), U (14, y), T (64, c), Hoist_vars [c], T (3, h), T (7, x),  T (3, w), T (2, c), T (4, f), T (4, x), T (2, y), T (1, f)];78.96345734596252
60;MobilNet_4;0.6606897999999999;0.004135997093809429;2;axe_out_channels1_0,axe_yy1_0,axe_xx1_0,axe_out_channels1_1;7;[V f, U (4, f), ULambda y, U (3, h), T (32, c), Hoist_vars [c], T (14, x),  T (3, w), T (4, c), T (1, f), T (2, x),  Lambda_apply y [((Iter 2), (Arg 5)), ((Iter 3), (Arg 6))], T (2, f)];80.58549046516418
61;MobilNet_4;0.5508333;0.0037138978459295385;1;axe_out_channels_0,axe_yy_0,axe_xx_0,axe_out_channels_1;8;[V f, U (4, f), U (7, y), U (3, w), T (64, c), Hoist_vars [c], T (28, x),  T (3, h), T (2, c), T (1, f), T (1, x), T (4, y), T (2, f)];81.7255506515503
62;MobilNet_4;0.3655613;0.0029725600767688564;1;axe_out_channels_0,axe_yy_0,axe_xx_0,axe_out_channels_1;10;[V f, U (2, f), U (14, y), T (64, c), Hoist_vars [c], T (3, h), T (7, x),  T (3, w), T (2, c), T (2, f), T (4, x), T (2, y), T (2, f)];82.81253457069397
63;MobilNet_4;0.8593691;0.008260635574215833;1;axe_xx_0;28;[V f, U (1, f), U (14, y), U (3, h), T (16, c), Hoist_vars [c], T (3, w),  T (28, x), T (8, c), T (8, f), T (2, y), T (1, f)];83.91879653930664
64;MobilNet_4;0.9422414;0.016959981392678455;1;axe_out_channels_0,axe_yy_0,axe_xx_0,axe_out_channels_1;7;[V f, U (2, f), U (14, y), T (16, c), Hoist_vars [c], T (3, h), T (28, x),  T (3, w), T (8, c), T (2, f), T (1, x), T (2, y), T (2, f)];85.01475882530212
65;MobilNet_4;0.5151695000000001;0.006735392212039316;1;axe_out_channels_0,axe_yy_0,axe_xx_0,axe_out_channels_1;11;[V f, U (4, f), U (4, y), U (3, w), T (32, c), Hoist_vars [c], T (28, x),  T (3, h), T (4, c), T (2, f), T (1, x), T (7, y), T (1, f)];86.11711883544922
66;MobilNet_4;0.4679162;0.0025994766704088754;2;axe_out_channels1_0,axe_yy1_0,axe_xx1_0,axe_out_channels1_1;11;[V f, U (2, f), ULambda y, T (32, c), Hoist_vars [c], T (3, h), T (7, x),  T (3, w), T (4, c), T (1, f), T (4, x),  Lambda_apply y [((Iter 2), (Arg 9)), ((Iter 1), (Arg 10))], T (4, f)];87.57962846755981
67;MobilNet_4;0.3490603;0.003000415672869333;1;axe_out_channels_0,axe_yy_0,axe_xx_0,axe_out_channels_1;11;[V f, U (4, f), U (7, y), T (32, c), Hoist_vars [c], T (3, h), T (7, x),  T (3, w), T (4, c), T (2, f), T (4, x), T (4, y), T (1, f)];88.72666621208191
68;MobilNet_4;0.43366799999999994;0.004083379507221916;1;axe_xx_0;28;[V f, U (1, f), U (14, y), U (3, h), T (128, c), Hoist_vars [c], T (3, w),  T (28, x), T (1, c), T (1, f), T (2, y), T (8, f)];89.78681468963623
69;MobilNet_4;1.0789570999999998;0.018568270778131196;2;axe_out_channels1_0,axe_yy1_0,axe_xx1_0,axe_out_channels1_1;7;[V f, U (2, f), ULambda y, U (3, h), T (32, c), Hoist_vars [c], T (28, x),  T (3, w), T (4, c), T (2, f), T (1, x),  Lambda_apply y [((Iter 2), (Arg 9)), ((Iter 1), (Arg 10))], T (2, f)];91.14376211166382
70;MobilNet_4;0.49942169999999997;0.005994586758901719;1;axe_xx_0;28;[V f, U (1, f), U (14, y), U (3, h), T (64, c), Hoist_vars [c], T (3, w),  T (28, x), T (2, c), T (2, f), T (2, y), T (4, f)];92.22802090644836
71;MobilNet_4;0.32695219999999997;0.001701816312061902;1;axe_out_channels_0,axe_yy_0,axe_xx_0,axe_out_channels_1;11;[V f, U (2, f), U (14, y), T (32, c), Hoist_vars [c], T (3, h), T (7, x),  T (3, w), T (4, c), T (4, f), T (4, x), T (2, y), T (1, f)];93.31097936630249
72;MobilNet_4;0.6223482;0.004738626379025877;1;axe_xx_0;28;[V f, U (1, f), U (14, y), U (3, h), T (32, c), Hoist_vars [c], T (3, w),  T (28, x), T (4, c), T (2, f), T (2, y), T (4, f)];94.41700148582458
73;MobilNet_4;0.4952967000000001;0.005332395991484478;1;axe_xx_0;28;[V f, U (1, f), U (14, y), U (3, h), T (64, c), Hoist_vars [c], T (3, w),  T (28, x), T (2, c), T (8, f), T (2, y), T (1, f)];95.50987648963928
74;MobilNet_4;1.2429019999999997;0.00900046083264625;2;axe_out_channels1_0,axe_yy1_0,axe_xx1_0,axe_out_channels1_1;7;[V f, U (2, f), ULambda y, T (32, c), Hoist_vars [c], T (3, h), T (14, x),  T (3, w), T (4, c), T (2, f), T (2, x),  Lambda_apply y [((Iter 1), (Arg 13)), ((Iter 1), (Arg 15))], T (2, f)];96.8439781665802
75;MobilNet_4;0.3473808;0.003914048052847581;2;axe_out_channels1_0,axe_yy1_0,axe_xx1_0,axe_out_channels1_1;11;[V f, U (2, f), ULambda y, T (64, c), Hoist_vars [c], T (3, h), T (7, x),  T (3, w), T (2, c), T (4, f), T (4, x),  Lambda_apply y [((Iter 2), (Arg 8)), ((Iter 1), (Arg 12))], T (1, f)];98.27691602706909
76;MobilNet_4;0.6652649;0.006558905388096375;1;axe_out_channels_0,axe_yy_0,axe_xx_0,axe_out_channels_1;8;[V f, U (2, f), U (14, y), T (16, c), Hoist_vars [c], T (3, h), T (28, x),  T (3, w), T (8, c), T (1, f), T (1, x), T (2, y), T (4, f)];99.40205502510071
77;MobilNet_4;0.43862190000000006;0.004333560186497918;1;axe_out_channels_0,axe_yy_0,axe_xx_0,axe_out_channels_1;9;[V f, U (4, f), U (7, y), T (16, c), Hoist_vars [c], T (3, h), T (14, x),  T (3, w), T (8, c), T (2, f), T (2, x), T (4, y), T (1, f)];100.61032247543335
78;MobilNet_4;1.0360559;0.009114438989317965;1;axe_out_channels_0,axe_yy_0,axe_xx_0,axe_out_channels_1;8;[V f, U (4, f), U (7, y), T (16, c), Hoist_vars [c], T (3, h), T (28, x),  T (3, w), T (8, c), T (2, f), T (1, x), T (4, y), T (1, f)];101.75743317604065
79;MobilNet_4;0.4293684;0.0019328330605616183;1;axe_out_channels_0,axe_yy_0,axe_xx_0,axe_out_channels_1;11;[V f, U (4, f), U (7, y), U (3, w), T (64, c), Hoist_vars [c], T (7, x),  T (3, h), T (2, c), T (1, f), T (4, x), T (4, y), T (2, f)];102.97676944732666
80;MobilNet_4;0.36100299999999996;0.0024554233443543046;2;axe_out_channels1_0,axe_yy1_0,axe_xx1_0,axe_out_channels1_1;9;[V f, U (2, f), ULambda y, T (32, c), Hoist_vars [c], T (3, h), T (7, x),  T (3, w), T (4, c), T (2, f), T (4, x),  Lambda_apply y [((Iter 1), (Arg 8)), ((Iter 2), (Arg 10))], T (2, f)];104.38905739784241
81;MobilNet_4;0.45124039999999993;0.006841259039095064;2;axe_out_channels1_0,axe_yy1_0,axe_xx1_0,axe_out_channels1_1;7;[V f, U (4, f), ULambda y, U (3, w), T (32, c), Hoist_vars [c], T (14, x),  T (3, h), T (4, c), T (2, f), T (2, x),  Lambda_apply y [((Iter 2), (Arg 5)), ((Iter 3), (Arg 6))], T (1, f)];105.94722533226013
82;MobilNet_4;0.4645543;0.0025645776279925696;2;axe_out_channels1_0,axe_yy1_0,axe_xx1_0,axe_out_channels1_1;7;[V f, U (4, f), ULambda y, U (3, w), T (64, c), Hoist_vars [c], T (14, x),  T (3, h), T (2, c), T (1, f), T (2, x),  Lambda_apply y [((Iter 2), (Arg 5)), ((Iter 3), (Arg 6))], T (2, f)];107.57500386238098
83;MobilNet_4;0.3588926;0.0047275883746366945;1;axe_out_channels_0,axe_yy_0,axe_xx_0,axe_out_channels_1;12;[V f, U (4, f), U (4, y), U (3, w), T (64, c), Hoist_vars [c], T (14, x),  T (3, h), T (2, c), T (2, f), T (2, x), T (7, y), T (1, f)];108.74640250205994
84;MobilNet_4;0.5896458;0.009654421161312559;1;axe_out_channels_0,axe_yy_0,axe_xx_0,axe_out_channels_1;8;[V f, U (4, f), U (7, y), U (3, w), T (64, c), Hoist_vars [c], T (28, x),  T (3, h), T (2, c), T (2, f), T (1, x), T (4, y), T (1, f)];109.88856101036072
85;MobilNet_4;0.7391685000000001;0.0030946944679564365;2;axe_out_channels1_0,axe_yy1_0,axe_xx1_0,axe_out_channels1_1;9;[V f, U (2, f), ULambda y, U (3, h), T (32, c), Hoist_vars [c], T (14, x),  T (3, w), T (4, c), T (4, f), T (2, x),  Lambda_apply y [((Iter 2), (Arg 9)), ((Iter 1), (Arg 10))], T (1, f)];111.20227026939392
86;MobilNet_4;0.3642615;0.021469567570167776;1;axe_out_channels_0,axe_yy_0,axe_xx_0,axe_out_channels_1;13;[V f, U (2, f), U (14, y), T (16, c), Hoist_vars [c], T (3, h), T (4, x),  T (3, w), T (8, c), T (2, f), T (7, x), T (2, y), T (2, f)];112.33933091163635
87;MobilNet_4;0.7245359;0.009352064333076436;1;axe_out_channels_0,axe_yy_0,axe_xx_0,axe_out_channels_1;8;[V f, U (4, f), U (7, y), U (3, w), T (32, c), Hoist_vars [c], T (28, x),  T (3, h), T (4, c), T (2, f), T (1, x), T (4, y), T (1, f)];113.48403429985046
88;MobilNet_4;0.5513876;0.0065096088699705896;2;axe_out_channels1_0,axe_yy1_0,axe_xx1_0,axe_out_channels1_1;10;[V f, U (2, f), ULambda y, T (64, c), Hoist_vars [c], T (3, h), T (7, x),  T (3, w), T (2, c), T (4, f), T (4, x),  Lambda_apply y [((Iter 1), (Arg 13)), ((Iter 1), (Arg 15))], T (1, f)];114.78598213195801
89;MobilNet_4;1.0792754;0.008872407319324309;1;axe_out_channels_0,axe_yy_0,axe_xx_0,axe_out_channels_1;8;[V f, U (4, f), U (7, y), U (3, h), T (16, c), Hoist_vars [c], T (28, x),  T (3, w), T (8, c), T (2, f), T (1, x), T (4, y), T (1, f)];115.9454574584961
90;MobilNet_4;0.38914869999999996;0.004063557703540094;1;axe_out_channels_0,axe_yy_0,axe_xx_0,axe_out_channels_1;12;[V f, U (4, f), U (4, y), U (3, w), T (64, c), Hoist_vars [c], T (14, x),  T (3, h), T (2, c), T (1, f), T (2, x), T (7, y), T (2, f)];117.12748742103577
91;MobilNet_4;0.6062349;0.0072202784080670915;1;axe_xx_0;28;[V f, U (1, f), U (14, y), U (3, h), T (32, c), Hoist_vars [c], T (3, w),  T (28, x), T (4, c), T (1, f), T (2, y), T (8, f)];118.22651624679565
92;MobilNet_4;0.38219249999999994;0.00513992432337286;1;axe_out_channels_0,axe_yy_0,axe_xx_0,axe_out_channels_1;11;[V f, U (4, f), U (7, y), U (3, w), T (32, c), Hoist_vars [c], T (7, x),  T (3, h), T (4, c), T (2, f), T (4, x), T (4, y), T (1, f)];119.41386818885803
93;MobilNet_4;0.6579289000000001;0.004053411660564485;2;axe_out_channels1_0,axe_yy1_0,axe_xx1_0,axe_out_channels1_1;9;[V f, U (2, f), ULambda y, U (3, h), T (32, c), Hoist_vars [c], T (14, x),  T (3, w), T (4, c), T (1, f), T (2, x),  Lambda_apply y [((Iter 2), (Arg 9)), ((Iter 1), (Arg 10))], T (4, f)];120.75854420661926
94;MobilNet_4;0.37254129999999996;0.002515569162237433;2;axe_out_channels1_0,axe_yy1_0,axe_xx1_0,axe_out_channels1_1;7;[V f, U (4, f), ULambda y, U (3, w), T (128, c), Hoist_vars [c], T (14, x),  T (3, h), T (1, c), T (2, f), T (2, x),  Lambda_apply y [((Iter 2), (Arg 5)), ((Iter 3), (Arg 6))], T (1, f)];122.31866908073425
95;MobilNet_4;0.3213884;0.0027905628894543738;2;axe_out_channels1_0,axe_yy1_0,axe_xx1_0,axe_out_channels1_1;9;[V f, U (2, f), ULambda y, T (64, c), Hoist_vars [c], T (3, h), T (7, x),  T (3, w), T (2, c), T (2, f), T (4, x),  Lambda_apply y [((Iter 1), (Arg 8)), ((Iter 2), (Arg 10))], T (2, f)];123.78698348999023
96;MobilNet_4;0.6863133;0.0030878134998733394;2;axe_out_channels1_0,axe_yy1_0,axe_xx1_0,axe_out_channels1_1;8;[V f, U (2, f), ULambda y, T (32, c), Hoist_vars [c], T (3, h), T (14, x),  T (3, w), T (4, c), T (1, f), T (2, x),  Lambda_apply y [((Iter 1), (Arg 8)), ((Iter 2), (Arg 10))], T (4, f)];125.09904885292053
97;MobilNet_4;0.3633876;0.0010055247585216435;1;axe_out_channels_0,axe_yy_0,axe_xx_0,axe_out_channels_1;11;[V f, U (4, f), U (7, y), U (3, w), T (64, c), Hoist_vars [c], T (7, x),  T (3, h), T (2, c), T (2, f), T (4, x), T (4, y), T (1, f)];126.29248905181885
98;MobilNet_4;0.6906580999999999;0.0025078662025714055;2;axe_out_channels1_0,axe_yy1_0,axe_xx1_0,axe_out_channels1_1;9;[V f, U (2, f), ULambda y, T (32, c), Hoist_vars [c], T (3, h), T (14, x),  T (3, w), T (4, c), T (1, f), T (2, x),  Lambda_apply y [((Iter 2), (Arg 9)), ((Iter 1), (Arg 10))], T (4, f)];127.60166954994202
99;MobilNet_4;0.8671105000000001;0.005963917055928946;1;axe_xx_0;28;[V f, U (1, f), U (14, y), U (3, h), T (16, c), Hoist_vars [c], T (3, w),  T (28, x), T (8, c), T (2, f), T (2, y), T (4, f)];128.73132252693176
100;MobilNet_4;0.5535656999999999;0.011645492089645675;1;axe_out_channels_0,axe_yy_0,axe_xx_0,axe_out_channels_1;11;[V f, U (4, f), U (7, y), T (32, c), Hoist_vars [c], T (3, h), T (7, x),  T (3, w), T (4, c), T (1, f), T (4, x), T (4, y), T (2, f)];129.9161605834961
101;MobilNet_4;0.36776469999999994;0.0026605395712148336;2;axe_out_channels1_0,axe_yy1_0,axe_xx1_0,axe_out_channels1_1;10;[V f, U (2, f), ULambda y, T (32, c), Hoist_vars [c], T (3, h), T (7, x),  T (3, w), T (4, c), T (2, f), T (4, x),  Lambda_apply y [((Iter 2), (Arg 8)), ((Iter 1), (Arg 12))], T (2, f)];131.33822321891785
102;MobilNet_4;0.30867530000000004;0.0011078234561517394;2;axe_out_channels1_0,axe_yy1_0,axe_xx1_0,axe_out_channels1_1;10;[V f, U (2, f), ULambda y, U (3, h), T (64, c), Hoist_vars [c], T (7, x),  T (3, w), T (2, c), T (2, f), T (4, x),  Lambda_apply y [((Iter 2), (Arg 9)), ((Iter 1), (Arg 10))], T (2, f)];132.79065227508545
103;MobilNet_4;0.3767245;0.004658612738788223;2;axe_out_channels1_0,axe_yy1_0,axe_xx1_0,axe_out_channels1_1;11;[V f, U (2, f), ULambda y, T (32, c), Hoist_vars [c], T (3, h), T (7, x),  T (3, w), T (4, c), T (4, f), T (4, x),  Lambda_apply y [((Iter 2), (Arg 9)), ((Iter 1), (Arg 10))], T (1, f)];134.19615006446838
104;MobilNet_4;0.362821;0.0014706331969597398;1;axe_out_channels_0,axe_yy_0,axe_xx_0,axe_out_channels_1;9;[V f, U (4, f), U (7, y), U (3, w), T (64, c), Hoist_vars [c], T (14, x),  T (3, h), T (2, c), T (2, f), T (2, x), T (4, y), T (1, f)];135.4580056667328
105;MobilNet_4;0.7624789;0.004855390209859548;2;axe_out_channels1_0,axe_yy1_0,axe_xx1_0,axe_out_channels1_1;6;[V f, U (4, f), ULambda y, U (3, w), T (128, c), Hoist_vars [c], T (28, x),  T (3, h), T (1, c), T (2, f), T (1, x),  Lambda_apply y [((Iter 2), (Arg 5)), ((Iter 3), (Arg 6))], T (1, f)];136.79990482330322
106;MobilNet_4;0.5285338000000002;0.008059880033846651;2;axe_xx1_0;28;[V f, U (1, f), ULambda y, U (3, h), T (128, c), Hoist_vars [c], T (3, w),  T (28, x), T (1, c), T (1, f),  Lambda_apply y [((Iter 2), (Arg 9)), ((Iter 1), (Arg 10))], T (8, f)];138.09664964675903
107;MobilNet_4;0.4226033;0.012114632285381182;1;axe_out_channels_0,axe_yy_0,axe_xx_0,axe_out_channels_1;12;[V f, U (4, f), U (4, y), U (3, w), T (32, c), Hoist_vars [c], T (14, x),  T (3, h), T (4, c), T (2, f), T (2, x), T (7, y), T (1, f)];139.2754192352295
108;MobilNet_4;0.8418875;0.00290948958582089;2;axe_out_channels1_0,axe_yy1_0,axe_xx1_0,axe_out_channels1_1;6;[V f, U (4, f), ULambda y, U (3, w), T (64, c), Hoist_vars [c], T (28, x),  T (3, h), T (2, c), T (2, f), T (1, x),  Lambda_apply y [((Iter 2), (Arg 5)), ((Iter 3), (Arg 6))], T (1, f)];140.6411693096161
109;MobilNet_4;0.4718451;0.0028137654646398845;1;axe_out_channels_0,axe_yy_0,axe_xx_0,axe_out_channels_1;9;[V f, U (4, f), U (7, y), U (3, h), T (32, c), Hoist_vars [c], T (14, x),  T (3, w), T (4, c), T (2, f), T (2, x), T (4, y), T (1, f)];141.88896465301514
110;MobilNet_4;0.3244422;0.0065915612080902335;2;axe_out_channels1_0,axe_yy1_0,axe_xx1_0,axe_out_channels1_1;10;[V f, U (2, f), ULambda y, T (64, c), Hoist_vars [c], T (3, h), T (7, x),  T (3, w), T (2, c), T (2, f), T (4, x),  Lambda_apply y [((Iter 2), (Arg 9)), ((Iter 1), (Arg 10))], T (2, f)];143.31626796722412
111;MobilNet_4;1.0314042;0.008972091370466555;2;axe_out_channels1_0,axe_yy1_0,axe_xx1_0,axe_out_channels1_1;6;[V f, U (2, f), ULambda y, T (32, c), Hoist_vars [c], T (3, h), T (28, x),  T (3, w), T (4, c), T (2, f), T (1, x),  Lambda_apply y [((Iter 1), (Arg 8)), ((Iter 2), (Arg 10))], T (2, f)];144.66390180587769
112;MobilNet_4;0.39645699999999995;0.003520126844305478;2;axe_out_channels1_0,axe_yy1_0,axe_xx1_0,axe_out_channels1_1;11;[V f, U (2, f), ULambda y, T (32, c), Hoist_vars [c], T (3, h), T (7, x),  T (3, w), T (4, c), T (4, f), T (4, x),  Lambda_apply y [((Iter 2), (Arg 8)), ((Iter 1), (Arg 12))], T (1, f)];146.10371232032776
113;MobilNet_4;0.45575980000000005;0.012995678672543419;1;axe_out_channels_0,axe_yy_0,axe_xx_0,axe_out_channels_1;11;[V f, U (4, f), U (4, y), U (3, w), T (64, c), Hoist_vars [c], T (28, x),  T (3, h), T (2, c), T (2, f), T (1, x), T (7, y), T (1, f)];147.18440580368042
114;MobilNet_4;0.3887116;0.002007995677286183;1;axe_out_channels_0,axe_yy_0,axe_xx_0,axe_out_channels_1;11;[V f, U (4, f), U (7, y), U (3, w), T (128, c), Hoist_vars [c], T (7, x),  T (3, h), T (1, c), T (1, f), T (4, x), T (4, y), T (2, f)];148.38112139701843
115;MobilNet_4;0.5959464;0.003994127444135963;1;axe_out_channels_0,axe_yy_0,axe_xx_0,axe_out_channels_1;11;[V f, U (4, f), U (7, y), U (3, h), T (32, c), Hoist_vars [c], T (7, x),  T (3, w), T (4, c), T (1, f), T (4, x), T (4, y), T (2, f)];149.59024333953857
116;MobilNet_4;0.7644406;0.007170766433234313;2;axe_out_channels1_0,axe_yy1_0,axe_xx1_0,axe_out_channels1_1;9;[V f, U (2, f), ULambda y, T (32, c), Hoist_vars [c], T (3, h), T (14, x),  T (3, w), T (4, c), T (4, f), T (2, x),  Lambda_apply y [((Iter 2), (Arg 9)), ((Iter 1), (Arg 10))], T (1, f)];150.89787483215332
117;MobilNet_4;0.52091;0.007513883656272553;2;axe_xx1_0;28;[V f, U (1, f), ULambda y, U (3, h), T (128, c), Hoist_vars [c], T (3, w),  T (28, x), T (1, c), T (4, f),  Lambda_apply y [((Iter 2), (Arg 9)), ((Iter 1), (Arg 10))], T (2, f)];152.19144368171692
118;MobilNet_4;0.5256204;0.0032716841290075693;2;axe_out_channels1_0,axe_yy1_0,axe_xx1_0,axe_out_channels1_1;7;[V f, U (4, f), ULambda y, U (3, h), T (32, c), Hoist_vars [c], T (14, x),  T (3, w), T (4, c), T (2, f), T (2, x),  Lambda_apply y [((Iter 2), (Arg 5)), ((Iter 3), (Arg 6))], T (1, f)];153.77422904968262
119;MobilNet_4;0.661824;0.010710127823700344;1;axe_out_channels_0,axe_yy_0,axe_xx_0,axe_out_channels_1;9;[V f, U (2, f), U (14, y), T (16, c), Hoist_vars [c], T (3, h), T (14, x),  T (3, w), T (8, c), T (4, f), T (2, x), T (2, y), T (1, f)];154.8861961364746
120;MobilNet_4;0.6217573000000001;0.007211416588299436;1;axe_out_channels_0,axe_yy_0,axe_xx_0,axe_out_channels_1;11;[V f, U (2, f), U (14, y), T (32, c), Hoist_vars [c], T (3, h), T (7, x),  T (3, w), T (4, c), T (1, f), T (4, x), T (2, y), T (4, f)];155.95495438575745
121;MobilNet_4;0.5242782;0.012260231488842258;1;axe_out_channels_0,axe_yy_0,axe_xx_0,axe_out_channels_1;9;[V f, U (2, f), U (14, y), T (32, c), Hoist_vars [c], T (3, h), T (14, x),  T (3, w), T (4, c), T (4, f), T (2, x), T (2, y), T (1, f)];157.08001732826233
122;MobilNet_4;0.3028433;0.003829812242134059;1;axe_out_channels_0,axe_yy_0,axe_xx_0,axe_out_channels_1;14;[V f, U (2, f), U (14, y), T (32, c), Hoist_vars [c], T (3, h), T (4, x),  T (3, w), T (4, c), T (4, f), T (7, x), T (2, y), T (1, f)];158.19501566886902
123;MobilNet_4;0.33597509999999997;0.0041613514018885725;2;axe_out_channels1_0,axe_yy1_0,axe_xx1_0,axe_out_channels1_1;11;[V f, U (2, f), ULambda y, T (64, c), Hoist_vars [c], T (3, h), T (7, x),  T (3, w), T (2, c), T (4, f), T (4, x),  Lambda_apply y [((Iter 2), (Arg 9)), ((Iter 1), (Arg 10))], T (1, f)];159.61094522476196
124;MobilNet_4;0.9648855999999999;0.006423564496445866;2;axe_out_channels1_0,axe_yy1_0,axe_xx1_0,axe_out_channels1_1;6;[V f, U (4, f), ULambda y, U (3, w), T (32, c), Hoist_vars [c], T (28, x),  T (3, h), T (4, c), T (1, f), T (1, x),  Lambda_apply y [((Iter 2), (Arg 5)), ((Iter 3), (Arg 6))], T (2, f)];161.00232815742493
125;MobilNet_4;1.0057012;0.0152676678690624;2;axe_out_channels1_0,axe_yy1_0,axe_xx1_0,axe_out_channels1_1;6;[V f, U (4, f), ULambda y, U (3, w), T (32, c), Hoist_vars [c], T (28, x),  T (3, h), T (4, c), T (2, f), T (1, x),  Lambda_apply y [((Iter 2), (Arg 5)), ((Iter 3), (Arg 6))], T (1, f)];162.3818347454071
126;MobilNet_4;1.1021189999999998;0.0076418398439119075;2;axe_out_channels1_0,axe_yy1_0,axe_xx1_0,axe_out_channels1_1;7;[V f, U (2, f), ULambda y, T (32, c), Hoist_vars [c], T (3, h), T (28, x),  T (3, w), T (4, c), T (2, f), T (1, x),  Lambda_apply y [((Iter 2), (Arg 9)), ((Iter 1), (Arg 10))], T (2, f)];163.71683049201965
127;MobilNet_4;0.531354;0.0040000883740237535;1;axe_out_channels_0,axe_yy_0,axe_xx_0,axe_out_channels_1;9;[V f, U (4, f), U (7, y), U (3, w), T (32, c), Hoist_vars [c], T (14, x),  T (3, h), T (4, c), T (1, f), T (2, x), T (4, y), T (2, f)];165.04181361198425
128;MobilNet_4;0.42025169999999995;0.00554930584938332;1;axe_out_channels_0,axe_yy_0,axe_xx_0,axe_out_channels_1;12;[V f, U (4, f), U (4, y), U (3, w), T (32, c), Hoist_vars [c], T (14, x),  T (3, h), T (4, c), T (1, f), T (2, x), T (7, y), T (2, f)];166.22407793998718
129;MobilNet_4;0.4096666;0.002936081953897073;2;axe_out_channels1_0,axe_yy1_0,axe_xx1_0,axe_out_channels1_1;7;[V f, U (4, f), ULambda y, U (3, w), T (128, c), Hoist_vars [c], T (14, x),  T (3, h), T (1, c), T (1, f), T (2, x),  Lambda_apply y [((Iter 2), (Arg 5)), ((Iter 3), (Arg 6))], T (2, f)];167.84304451942444
130;MobilNet_4;0.7746455;0.006676615463691189;2;axe_out_channels1_0,axe_yy1_0,axe_xx1_0,axe_out_channels1_1;10;[V f, U (2, f), ULambda y, T (32, c), Hoist_vars [c], T (3, h), T (7, x),  T (3, w), T (4, c), T (1, f), T (4, x),  Lambda_apply y [((Iter 1), (Arg 13)), ((Iter 1), (Arg 15))], T (4, f)];169.1816442012787
131;MobilNet_4;0.3860238;0.0025947831046158718;1;axe_out_channels_0,axe_yy_0,axe_xx_0,axe_out_channels_1;9;[V f, U (4, f), U (7, y), U (3, w), T (32, c), Hoist_vars [c], T (14, x),  T (3, h), T (4, c), T (2, f), T (2, x), T (4, y), T (1, f)];170.43645024299622
132;MobilNet_4;0.41313300000000003;0.00400228929489112;1;axe_out_channels_0,axe_yy_0,axe_xx_0,axe_out_channels_1;14;[V f, U (2, f), U (14, y), T (32, c), Hoist_vars [c], T (3, h), T (4, x),  T (3, w), T (4, c), T (1, f), T (7, x), T (2, y), T (4, f)];171.57926440238953
133;MobilNet_4;0.6418507;0.010513380351247634;2;axe_out_channels1_0,axe_yy1_0,axe_xx1_0,axe_out_channels1_1;10;[V f, U (2, f), ULambda y, T (64, c), Hoist_vars [c], T (3, h), T (7, x),  T (3, w), T (2, c), T (1, f), T (4, x),  Lambda_apply y [((Iter 1), (Arg 13)), ((Iter 1), (Arg 15))], T (4, f)];172.89331936836243
134;MobilNet_4;0.7161673999999999;0.0028762987397000337;2;axe_out_channels1_0,axe_yy1_0,axe_xx1_0,axe_out_channels1_1;9;[V f, U (2, f), ULambda y, T (32, c), Hoist_vars [c], T (3, h), T (14, x),  T (3, w), T (4, c), T (1, f), T (2, x),  Lambda_apply y [((Iter 2), (Arg 8)), ((Iter 1), (Arg 12))], T (4, f)];174.20630025863647
135;MobilNet_4;0.8152084;0.005849452952199861;2;axe_out_channels1_0,axe_yy1_0,axe_xx1_0,axe_out_channels1_1;9;[V f, U (2, f), ULambda y, T (32, c), Hoist_vars [c], T (3, h), T (14, x),  T (3, w), T (4, c), T (4, f), T (2, x),  Lambda_apply y [((Iter 2), (Arg 8)), ((Iter 1), (Arg 12))], T (1, f)];175.5072193145752
136;MobilNet_4;0.9192978;0.0064532035114352035;2;axe_out_channels1_0,axe_yy1_0,axe_xx1_0,axe_out_channels1_1;7;[V f, U (2, f), ULambda y, T (32, c), Hoist_vars [c], T (3, h), T (28, x),  T (3, w), T (4, c), T (1, f), T (1, x),  Lambda_apply y [((Iter 1), (Arg 8)), ((Iter 2), (Arg 10))], T (4, f)];176.83549451828003
137;MobilNet_4;0.8216162;0.004746518593664168;2;axe_out_channels1_0,axe_yy1_0,axe_xx1_0,axe_out_channels1_1;6;[V f, U (4, f), ULambda y, U (3, w), T (64, c), Hoist_vars [c], T (28, x),  T (3, h), T (2, c), T (1, f), T (1, x),  Lambda_apply y [((Iter 2), (Arg 5)), ((Iter 3), (Arg 6))], T (2, f)];178.20992231369019
138;MobilNet_4;0.6057085000000001;0.0049680754070364165;2;axe_xx1_0;28;[V f, U (1, f), ULambda y, U (3, h), T (64, c), Hoist_vars [c], T (3, w),  T (28, x), T (2, c), T (8, f),  Lambda_apply y [((Iter 2), (Arg 9)), ((Iter 1), (Arg 10))], T (1, f)];179.5040647983551
139;MobilNet_4;0.419529;0.007415725035355611;1;axe_out_channels_0,axe_yy_0,axe_xx_0,axe_out_channels_1;11;[V f, U (4, f), U (7, y), T (16, c), Hoist_vars [c], T (3, h), T (7, x),  T (3, w), T (8, c), T (2, f), T (4, x), T (4, y), T (1, f)];180.66074752807617
140;MobilNet_4;0.4920745;0.0032113217605839505;1;axe_out_channels_0,axe_yy_0,axe_xx_0,axe_out_channels_1;9;[V f, U (4, f), U (7, y), U (3, h), T (16, c), Hoist_vars [c], T (14, x),  T (3, w), T (8, c), T (2, f), T (2, x), T (4, y), T (1, f)];181.90934872627258
141;MobilNet_4;1.0745336;0.014300840333351036;2;axe_out_channels1_0,axe_yy1_0,axe_xx1_0,axe_out_channels1_1;8;[V f, U (2, f), ULambda y, U (3, h), T (32, c), Hoist_vars [c], T (28, x),  T (3, w), T (4, c), T (4, f), T (1, x),  Lambda_apply y [((Iter 2), (Arg 9)), ((Iter 1), (Arg 10))], T (1, f)];183.30147695541382
142;MobilNet_4;0.4017272;0.0028310467251531075;2;axe_out_channels1_0,axe_yy1_0,axe_xx1_0,axe_out_channels1_1;7;[V f, U (4, f), ULambda y, U (3, w), T (64, c), Hoist_vars [c], T (14, x),  T (3, h), T (2, c), T (2, f), T (2, x),  Lambda_apply y [((Iter 2), (Arg 5)), ((Iter 3), (Arg 6))], T (1, f)];184.89820790290833
143;MobilNet_4;0.28834940000000003;0.003469646644832878;1;axe_out_channels_0,axe_yy_0,axe_xx_0,axe_out_channels_1;13;[V f, U (2, f), U (14, y), T (64, c), Hoist_vars [c], T (3, h), T (4, x),  T (3, w), T (2, c), T (2, f), T (7, x), T (2, y), T (2, f)];186.0597403049469
144;MobilNet_4;0.8466612;0.007654504945455323;1;axe_xx_0;28;[V f, U (1, f), U (14, y), U (3, h), T (16, c), Hoist_vars [c], T (3, w),  T (28, x), T (8, c), T (4, f), T (2, y), T (2, f)];187.16173839569092
145;MobilNet_4;0.3496704;0.001574965917091535;1;axe_out_channels_0,axe_yy_0,axe_xx_0,axe_out_channels_1;11;[V f, U (4, f), U (7, y), U (3, w), T (128, c), Hoist_vars [c], T (7, x),  T (3, h), T (1, c), T (2, f), T (4, x), T (4, y), T (1, f)];188.31651496887207
146;MobilNet_4;0.5124888000000001;0.0052003601952172705;1;axe_out_channels_0,axe_yy_0,axe_xx_0,axe_out_channels_1;11;[V f, U (4, f), U (4, y), U (3, w), T (32, c), Hoist_vars [c], T (28, x),  T (3, h), T (4, c), T (1, f), T (1, x), T (7, y), T (2, f)];189.40571975708008
147;MobilNet_4;0.9468669000000001;0.017390840177806267;1;axe_out_channels_0,axe_yy_0,axe_xx_0,axe_out_channels_1;8;[V f, U (2, f), U (14, y), T (16, c), Hoist_vars [c], T (3, h), T (28, x),  T (3, w), T (8, c), T (4, f), T (1, x), T (2, y), T (1, f)];190.51071214675903
148;MobilNet_4;0.6129986;0.0036238977137882902;2;axe_out_channels1_0,axe_yy1_0,axe_xx1_0,axe_out_channels1_1;7;[V f, U (2, f), ULambda y, T (32, c), Hoist_vars [c], T (3, h), T (14, x),  T (3, w), T (4, c), T (2, f), T (2, x),  Lambda_apply y [((Iter 1), (Arg 8)), ((Iter 2), (Arg 10))], T (2, f)];191.78781986236572
149;MobilNet_4;0.6036433999999999;0.005193937835592559;2;axe_xx1_0;28;[V f, U (1, f), ULambda y, U (3, h), T (64, c), Hoist_vars [c], T (3, w),  T (28, x), T (2, c), T (2, f),  Lambda_apply y [((Iter 2), (Arg 9)), ((Iter 1), (Arg 10))], T (4, f)];193.07834029197693
150;MobilNet_4;0.5516274999999999;0.01259345394441096;2;axe_out_channels1_0,axe_yy1_0,axe_xx1_0,axe_out_channels1_1;7;[V f, U (4, f), ULambda y, U (3, w), T (32, c), Hoist_vars [c], T (14, x),  T (3, h), T (4, c), T (1, f), T (2, x),  Lambda_apply y [((Iter 2), (Arg 5)), ((Iter 3), (Arg 6))], T (2, f)];194.71974205970764
151;MobilNet_4;0.4709757999999999;0.002097564768964241;1;axe_out_channels_0,axe_yy_0,axe_xx_0,axe_out_channels_1;11;[V f, U (4, f), U (7, y), U (3, h), T (32, c), Hoist_vars [c], T (7, x),  T (3, w), T (4, c), T (2, f), T (4, x), T (4, y), T (1, f)];195.91157960891724
152;MobilNet_4;0.6336119;0.005168555029212686;1;axe_out_channels_0,axe_yy_0,axe_xx_0,axe_out_channels_1;8;[V f, U (4, f), U (7, y), U (3, w), T (32, c), Hoist_vars [c], T (28, x),  T (3, h), T (4, c), T (1, f), T (1, x), T (4, y), T (2, f)];197.06932592391968
153;MobilNet_4;0.4725619999999999;0.0034082248752099684;2;axe_out_channels1_0,axe_yy1_0,axe_xx1_0,axe_out_channels1_1;11;[V f, U (2, f), ULambda y, T (32, c), Hoist_vars [c], T (3, h), T (7, x),  T (3, w), T (4, c), T (1, f), T (4, x),  Lambda_apply y [((Iter 2), (Arg 8)), ((Iter 1), (Arg 12))], T (4, f)];198.54595804214478
154;MobilNet_4;0.7830326999999999;0.006284566238810766;2;axe_xx1_0;28;[V f, U (1, f), ULambda y, U (3, h), T (32, c), Hoist_vars [c], T (3, w),  T (28, x), T (4, c), T (4, f),  Lambda_apply y [((Iter 2), (Arg 9)), ((Iter 1), (Arg 10))], T (2, f)];199.8704445362091
155;MobilNet_4;0.9220978000000001;0.007090146243907828;1;axe_out_channels_0,axe_yy_0,axe_xx_0,axe_out_channels_1;8;[V f, U (4, f), U (7, y), U (3, h), T (16, c), Hoist_vars [c], T (28, x),  T (3, w), T (8, c), T (1, f), T (1, x), T (4, y), T (2, f)];201.02884531021118
156;MobilNet_4;0.8043553000000001;0.020121653232525384;1;axe_out_channels_0,axe_yy_0,axe_xx_0,axe_out_channels_1;11;[V f, U (4, f), U (7, y), T (16, c), Hoist_vars [c], T (3, h), T (7, x),  T (3, w), T (8, c), T (1, f), T (4, x), T (4, y), T (2, f)];202.22921895980835
157;MobilNet_4;0.7796084000000001;0.009032262110900025;2;axe_xx1_0;28;[V f, U (1, f), ULambda y, U (3, h), T (32, c), Hoist_vars [c], T (3, w),  T (28, x), T (4, c), T (2, f),  Lambda_apply y [((Iter 2), (Arg 9)), ((Iter 1), (Arg 10))], T (4, f)];203.5316035747528
158;MobilNet_4;0.5192977000000001;0.004693943481764531;2;axe_out_channels1_0,axe_yy1_0,axe_xx1_0,axe_out_channels1_1;9;[V f, U (2, f), ULambda y, T (32, c), Hoist_vars [c], T (3, h), T (7, x),  T (3, w), T (4, c), T (2, f), T (4, x),  Lambda_apply y [((Iter 1), (Arg 13)), ((Iter 1), (Arg 15))], T (2, f)];204.86249446868896
159;MobilNet_4;0.5061268999999999;0.003949967403662987;1;axe_out_channels_0,axe_yy_0,axe_xx_0,axe_out_channels_1;11;[V f, U (4, f), U (7, y), U (3, w), T (32, c), Hoist_vars [c], T (7, x),  T (3, h), T (4, c), T (1, f), T (4, x), T (4, y), T (2, f)];206.06723928451538
160;MobilNet_4;0.4186866;0.010324695513185841;1;axe_out_channels_0,axe_yy_0,axe_xx_0,axe_out_channels_1;11;[V f, U (4, f), U (4, y), U (3, w), T (128, c), Hoist_vars [c], T (28, x),  T (3, h), T (1, c), T (2, f), T (1, x), T (7, y), T (1, f)];207.14709448814392
161;MobilNet_4;0.4486498;0.003578810131873441;1;axe_out_channels_0,axe_yy_0,axe_xx_0,axe_out_channels_1;8;[V f, U (2, f), U (14, y), T (16, c), Hoist_vars [c], T (3, h), T (14, x),  T (3, w), T (8, c), T (2, f), T (2, x), T (2, y), T (2, f)];208.2261860370636
162;MobilNet_4;0.3927259;0.0030257561517742877;1;axe_out_channels_0,axe_yy_0,axe_xx_0,axe_out_channels_1;8;[V f, U (2, f), U (14, y), T (32, c), Hoist_vars [c], T (3, h), T (14, x),  T (3, w), T (4, c), T (2, f), T (2, x), T (2, y), T (2, f)];209.29032516479492
163;MobilNet_4;0.7820397000000001;0.010343893870781912;2;axe_xx1_0;28;[V f, U (1, f), ULambda y, U (3, h), T (32, c), Hoist_vars [c], T (3, w),  T (28, x), T (4, c), T (1, f),  Lambda_apply y [((Iter 2), (Arg 9)), ((Iter 1), (Arg 10))], T (8, f)];210.56578397750854
164;MobilNet_4;0.6703013999999999;0.005968893150325299;2;axe_out_channels1_0,axe_yy1_0,axe_xx1_0,axe_out_channels1_1;8;[V f, U (2, f), ULambda y, T (32, c), Hoist_vars [c], T (3, h), T (14, x),  T (3, w), T (4, c), T (2, f), T (2, x),  Lambda_apply y [((Iter 2), (Arg 9)), ((Iter 1), (Arg 10))], T (2, f)];211.87774300575256
165;MobilNet_4;0.6872849999999999;0.010296052029783061;2;axe_out_channels1_0,axe_yy1_0,axe_xx1_0,axe_out_channels1_1;10;[V f, U (2, f), ULambda y, T (32, c), Hoist_vars [c], T (3, h), T (7, x),  T (3, w), T (4, c), T (4, f), T (4, x),  Lambda_apply y [((Iter 1), (Arg 13)), ((Iter 1), (Arg 15))], T (1, f)];213.1922252178192
