perf,CACHE_MISS_L1,CACHE_MISS_L2,scheme
78.16,1649661,199610,"[V f; U (4, f); ULambda y; T (256, c); Hoist_vars [c]; T (34, x); T (2, c);  T (4, f); T (1, x); T (1, x);  Lambda_apply y [((Iter 1), (Arg 6)); ((Iter 4), (Arg 7))]]"
78.69,1740216,147849,"[V f; U (4, f); ULambda y; T (128, c); Hoist_vars [c]; T (17, x); T (4, c);  T (4, f); T (2, x); T (1, x);  Lambda_apply y [((Iter 1), (Arg 6)); ((Iter 4), (Arg 7))]]"
71.64,1900410,179134,"[V f; U (4, f); ULambda y; T (64, c); Hoist_vars [c]; T (17, x); T (8, c);  T (4, f); T (2, x); T (1, x);  Lambda_apply y [((Iter 1), (Arg 6)); ((Iter 4), (Arg 7))]]"
71.73,1736460,156649,"[V f; U (4, f); ULambda y; T (128, c); Hoist_vars [c]; T (17, x); T (4, c);  T (4, f); T (1, x); T (2, x);  Lambda_apply y [((Iter 1), (Arg 6)); ((Iter 4), (Arg 7))]]"
71.35,1901266,141194,"[V f; U (4, f); ULambda y; T (64, c); Hoist_vars [c]; T (17, x); T (8, c);  T (4, f); T (1, x); T (2, x);  Lambda_apply y [((Iter 1), (Arg 6)); ((Iter 4), (Arg 7))]]"
74.41,1651816,149023,"[V f; U (4, f); ULambda y; T (256, c); Hoist_vars [c]; T (17, x); T (2, c);  T (4, f); T (2, x); T (1, x);  Lambda_apply y [((Iter 1), (Arg 6)); ((Iter 4), (Arg 7))]]"
80.59,1651353,148492,"[V f; U (4, f); ULambda y; T (256, c); Hoist_vars [c]; T (17, x); T (2, c);  T (4, f); T (1, x); T (2, x);  Lambda_apply y [((Iter 1), (Arg 6)); ((Iter 4), (Arg 7))]]"
75.61,1738659,209991,"[V f; U (4, f); ULambda y; T (128, c); Hoist_vars [c]; T (34, x); T (4, c);  T (4, f); T (1, x); T (1, x);  Lambda_apply y [((Iter 1), (Arg 6)); ((Iter 4), (Arg 7))]]"
71.94,1221157,379937,"[V f; U (2, f); ULambda y; T (512, c); Hoist_vars [c]; T (34, x); T (1, c);  T (1, x); Lambda_apply y [((Iter 1), (Arg 8)); ((Iter 2), (Arg 13))];  T (8, f); T (1, x); T (1, y)]"
73.40,1221038,270660,"[V f; U (2, f); ULambda y; T (512, c); Hoist_vars [c]; T (34, x); T (1, c);  T (1, x); T (1, y); T (8, f); T (1, x);  Lambda_apply y [((Iter 1), (Arg 8)); ((Iter 2), (Arg 13))]]"
70.75,1221518,380962,"[V f; U (2, f); ULambda y; T (512, c); Hoist_vars [c]; T (2, x); T (1, c);  T (17, x); Lambda_apply y [((Iter 1), (Arg 8)); ((Iter 2), (Arg 13))];  T (8, f); T (1, x); T (1, y)]"
68.32,1271796,420183,"[V f; U (2, f); ULambda y; T (256, c); Hoist_vars [c]; T (2, x); T (2, c);  T (17, x); Lambda_apply y [((Iter 1), (Arg 8)); ((Iter 2), (Arg 13))];  T (8, f); T (1, x); T (1, y)]"
66.54,1354595,476925,"[V f; U (2, f); ULambda y; T (128, c); Hoist_vars [c]; T (2, x); T (4, c);  T (17, x); Lambda_apply y [((Iter 1), (Arg 8)); ((Iter 2), (Arg 13))];  T (8, f); T (1, x); T (1, y)]"
64.21,1516593,448275,"[V f; U (2, f); ULambda y; T (64, c); Hoist_vars [c]; T (2, x); T (8, c);  T (17, x); Lambda_apply y [((Iter 1), (Arg 8)); ((Iter 2), (Arg 13))];  T (8, f); T (1, x); T (1, y)]"
72.99,1220348,272829,"[V f; U (2, f); ULambda y; T (512, c); Hoist_vars [c]; T (2, x); T (1, c);  T (17, x); T (1, y); T (8, f); T (1, x);  Lambda_apply y [((Iter 1), (Arg 8)); ((Iter 2), (Arg 13))]]"
71.76,1271110,288745,"[V f; U (2, f); ULambda y; T (256, c); Hoist_vars [c]; T (2, x); T (2, c);  T (17, x); T (1, y); T (8, f); T (1, x);  Lambda_apply y [((Iter 1), (Arg 8)); ((Iter 2), (Arg 13))]]"
70.89,1356738,328958,"[V f; U (2, f); ULambda y; T (128, c); Hoist_vars [c]; T (2, x); T (4, c);  T (17, x); T (1, y); T (8, f); T (1, x);  Lambda_apply y [((Iter 1), (Arg 8)); ((Iter 2), (Arg 13))]]"
66.71,1514286,358079,"[V f; U (2, f); ULambda y; T (64, c); Hoist_vars [c]; T (2, x); T (8, c);  T (17, x); T (1, y); T (8, f); T (1, x);  Lambda_apply y [((Iter 1), (Arg 8)); ((Iter 2), (Arg 13))]]"
70.29,1221112,379103,"[V f; U (2, f); ULambda y; T (512, c); Hoist_vars [c]; T (1, x); T (1, c);  T (34, x); Lambda_apply y [((Iter 1), (Arg 8)); ((Iter 2), (Arg 13))];  T (8, f); T (1, x); T (1, y)]"
71.20,1239471,392449,"[V f; U (2, f); ULambda y; T (256, c); Hoist_vars [c]; T (1, x); T (2, c);  T (34, x); Lambda_apply y [((Iter 1), (Arg 8)); ((Iter 2), (Arg 13))];  T (8, f); T (1, x); T (1, y)]"
66.82,1279599,417330,"[V f; U (2, f); ULambda y; T (128, c); Hoist_vars [c]; T (1, x); T (4, c);  T (34, x); Lambda_apply y [((Iter 1), (Arg 8)); ((Iter 2), (Arg 13))];  T (8, f); T (1, x); T (1, y)]"
65.42,1353445,444121,"[V f; U (2, f); ULambda y; T (64, c); Hoist_vars [c]; T (1, x); T (8, c);  T (34, x); Lambda_apply y [((Iter 1), (Arg 8)); ((Iter 2), (Arg 13))];  T (8, f); T (1, x); T (1, y)]"
68.96,1220667,290447,"[V f; U (2, f); ULambda y; T (512, c); Hoist_vars [c]; T (1, x); T (1, c);  T (34, x); T (1, y); T (8, f); T (1, x);  Lambda_apply y [((Iter 1), (Arg 8)); ((Iter 2), (Arg 13))]]"
72.06,1240074,286206,"[V f; U (2, f); ULambda y; T (256, c); Hoist_vars [c]; T (1, x); T (2, c);  T (34, x); T (1, y); T (8, f); T (1, x);  Lambda_apply y [((Iter 1), (Arg 8)); ((Iter 2), (Arg 13))]]"
66.18,1277269,318994,"[V f; U (2, f); ULambda y; T (128, c); Hoist_vars [c]; T (1, x); T (4, c);  T (34, x); T (1, y); T (8, f); T (1, x);  Lambda_apply y [((Iter 1), (Arg 8)); ((Iter 2), (Arg 13))]]"
64.94,1354871,319360,"[V f; U (2, f); ULambda y; T (64, c); Hoist_vars [c]; T (1, x); T (8, c);  T (34, x); T (1, y); T (8, f); T (1, x);  Lambda_apply y [((Iter 1), (Arg 8)); ((Iter 2), (Arg 13))]]"
71.38,1209170,381279,"[V f; U (2, f); ULambda y; T (512, c); Hoist_vars [c]; T (34, x); T (1, c);  T (1, x); Lambda_apply y [((Iter 1), (Arg 10)); ((Iter 2), (Arg 12))];  T (8, f); T (1, x); T (1, y)]"
73.96,1209681,254137,"[V f; U (2, f); ULambda y; T (512, c); Hoist_vars [c]; T (34, x); T (1, c);  T (1, x); T (1, y); T (8, f); T (1, x);  Lambda_apply y [((Iter 1), (Arg 10)); ((Iter 2), (Arg 12))]]"
61.31,1208400,510927,"[V f; U (2, f); ULambda y; T (512, c); Hoist_vars [c]; T (2, x); T (1, c);  T (17, x); Lambda_apply y [((Iter 1), (Arg 10)); ((Iter 2), (Arg 12))];  T (8, f); T (1, x); T (1, y)]"
68.88,1258481,414483,"[V f; U (2, f); ULambda y; T (256, c); Hoist_vars [c]; T (2, x); T (2, c);  T (17, x); Lambda_apply y [((Iter 1), (Arg 10)); ((Iter 2), (Arg 12))];  T (8, f); T (1, x); T (1, y)]"
66.56,1340613,439519,"[V f; U (2, f); ULambda y; T (128, c); Hoist_vars [c]; T (2, x); T (4, c);  T (17, x); Lambda_apply y [((Iter 1), (Arg 10)); ((Iter 2), (Arg 12))];  T (8, f); T (1, x); T (1, y)]"
64.14,1496237,446269,"[V f; U (2, f); ULambda y; T (64, c); Hoist_vars [c]; T (2, x); T (8, c);  T (17, x); Lambda_apply y [((Iter 1), (Arg 10)); ((Iter 2), (Arg 12))];  T (8, f); T (1, x); T (1, y)]"
75.26,1210313,244070,"[V f; U (2, f); ULambda y; T (512, c); Hoist_vars [c]; T (2, x); T (1, c);  T (17, x); T (1, y); T (8, f); T (1, x);  Lambda_apply y [((Iter 1), (Arg 10)); ((Iter 2), (Arg 12))]]"
71.98,1257675,295818,"[V f; U (2, f); ULambda y; T (256, c); Hoist_vars [c]; T (2, x); T (2, c);  T (17, x); T (1, y); T (8, f); T (1, x);  Lambda_apply y [((Iter 1), (Arg 10)); ((Iter 2), (Arg 12))]]"
68.86,1339956,351064,"[V f; U (2, f); ULambda y; T (128, c); Hoist_vars [c]; T (2, x); T (4, c);  T (17, x); T (1, y); T (8, f); T (1, x);  Lambda_apply y [((Iter 1), (Arg 10)); ((Iter 2), (Arg 12))]]"
65.45,1495355,359833,"[V f; U (2, f); ULambda y; T (64, c); Hoist_vars [c]; T (2, x); T (8, c);  T (17, x); T (1, y); T (8, f); T (1, x);  Lambda_apply y [((Iter 1), (Arg 10)); ((Iter 2), (Arg 12))]]"
61.05,1208870,522728,"[V f; U (2, f); ULambda y; T (512, c); Hoist_vars [c]; T (1, x); T (1, c);  T (34, x); Lambda_apply y [((Iter 1), (Arg 10)); ((Iter 2), (Arg 12))];  T (8, f); T (1, x); T (1, y)]"
68.54,1227939,394283,"[V f; U (2, f); ULambda y; T (256, c); Hoist_vars [c]; T (1, x); T (2, c);  T (34, x); Lambda_apply y [((Iter 1), (Arg 10)); ((Iter 2), (Arg 12))];  T (8, f); T (1, x); T (1, y)]"
69.58,1266266,406131,"[V f; U (2, f); ULambda y; T (128, c); Hoist_vars [c]; T (1, x); T (4, c);  T (34, x); Lambda_apply y [((Iter 1), (Arg 10)); ((Iter 2), (Arg 12))];  T (8, f); T (1, x); T (1, y)]"
65.28,1341168,434221,"[V f; U (2, f); ULambda y; T (64, c); Hoist_vars [c]; T (1, x); T (8, c);  T (34, x); Lambda_apply y [((Iter 1), (Arg 10)); ((Iter 2), (Arg 12))];  T (8, f); T (1, x); T (1, y)]"
72.93,1208774,247635,"[V f; U (2, f); ULambda y; T (512, c); Hoist_vars [c]; T (1, x); T (1, c);  T (34, x); T (1, y); T (8, f); T (1, x);  Lambda_apply y [((Iter 1), (Arg 10)); ((Iter 2), (Arg 12))]]"
71.96,1227707,249442,"[V f; U (2, f); ULambda y; T (256, c); Hoist_vars [c]; T (1, x); T (2, c);  T (34, x); T (1, y); T (8, f); T (1, x);  Lambda_apply y [((Iter 1), (Arg 10)); ((Iter 2), (Arg 12))]]"
70.52,1265165,255475,"[V f; U (2, f); ULambda y; T (128, c); Hoist_vars [c]; T (1, x); T (4, c);  T (34, x); T (1, y); T (8, f); T (1, x);  Lambda_apply y [((Iter 1), (Arg 10)); ((Iter 2), (Arg 12))]]"
68.47,1338816,285949,"[V f; U (2, f); ULambda y; T (64, c); Hoist_vars [c]; T (1, x); T (8, c);  T (34, x); T (1, y); T (8, f); T (1, x);  Lambda_apply y [((Iter 1), (Arg 10)); ((Iter 2), (Arg 12))]]"
71.65,1216150,378392,"[V f; U (2, f); ULambda y; T (512, c); Hoist_vars [c]; T (34, x); T (1, c);  T (1, x); Lambda_apply y [((Iter 2), (Arg 10)); ((Iter 1), (Arg 14))];  T (8, f); T (1, x); T (1, y)]"
71.98,1215094,262717,"[V f; U (2, f); ULambda y; T (512, c); Hoist_vars [c]; T (34, x); T (1, c);  T (1, x); T (1, y); T (8, f); T (1, x);  Lambda_apply y [((Iter 2), (Arg 10)); ((Iter 1), (Arg 14))]]"
73.35,1215854,383826,"[V f; U (2, f); ULambda y; T (512, c); Hoist_vars [c]; T (2, x); T (1, c);  T (17, x); Lambda_apply y [((Iter 2), (Arg 10)); ((Iter 1), (Arg 14))];  T (8, f); T (1, x); T (1, y)]"
70.02,1264768,403373,"[V f; U (2, f); ULambda y; T (256, c); Hoist_vars [c]; T (2, x); T (2, c);  T (17, x); Lambda_apply y [((Iter 2), (Arg 10)); ((Iter 1), (Arg 14))];  T (8, f); T (1, x); T (1, y)]"
66.54,1345856,429294,"[V f; U (2, f); ULambda y; T (128, c); Hoist_vars [c]; T (2, x); T (4, c);  T (17, x); Lambda_apply y [((Iter 2), (Arg 10)); ((Iter 1), (Arg 14))];  T (8, f); T (1, x); T (1, y)]"
62.58,1502652,463385,"[V f; U (2, f); ULambda y; T (64, c); Hoist_vars [c]; T (2, x); T (8, c);  T (17, x); Lambda_apply y [((Iter 2), (Arg 10)); ((Iter 1), (Arg 14))];  T (8, f); T (1, x); T (1, y)]"
74.61,1217101,231769,"[V f; U (2, f); ULambda y; T (512, c); Hoist_vars [c]; T (2, x); T (1, c);  T (17, x); T (1, y); T (8, f); T (1, x);  Lambda_apply y [((Iter 2), (Arg 10)); ((Iter 1), (Arg 14))]]"
71.18,1265969,284055,"[V f; U (2, f); ULambda y; T (256, c); Hoist_vars [c]; T (2, x); T (2, c);  T (17, x); T (1, y); T (8, f); T (1, x);  Lambda_apply y [((Iter 2), (Arg 10)); ((Iter 1), (Arg 14))]]"
69.66,1345757,321193,"[V f; U (2, f); ULambda y; T (128, c); Hoist_vars [c]; T (2, x); T (4, c);  T (17, x); T (1, y); T (8, f); T (1, x);  Lambda_apply y [((Iter 2), (Arg 10)); ((Iter 1), (Arg 14))]]"
66.54,1502968,353977,"[V f; U (2, f); ULambda y; T (64, c); Hoist_vars [c]; T (2, x); T (8, c);  T (17, x); T (1, y); T (8, f); T (1, x);  Lambda_apply y [((Iter 2), (Arg 10)); ((Iter 1), (Arg 14))]]"
70.38,1215046,365845,"[V f; U (2, f); ULambda y; T (512, c); Hoist_vars [c]; T (1, x); T (1, c);  T (34, x); Lambda_apply y [((Iter 2), (Arg 10)); ((Iter 1), (Arg 14))];  T (8, f); T (1, x); T (1, y)]"
70.79,1234715,386434,"[V f; U (2, f); ULambda y; T (256, c); Hoist_vars [c]; T (1, x); T (2, c);  T (34, x); Lambda_apply y [((Iter 2), (Arg 10)); ((Iter 1), (Arg 14))];  T (8, f); T (1, x); T (1, y)]"
68.39,1271527,420300,"[V f; U (2, f); ULambda y; T (128, c); Hoist_vars [c]; T (1, x); T (4, c);  T (34, x); Lambda_apply y [((Iter 2), (Arg 10)); ((Iter 1), (Arg 14))];  T (8, f); T (1, x); T (1, y)]"
68.10,1346365,416702,"[V f; U (2, f); ULambda y; T (64, c); Hoist_vars [c]; T (1, x); T (8, c);  T (34, x); Lambda_apply y [((Iter 2), (Arg 10)); ((Iter 1), (Arg 14))];  T (8, f); T (1, x); T (1, y)]"
74.47,1214631,234502,"[V f; U (2, f); ULambda y; T (512, c); Hoist_vars [c]; T (1, x); T (1, c);  T (34, x); T (1, y); T (8, f); T (1, x);  Lambda_apply y [((Iter 2), (Arg 10)); ((Iter 1), (Arg 14))]]"
72.80,1234698,242014,"[V f; U (2, f); ULambda y; T (256, c); Hoist_vars [c]; T (1, x); T (2, c);  T (34, x); T (1, y); T (8, f); T (1, x);  Lambda_apply y [((Iter 2), (Arg 10)); ((Iter 1), (Arg 14))]]"
70.99,1272935,287503,"[V f; U (2, f); ULambda y; T (128, c); Hoist_vars [c]; T (1, x); T (4, c);  T (34, x); T (1, y); T (8, f); T (1, x);  Lambda_apply y [((Iter 2), (Arg 10)); ((Iter 1), (Arg 14))]]"
66.74,1347956,279511,"[V f; U (2, f); ULambda y; T (64, c); Hoist_vars [c]; T (1, x); T (8, c);  T (34, x); T (1, y); T (8, f); T (1, x);  Lambda_apply y [((Iter 2), (Arg 10)); ((Iter 1), (Arg 14))]]"
71.40,1212393,374369,"[V f; U (2, f); ULambda y; T (512, c); Hoist_vars [c]; T (34, x); T (1, c);  T (1, x); Lambda_apply y [((Iter 2), (Arg 11)); ((Iter 1), (Arg 12))];  T (8, f); T (1, x); T (1, y)]"
72.17,1211964,278383,"[V f; U (2, f); ULambda y; T (512, c); Hoist_vars [c]; T (34, x); T (1, c);  T (1, x); T (1, y); T (8, f); T (1, x);  Lambda_apply y [((Iter 2), (Arg 11)); ((Iter 1), (Arg 12))]]"
73.10,1211490,373588,"[V f; U (2, f); ULambda y; T (512, c); Hoist_vars [c]; T (2, x); T (1, c);  T (17, x); Lambda_apply y [((Iter 2), (Arg 11)); ((Iter 1), (Arg 12))];  T (8, f); T (1, x); T (1, y)]"
70.62,1263417,418977,"[V f; U (2, f); ULambda y; T (256, c); Hoist_vars [c]; T (2, x); T (2, c);  T (17, x); Lambda_apply y [((Iter 2), (Arg 11)); ((Iter 1), (Arg 12))];  T (8, f); T (1, x); T (1, y)]"
67.96,1343151,443291,"[V f; U (2, f); ULambda y; T (128, c); Hoist_vars [c]; T (2, x); T (4, c);  T (17, x); Lambda_apply y [((Iter 2), (Arg 11)); ((Iter 1), (Arg 12))];  T (8, f); T (1, x); T (1, y)]"
63.39,1501833,499524,"[V f; U (2, f); ULambda y; T (64, c); Hoist_vars [c]; T (2, x); T (8, c);  T (17, x); Lambda_apply y [((Iter 2), (Arg 11)); ((Iter 1), (Arg 12))];  T (8, f); T (1, x); T (1, y)]"
72.80,1211183,251241,"[V f; U (2, f); ULambda y; T (512, c); Hoist_vars [c]; T (2, x); T (1, c);  T (17, x); T (1, y); T (8, f); T (1, x);  Lambda_apply y [((Iter 2), (Arg 11)); ((Iter 1), (Arg 12))]]"
72.40,1261885,286130,"[V f; U (2, f); ULambda y; T (256, c); Hoist_vars [c]; T (2, x); T (2, c);  T (17, x); T (1, y); T (8, f); T (1, x);  Lambda_apply y [((Iter 2), (Arg 11)); ((Iter 1), (Arg 12))]]"
71.37,1343499,329554,"[V f; U (2, f); ULambda y; T (128, c); Hoist_vars [c]; T (2, x); T (4, c);  T (17, x); T (1, y); T (8, f); T (1, x);  Lambda_apply y [((Iter 2), (Arg 11)); ((Iter 1), (Arg 12))]]"
68.18,1502662,350778,"[V f; U (2, f); ULambda y; T (64, c); Hoist_vars [c]; T (2, x); T (8, c);  T (17, x); T (1, y); T (8, f); T (1, x);  Lambda_apply y [((Iter 2), (Arg 11)); ((Iter 1), (Arg 12))]]"
73.23,1210716,384003,"[V f; U (2, f); ULambda y; T (512, c); Hoist_vars [c]; T (1, x); T (1, c);  T (34, x); Lambda_apply y [((Iter 2), (Arg 11)); ((Iter 1), (Arg 12))];  T (8, f); T (1, x); T (1, y)]"
70.32,1229342,385629,"[V f; U (2, f); ULambda y; T (256, c); Hoist_vars [c]; T (1, x); T (2, c);  T (34, x); Lambda_apply y [((Iter 2), (Arg 11)); ((Iter 1), (Arg 12))];  T (8, f); T (1, x); T (1, y)]"
67.46,1267520,412146,"[V f; U (2, f); ULambda y; T (128, c); Hoist_vars [c]; T (1, x); T (4, c);  T (34, x); Lambda_apply y [((Iter 2), (Arg 11)); ((Iter 1), (Arg 12))];  T (8, f); T (1, x); T (1, y)]"
67.14,1341341,414274,"[V f; U (2, f); ULambda y; T (64, c); Hoist_vars [c]; T (1, x); T (8, c);  T (34, x); Lambda_apply y [((Iter 2), (Arg 11)); ((Iter 1), (Arg 12))];  T (8, f); T (1, x); T (1, y)]"
73.47,1211284,248876,"[V f; U (2, f); ULambda y; T (512, c); Hoist_vars [c]; T (1, x); T (1, c);  T (34, x); T (1, y); T (8, f); T (1, x);  Lambda_apply y [((Iter 2), (Arg 11)); ((Iter 1), (Arg 12))]]"
71.85,1229268,280698,"[V f; U (2, f); ULambda y; T (256, c); Hoist_vars [c]; T (1, x); T (2, c);  T (34, x); T (1, y); T (8, f); T (1, x);  Lambda_apply y [((Iter 2), (Arg 11)); ((Iter 1), (Arg 12))]]"
71.34,1266730,273073,"[V f; U (2, f); ULambda y; T (128, c); Hoist_vars [c]; T (1, x); T (4, c);  T (34, x); T (1, y); T (8, f); T (1, x);  Lambda_apply y [((Iter 2), (Arg 11)); ((Iter 1), (Arg 12))]]"
69.65,1341509,287455,"[V f; U (2, f); ULambda y; T (64, c); Hoist_vars [c]; T (1, x); T (8, c);  T (34, x); T (1, y); T (8, f); T (1, x);  Lambda_apply y [((Iter 2), (Arg 11)); ((Iter 1), (Arg 12))]]"
61.63,1479960,458746,"[V f; U (2, f); ULambda y; T (512, c); Hoist_vars [c]; T (34, x); T (1, c);  T (1, x); Lambda_apply y [((Iter 1), (Arg 8)); ((Iter 1), (Arg 9))];  T (8, f); T (1, x); T (2, y)]"
59.89,1815061,403605,"[V f; U (2, f); ULambda y; T (64, c); Hoist_vars [c]; T (34, x); T (8, c);  T (1, x); Lambda_apply y [((Iter 1), (Arg 8)); ((Iter 1), (Arg 9))];  T (8, f); T (1, x); T (2, y)]"
70.57,1481028,334705,"[V f; U (2, f); ULambda y; T (512, c); Hoist_vars [c]; T (34, x); T (1, c);  T (1, x); T (2, y); T (8, f); T (1, x);  Lambda_apply y [((Iter 1), (Arg 8)); ((Iter 1), (Arg 9))]]"
60.24,1813535,410064,"[V f; U (2, f); ULambda y; T (64, c); Hoist_vars [c]; T (34, x); T (8, c);  T (1, x); T (2, y); T (8, f); T (1, x);  Lambda_apply y [((Iter 1), (Arg 8)); ((Iter 1), (Arg 9))]]"
67.91,1480898,353193,"[V f; U (2, f); ULambda y; T (512, c); Hoist_vars [c]; T (2, x); T (1, c);  T (17, x); Lambda_apply y [((Iter 1), (Arg 8)); ((Iter 1), (Arg 9))];  T (8, f); T (1, x); T (2, y)]"
65.85,1523436,432818,"[V f; U (2, f); ULambda y; T (256, c); Hoist_vars [c]; T (2, x); T (2, c);  T (17, x); Lambda_apply y [((Iter 1), (Arg 8)); ((Iter 1), (Arg 9))];  T (8, f); T (1, x); T (2, y)]"
67.28,1601233,433479,"[V f; U (2, f); ULambda y; T (128, c); Hoist_vars [c]; T (2, x); T (4, c);  T (17, x); Lambda_apply y [((Iter 1), (Arg 8)); ((Iter 1), (Arg 9))];  T (8, f); T (1, x); T (2, y)]"
66.31,1754816,420389,"[V f; U (2, f); ULambda y; T (64, c); Hoist_vars [c]; T (2, x); T (8, c);  T (17, x); Lambda_apply y [((Iter 1), (Arg 8)); ((Iter 1), (Arg 9))];  T (8, f); T (1, x); T (2, y)]"
70.01,1479683,338008,"[V f; U (2, f); ULambda y; T (512, c); Hoist_vars [c]; T (2, x); T (1, c);  T (17, x); T (2, y); T (8, f); T (1, x);  Lambda_apply y [((Iter 1), (Arg 8)); ((Iter 1), (Arg 9))]]"
68.92,1521770,376239,"[V f; U (2, f); ULambda y; T (256, c); Hoist_vars [c]; T (2, x); T (2, c);  T (17, x); T (2, y); T (8, f); T (1, x);  Lambda_apply y [((Iter 1), (Arg 8)); ((Iter 1), (Arg 9))]]"
67.94,1599342,404834,"[V f; U (2, f); ULambda y; T (128, c); Hoist_vars [c]; T (2, x); T (4, c);  T (17, x); T (2, y); T (8, f); T (1, x);  Lambda_apply y [((Iter 1), (Arg 8)); ((Iter 1), (Arg 9))]]"
65.48,1752997,422768,"[V f; U (2, f); ULambda y; T (64, c); Hoist_vars [c]; T (2, x); T (8, c);  T (17, x); T (2, y); T (8, f); T (1, x);  Lambda_apply y [((Iter 1), (Arg 8)); ((Iter 1), (Arg 9))]]"
71.16,1480273,328837,"[V f; U (2, f); ULambda y; T (512, c); Hoist_vars [c]; T (1, x); T (1, c);  T (34, x); Lambda_apply y [((Iter 1), (Arg 8)); ((Iter 1), (Arg 9))];  T (8, f); T (1, x); T (2, y)]"
70.84,1497864,348410,"[V f; U (2, f); ULambda y; T (256, c); Hoist_vars [c]; T (1, x); T (2, c);  T (34, x); Lambda_apply y [((Iter 1), (Arg 8)); ((Iter 1), (Arg 9))];  T (8, f); T (1, x); T (2, y)]"
69.13,1535465,369972,"[V f; U (2, f); ULambda y; T (128, c); Hoist_vars [c]; T (1, x); T (4, c);  T (34, x); Lambda_apply y [((Iter 1), (Arg 8)); ((Iter 1), (Arg 9))];  T (8, f); T (1, x); T (2, y)]"
66.35,1609236,381874,"[V f; U (2, f); ULambda y; T (64, c); Hoist_vars [c]; T (1, x); T (8, c);  T (34, x); Lambda_apply y [((Iter 1), (Arg 8)); ((Iter 1), (Arg 9))];  T (8, f); T (1, x); T (2, y)]"
71.07,1480759,329325,"[V f; U (2, f); ULambda y; T (512, c); Hoist_vars [c]; T (1, x); T (1, c);  T (34, x); T (2, y); T (8, f); T (1, x);  Lambda_apply y [((Iter 1), (Arg 8)); ((Iter 1), (Arg 9))]]"
67.88,1498315,351771,"[V f; U (2, f); ULambda y; T (256, c); Hoist_vars [c]; T (1, x); T (2, c);  T (34, x); T (2, y); T (8, f); T (1, x);  Lambda_apply y [((Iter 1), (Arg 8)); ((Iter 1), (Arg 9))]]"
68.21,1535088,366211,"[V f; U (2, f); ULambda y; T (128, c); Hoist_vars [c]; T (1, x); T (4, c);  T (34, x); T (2, y); T (8, f); T (1, x);  Lambda_apply y [((Iter 1), (Arg 8)); ((Iter 1), (Arg 9))]]"
66.95,1609260,370936,"[V f; U (2, f); ULambda y; T (64, c); Hoist_vars [c]; T (1, x); T (8, c);  T (34, x); T (2, y); T (8, f); T (1, x);  Lambda_apply y [((Iter 1), (Arg 8)); ((Iter 1), (Arg 9))]]"
