perf,CACHE_MISS_L1,CACHE_MISS_L2,scheme
61.23,1109701,229970,"[V f; U (2, f); U (14, y); T (32, c); Hoist_vars [c]; T (3, w); T (3, h);  T (14, x); T (8, c); T (8, f); T (1, y); T (1, f)]"
62.23,1107398,237802,"[V f; U (2, f); U (14, y); T (32, c); Hoist_vars [c]; T (3, w); T (3, h);  T (14, x); T (8, c); T (4, f); T (1, y); T (2, f)]"
62.30,1108881,220744,"[V f; U (2, f); U (14, y); T (32, c); Hoist_vars [c]; T (3, w); T (3, h);  T (14, x); T (8, c); T (2, f); T (1, y); T (4, f)]"
62.97,1110572,230386,"[V f; U (2, f); U (14, y); T (32, c); Hoist_vars [c]; T (3, w); T (3, h);  T (14, x); T (8, c); T (1, f); T (1, y); T (8, f)]"
63.12,935547,233070,"[V f; U (2, f); U (14, y); T (64, c); Hoist_vars [c]; T (3, w); T (3, h);  T (14, x); T (4, c); T (8, f); T (1, y); T (1, f)]"
63.56,933323,226079,"[V f; U (2, f); U (14, y); T (64, c); Hoist_vars [c]; T (3, w); T (3, h);  T (14, x); T (4, c); T (4, f); T (1, y); T (2, f)]"
60.62,935508,254487,"[V f; U (2, f); U (14, y); T (64, c); Hoist_vars [c]; T (3, w); T (3, h);  T (14, x); T (4, c); T (2, f); T (1, y); T (4, f)]"
62.62,934164,239562,"[V f; U (2, f); U (14, y); T (64, c); Hoist_vars [c]; T (3, w); T (3, h);  T (14, x); T (4, c); T (1, f); T (1, y); T (8, f)]"
68.47,1256522,223306,"[V f; U (4, f); U (7, y); T (32, c); Hoist_vars [c]; T (3, w); T (3, h);  T (14, x); T (8, c); T (4, f); T (2, y); T (1, f)]"
68.82,1255829,232625,"[V f; U (4, f); U (7, y); T (32, c); Hoist_vars [c]; T (3, w); T (3, h);  T (14, x); T (8, c); T (2, f); T (2, y); T (2, f)]"
70.11,1257449,235507,"[V f; U (4, f); U (7, y); T (32, c); Hoist_vars [c]; T (3, w); T (3, h);  T (14, x); T (8, c); T (1, f); T (2, y); T (4, f)]"
61.60,1215296,217978,"[V f; U (4, f); U (7, y); U (3, h); T (32, c); Hoist_vars [c]; T (3, w);  T (14, x); T (8, c); T (4, f); T (2, y); T (1, f)]"
62.55,1213475,237778,"[V f; U (4, f); U (7, y); U (3, h); T (32, c); Hoist_vars [c]; T (3, w);  T (14, x); T (8, c); T (2, f); T (2, y); T (2, f)]"
61.22,939187,229201,"[V f; U (1, f); U (14, y); U (3, h); T (64, c); Hoist_vars [c]; T (3, w);  T (14, x); T (4, c); T (16, f); T (1, y); T (1, f)]"
64.42,935424,262051,"[V f; U (1, f); U (14, y); U (3, h); T (64, c); Hoist_vars [c]; T (3, w);  T (14, x); T (4, c); T (8, f); T (1, y); T (2, f)]"
59.80,934653,267809,"[V f; U (1, f); U (14, y); U (3, h); T (64, c); Hoist_vars [c]; T (3, w);  T (14, x); T (4, c); T (4, f); T (1, y); T (4, f)]"
61.58,941268,236152,"[V f; U (1, f); U (14, y); U (3, h); T (64, c); Hoist_vars [c]; T (3, w);  T (14, x); T (4, c); T (2, f); T (1, y); T (8, f)]"
