perf, CACHE_MISS_L1, CACHE_MISS_L2
24.21,3551838,2637624
29.52,2937622,714019
31.70,2749439,227068
35.28,2761124,314036
35.24,2771709,337837
40.14,1137379,358076
35.12,730402,340756
40.78,554207,100837
37.95,988591,99474
33.39,1872738,101934
28.78,2923698,654358
31.85,2882589,232168
35.37,2763971,278481
40.32,1152684,311830
35.40,728461,282829
40.92,555552,96154
38.08,986165,95421
33.60,1872102,97374
31.76,2729849,255306
35.53,2766113,223609
35.43,733645,210187
40.94,554897,88370
38.18,988625,87823
33.72,1873547,90058
35.66,2740142,210906
40.49,1158451,213001
41.07,552342,113907
38.25,983717,106618
33.68,1877917,108712
35.66,2751231,210470
35.63,738589,201552
38.20,986735,150882
33.61,1875821,163655
40.82,1134902,154665
41.34,561178,120929
38.35,993704,122848
33.66,1879414,138907
35.35,742283,141544
33.59,1877273,119790
41.61,549544,86056
38.45,1002152,79297
34.78,1556931,83661
38.94,886683,66613
33.34,1900759,71448
39.72,1799898,65055
18.60,3527632,3036677
24.16,3396936,799557
27.28,2922858,453885
29.26,2998147,355953
29.36,2818506,342082
33.25,1593802,378524
34.48,1019335,366978
35.07,395389,233891
33.99,603423,135901
34.43,1078640,147146
23.82,3709217,1006045
28.54,2891634,284549
29.06,2824833,328161
33.13,1606230,370813
34.53,1040135,351434
35.05,396917,207991
34.12,604905,129693
34.55,1080899,143224
28.78,2932293,273195
29.12,2825229,280055
34.68,1018882,277216
35.22,399083,152449
34.14,609940,123128
33.77,1084700,118830
29.49,2813976,227294
33.43,1593428,245204
35.18,399388,121110
34.14,611758,100355
34.40,1082229,103868
29.49,2818806,244369
34.72,1021877,227656
34.11,610235,97982
34.54,1088031,100103
33.48,1592749,172174
35.55,436262,135970
34.11,622761,133134
34.63,1099011,124390
34.71,1230625,156854
34.61,1098201,116173
35.89,404287,77643
35.07,562781,82942
33.98,1110597,82748
34.48,638293,65207
35.05,1090907,65847
35.28,1136312,65500
20.65,3025470,3152229
20.64,3026118,3155989
20.69,3030152,3157202
28.68,2751252,655978
28.72,2751671,666303
28.18,2749970,751857
32.50,2669935,202279
32.64,2769993,213494
32.62,2670086,208837
33.35,2675066,148890
33.41,2675616,143511
33.39,2673387,145657
33.39,2684547,147962
33.42,2681436,144918
33.21,2683126,162847
37.49,1381498,120241
37.47,1381241,120811
37.51,1378190,134589
37.61,893995,111826
37.73,882682,109753
37.67,878781,136951
39.50,465054,79944
39.50,496344,81920
39.09,458363,128222
31.77,806412,69910
31.75,808038,68855
31.66,802960,122506
38.06,1541313,68254
38.10,1535642,65591
38.44,1411141,115900
18.64,3167645,3733670
18.67,3185379,3750311
18.37,3022958,3609341
24.35,2856370,840474
24.44,2799691,768455
24.72,2797773,813823
27.66,2742848,208727
27.49,2819353,208877
27.70,2683044,186606
28.65,2706993,148107
28.67,2760169,150736
28.72,2734531,152370
28.60,2747854,150825
28.73,2682884,148020
28.73,2686069,154861
32.19,1408731,117441
32.43,1400330,117516
32.23,1420380,140412
30.63,932950,112764
30.59,912782,108454
30.81,925623,137785
31.53,427169,80254
31.55,427500,76561
31.47,424541,128697
30.34,693526,68221
30.16,725233,67673
30.21,718408,123121
37.75,1272234,64185
37.67,1339149,65641
37.48,1346233,117693
22.90,3884424,2692479
27.20,3023253,595135
30.71,2795240,273546
34.91,2819975,349298
34.79,2763452,340664
39.54,1196168,378039
34.19,913911,399053
40.52,523417,102729
38.17,762718,114074
36.16,1734338,104477
26.54,3568598,690310
29.97,2905780,295115
34.95,2765208,285629
39.72,1194059,321521
34.35,753662,291344
40.62,525183,98567
37.63,923800,95844
36.19,1736068,97422
31.07,2742931,202948
35.05,2765456,238336
34.60,753638,222208
40.73,527110,89621
37.73,924093,87942
37.14,1557609,155631
35.11,2743583,222121
40.00,1193596,218427
40.82,526095,89580
38.51,738843,94357
36.37,1726774,86971
35.17,2756385,223444
34.48,757203,218911
37.91,921681,135708
36.21,1736579,134907
40.18,1188303,169475
41.01,532561,128926
38.03,929693,128848
35.88,1740490,131564
34.79,755583,139610
35.92,1744462,115255
41.23,523438,75868
38.66,809826,76171
35.87,1763411,78562
38.28,930109,64898
37.45,1453143,64962
43.21,1688657,63721
19.96,3545946,2674871
25.49,3154914,679678
29.52,2789892,270131
32.08,2773362,321184
32.31,2850262,380293
36.49,1302946,393007
34.00,861490,364538
38.33,467205,135402
36.23,793768,108953
35.45,1463771,103400
25.75,3149955,679611
29.31,2791516,296120
31.79,2922136,355451
36.57,1369022,364632
33.99,855091,327778
38.47,471127,121697
36.24,793943,104930
35.86,1463720,98575
30.35,2784189,216903
32.40,2772218,247766
34.01,850965,259368
38.48,472507,97656
36.85,697320,96656
35.64,1465712,89982
32.38,2773290,218403
36.82,1440815,234551
38.83,479345,114527
36.87,685510,89463
36.25,1398939,108419
32.65,2847268,227638
34.14,1015469,222331
36.50,800357,119306
36.49,1332639,133542
37.05,1314468,159563
38.70,480804,134476
36.60,790924,131487
35.69,1466883,128838
34.49,853766,144940
35.82,1468173,119648
39.02,477392,76281
36.72,817249,77062
35.57,1487297,79419
36.90,818545,72568
35.60,1490210,67145
40.34,1504228,63126
19.24,3540481,2899822
24.85,3313889,740746
28.95,2846654,301310
30.67,2793998,320201
30.72,2891068,373678
34.65,1640584,436280
34.16,968075,375099
36.69,415513,190263
34.20,658837,137481
35.89,1182892,141409
25.12,3308210,840196
27.87,3103243,456614
30.70,2801044,324139
34.71,1473966,377667
34.19,982228,347388
36.95,471098,256570
34.87,586672,131093
35.47,1188926,123416
29.88,2844168,218109
30.69,2798721,261225
34.33,988627,266282
37.01,460842,177805
34.25,663984,102654
36.10,1186430,107103
30.96,2898756,226479
35.05,1467144,233188
36.84,418083,109138
34.21,664242,93485
36.10,1189740,91762
30.71,2948844,241573
34.15,1193000,219468
34.29,666296,89963
35.41,1182175,100655
35.03,1649111,172959
36.97,424146,130093
34.33,677090,132221
36.15,1197121,125838
35.20,988208,144909
36.16,1199212,121885
37.14,421597,76451
34.42,682225,79705
36.68,1151630,88424
34.99,683188,68268
36.29,1220533,65200
34.67,1259854,63572
20.89,3843110,2908952
26.14,3489697,868154
29.76,3055837,332148
32.00,2897321,333648
31.89,2906968,365883
36.29,1400244,359230
34.94,896497,340210
38.06,497826,234409
35.60,793531,120399
34.31,1216822,315162
25.68,3585087,822406
29.96,2877631,253902
31.85,2797156,295586
36.31,1401974,324802
35.01,892745,314579
38.21,499896,205037
35.59,795058,107303
34.15,1470159,114364
30.06,2984486,271951
31.92,2797135,253246
35.06,913961,246706
37.91,478194,122292
35.75,794970,94942
34.11,1471052,99826
32.22,2781487,214699
36.46,1408189,222265
37.83,478916,132052
35.86,793434,110701
34.18,1466992,110256
32.04,2790938,220942
35.07,901403,219331
36.47,720989,152676
34.16,1469704,148145
36.42,1417619,165405
38.28,493795,129380
35.95,805573,131734
33.53,1478659,131008
34.86,1079147,139257
34.59,1261785,119919
38.26,479281,76662
36.09,812208,79163
34.68,1275041,83353
36.25,814032,65289
34.12,1500690,65669
28.84,1505702,62810
22.17,3647567,2699400
26.02,3107563,758392
30.25,2774215,263581
33.91,2864217,361626
34.00,2887059,381432
38.69,1259912,392577
34.06,816201,373103
40.25,496831,117256
37.70,854409,109710
38.16,1583161,114014
26.19,3099744,662708
29.95,2768903,328070
34.25,2852784,322514
38.65,1401648,394149
34.22,816244,316775
40.39,498219,104850
37.65,858336,103535
37.66,1588230,115043
30.35,2942203,234807
34.22,2774966,268595
34.30,817505,239963
40.63,496837,112688
37.78,856898,91821
38.80,1471563,123816
34.37,2756025,224335
39.00,1260942,227556
40.49,498149,88828
38.40,730528,86494
38.32,1596101,89859
34.41,2835388,232291
34.24,844749,226969
37.91,861203,123977
38.73,1402683,127515
39.23,1265210,165627
40.66,506168,127518
38.53,730517,129150
38.06,1600565,131350
34.81,813507,144888
38.28,1603135,122806
41.02,496511,79746
38.14,876065,80867
38.84,1524136,80152
38.72,748249,68159
38.36,1622462,67128
44.28,1639698,63255
19.37,3544089,2662586
24.94,3158754,725260
29.41,2787797,282834
32.08,2770891,337419
32.29,2849606,387154
36.37,1290522,417239
33.59,868690,363592
38.78,466246,119440
36.67,802435,114788
36.80,1460419,103778
25.53,3152760,631238
29.16,2992068,324879
32.30,2907215,339839
36.48,1431542,402002
33.65,1055387,356595
38.83,481692,183354
37.19,694267,104922
37.10,1469054,100480
29.59,2779322,214915
32.58,2771551,255086
33.72,1054370,267505
38.74,470157,94805
36.79,798391,92424
37.23,1470117,92288
32.58,2769347,226575
36.67,1300216,237009
38.93,472094,84261
37.37,709368,88725
37.24,1465371,84098
32.63,2762906,237278
33.83,867375,224490
36.93,797757,111713
36.93,1470711,110389
36.87,1342944,172801
39.01,481898,136892
36.98,813524,130246
37.84,1361787,131193
33.76,1023903,143208
37.88,1367292,116897
39.43,471299,80489
37.68,732723,77292
37.29,1495210,85716
37.54,781690,66739
37.24,1496702,66601
42.97,1353180,62925
18.80,3849661,2909260
24.98,3243774,712714
28.95,2824485,282115
31.13,2790177,317016
31.07,2794392,346778
34.70,1441815,399073
33.71,917137,363976
37.13,443001,167589
35.73,729664,118532
36.50,1274166,332792
24.31,3629831,812117
27.58,3065984,447196
31.02,2886355,354293
34.85,1446032,360870
33.58,930234,335330
37.53,477003,209810
35.67,733135,108108
36.64,1258403,266341
29.16,2815829,243320
31.05,2793608,261367
33.78,917076,259091
37.43,448996,113934
36.29,634342,100803
36.37,1330198,102455
31.20,2781391,250219
35.03,1443473,244109
37.24,449901,99882
35.83,735954,88280
35.82,1329742,91019
31.43,2792136,239514
33.77,915474,224176
35.73,750957,108038
35.86,1328261,109922
35.43,1580984,179738
37.52,474887,137339
36.29,672090,132754
36.89,1275733,123744
34.09,1095383,148428
36.12,1289212,123299
38.25,499787,81265
36.11,747060,100654
36.20,1363354,91911
36.60,706258,66266
36.95,1244842,69854
39.70,1359735,64421
19.27,3772515,2758207
24.52,3233073,740136
29.06,3053209,363274
31.02,2780311,344165
31.29,2784331,356076
35.58,1381931,395980
33.70,920177,387807
37.96,440303,149431
36.24,727684,125245
36.32,1126648,284436
24.29,3603952,820156
29.03,3048151,313501
31.37,2783346,314655
35.65,1381165,368823
33.71,913717,366349
38.09,511440,235912
36.19,733492,110817
36.39,1221909,246645
29.44,2805129,222903
31.40,2891941,274791
33.80,1100491,286527
38.08,444309,110327
36.29,730763,97339
36.09,1337592,100474
31.45,2771220,229586
35.96,1513224,238406
38.12,443935,96239
36.32,734114,88183
36.06,1333689,88901
31.71,2871897,241297
33.90,1070526,225273
36.45,655738,92208
36.54,1217451,144359
36.03,1543426,176642
38.44,485907,136970
36.57,734513,137963
36.24,1321481,128766
34.20,1106667,135539
36.74,1255979,113456
38.76,446182,73439
36.69,755072,85116
35.59,1359713,82326
36.87,761126,65682
36.16,1368467,68704
39.69,1376303,64236
18.76,3545653,2884606
22.55,3700696,1316605
28.79,3123890,355765
30.48,2888113,351738
30.45,2902583,382825
34.60,1657449,426683
33.91,1159322,411244
36.86,415696,193633
34.81,668083,146850
35.17,1209411,146928
24.16,3304648,828815
29.07,2835611,263417
30.50,2799398,326846
34.71,1474724,373888
33.96,977987,354976
36.91,418698,169984
34.83,668976,125971
35.27,1205802,120066
29.17,2835657,241490
30.35,2991963,284446
34.16,961961,275651
37.00,420842,136786
34.88,673079,106091
35.87,1209864,108722
30.71,2787103,227519
34.93,1486826,238562
37.00,419186,118355
34.93,674137,97175
35.89,1212819,99412
30.74,2900412,240390
34.28,970281,215935
34.90,671411,105308
35.77,1209175,98245
35.10,1625319,171866
37.42,496448,140578
35.51,612938,132248
36.00,1220542,121250
34.24,1158276,149454
36.39,1170851,110109
37.56,453277,79726
35.60,609851,94624
36.01,1234698,80642
34.98,698047,66731
36.57,1137892,66669
37.70,1253837,63612
18.41,3544492,2903335
24.49,3310371,718863
29.08,2845396,294805
30.19,2795068,331215
30.32,2802473,360347
34.32,1508394,391183
33.99,975724,387559
36.79,417460,201913
35.20,665275,147515
35.59,1170931,294889
24.23,3300366,810995
29.23,2842052,253011
30.22,2804790,327507
34.38,1519219,379159
33.80,978199,399247
36.97,422660,170119
35.13,667162,126546
35.08,1202480,129797
28.22,2837197,312134
30.25,2803494,272431
34.32,981388,272784
36.87,419584,137965
35.74,579016,124052
35.45,1207256,107909
30.55,2791552,234866
34.51,1525331,241904
37.12,421910,109271
35.12,698412,98704
35.74,1204614,94047
30.43,2797085,241189
34.27,966995,227124
35.27,672801,96994
35.58,1204718,102858
34.93,1510976,175868
37.02,428718,136260
35.38,699003,138992
35.54,1123887,128853
34.46,976985,142546
35.58,1215998,109921
37.86,467321,80002
35.55,694221,83615
35.36,1226087,78599
35.56,656765,68082
35.36,1233562,66017
38.03,1257174,66728
19.39,3022389,3372819
19.71,3199762,3493930
19.32,3022830,3380533
26.54,2783349,727625
26.09,2778124,784115
26.40,2778140,663433
29.98,2678266,183146
29.94,2825798,208963
29.76,2824497,228895
30.90,2676356,146922
30.92,2673877,144542
30.89,2675761,146733
30.97,2686035,146055
30.94,2687319,149128
30.91,2685013,147425
34.70,1412275,119786
34.71,1416452,118644
34.57,1409651,141555
33.88,910760,109996
33.72,927139,114463
33.91,918756,135976
34.95,445664,77917
35.05,447110,80411
34.89,444849,127850
30.97,764916,70366
30.92,765597,67787
30.84,760455,122856
37.77,1438471,64881
37.81,1433094,63257
37.60,1432773,113655
