perf, CACHE_MISS_L1, CACHE_MISS_L2
20.01,6952171,6569006
20.07,6952111,6821248
19.60,6876467,6249367
20.52,6859868,3883327
20.97,7112190,3879052
21.52,6638319,3455134
21.52,6637003,3766102
28.25,5784750,1318321
28.11,5802281,1615871
28.12,5781366,1268664
31.45,5726022,1255453
33.40,5713397,791480
31.57,5706358,1805475
32.11,5708441,1427148
35.70,2139249,1223648
35.53,694644,780534
34.68,772805,733014
33.81,660459,810766
39.32,750582,684966
40.07,659466,794412
38.57,670774,908015
16.83,6139028,8356888
16.81,6139865,8363939
16.83,6093042,8283229
17.08,6089610,8277658
17.83,6332039,8476445
20.38,6274876,4411422
25.05,5748706,1168024
24.80,5869936,1736379
24.60,5837839,1122785
25.13,5725949,1046885
24.78,5734099,1593805
27.07,5619313,768488
27.24,5621840,758782
27.64,5725411,791559
27.49,5738723,1056489
27.31,5739475,1296581
30.65,2835053,748234
29.11,714878,734129
29.58,720067,727827
33.76,748014,727444
33.44,672256,866168
29.55,2683135,2260939
31.45,2982621,2559259
29.87,2588819,2532554
33.44,2765059,1639026
45.63,2032320,1507620
27.20,795808,781832
28.21,2592480,2218109
45.68,2013705,1486545
49.44,1250651,1618665
49.48,1248496,1621716
41.32,749092,1410973
39.46,769854,1401637
28.43,2754243,1765539
28.13,2470488,1544584
30.81,2154444,852715
49.10,2015603,1443578
30.62,2080024,907824
30.30,809420,1347292
30.38,2045610,809132
30.47,2049767,813711
23.71,862012,722428
30.29,2047597,817430
48.67,1229178,1464089
26.43,869370,716842
38.28,729257,1479352
38.16,730248,1330189
30.37,786361,1410191
41.05,750987,1403037
38.08,732461,1255611
30.12,727815,1363028
41.50,763547,1347062
41.26,745970,1336955
41.32,771368,1141855
41.16,767324,1133965
40.06,812658,665970
39.50,812217,661694
30.32,872685,658431
27.78,2295479,1496253
35.37,773080,1337715
28.43,749381,1011926
29.77,2111628,1183927
35.43,1995467,1431838
34.52,1418110,1794741
27.27,2752015,2370800
26.25,2333191,2239647
26.84,2289711,1466095
29.75,2121701,1231956
35.12,1998093,1447184
36.86,1600371,1373659
29.87,1721301,1515405
35.98,775810,1340592
27.95,748341,997866
27.06,2709340,1886188
29.45,2094226,1055255
31.32,728490,1402692
28.78,2086365,1066646
29.43,2100159,1069732
29.74,2087901,1052359
36.33,2002456,1429998
32.10,1988123,1164803
36.44,1424207,1405687
31.36,932282,728056
36.03,728435,1225255
37.61,1982899,1352856
33.91,763571,1379655
26.01,746806,906121
36.44,896706,1201698
36.61,1399851,1329388
33.65,763082,1312760
36.29,823938,1272877
33.35,771448,1100074
34.40,773177,1058960
35.34,869824,655703
35.75,898061,651960
22.45,2676710,2625244
22.45,2671368,2492544
22.30,2664869,2465142
22.29,2668142,2565711
22.23,2641284,2261561
22.00,2645099,2569021
22.38,2637662,2310154
21.93,2614943,2391963
22.16,2619570,2441736
22.39,2612626,2361171
21.03,2568685,1764194
20.02,2124163,1314767
22.20,2106108,838519
22.74,2088007,769364
23.58,2100645,775400
22.36,1937732,744289
22.35,1938162,720407
23.70,2109352,890693
23.71,2121091,882367
24.95,2030737,757027
24.67,2056024,911262
24.88,2063764,1170366
25.11,2038110,730463
25.11,2039584,750140
24.53,2120453,1550623
24.45,2105610,1543951
25.24,1498137,989459
25.28,720721,705791
25.13,704633,659998
24.51,670760,954879
24.23,2078692,2770337
23.87,2078173,2832025
24.10,2071784,2790316
27.19,2264116,1727240
29.39,2133020,850396
29.91,1987483,814306
28.52,1974200,773469
29.05,1987800,777176
30.83,2184832,1364375
32.92,2046199,734103
31.73,1619475,1728902
33.47,660868,808253
33.43,754998,691017
34.65,749489,717647
35.40,761829,732707
31.68,701097,917505
27.39,2793289,2557967
27.66,2789598,2470916
28.16,2715484,1807105
29.98,2389972,1391665
34.73,2130973,1436295
34.98,2147734,1509200
36.06,1647325,1429915
33.47,837302,1346101
34.15,852713,1537670
29.07,843861,1175966
26.69,749794,1103151
26.46,2678354,2005355
24.51,2055029,927957
33.06,2021991,1449362
33.19,2033031,1803228
33.01,2010742,1443891
32.78,2057725,2363652
32.68,757839,1413291
24.89,2700751,2646204
25.10,2701786,2504989
25.48,2746035,2042002
30.70,788616,1491784
27.72,2299883,1044117
31.42,861740,1276083
25.73,921440,739292
35.34,2188421,1461123
29.85,876833,1005021
36.15,2140630,1397765
35.64,1589200,1354263
34.77,848990,1346675
35.94,1644922,1332263
34.30,790263,1296360
34.21,921315,1058382
30.97,854809,664178
34.86,917911,658226
21.93,2611502,2335757
21.98,2612704,2414101
22.14,2611333,2450393
21.91,2613157,2454054
21.06,2574042,2275572
19.95,2118120,1981888
20.21,2123401,2073913
19.60,2107543,2039175
21.60,2560413,2445128
19.96,2109125,2041545
19.96,2557307,1773109
21.12,2529789,1669440
21.39,2596668,1684967
22.03,2148187,791393
22.44,2172495,864738
20.97,1935166,725144
23.60,2021935,897946
24.28,2023074,789410
23.81,1926415,1136358
24.16,1299918,1205674
24.47,711138,697643
25.01,732991,843266
22.65,932408,819024
24.56,707290,652432
24.65,707945,655602
24.71,710808,743159
23.92,716347,1097921
24.86,748456,688694
24.84,734139,750213
23.27,2042036,2599951
23.22,2041049,2634142
23.35,2042549,2523864
23.41,2042030,2516072
22.85,2035397,2535684
26.44,2268591,2770007
26.68,2261409,2667344
28.02,2264208,1723368
28.07,2256245,1700272
24.45,2023133,1478820
31.53,2116445,836198
31.37,2140626,846925
27.81,1983401,1159044
33.89,2070748,805839
33.49,2059411,736803
33.98,2058926,801787
35.04,1564377,725114
34.78,711360,699809
34.24,702072,698180
27.09,758643,923797
34.06,704491,659197
34.44,706916,691281
36.10,757605,664986
36.41,757848,675247
35.89,732446,786744
19.17,6993096,6910304
19.37,6928862,6527295
18.64,6862333,6820099
19.24,6858475,6418086
19.58,6853000,6140156
18.64,6787774,6282336
19.69,7301288,7236366
20.84,6638773,3912404
21.37,6639126,3570572
27.33,5804391,1038131
27.74,5782020,1110299
27.40,5786637,998094
32.15,5692614,790151
32.30,5698779,918693
32.33,5680820,784503
31.92,5697805,1066187
31.67,5699264,1316450
36.74,2152448,786017
36.53,2157766,1060126
33.65,774354,746820
34.07,659873,911481
38.79,665597,915213
19.03,6914972,6728110
19.47,6847492,6474668
19.29,6847457,6417522
20.83,6629129,3651066
20.80,6635354,3921354
26.60,5823960,1094277
27.48,5798171,1249602
25.41,5811524,1414016
27.32,5798885,982079
26.69,5811978,1135520
30.74,5737823,1239768
31.98,5708296,952431
31.72,5722476,1089987
31.98,5691828,1058268
34.57,2222708,758769
35.38,703382,772865
31.70,704356,703250
39.78,751008,695864
17.79,6793104,6420318
18.21,6793422,6119739
18.78,7131123,6352019
19.17,6608442,3830263
26.18,5927733,1323369
26.27,5822316,1123716
29.45,5744895,969665
29.90,5709043,863769
33.85,702399,733442
18.10,6792946,6828192
24.70,5849287,1175612
31.84,2633174,729875
32.10,659541,794758
18.21,6775172,6665385
18.06,6775432,6756188
18.17,6776940,6544709
15.27,6687167,6493659
17.94,6696187,6630217
18.12,6690560,6663461
18.82,7039922,6613163
20.52,6943501,4114094
20.65,6851905,3828214
20.55,6585932,3737540
25.77,5995728,1506329
25.57,5877289,1202639
26.04,5881653,1251275
29.00,5745646,1104384
29.40,5774539,827140
29.11,5747162,1112591
33.10,2685335,883686
19.65,7186784,6848933
20.01,7114526,6399848
19.59,7110004,6435734
19.83,7112454,6411210
21.65,7007144,3863684
25.85,5868717,1272793
26.79,5925083,1395507
27.52,5830053,1034999
35.02,2588973,900966
31.98,711304,723016
26.36,757603,709219
17.88,7129098,7049741
25.17,5920816,1168722
24.57,5840865,1310944
26.60,5876889,1093265
33.25,2414943,748568
34.68,2396758,877232
38.42,760336,715119
38.61,703689,760241
18.44,7192280,6515314
18.70,7216851,6689744
19.19,6615345,3738711
30.71,5772525,1391875
32.53,659004,890568
18.06,6782331,6437205
18.16,6697166,6347150
26.07,5849722,1140405
29.29,5769851,1360240
32.45,2652477,737029
33.59,678053,912591
30.60,748886,711768
29.85,5787954,810173
29.12,5769968,1412466
29.02,5740143,1029283
17.40,6803728,6337379
17.71,7103717,6566630
19.64,7005696,4350381
29.13,5707867,800225
29.28,5726512,1045876
29.35,5703330,795243
34.33,807301,653578
17.89,7191317,6686457
29.38,5752019,792439
29.52,5728858,1036670
31.77,765772,739675
37.03,664134,813286
17.39,7170510,6929084
17.12,7117155,6772610
24.61,5955842,1488220
29.58,5761135,1071878
32.51,2615547,726236
33.41,2562726,820685
34.01,2545546,794178
34.42,783701,655623
38.53,692188,896597
38.31,694283,752508
17.98,7138974,6877349
17.43,7118182,7159156
25.22,5881042,1204436
25.56,5925148,1241334
32.10,659121,818459
32.89,710708,722770
36.01,690007,733906
17.30,6773857,6633562
17.25,6729353,6367681
17.35,6686346,6430973
19.56,6587571,3845181
24.54,5879170,1026789
25.54,5861192,1111662
25.37,5946813,1213762
25.64,5963536,1383599
25.64,5856264,1324259
32.07,767815,751046
33.23,767895,761203
34.03,690412,732698
31.70,707823,758471
31.70,706582,730173
35.63,663773,810765
36.99,665323,909879
17.13,6778127,6733727
17.41,6777511,6330557
17.14,6732417,6846913
25.65,5864869,1067081
28.95,5751546,918967
28.74,5735099,869660
28.83,5760236,1079208
31.51,2686302,726459
32.79,2640777,815240
32.99,718709,733285
33.88,687858,849085
32.31,678804,793053
34.62,751595,687804
37.94,664180,789035
17.23,6735749,6731348
17.36,6736123,6618428
17.43,6737253,6722381
17.51,6735580,6682880
17.70,7020451,6408360
17.36,6697894,6478377
17.36,6995778,6654428
19.64,6567460,3800161
23.90,5920414,1607581
25.12,5902399,1532486
27.83,5743398,793132
27.89,5734659,833155
30.94,2820904,765082
31.75,2847960,791921
31.32,2803275,951956
31.42,2818662,785576
31.38,2857651,928020
31.90,756100,744672
32.02,754964,784605
31.00,724477,766424
17.42,6733806,6757348
17.54,6733565,6568623
18.97,6580704,3831159
25.36,5912481,1257112
25.80,5981217,1234638
28.19,5773544,1346144
30.50,745996,726840
31.18,708558,705312
17.57,6693996,6601307
17.71,6724632,6662010
17.87,6970271,7134956
18.00,6961084,7534658
17.61,6634703,6590705
17.66,6631630,6374091
19.91,6567308,3906135
19.84,6551272,3844819
19.97,6555852,3938772
25.03,5987995,1430517
25.02,5909775,1278200
24.31,5919266,1468354
25.13,5914252,1224449
25.34,5897100,1218456
27.70,5794459,1216105
27.75,5753229,847353
26.67,5769607,904512
27.14,5770781,1108499
27.70,5774262,1155241
27.74,5745252,850612
30.72,745637,765769
30.55,710129,719078
30.78,690744,769785
17.89,6795707,6380527
20.30,6849854,3971549
27.75,5792673,1009295
31.42,2948614,824751
31.13,2907899,892036
31.15,2921237,799768
30.45,710390,723986
32.52,752526,711431
20.78,6300492,6171679
21.70,6561195,6622879
22.15,6509499,6240988
23.30,6486825,3677555
24.32,6474621,3606732
24.79,6466455,3576081
28.69,5701461,836489
30.61,5693742,988116
33.72,5592364,777704
36.54,697421,754723
38.25,694614,760933
37.99,691872,755453
36.57,688859,1010468
35.98,703485,711410
34.58,671497,981946
21.44,6607545,7060546
20.28,6274948,6844251
20.21,6227033,6816948
20.56,6229254,6698656
19.88,6179073,6587206
20.04,6181635,6586442
20.17,6184328,6839839
20.56,6180107,6590120
20.34,6183396,6765229
20.59,6183397,6589738
23.01,6087957,3607498
24.38,6462485,3829573
30.32,5866456,953827
31.29,5861602,1092024
32.88,5613489,805505
37.26,2391664,778188
34.10,705792,718795
34.22,705622,719321
34.29,665137,812333
18.18,6195684,7581413
18.09,6161550,7666883
20.12,6051254,3847974
26.24,5721767,964958
29.11,5615698,861351
32.22,2573183,747364
31.93,2670198,745146
31.78,695499,828601
30.79,705849,710883
30.38,685650,730240
19.12,6219684,7097114
20.27,6448517,7144902
32.33,5616874,1029870
32.32,5609995,830096
31.81,5610544,781407
32.34,5618423,828031
37.09,2682916,803188
32.46,703218,679239
32.81,699209,771955
23.73,753995,650316
27.22,5694039,936299
28.70,5715703,1001585
31.34,5617695,821357
25.88,659574,797848
26.08,683671,764808
17.66,6160294,8000909
17.79,6132091,8071330
20.23,6040988,4031332
26.63,5732848,1029422
26.44,5725242,1051157
29.09,5625903,881640
32.00,2752458,838968
32.11,2745764,844901
28.78,660197,797487
26.91,757228,664412
27.86,686089,832603
42.31,1300393,1762068
50.31,1241323,1458810
31.31,768408,961575
30.87,2767652,2033277
51.99,1237049,1476912
29.77,772927,877775
34.93,805232,658333
33.42,2415352,1627507
37.81,2122505,1063702
51.16,2011708,1427513
34.51,2145465,999335
53.61,2013003,1401325
51.22,1307634,1411629
44.52,757060,1371089
41.86,789853,1111799
29.15,2373721,1625604
36.67,755311,1421839
39.09,1995442,1398128
33.77,761620,1431655
35.85,760308,1246688
39.21,756928,1105693
38.37,895838,652170
39.22,1347742,1872301
26.59,750376,1098545
31.13,799867,1349808
27.61,2462478,2413497
27.41,2460511,2306589
38.22,1382265,1873756
42.28,1319295,1422080
36.51,756018,1358011
26.90,2461127,2190970
30.68,838639,1174439
38.79,2037403,1603915
37.08,761796,1364685
30.70,2178615,962191
38.74,2010084,1305979
25.93,747541,887762
27.98,755530,894272
41.77,2004208,1385149
33.93,804286,1370788
32.78,829877,1082811
40.04,2013116,1399055
27.13,826804,998990
30.23,2177945,976657
35.48,779172,1355671
36.45,758888,1312268
30.52,2664643,1732559
32.83,2196079,993040
31.27,2064876,999796
29.74,763749,1365284
36.87,2120992,1553682
37.95,2103553,1588177
32.37,779537,1461436
33.75,762831,1414691
30.99,791611,1453260
34.51,779519,1422436
29.63,729458,1350792
34.66,788674,1321745
34.95,798758,1125346
29.60,2647464,1949251
34.04,1523036,1853983
27.44,2688173,2426155
27.67,2699591,2638314
28.53,2643166,1898292
34.05,2021025,1764010
34.35,1507066,1841976
34.29,1377721,1742831
36.11,1567307,1463598
29.56,761248,1322529
32.31,814275,1591603
33.90,790445,1405514
32.60,765094,1392019
30.59,2151857,1081046
31.74,806833,1337487
29.67,787336,1328419
32.40,782849,1077558
31.97,2051904,1853425
31.67,1471037,1914408
26.59,2305858,1593123
34.71,2015613,1412278
34.37,2081872,1426502
29.26,800566,701153
30.00,891219,678421
32.23,1550779,1379096
28.63,835122,1254701
32.30,2030667,1399798
23.78,749365,830917
26.71,868195,914671
32.14,2139533,1399706
28.15,835466,1267279
31.66,1433992,1388169
29.72,803287,1330837
25.00,2602552,2977928
23.82,2299082,2675223
25.85,2120160,1051379
29.33,2036181,1386234
28.62,818593,1489471
28.95,2033210,1403542
27.63,776917,1429702
27.86,803888,1300847
28.28,874221,1343216
28.34,783136,1385358
29.85,1685047,1368557
30.01,1664720,1371393
28.96,769800,1316219
28.26,783211,1360985
27.59,803596,1102150
27.31,793069,1097665
27.89,830802,1016672
26.79,818496,693993
31.55,2761463,2702753
54.01,2011242,1450909
54.02,2019683,1475321
47.79,787715,1377145
33.80,2089756,939844
31.80,747705,1122000
55.37,2010443,1417345
32.18,737244,1039320
52.40,804161,656692
35.44,2247646,1103037
41.78,2029061,1805067
44.49,2036900,1397988
45.14,2035911,1412304
32.22,2181147,984045
50.15,812333,1380001
41.34,2079333,1368023
49.42,819780,1394023
40.48,781626,1334136
40.75,779784,1132050
39.84,778306,1121636
44.46,809462,657918
27.33,2838540,2530157
33.43,728467,1476186
30.62,2063428,993890
38.48,739511,1270670
41.15,813376,1045316
34.29,814529,665334
40.56,840568,666057
29.35,2705478,2455090
30.58,2068976,1059020
36.76,2140852,1491665
31.47,2375690,1140808
33.61,792053,1472392
26.12,2358146,2173775
36.60,2153915,1493241
33.34,823993,1394790
36.65,2044598,1466127
37.96,2159790,1418899
35.96,890638,651090
26.92,2381392,2165189
30.09,862068,1076424
27.27,2322010,1582606
30.18,2186739,1072051
34.76,1521302,1393074
26.11,2632469,2359805
26.91,2608809,1842966
27.42,2592169,1760284
37.01,2073232,1424990
34.05,1399073,1791858
33.06,837031,667771
27.71,2617443,2456063
30.11,2265099,1155082
27.22,769846,923984
29.83,2225569,1047411
28.71,850218,1033509
29.70,857249,1075265
35.78,2073596,1400528
36.04,852722,1303347
44.49,2051152,1573012
39.51,753394,1495698
36.12,739946,1502395
47.29,748201,1506782
30.24,2656210,1804656
44.45,2058460,1570335
45.58,2046361,1650993
31.83,2137224,980232
47.18,1313408,1610857
46.98,2015134,1420272
41.39,733289,1284348
39.53,775981,1162546
43.90,766583,1104705
28.34,2457956,2458722
39.16,2021550,1483464
26.32,2431133,2478173
27.29,2654176,2629734
39.07,2084592,1466153
39.50,1466792,1497897
38.85,788785,1584240
34.42,783470,1436264
29.54,2174340,1020313
31.61,776333,1367338
40.19,2083842,1411030
35.02,810848,1155975
42.59,1995925,1462496
43.98,2044901,1503324
44.75,1516698,1708731
43.14,789434,1498780
29.30,2662726,1854038
44.56,2044001,1502592
35.43,2144309,1088035
39.60,813913,1389693
37.01,776840,1367973
38.94,728590,1332028
46.80,1477538,1392220
44.43,897261,671258
43.87,1336267,1587600
38.22,795663,1480533
41.62,764955,1411172
38.95,741199,1239355
44.64,1312300,1341903
38.18,738261,1288420
30.84,2077202,1010796
36.84,1392427,1387614
27.02,750317,1026214
26.83,2345559,2179280
27.06,2313346,1591834
37.73,1400152,1347792
27.35,2355580,2227117
29.31,2566818,1797555
27.10,2365796,2159052
33.85,2035770,1638539
34.79,2142619,1838762
25.85,2350826,2235158
37.46,2064947,1406883
33.01,777837,1280725
37.32,2076782,1408953
27.10,777210,881203
37.57,2077124,1396920
35.99,1505411,1373294
34.47,825118,1303560
36.27,1518825,1351811
25.86,2544025,2731731
30.55,1650795,1737734
24.61,2312715,2585855
31.68,2023069,1423217
28.77,773876,1453447
31.98,2162110,1458445
29.18,761431,1250664
29.84,2501480,1754843
31.57,2213342,1049139
38.33,2078687,1468891
29.75,2088363,991141
33.82,749896,1373230
35.50,770127,1406029
34.03,767969,1378050
29.54,2091483,976656
34.70,731763,1304054
29.70,2088029,981353
33.79,770110,1383117
37.74,2018844,1370845
36.02,1436666,1329270
35.28,893392,664572
32.17,2218419,1148990
35.78,2171430,1621999
36.26,1566940,1604104
26.86,2366681,2191029
37.19,719223,1447863
26.56,2334055,1569313
29.49,2079158,966708
34.78,2002051,1369651
35.74,724888,1461940
33.26,733638,1477581
35.57,733953,1321344
33.36,806769,665473
27.05,2320378,1663161
28.16,750697,1014918
26.55,2338396,1637346
35.93,821133,1296925
26.52,2320662,1579801
33.88,2002431,1326026
34.27,758772,1059037
37.25,838515,1026287
36.44,860548,657512
27.17,2371831,2140868
27.54,2326421,1656842
30.05,2118904,1203158
32.06,1437275,1734324
28.63,2088591,977295
24.75,750587,882962
28.80,2073403,990494
26.58,745690,890055
35.44,2007477,1371078
34.76,2137754,1379032
35.32,2017876,1378792
34.45,1618348,1357105
34.04,803728,1285252
28.60,2832213,2627066
32.41,2267545,1075264
33.12,816375,1405409
27.17,2797370,2038881
30.23,2378792,1094207
29.68,2342658,1066841
35.48,820235,1419074
32.70,811871,1273233
34.88,876997,660076
27.68,2340556,1591396
26.38,2372232,2271621
29.43,2128941,969985
37.22,745321,1492690
35.19,2148708,1498246
35.63,2151040,1381440
33.51,752006,1306238
33.24,772585,1092439
37.78,887319,655599
26.91,2378166,2365630
26.74,2345715,2251401
31.99,2149528,1739614
32.96,1515616,1423924
31.36,767273,1380171
34.86,770287,1364824
28.73,2117812,999016
32.00,1464747,1812193
30.71,777151,1556804
32.33,804499,1405833
32.25,769242,1392389
31.79,766726,1383080
26.34,2761330,2071006
33.30,2172720,1462750
30.03,770051,1407559
32.75,804716,1412560
31.61,762959,1085282
31.66,812652,685216
34.38,890852,661436
27.66,2308872,1644597
34.77,2008663,1368435
26.76,2311019,1623081
35.35,816070,1257679
33.00,772935,1326540
33.46,791189,1114788
32.53,756185,1349095
34.75,2152946,1786444
36.51,2111429,1423242
34.63,1416461,1750381
30.15,2290936,1135576
30.02,2256483,1121946
28.51,2066325,1027580
35.63,2009509,1371802
34.74,744096,1262387
32.17,761774,1100724
35.57,907840,653402
30.43,2215340,1186358
34.13,758586,1415363
27.41,2626987,1753469
26.70,2638121,1815395
31.29,785924,1503558
31.21,776759,1465460
32.79,764840,1432707
32.64,1451630,1373825
33.03,1493866,1336745
33.17,799389,1005249
33.82,918018,656032
30.23,874558,1537280
28.75,2249209,1154518
31.34,1657156,1401430
31.32,812266,1328833
30.77,834505,1275154
29.54,847629,670228
28.61,773220,1523987
25.55,2543686,2572249
31.09,2135767,1449307
28.14,774832,1551599
29.17,810534,1352568
30.72,1476059,1398374
28.21,776029,1385036
30.94,2024510,1380976
28.93,820928,1368142
30.93,1629677,1353202
30.15,2325193,1152214
30.62,857749,1516454
30.99,822594,1450783
26.44,2659522,1946153
25.81,2667961,2487886
32.52,2020414,1527136
30.90,862613,1469519
31.95,2013060,1372440
32.34,764711,1304945
29.90,753678,1368403
30.31,807353,1327782
31.39,863413,1161941
30.76,855358,678700
32.15,832192,668825
33.64,719996,1399182
26.30,2289321,1623908
32.26,1415450,1529104
31.53,771372,1468141
31.58,764617,1440497
33.65,719850,1420345
31.89,773143,1440576
26.17,2281989,1584439
32.14,781354,1475823
31.32,785934,1513534
33.21,1465735,1369513
31.68,779225,1316942
33.08,742114,1249626
30.78,811901,665136
25.89,2330184,2195956
28.17,2116398,1089252
32.79,2018130,1428934
32.70,757619,1307512
25.01,2300065,1670646
32.94,758408,1310208
25.61,2296386,1647176
31.71,2158842,1661396
32.92,2020077,1365785
32.86,2019519,1367119
32.88,767369,1317771
30.72,745862,1302088
24.81,2308912,2337101
24.29,2300246,2448608
27.57,2078035,1106400
30.64,721053,1420788
30.40,721549,1417210
24.64,2278109,1665386
30.84,2149229,1676477
30.85,2032160,1458167
27.13,2101853,1093927
31.37,2130360,1497319
29.63,820563,1403503
30.16,785064,1410478
31.15,840944,1259959
30.14,835818,1095468
31.98,727929,1371483
25.76,2608151,2700590
24.91,2279697,1682709
31.02,2021590,1501656
28.36,2322552,1230218
29.06,2304737,1174775
30.75,2201320,1449305
32.04,2164360,1389560
29.63,845636,667925
26.50,2654455,2597561
25.81,2638961,2610677
30.94,1670613,1410438
29.39,728624,1374145
32.37,726749,1430559
24.44,2295114,2256300
27.93,2106255,1075321
32.34,2014331,1427312
30.82,806344,1493514
32.08,2137734,1457330
29.49,776188,1328126
30.21,805066,1271870
29.77,739913,1261954
31.40,844865,671120
32.61,896579,659082
27.82,2109758,1083314
28.39,2082388,1152409
31.52,2028676,1506496
30.67,1469035,1588303
26.99,2105929,1088007
31.17,728783,1283198
31.35,1447978,1393962
32.00,762537,1219781
29.82,752476,1251174
30.01,810814,1088022
29.78,815197,676091
25.69,2316423,2207014
25.03,2306966,2186050
28.17,2330362,1130121
32.64,2101394,1665815
31.27,1474663,1724224
30.86,799334,1390731
30.40,817259,1590141
33.28,2090167,1490815
30.65,819217,1281369
32.30,1658122,1374558
30.78,769818,1313390
24.38,2299032,2407141
30.87,2110735,1429100
24.92,2613025,2577138
29.83,767241,1357573
30.65,808046,1289547
29.40,824358,1269150
29.37,812493,690835
27.55,2100308,1153134
28.58,766522,1335925
31.71,798550,1262083
24.27,2287715,2309280
31.39,725754,1474511
31.63,850361,1267472
30.56,1613460,1910656
31.15,2021469,1416419
28.41,804271,1408209
30.15,1646107,1628849
30.82,1631966,1402669
29.87,793099,1065108
25.04,2298131,2206137
29.45,775436,1491664
32.14,791368,1372690
26.82,2557053,1814950
30.39,1480183,1503637
28.67,792349,1450973
31.45,2023525,1383666
31.67,962352,663968
28.30,2265161,1146986
29.24,1648079,1750926
28.01,774776,1507173
30.07,823112,1323750
28.68,777865,1500144
28.19,807264,1418964
27.05,772391,1490728
29.66,1699840,1413640
27.57,733639,1290380
28.66,783485,1334124
28.65,825432,1116917
29.66,788070,938255
28.66,2263534,1185443
29.93,2116579,1609543
24.76,2542833,2612071
23.61,2255132,1674479
29.04,722613,1377455
27.56,730733,1385917
30.35,2026395,1379601
30.12,767618,1248471
29.36,1478973,1353091
30.16,824586,675002
24.83,2249842,1740002
25.75,2110540,1131974
27.94,835134,1502891
27.27,763796,1371124
29.21,788951,1334071
29.23,2023179,1448176
29.61,2028502,1379200
29.62,2026712,1380507
28.52,742737,1215583
27.80,812519,1078197
29.11,890124,672270
23.70,2264221,2437803
24.21,2248749,1738655
28.68,733317,1265894
27.45,810309,1511786
27.73,772974,1403844
29.14,2025675,1456939
26.03,2096564,1096396
26.69,766718,1375252
28.76,748283,1242286
28.14,751312,1234119
26.54,754633,1292126
28.71,776205,894572
22.44,2291881,2056232
23.77,2858359,2659223
22.35,2229630,2057597
21.11,2168748,1347218
22.27,2170545,1401869
22.85,1935282,711280
23.03,1948215,834513
23.56,1926947,738899
26.09,704337,688972
26.11,670941,973456
26.49,755075,687576
20.73,2226342,2121337
20.79,2227265,2109720
21.66,2548515,2502862
20.58,2201507,2144221
22.05,2643054,2320972
21.05,2184001,2124330
19.77,2135977,1390309
20.50,2144847,1429940
21.64,1965351,760490
22.73,2156511,805163
22.63,2099070,803599
24.43,1915118,734414
23.86,1923415,834857
24.57,1287131,712090
24.51,1282972,709323
25.03,1533173,1281533
24.57,703825,703356
23.26,805708,1087113
22.47,699746,703682
24.73,704149,727413
24.23,2227459,2356420
23.96,2226478,2373385
25.56,2596155,2697225
24.00,2184396,2332184
23.81,2140549,1444008
24.45,2140562,1426314
26.01,1964012,748206
29.36,1921900,722911
28.73,1942549,831738
29.75,696054,743809
30.24,703213,664624
30.93,659413,795464
23.52,2206413,2224049
24.18,2132395,1506023
27.11,2121521,830756
25.60,1959611,761261
25.63,1964736,736600
26.48,2083523,796872
29.12,1919098,736903
29.08,1936350,1097868
29.37,1924507,742680
29.79,696410,744935
29.33,683430,1026024
29.76,711497,666055
29.82,717421,732295
30.29,658866,867822
20.48,2179831,2024530
22.00,2580137,2367652
22.20,2544216,1689262
20.89,2136454,1366786
22.45,2105610,763621
21.74,1966806,720111
22.33,1946494,736882
22.01,1945398,750559
22.31,1948517,749522
24.12,1927032,739826
24.43,1919045,766913
24.71,710740,694940
24.16,704048,708240
22.77,2144580,2259222
23.00,2145176,2198919
22.22,2131107,2241147
23.39,2098604,1408158
24.18,1987427,730613
24.99,1969485,758452
28.50,1945075,749633
28.63,1961724,1053522
28.33,2040674,733128
27.66,1950665,821408
29.53,693220,705530
28.98,705552,716427
28.90,660725,798458
28.82,705268,710999
29.01,705515,711847
30.16,740134,731502
28.45,2336363,1671816
34.70,1536361,780805
35.82,753814,655897
22.52,2146903,2493633
22.32,2130710,2471105
22.97,2099354,1523895
23.29,2096547,1481515
23.32,2096261,1485178
25.00,1980068,773317
25.29,1980898,882526
25.48,1967066,744284
27.86,2047556,886289
28.65,1342312,737456
29.33,1376874,1139638
28.69,659886,800904
28.17,671961,979725
28.97,753141,668212
29.14,732408,722461
28.99,740916,739117
21.07,2153078,2210244
20.84,2126240,2117710
19.95,2110504,1420965
23.38,2477594,1738353
23.01,1985980,761924
24.23,2138269,854758
22.78,1971954,742248
25.47,1944443,720135
25.34,1334541,1118029
25.63,705738,713453
25.71,704773,712603
25.52,660614,799496
26.59,712103,716413
26.65,735082,730640
21.56,2145168,2273711
21.56,2134474,2325253
21.49,2124981,2247604
23.54,2432192,2429178
21.56,2121937,2326996
25.90,2183359,818626
24.41,2115991,839923
25.58,2137077,844500
27.08,2059453,751673
26.85,2100849,1004792
26.95,2087262,989581
27.07,1945922,737272
27.13,2065826,763301
28.39,1552255,731997
27.93,1508320,1047398
28.11,1508843,732050
28.01,732597,708773
27.97,714146,716394
28.33,718297,719119
26.74,705794,657433
26.80,710818,699737
27.20,705450,697853
27.60,660233,894600
26.71,671905,1035371
28.69,761331,664389
22.82,2106601,2667229
24.95,2347818,2929874
22.10,2089153,2567146
22.99,2091106,2588938
25.13,2316658,2816557
25.32,2342556,1826802
29.77,2057957,981328
29.82,2044784,798635
29.79,2048735,802939
30.38,1530383,773411
30.29,722594,753845
30.03,707908,751467
29.71,699194,733043
30.65,762215,717565
31.03,703563,755101
23.71,2104368,2375447
23.88,2103811,2429428
25.77,2158214,1545260
32.51,2030072,744964
31.34,1963823,740359
30.41,1962114,846385
31.16,1346234,892054
32.66,701352,765053
33.88,701746,812536
22.99,2104066,2317708
29.55,1964889,824259
32.48,1524746,782026
31.85,1400126,761660
31.08,704072,700678
24.18,2085001,2522243
25.08,2078731,2456707
30.76,2132432,858879
33.62,2034496,745478
34.13,1388398,726587
33.26,702534,794553
34.63,665146,789197
34.59,744229,698743
29.10,2072807,929335
40.65,2006529,1594443
27.18,756158,1005399
36.66,754661,1383841
43.40,1988422,1452962
34.68,791367,1353928
36.21,775782,1168071
45.00,893349,653789
27.88,2054538,855178
38.49,2024674,1972644
25.38,2357410,2228584
27.27,2918338,2101366
40.61,1992973,1419099
33.84,765471,1359245
24.33,2328130,2279273
26.77,2051957,854207
36.11,763782,1365257
28.84,747498,1026039
41.89,815017,1406640
28.51,736002,934782
32.72,758821,1179122
35.54,776986,1348197
42.26,826272,1371306
35.25,848998,666497
28.51,2873211,2490285
29.72,2262309,1014719
37.27,2096982,1466509
35.77,1383993,1685317
37.38,777946,1465583
25.92,2039513,905717
34.13,769308,1354913
37.08,816203,1078629
28.57,2067780,895346
41.93,2122136,1513341
41.63,1993339,1486924
41.48,1598563,1516878
34.46,757727,1438589
41.65,1996255,1475790
25.36,2303126,2105933
41.38,2004155,1474947
42.83,1640720,1754343
33.66,728427,1459910
34.63,760555,1426137
34.58,765603,1433680
42.28,1592328,1445282
42.65,1374359,1370246
35.10,810565,666430
31.93,727421,1480699
27.18,2060452,895480
27.82,2062407,890777
33.47,792520,1455904
43.68,1621474,1404356
28.08,2752786,2465085
28.63,2730854,1819922
34.44,2011126,1456199
35.62,1998481,1492858
26.63,2752693,2715455
24.92,2246314,1465206
33.98,766502,1461498
34.76,853961,1528927
21.86,2555504,2440970
21.82,2520471,2217605
21.61,2526283,2474059
19.46,2071743,1355831
21.71,2491206,1601790
20.02,2068485,1338194
19.77,2073005,1338055
23.40,2028206,766316
23.83,1933120,735125
23.79,2039231,1015871
23.82,2028052,760645
24.11,1341937,752695
24.44,1354873,849042
23.36,1323231,1222094
24.47,758287,847806
24.18,678699,951710
23.65,711019,1119358
24.62,711818,723142
25.44,767652,711886
24.93,734971,739743
24.05,2090435,2158321
26.30,2380556,2402348
29.48,2131173,830105
31.85,2057293,733280
33.16,1933987,744748
33.80,1500890,688598
32.95,697758,695232
35.10,754907,915707
34.52,713262,696504
35.95,753062,743137
34.83,688610,904481
26.49,2366707,2586233
24.88,2044230,1401650
30.97,2142352,822110
33.32,2048452,724886
36.05,659603,796728
21.19,2074425,2299236
22.68,2423163,2556631
24.28,2164879,786562
24.18,1985054,739366
26.40,2223243,856896
26.59,2157771,834495
24.31,1958339,756595
28.26,2025445,779279
29.13,1569936,738708
29.20,725027,733961
27.08,697153,1011372
28.48,712703,723621
29.41,659671,794683
24.47,2400967,2747434
22.36,2082482,2402717
25.02,2382631,1660918
24.75,2373328,1697960
23.17,2129607,1506733
25.06,2367678,1732208
24.35,1978167,740352
24.28,1976907,871804
24.35,1966405,762632
27.97,1941199,749882
27.24,1936773,977028
28.02,1933217,789655
27.76,1930395,857600
28.04,1930908,744813
28.08,1941515,746027
27.03,1944458,1213627
28.57,1410412,1024182
28.68,742243,711867
28.54,717291,718011
28.74,711812,719260
28.43,706621,710101
28.41,706826,710826
28.10,671234,1018497
28.80,751995,744113
28.58,738424,709257
28.45,740374,716969
21.75,2092261,2121471
21.88,2091815,2138298
21.71,2070475,2015058
22.28,2061071,1378662
28.93,1366396,707364
28.44,1352528,724487
28.39,1382515,1096181
28.45,711914,721998
28.74,723332,721709
27.87,707150,716778
24.07,2415231,2459421
23.91,2413981,2419971
24.37,2412323,2595957
23.98,2390167,2430667
20.57,2065829,2123081
24.20,2385769,2356913
22.13,2052776,1378840
24.67,2393172,1738799
26.46,2175772,819689
26.30,2137137,817148
24.94,1976500,774121
26.52,2163470,904413
28.09,2055277,762147
27.90,1968718,907642
28.55,1944986,813341
27.90,1961329,822029
28.95,1349684,711995
29.08,1373524,941514
28.63,724570,706427
28.82,699890,703948
29.09,765859,1160187
29.28,713081,741828
29.08,665801,796154
29.64,763990,744561
29.56,736563,775887
22.47,2058498,2572409
22.47,2058502,2564558
25.37,2319766,2645488
22.60,2051731,2581819
22.58,2046088,2332821
22.96,2046368,2550454
23.49,2037174,1493613
23.90,2036771,1484994
26.16,1983790,773757
27.05,1969234,771535
26.88,1968015,770695
30.26,1941772,924293
30.37,1959893,763896
31.31,1393563,705244
31.91,1599515,771057
31.50,1564996,769464
31.84,742507,701961
32.16,745794,711726
26.69,1980210,759301
27.22,2113393,809918
29.99,1956624,839447
29.45,1960812,804542
32.19,1408392,894021
30.84,660736,799438
24.93,2058669,2362855
28.14,1975144,749657
30.10,1972797,766140
36.42,1945291,720646
37.35,700486,703274
24.86,2066119,2336964
25.24,2229022,2259770
24.91,2051861,2254194
28.47,1977261,753439
29.64,1972099,758644
37.14,678022,813762
26.34,2296107,2774928
24.03,2037127,2373117
24.16,2028590,1428996
28.28,1970452,761505
28.79,1973923,765003
34.71,1953218,752761
35.68,1386181,840376
35.47,678704,835198
37.03,660284,792622
24.58,2030665,1487801
28.77,2248957,1670924
31.24,2147825,1045642
33.37,2061989,890097
33.64,1952987,748333
33.03,1959920,1173564
34.56,707931,704765
34.15,759897,728535
35.33,758825,731745
33.12,671592,969619
23.41,2033269,2574919
23.30,2032985,2653550
23.94,2032486,2523502
24.98,2022547,1490435
27.04,1975509,775210
28.12,1974060,883229
31.24,1949057,1190414
33.32,1953250,786365
32.88,1958321,868682
34.16,1407061,727334
34.27,1396148,715290
34.07,1440878,853004
34.30,719547,713015
