perf, CACHE_MISS_L1, CACHE_MISS_L2
35.40,1380385,1281982
35.18,1340084,1233219
35.74,1336296,1240792
35.56,1344716,1241965
35.28,1333706,1238847
35.23,1340456,1229525
35.66,1344738,1243409
35.23,1339135,1244337
35.67,1343582,1240481
35.59,1344639,1242824
35.00,1343782,1239587
35.69,1337618,1253227
36.23,1373343,1267026
35.05,1336279,1244662
36.17,1382638,1277543
35.03,1423167,1309997
35.65,1406467,1294209
35.63,1415713,1315243
35.64,1413165,1295631
35.49,1417667,1295906
35.51,1408233,1313869
35.03,1411203,1310419
35.43,1409685,1320813
34.61,1424742,1313553
34.97,1419213,1309304
35.58,1413290,1308401
35.39,1428433,1318886
35.34,1428433,1308476
35.13,1418983,1301412
35.69,1412520,1302267
37.73,1495072,1018664
37.62,1511785,1050222
36.96,1495518,1043698
36.03,1422185,1022646
37.85,1496258,1028512
38.76,1488369,936605
37.32,1487781,1048919
36.94,1431560,974868
36.92,1426921,986302
37.03,1427325,989247
36.93,1420975,991996
36.68,1502767,1059158
37.14,1492937,1080573
37.12,1427622,969354
36.21,1430648,1018435
43.31,1544142,468972
43.59,1544439,495451
43.65,1537782,479766
44.39,1537057,460290
43.78,1544309,450456
43.64,1545651,470092
44.66,1536235,459935
43.50,1545186,462970
44.05,1537373,475876
43.66,1541453,467964
43.03,1542645,502689
44.23,1543286,484360
44.44,1540069,475213
43.99,1537337,481616
43.48,1545844,482405
41.55,1769339,497717
41.62,1768384,505115
41.77,1762226,499677
41.57,1770532,494099
42.36,1948029,648905
42.90,1962410,651773
42.24,1760715,494472
43.05,1961990,636036
43.01,1960009,636108
42.04,1762119,524867
41.55,1768825,535930
41.05,1768764,551914
41.76,1766790,496774
41.97,1946850,618267
41.40,1769719,539548
37.17,2202709,507792
36.40,2207747,500889
36.81,2202938,505874
37.01,2202714,509244
37.19,2204813,493492
37.13,2203045,524247
36.50,2490047,709889
36.46,2207948,534027
36.91,2200726,530434
36.62,2207355,576471
36.98,2201786,555186
36.58,2207659,577331
36.64,2206145,615828
37.12,2199598,615204
37.13,2202057,722215
26.63,3231300,676864
26.62,3750678,924216
26.56,3226950,621330
26.90,3255042,638778
26.90,3652764,890127
27.03,3230355,668583
27.04,3711812,992048
26.58,3249156,675070
26.98,3223715,689461
26.64,3254393,706035
26.96,3232695,724652
26.62,3236035,717499
26.62,3228696,782717
26.87,3229669,765363
26.50,3270137,856135
19.38,4587058,938021
18.96,5512731,1288139
19.11,4612278,960312
19.18,4599183,907223
19.37,4590209,897057
19.35,4591088,968522
19.38,4582144,935980
19.34,4595723,915229
19.14,4596075,995045
18.97,4591274,968261
19.08,4605756,941323
19.08,4613632,949925
19.05,5452859,1302997
19.41,4576975,922312
18.72,4730678,938255
16.50,6149994,1521487
16.31,6091315,1524737
16.32,6080390,1568362
16.25,6170031,1641666
16.35,6080427,1672819
16.32,6073804,1632437
16.42,6127616,1571547
16.12,6092881,1606427
16.29,6091882,1616130
16.40,6080731,1424177
16.30,6072868,1588431
16.43,6183911,1647711
16.30,6090017,1569796
16.41,6062022,1555016
16.47,6135031,1490835
9.79,12277856,3273986
9.79,12284958,3072136
9.78,12293666,3050642
9.82,12265340,3061414
9.70,12318005,3314281
9.78,12296503,3163106
9.80,12278392,3033862
9.90,12282584,2884634
9.80,12316909,2891246
9.81,12289607,2866846
9.78,12283740,3110917
9.75,12300821,2977622
9.88,12209920,2939694
9.68,12325056,3071389
9.80,12285805,2984594
35.24,1549406,1300667
34.86,1518938,1326410
34.92,1520643,1332396
34.51,1554222,1382021
43.55,1619174,583104
43.68,1772340,528251
38.24,2483770,779299
29.97,3723298,1294507
20.58,5752741,2365370
14.63,9766128,4310807
35.14,1559210,1300342
34.13,1516001,1324715
35.12,1665961,1423893
44.28,1863726,692972
43.81,1819483,492424
38.25,2444770,736903
30.92,3747150,1187840
20.90,5773309,2250513
14.65,9771254,4331132
33.93,1573780,1318251
34.81,1665091,1398468
43.67,1674542,593346
43.39,1771466,543661
37.30,3115780,1144554
29.58,3718919,1363512
20.92,5771501,2303840
14.84,9795999,4369044
34.83,1551767,1355061
43.80,1874257,679466
43.28,1818903,525410
38.30,3113792,1181252
29.10,4935056,1825085
20.81,5754418,2405894
14.54,9717456,4467718
43.11,1672816,614150
43.55,1769582,499092
38.07,2476975,770930
29.50,4925521,1714977
20.98,5783380,2256201
14.61,9759501,4147694
43.65,1771731,527622
37.88,3137008,1054020
29.28,3703273,1625078
21.00,5781822,2222984
14.64,9774923,4300852
38.29,2449025,737102
30.87,3739971,1249817
21.19,5747540,2184199
14.69,9712305,4370809
29.16,5055285,1955179
21.28,5771942,2220020
14.86,9757979,4363772
21.31,5735799,2247142
14.57,9731289,4417552
14.89,9645125,4238103
32.84,1383673,1173618
34.76,1339707,1201143
33.42,1387177,1200144
33.01,1292393,1171569
33.03,1398875,1172358
32.87,1392057,1178479
33.86,1324016,1195444
33.02,1391729,1176968
32.86,1292953,1174547
34.19,1411327,1192059
33.08,1338695,1177650
33.18,1291415,1174071
33.23,1399447,1182443
33.41,1403130,1188338
33.09,1390963,1179629
32.84,1303341,1183809
33.48,1447575,1215221
32.99,1303232,1184779
32.79,1409260,1182285
33.12,1365358,1215760
33.09,1301886,1185877
33.05,1307682,1184578
33.51,1362130,1215107
33.34,1410760,1212270
32.57,1300894,1192168
33.63,1427762,1216199
33.04,1302075,1184940
33.30,1453839,1212800
33.52,1341666,1208378
33.25,1462250,1217802
32.76,1499171,1247441
32.76,1371594,1236943
33.00,1413790,1239520
32.42,1320815,1204922
32.98,1477825,1244847
32.86,1476472,1237214
32.87,1487209,1245636
33.01,1372925,1240483
32.99,1372478,1240409
33.07,1374051,1237895
32.69,1413803,1210591
32.52,1321589,1211119
32.18,1368671,1204258
32.49,1420623,1209594
32.60,1319751,1207523
32.25,1465957,1304327
32.00,1463808,1239503
32.07,1446495,1283766
32.09,1554083,1303750
32.29,1450035,1302571
31.93,1530326,1257897
32.03,1528522,1305165
32.17,1428906,1283134
32.05,1390254,1232591
31.91,1357780,1240233
31.58,1405668,1233179
31.82,1424088,1237711
31.85,1359145,1242371
31.96,1369704,1248662
31.75,1424807,1239484
38.45,1498968,539249
39.51,1514287,482106
40.65,1512209,437033
38.49,1434193,542109
40.20,1434778,457641
39.27,1515268,502139
38.46,1434171,533758
39.60,1514978,475529
38.09,1433978,554354
39.91,1547295,498797
39.73,1514003,472426
39.97,1433197,479856
39.38,1514107,500673
39.13,1463046,494582
38.29,1444883,534008
39.71,1590007,418138
39.58,1797166,510210
39.61,1587028,408943
39.99,1626782,386098
39.45,1660185,398135
39.56,1665151,394483
39.48,1590433,408128
39.59,1663042,403555
39.94,1658141,390634
39.76,1585572,406945
39.55,1797227,574451
39.22,1836436,522630
39.57,1813902,541490
39.69,1872317,501844
39.77,1870299,506923
34.41,2468353,729109
34.45,2075061,536624
34.61,2073048,529041
34.20,2131691,564808
34.59,2077410,519593
34.07,2135918,542216
34.19,2444768,652381
34.40,2073858,539009
34.58,2124969,537213
34.39,2121670,559041
34.30,2076832,566176
34.42,2070171,616514
34.13,2132899,579337
34.63,2384640,674175
34.32,2076926,629746
28.08,3073162,784387
28.07,3651460,1035895
28.19,3051050,803899
28.10,3074904,808834
28.22,3035511,794970
27.88,3025811,890389
28.41,3025200,782556
28.23,3033459,772866
28.09,3072274,817940
28.25,3077857,826071
28.14,3064540,859826
28.28,3032017,802459
28.06,3619388,1078626
27.83,3728548,1146235
27.85,3808680,1227022
20.35,4635544,1249730
20.43,4594664,1343903
20.36,4633156,1240460
20.12,4648541,1342260
19.91,4634187,1323622
20.11,4590776,1295303
19.89,4648591,1304375
19.93,4616137,1312087
20.15,4642408,1337531
19.98,4599166,1301612
20.36,4642576,1281323
19.94,4635329,1340993
20.11,4616034,1285541
19.96,4616718,1351274
19.79,4664707,1369666
18.49,5249980,2490672
19.48,5253205,2238528
19.65,5264983,2169527
19.23,5252007,2358091
19.84,5313542,2138247
19.51,5306195,2167511
19.14,5283959,2304176
19.36,5273541,2226875
20.03,5285637,2127288
19.35,5281324,2246080
19.16,5273880,2318624
19.55,5257264,2218900
19.10,5276334,2359811
19.55,5257077,2276626
19.87,5308490,2096509
33.08,5744607,1353003
31.64,5940923,1367414
31.26,5936617,1402250
30.86,5972022,1412266
33.87,5513223,1787955
33.84,5622597,678795
30.21,5982567,804232
24.43,6717731,1475244
18.07,6527359,2441739
12.61,10203614,5299755
31.57,5922494,1380896
31.00,5967878,1404429
30.59,6219269,1568514
33.86,5752951,1924311
33.31,5655068,726885
30.15,5980266,823874
24.24,7463332,1695929
17.96,6582768,2546428
12.82,10188587,5308709
31.11,5946889,1405594
30.53,6021297,1418552
34.19,5703386,1896371
33.71,5615923,659652
30.46,5934127,822209
24.36,7392033,1707624
17.91,6578671,2580491
12.70,10200993,5185984
30.76,6014488,1398495
33.54,5545467,1693370
33.67,5629956,672752
29.80,6382904,1027974
24.44,6697857,1468423
17.73,6759062,2692648
12.88,10194872,5084933
34.01,5453738,1968972
33.44,5659053,640063
30.52,5943716,796531
24.70,6728287,1504179
17.88,6517001,2622924
12.68,10197916,5199339
33.80,5605107,605562
30.25,5986082,794213
24.58,6757094,1409693
18.06,6530597,2540792
12.64,10192738,5241014
30.19,5922095,835482
24.57,6685930,1418965
17.85,6372960,2746530
12.74,10157496,5041934
24.59,6735102,1380347
18.00,6813831,2665127
12.92,10130053,4930422
17.80,6411020,2811971
12.97,10090380,4885912
13.14,10027464,5190727
32.91,4779335,1328907
32.60,4619365,1399472
32.89,4611071,1373143
32.54,4622306,1416213
32.55,4609615,1392052
32.32,4617954,1390759
32.86,4610642,1405675
32.32,4623180,1378938
32.94,4787375,1335489
32.76,4611414,1422987
32.64,4619170,1396354
32.61,4614380,1416977
32.90,4608605,1400968
33.12,4757377,1317342
32.69,4617261,1416191
32.57,4615763,1412600
32.66,4618902,1426945
32.32,4782119,1387807
32.33,4776018,1389353
32.59,4773143,1399226
32.61,4775522,1372561
32.67,4763573,1392703
32.11,4628902,1422092
32.39,4623253,1428371
32.94,4619452,1428506
32.87,4622192,1400816
33.08,4626385,1423761
33.12,4619407,1422592
32.86,4634495,1423150
33.27,4619434,1401361
32.75,4642536,1421262
32.55,4652510,1418740
32.77,4807798,1550812
32.78,4782876,1558658
32.70,4798259,1554093
32.43,4795048,1545649
32.51,4780289,1521508
32.74,4792475,1550809
32.43,4785902,1546724
32.70,4790395,1532461
32.25,4791333,1569490
32.70,4802757,1544035
32.70,4791793,1532539
32.70,4643907,1390572
32.63,4652105,1383781
31.84,4686036,1373744
31.78,4686787,1370305
31.67,4681172,1365435
31.85,4682770,1376194
31.86,4682897,1367266
31.84,4687150,1373246
32.10,4674042,1369180
31.72,4679025,1369716
31.16,4837744,1683554
31.87,4684427,1377365
31.53,4682415,1415875
32.16,4675667,1373656
31.62,4678744,1370977
31.87,4688027,1376178
31.92,4680089,1358733
35.17,4748556,1575680
34.91,4742427,1436345
34.72,4739523,1535961
35.80,4824084,1613069
34.22,4895368,1633868
35.42,4847705,1651945
35.54,4885829,1596255
35.28,4848195,1626248
35.67,4836891,1623688
35.72,4839803,1580883
34.48,4734063,1463661
35.21,4867674,1601737
34.81,4859680,1641693
34.77,4747146,1482742
35.39,4826242,1615653
35.18,4886733,706126
35.36,4996447,1398733
34.92,5005017,1571948
35.02,5010180,1470509
34.95,5004853,1413891
35.34,4997968,1406783
34.76,5006223,1438757
34.64,5024497,1452338
35.16,5010134,1533031
34.86,5008747,1432499
34.65,5032353,1531848
34.48,5033517,1584970
34.90,5001528,1385893
34.89,4899149,712684
34.71,4882318,815166
30.83,5140771,529111
31.32,5128674,547981
31.49,5118698,539734
30.93,5122451,559811
31.36,5122211,530355
30.88,5140746,581480
31.04,5142664,548483
31.76,5125211,543999
31.55,5362931,909936
31.29,5334012,768493
31.35,5348754,853143
31.26,5386960,948398
31.12,5355476,796081
30.83,5365346,811397
31.11,5402092,1030784
25.22,5999789,944280
25.22,6035470,964492
24.57,6057185,969234
24.92,5637046,861030
25.37,6023917,948992
24.95,5627259,877508
24.86,6041359,1015075
25.13,5991495,976842
25.37,6122557,1110754
24.91,6030356,952913
24.94,6058886,1002727
24.84,6040700,1032559
24.90,6019442,976029
25.10,6015469,967126
25.59,6086806,1106860
18.32,6213308,1498352
18.97,6336638,1472699
18.17,6260226,1459361
18.11,6278781,1476385
18.23,6268275,1496025
18.75,6239840,1377911
18.33,6253699,1504183
18.38,6223696,1426927
18.82,6382249,1485693
18.33,6290151,1515447
18.46,6274849,1442408
18.82,6225222,1410919
18.55,6350372,1534806
18.41,6236475,1385741
18.13,6300240,1428767
19.03,5982292,2657478
18.57,5983949,2781143
18.73,5944814,2593595
18.85,5920445,2671791
18.75,5918511,2616971
18.82,5932632,2685299
18.47,5915119,2776185
18.65,5888807,2724227
18.17,5961149,2850184
18.77,5917814,2672266
18.59,5947599,2727693
18.79,5987209,2761196
18.84,5948307,2572328
18.90,5951130,2523823
18.86,5903048,2591050
27.44,2745501,2628455
27.86,2264309,2139615
27.40,2263108,2163430
27.96,2776027,2711032
28.06,2744028,2671546
28.13,2746999,2624419
28.09,2746580,2633365
28.03,2799615,2739686
28.07,2742156,2670018
28.18,2742640,2635289
27.76,2262952,2170801
27.70,2262927,2197336
27.72,2263742,2176798
27.46,2262958,2198500
28.05,2746660,2672854
28.04,2769691,2626786
27.55,2962879,2833601
28.00,2769100,2647627
28.02,2770051,2671841
27.90,2760084,2680187
28.03,2766041,2637391
28.06,2760495,2640495
27.96,2786445,2695317
27.95,2762637,2690675
28.00,2765663,2653097
27.97,2766408,2662802
27.51,2951057,2878641
28.05,2773638,2666282
28.00,2760695,2693968
28.01,2777381,2699371
27.94,2816784,2514724
27.43,2996665,2769394
27.89,2803845,2510402
27.94,2799594,2526426
27.14,2987350,2827028
27.63,2292027,2171545
27.98,2798076,2514975
27.40,2990900,2797799
27.86,2801480,2557552
27.97,2796752,2526409
27.96,2795426,2529995
27.87,2795024,2568299
27.93,2801366,2538744
27.82,2795438,2556193
27.98,2801052,2576684
26.83,2887894,2373557
26.56,3084178,2633026
26.91,2886507,2397716
26.59,3075002,2619989
26.75,2887707,2473026
26.85,2910041,2419785
26.88,2879417,2411975
26.76,2890687,2436675
26.52,3074139,2700071
26.63,3073882,2601145
26.92,2886184,2428206
26.78,2327996,2248848
26.78,2326804,2226841
26.75,2326979,2265923
26.73,2893209,2489488
36.44,3016952,912216
35.46,3185947,1128835
37.15,2999594,890787
37.04,3005239,927170
36.92,2984486,886162
36.63,3045133,949832
36.79,3034365,935129
36.60,3024026,970751
36.91,2991953,927312
35.59,3191110,1124857
36.82,2405059,712480
37.19,2990542,884372
36.73,3012942,1002440
36.85,3003513,936646
36.98,2984907,945878
37.19,2566348,624873
37.28,2561234,675613
36.93,3138787,893327
36.79,3133082,930859
36.13,3375415,1005045
36.46,3393031,1057495
36.65,3158942,982390
36.43,2563250,751306
36.31,2562393,686774
36.67,2562472,842954
36.59,2563392,829078
36.37,2563256,774398
36.35,2563892,917720
36.29,2561966,834005
36.06,2562763,883594
34.22,3047405,774175
34.42,3045989,709945
34.04,3044500,854677
33.93,3044025,889064
33.61,3048626,833924
34.09,3047042,929527
33.89,3046624,942173
33.71,3047331,940592
33.51,3047179,945445
33.84,3046133,981701
33.61,3048296,1035205
33.61,3393353,1220047
33.42,3493688,1457558
33.37,3631092,1371459
33.05,3047691,1377116
33.49,3896462,744176
33.49,3862986,757585
33.37,3869085,823532
33.28,3840964,867065
32.99,3858927,985191
33.43,3859866,808147
33.13,3870577,897760
33.09,3846797,976709
32.81,3874618,1059276
33.02,3329663,931951
33.10,3310761,861422
32.49,3289557,1007695
32.89,3323301,1080935
33.01,3317439,1085207
32.68,3310815,1002597
30.36,3303741,664852
29.99,3313159,781511
29.02,3311969,908404
28.57,3343205,1315899
28.82,3368049,1258565
29.28,3352140,1220850
29.51,3341108,821930
29.39,3338788,965708
28.68,3390197,1293428
30.11,3355525,840649
29.52,3351785,1061596
28.82,3359873,1261853
29.37,3305306,961577
28.29,3320647,1286473
28.67,3406498,1452442
25.19,5466964,1315504
24.67,5468074,1398467
24.59,5464722,1449020
24.14,5468007,1685207
24.26,5480288,2351330
25.18,5495598,1297979
24.82,5494459,1432107
24.53,5500785,1674651
23.68,5489278,2256751
24.42,5464890,1578112
24.19,5465071,1650999
23.30,5469192,2313960
23.93,5461357,2356094
23.57,5468677,2252413
23.46,5465660,2156299
