perf, CACHE_MISS_L1, CACHE_MISS_L2
40.12,15972098,13908563
39.48,16009496,13907924
40.21,15962934,13692911
39.50,16007313,13920232
38.96,16378060,14089389
39.58,16314938,13964048
38.40,17043708,14679972
38.19,17061131,14443064
38.21,17053484,14426084
47.89,18451895,6720361
48.02,18411606,6790767
47.77,18462000,6803653
47.67,18440375,6837239
47.67,18440794,6883571
44.10,21153969,7230039
44.19,21152391,7058935
36.19,26810147,9796669
35.80,26758841,9832304
24.75,35043654,19145056
24.70,34673126,19052939
24.60,34966713,19118053
24.58,34833384,19297784
13.29,67317906,37226036
12.28,68763905,37009728
13.13,68906049,36673524
12.62,68387242,36802823
7.53,135932773,72721559
7.75,135796154,74136479
7.55,135643056,74907087
3.31,276065410,155189928
3.27,276378274,155640757
3.21,275534367,159601322
3.26,276170158,152326020
3.43,274664364,148877001
41.39,15624057,10182908
41.78,15619953,10195960
41.53,15567271,10271249
41.43,15345341,10571131
39.16,15332209,10563583
41.48,15033411,10943336
41.30,15405806,10595377
41.01,15085105,10970485
41.59,15554866,10401854
41.14,15084591,10968260
40.83,15782191,10273794
41.40,16598017,10326805
41.07,15734393,10349324
40.99,16865198,10399946
40.76,15223215,11027904
40.12,15969549,10471324
40.20,15908894,10574164
40.12,15804794,10798619
36.05,16988747,10738365
36.08,17009532,10692884
36.03,17001415,10755834
35.92,22829504,11101334
31.81,25215999,9695338
30.66,33096403,15087846
31.33,34593001,10618057
31.00,33235925,11653614
25.74,38174112,11647735
16.27,65907039,32750611
14.48,82857802,24210105
20.19,71285873,41909820
19.97,70632753,20921472
32.12,20887904,18432312
32.17,20886520,18566094
31.72,21389523,19395918
44.46,23780882,4753672
41.17,21824570,3752235
41.16,21597038,4356681
41.64,21405360,4171099
41.37,26699994,5310741
35.16,26528578,7144303
35.13,31253096,7879929
35.19,31412308,8163050
34.70,25858857,6613689
26.84,33563867,12235263
26.74,34124541,13224485
26.54,33934555,13272289
17.09,45792007,22114953
17.04,45911490,22032847
17.29,43951883,23589608
5.51,213867319,79868494
5.37,214540247,89039201
5.30,212593033,91380919
32.20,16678318,15233639
32.17,16651696,15389199
32.21,16587865,15571228
32.16,16646833,15386988
32.07,16579061,15570269
32.11,16874288,15464479
31.78,16715714,15454695
31.66,20250261,18110804
31.53,16773733,15348117
31.52,16781669,15532555
30.64,16998500,15739719
30.73,20643733,18474145
30.66,16998960,15740086
30.53,16847630,15819286
29.04,17184312,16091680
28.92,17390901,16057355
29.06,17187663,16095180
26.53,19313377,16558983
27.23,24882908,16094754
27.49,24383008,15326347
22.19,33098481,15749585
29.70,18720900,16201645
29.68,18371364,16048801
29.73,18369301,15963919
29.21,18911850,16126841
29.11,18983165,16128551
29.19,18917718,16806106
29.28,24848181,21833716
38.79,19857705,4218618
39.32,19782358,3704584
37.12,29531914,5404068
37.21,29419102,6126429
37.08,21983782,4111068
31.67,26497800,6399981
31.60,26776229,6570278
31.22,36421420,8858426
31.59,26786419,6428910
26.76,24361436,10794847
26.60,31582081,12243926
26.66,24752249,11692042
26.69,24709008,11890150
17.33,52984855,22358724
16.99,45126777,23335515
9.55,95911069,44158731
9.85,96884477,42293158
9.86,96546383,43092539
9.51,96736149,41307283
9.57,93858975,48970562
9.77,96137181,40422330
4.83,214557406,92444849
30.20,16818741,15207229
30.08,16670295,15557361
30.14,16852361,15215894
30.03,16699482,15587249
30.30,16828936,15305748
29.92,16889970,15270730
29.99,16753704,15632557
29.99,16868173,15352975
29.99,16850689,15458807
29.73,16942604,15361883
29.59,16931521,15530297
29.69,16802368,15696342
28.97,23785653,20964395
28.90,23752574,20932486
27.46,25077658,20922600
27.43,17441088,15828750
27.53,17436494,15818345
26.19,19744686,14119371
26.83,26093631,14453284
25.30,19856963,16280362
26.12,29904977,19011082
25.38,19586670,16232539
25.97,30426795,19526281
25.93,29210753,14320698
26.33,24118288,12582344
21.36,33784948,34478233
20.81,33486296,18893738
20.07,33225692,21658522
15.46,47955635,41589307
15.22,48261048,20671851
14.65,48108770,20722286
41.90,23005318,20675188
41.98,23009910,20377959
42.05,23001081,20674069
41.79,23097763,20433562
41.67,23102029,20475523
39.36,23874919,21356940
41.83,23898810,20593969
42.11,23800759,21625756
42.04,23835647,21461641
41.35,23248722,21105611
42.18,23813307,21561223
41.16,23239002,21103959
39.28,23562288,21433752
41.27,24672260,21345518
41.54,24672802,21599674
41.21,24658196,21750501
40.34,24149764,21379320
40.62,24210775,21435590
40.79,24237492,21016348
40.64,24152408,21265517
57.63,29545836,4218733
57.06,25186123,3863602
51.40,30381291,4498430
50.08,30094628,4157403
50.06,30330046,4391296
39.03,46116158,10531019
10.93,102108954,28303471
10.88,101942464,25735097
10.74,102033252,39680106
11.01,102207156,25173373
10.71,101585199,38195526
10.63,101938373,38486902
42.73,21761411,20389517
42.62,21581140,20570915
42.23,21865313,20435289
42.85,22039047,20521859
42.27,21679987,21211273
42.46,22483460,20499039
42.41,22198697,20934067
42.50,22489126,20416027
41.46,21477895,21084920
41.78,21970452,20498333
42.07,23049998,20736137
42.21,23157534,21006054
42.21,22894497,21268878
41.74,22200981,20769778
41.49,24240740,21504834
44.34,24218713,9547710
43.00,27413430,11929556
44.08,28009509,10378222
42.86,27780134,13747427
40.96,27898292,9804154
40.04,34371083,13698402
38.40,34926225,18345204
42.64,34307934,15605642
41.36,34165393,12697582
37.61,36503058,23328797
35.84,35226546,14474866
35.71,35759526,13876169
42.20,24137213,23176711
42.89,23508418,22509636
40.87,24113171,24124814
36.19,29427181,15808423
35.83,29062418,16399535
37.32,17832564,16772569
37.62,17856161,16713224
37.01,17826994,16491280
36.97,17934447,16381864
37.65,18194976,16601790
37.57,18189210,17009794
37.63,18182818,16762832
37.15,18216848,16596852
35.44,18724484,16716673
37.13,18674658,16823397
37.07,18711152,17187539
36.23,18139430,16828324
36.52,19651100,17141447
36.57,19596092,17383641
36.60,19657725,17173438
35.39,21451490,18158086
35.35,21300815,18315166
48.25,24801345,4648866
48.55,21074834,3821592
47.92,24580062,5200375
40.15,33385531,8743248
39.60,33174931,10065240
30.44,48337449,18875567
19.94,48327873,25657731
19.39,49532704,25171502
19.66,49406903,24901564
9.66,102207534,48512306
37.97,17061822,15364236
37.73,17034130,15574040
37.49,17012853,15564148
37.84,17251223,15412987
37.63,17151202,15623113
37.14,16823936,15933359
37.63,17267082,15414862
37.12,17126371,16109174
37.41,17275508,16212540
37.44,17258779,16209558
37.42,18039642,15482230
37.32,17910702,15933780
37.28,17923730,15918700
37.04,18923083,15687640
36.70,18632343,17007134
36.72,18681282,17022402
36.78,17430894,15636927
36.01,18030651,16168126
36.21,20013390,16103112
35.49,20058180,17913560
36.26,20085098,16087123
35.88,20044202,16918075
37.56,24998064,8987507
36.82,24653793,10273293
36.00,20957852,8879304
34.49,26719594,9959711
31.79,36178292,18729921
23.15,48343162,24813496
25.31,40236333,20743075
21.95,43355392,18645875
34.71,13690698,11773907
34.78,13721112,11920548
34.82,13697029,11750157
34.80,13696430,11921362
34.51,14051872,11936187
34.49,14068692,11939997
34.67,14058550,11980368
34.12,13701817,11869960
32.80,13635082,11946581
33.97,14082000,12034665
33.76,13916896,11871045
33.68,13893098,11917262
33.65,13999182,12104211
33.76,13888988,11959360
33.13,14407032,12169780
33.19,14401195,12144319
33.22,14397888,12178716
32.38,17209458,13790042
32.26,17229963,14113933
32.33,17334468,13717836
32.26,17170168,13956439
32.22,17212654,14042219
38.74,20356526,5958700
38.97,17399430,4194303
31.11,23863562,7610570
31.71,29994655,10556882
31.35,24070407,7431536
31.15,29310615,11288886
31.52,29873231,10922299
30.86,29293414,11181980
31.02,29538988,11829713
23.98,45490131,18670150
24.00,45808716,21998375
16.15,51865089,28337863
16.32,53204453,27182418
16.49,54649312,27635587
8.81,105299462,54924029
8.96,105163794,57532203
9.38,103309650,54717703
8.96,105174215,54435969
34.52,13149602,10141483
34.69,13169100,10172778
34.84,13119274,10216334
34.70,13066259,10867199
34.63,13193685,10148105
34.28,13195063,10188808
34.54,13173078,10190508
33.38,13492372,11019284
34.44,13904881,10459314
33.99,13326073,10939432
34.34,13312207,10277260
34.14,13309467,10569034
34.24,13322251,10564643
33.89,13576791,10264535
33.85,13559843,10300408
33.79,13584679,10350331
33.57,13665369,11016636
33.05,14062995,10443596
31.32,15134835,10779193
31.34,15151207,10895420
31.38,15131478,10693129
31.49,17975895,10904034
31.44,17987992,11346659
30.93,18515304,12956507
30.92,18532500,12938960
29.11,25691331,10637448
29.13,20030010,7381019
30.07,23997134,6976868
29.79,19162251,5964856
29.13,20029472,7445523
25.77,27241009,9295718
25.81,27264240,6681326
25.49,27212794,7256494
17.45,46409321,15499093
19.92,42530612,22643531
10.29,64962554,39804707
10.11,63221220,47030427
10.06,63136247,46822965
10.24,64169343,17585321
40.20,17787764,16017847
41.29,17821152,16271669
41.13,17832884,16110483
41.20,17828352,16546323
41.27,17900821,16049859
41.07,17997488,16023807
40.39,18010135,16723360
41.36,18571214,17011277
41.37,18560711,16721129
41.05,17998694,16502311
41.27,18610849,16358079
40.85,19499870,17203593
40.67,18381139,16457958
40.80,19530403,17136090
40.14,21411579,17207067
40.20,21001128,16787269
38.49,19174443,17177049
53.10,24553083,4527977
46.29,33050635,7108621
47.02,26369741,5743013
44.14,32961522,8911998
35.20,48717360,12210594
35.67,36070840,10083693
35.00,48758763,13094579
23.63,47558420,23296473
10.39,97874684,38737859
10.46,97849947,39641138
10.75,97757844,40662118
42.25,17443877,15269642
41.80,16295740,15983704
42.68,17478613,15424283
42.30,17207408,15683517
41.92,17202412,15684307
41.67,17397629,15769102
42.09,18301122,15469914
41.55,17007163,16592565
41.13,18380267,15388168
42.18,18509322,15483850
41.83,19449200,15671117
41.26,17439491,16879802
41.52,18720584,16349276
41.74,19294077,15920989
40.13,20826571,16489712
40.46,20906735,16117778
40.18,21032152,16515334
40.13,21358878,16137065
40.63,18595195,17829004
39.94,26852006,10922695
38.95,38485124,12130151
41.47,26628031,11163829
37.42,30042722,17505256
32.66,38875465,21781994
30.83,31136542,15855584
31.27,45179453,19247497
22.73,43375399,26128961
39.56,17781745,16703110
39.97,17803498,16482667
39.84,17804341,16529678
39.55,18121558,16596310
39.39,18125083,16724935
40.02,18152402,16613889
39.55,18642534,17111433
39.21,18583455,17017476
39.56,18649068,17103068
39.05,18401997,16856084
38.23,19132368,16841489
38.19,19173348,17035285
37.97,19117045,17300489
37.93,19159657,17460804
52.45,24253952,5949969
45.13,32886346,7917265
46.04,26035639,6581546
46.39,26014947,6652371
45.58,25675450,6697667
35.67,37900289,12225751
34.52,35990664,12378339
34.32,35614598,13028129
33.83,48290093,19336827
34.74,35487161,12191929
22.84,48112538,25309321
22.68,47082854,25254995
10.88,97825636,52587291
11.13,97081888,49995150
10.84,97362155,47112838
11.05,97470770,50268143
40.09,17308529,15244150
39.97,17028760,15584023
39.90,17628498,15305386
40.21,16643345,16122505
40.02,17451835,15770777
40.27,17409778,15732699
39.95,17454905,15773272
40.07,16837905,16283245
39.56,16602352,16101420
38.59,17485700,15318059
39.61,19491163,15522728
39.70,18672246,16310835
39.56,18669719,16329640
39.13,20646813,15849659
38.91,17538319,16082020
42.69,20604983,7426232
42.63,20336257,7938306
41.88,19431205,9069411
35.81,26251679,11415799
38.00,27523348,10929692
39.97,23658937,9619999
38.81,25404053,8713459
33.39,35194057,11372323
30.87,36200420,12564658
28.80,31842814,16296728
31.36,42651178,16417214
31.07,38844653,17320696
31.43,42281992,34940752
35.40,12995429,11787372
34.61,12819555,11833026
34.01,13298813,12060502
34.77,12957598,12048364
34.40,12962755,11828924
34.22,13242789,11883468
34.57,13802030,12188985
34.34,13233136,11897827
34.38,13246765,12012390
34.69,13818548,12285083
33.88,13740151,12122913
34.17,14726288,13011127
33.83,13750171,12160874
32.70,14796283,12554788
32.89,16760911,13831609
33.10,16661803,13761099
32.69,14789587,12634111
32.46,14813325,12703373
42.51,16870585,4198106
42.45,16822156,4210135
42.38,19818810,5938869
42.13,16834624,4252407
35.68,23142693,7265836
34.73,22917198,7816999
25.21,35034815,14510865
25.01,35145138,14532734
16.35,53635143,27992589
16.54,54627551,27742926
16.07,52738289,28984139
8.94,104130793,56474412
8.88,104347235,55196953
8.87,104431802,54245916
8.79,104283509,54320421
35.45,12722545,10237858
34.93,12507722,10314029
34.92,12426840,10529763
34.93,12298128,10883316
35.19,12543264,10978105
35.54,12684688,10580146
34.89,12716189,10276358
34.61,12676265,10376817
34.90,12608529,10575822
34.88,12614070,10575963
34.79,13424958,11385088
34.40,12784358,11023230
34.06,13334529,10618032
32.59,14166799,10792327
32.65,14174194,10727447
32.66,16221366,11251948
32.59,14060168,11059509
32.21,16669916,12775437
32.80,17960582,5940613
32.45,18390149,7543159
25.20,31507868,12580438
28.23,26067618,6950990
26.15,35492573,14152481
19.59,42061575,18032695
18.93,42538045,24453905
18.91,41734321,17069156
19.66,41793824,12388771
19.98,41489072,10994961
11.41,67093705,25787934
11.03,61832194,33240549
34.93,12695768,11927629
34.86,12701509,12002088
34.88,12706084,12026062
34.77,12704847,11775296
34.45,12836522,11825031
34.35,12837360,12073618
34.65,12830263,11814426
34.70,12824433,11878274
34.80,12827930,12095769
34.81,13673125,12271346
34.37,13098766,11954551
34.72,13730442,12329279
34.18,13091307,11959836
34.09,13988807,12539678
32.83,14653785,12443058
32.83,14650395,12524031
32.89,14657170,12455802
42.31,16710683,4130484
42.26,16705486,4331738
42.44,16707172,4144321
42.45,16728588,4193138
42.49,16714824,4199677
34.33,23192729,7640634
34.79,23170063,7448721
34.81,23184090,7493889
34.63,23204928,7535627
25.62,44090304,16788887
26.12,35226747,14397080
25.30,35499922,14659376
25.11,35307857,15543667
25.07,35436115,15162281
25.46,35490882,14873637
25.82,35316712,14565867
25.23,38076608,15674740
25.94,35241076,14347877
15.55,52628478,29001560
16.25,52266315,27960558
15.64,52362381,29999578
15.73,52697123,28466591
8.99,101238575,55128548
9.00,101113032,57627995
8.78,101428412,56256564
8.95,101235577,55830403
35.16,12602236,10130243
35.64,12615402,10232823
35.20,12391737,10513855
35.27,12592801,10141768
33.79,12578496,10166390
35.29,12147065,10882186
35.26,12496960,10315321
35.17,12145349,10888459
35.27,12634085,10188523
34.93,12553831,10336991
35.21,13317059,10271918
34.87,12650439,10375936
35.13,13042276,10705289
34.98,12706949,10285497
34.07,13215305,10462463
34.70,12903693,10288454
34.82,12918206,10302933
34.98,13914380,10436153
33.77,13066822,11163899
34.01,13235967,10481304
34.06,13097312,10790422
32.67,14015009,10695282
32.71,16654523,11058716
32.66,16797935,11367694
32.64,14011899,10727718
32.66,16515434,11817073
32.11,14102302,11455857
32.65,19458192,6195881
32.51,22902821,6351893
32.24,23524281,8497249
31.88,22831159,10511695
32.49,17661962,6150169
26.83,25498041,9583978
29.31,25232652,9258528
28.90,35291816,11217432
29.88,25258329,9863148
28.39,34173399,10951064
27.93,33419251,9922039
23.37,40697247,18711597
23.91,39829272,17321776
24.25,38163882,10170269
21.45,40821592,14311777
24.71,38517676,9841634
13.15,62537627,23336663
12.73,60473532,48131802
12.89,59447577,17495380
12.74,61724491,48388627
33.61,13050642,12288907
33.77,13082137,12611087
33.57,13515316,12849597
32.71,13509963,12675655
32.64,13515454,12676795
33.25,14504447,13159140
32.02,16657905,14775889
31.99,16645920,14772315
31.64,14532821,12820440
31.95,16312851,14348573
41.70,18304768,5309631
41.90,16593255,4733212
35.04,27853701,10587139
35.21,28119227,11361875
35.26,22571409,8469381
35.39,22599036,8454945
35.23,22592566,8013973
35.24,22590345,8492965
26.94,34849917,16361692
27.03,34886746,16304742
16.17,50957313,32324404
8.82,102064524,59869840
8.94,101685397,63835012
8.86,102332036,58389774
8.76,101933403,61939554
8.92,102281625,59279625
8.79,102248923,64036141
33.96,12536975,10142528
34.18,12583638,10186237
33.59,12339839,10507432
33.96,12117676,10885452
33.62,12536709,10236649
33.69,12563831,10187297
33.89,12629969,10245847
33.94,12487229,10340234
33.86,12165283,10910129
33.88,12387667,10539441
33.84,12671509,10194443
33.92,12649222,10231511
33.89,12621607,10280271
33.90,12473816,10578963
33.79,12565355,10373961
33.53,12470524,10572797
33.69,12262173,10951881
33.73,12705801,10436551
33.50,12614378,10644625
33.23,13139280,10444699
33.21,12920356,10786201
33.47,14381332,10779277
31.89,16936803,11372859
31.72,13715609,10936435
31.57,15834375,12825332
32.33,17355450,7158931
29.97,23392323,8121887
29.92,35745958,9050500
29.41,34026952,10258205
22.41,39294584,13361890
23.68,38344224,25885880
22.56,40171025,13279487
14.66,65798047,26580196
16.06,58047715,16717419
34.07,12597809,12278950
34.63,12618752,11985363
33.92,12985536,12458512
34.20,13521949,12940377
33.86,12979767,12457213
33.60,13455320,12668068
33.24,14355787,13004368
33.19,14468456,13603593
31.84,14376595,13063460
32.81,16296379,14365614
32.51,16103582,14026227
43.73,19446036,6420661
36.32,27899310,10810217
36.70,22489383,8032396
36.47,22453745,8508112
36.62,27872775,10552706
36.31,27951830,10858056
36.24,27947371,10871448
36.98,22388841,8449085
36.73,22439681,8524623
36.92,22397741,8456161
26.81,35054521,15169550
26.58,40825993,18521877
18.19,48542377,32349122
18.18,48536790,32436461
18.35,48463675,32279827
18.08,48444566,31691018
9.33,96054617,64242256
9.41,95765150,61339555
9.44,95736277,63145933
9.45,95812211,63859691
9.47,95944381,61353369
9.51,95541900,59851375
34.84,12334157,10536739
34.64,12120280,10880872
34.85,12830108,10189582
34.80,12525201,10185279
34.68,12255435,10981698
34.22,12359459,10529155
34.16,12602941,10202787
34.62,13138446,10267246
34.40,12601091,10200760
34.23,12428997,10574653
34.42,12673342,10337878
34.30,12624297,10437619
34.25,12398263,11009337
34.46,12703863,10293653
34.14,12422413,11016255
34.47,12958095,11377622
33.99,12904426,10482807
33.62,12819864,11178648
33.91,12785385,10802710
32.95,14788169,11457955
32.45,15754603,12758674
32.92,16311556,11845583
34.45,23477017,6430026
31.46,30567148,13750919
28.61,36170953,18971529
28.55,36080948,21974128
20.23,56049602,25732048
20.13,52636135,16799389
14.47,56575726,23363745
27.62,31033581,29942427
27.68,31295016,30090166
27.49,26777894,25559765
27.30,27227605,25809405
27.31,27815994,25816987
27.38,30483500,26191541
27.40,33670243,26822204
27.43,27853136,25791954
41.01,28701319,3755348
40.71,35235098,4714431
40.82,28861936,4033164
38.78,36380975,5346082
33.68,39878624,6753918
33.93,30275978,9729301
33.93,30556827,10267831
17.17,74949092,20471055
17.43,73861157,21932806
27.65,30872562,30289390
27.78,30819174,30482151
27.02,31266904,30876304
27.54,31015258,30510019
27.47,26856264,26299345
27.61,30796223,30221400
27.48,25893902,25429459
27.56,25851419,25340108
27.57,25886620,25437263
27.41,25893702,25428718
27.48,25905820,25333974
27.45,25919581,25366933
27.46,25977357,25518467
27.48,31465435,31058154
27.55,30769781,30196996
27.53,31121586,30706501
27.53,30840899,30469392
27.63,31189751,30527982
27.56,32016824,31506549
27.68,30963903,30296172
27.56,32114742,31603314
27.53,31975749,31333127
27.55,32055149,31544654
27.10,26410952,25910406
27.16,27628378,26464786
27.50,32264776,28159885
32.23,29926924,16310932
32.33,30366444,11310990
32.16,35073757,14459935
33.18,30690059,16361602
27.88,29096582,27800166
27.89,26737696,25371888
27.84,26729809,25572734
27.94,31547401,30400107
27.79,32224867,30598918
27.98,31540125,30221922
27.67,26966923,25456798
27.79,26956980,25614215
27.64,27292812,25679097
27.76,32966786,27857264
27.79,33126382,28290410
27.78,32879580,27729729
27.51,34382171,26931820
27.52,34349009,26790045
27.43,34200985,27081287
27.49,34231282,27215433
39.93,36013430,5171902
39.71,37020379,5546989
39.65,36950452,5586318
37.80,32786289,4878416
31.59,39518666,7479764
31.56,41361331,7660626
31.70,39901532,7585492
31.84,40192013,7100057
31.64,32504009,9435725
30.45,30926868,12550822
17.14,75179973,22763588
17.20,74460900,21284057
16.67,76542323,22774791
16.64,74665182,24850401
27.92,25783008,25229462
28.22,30454396,29870346
27.90,31269382,30685236
28.13,25830904,25373534
28.07,25794534,25277891
28.03,25866403,25516327
28.14,30689183,30092730
27.98,25899688,25539570
28.04,31052041,30516060
27.79,25880107,25340412
27.86,25936567,25576803
27.94,25845909,25289029
28.08,30702850,30163432
28.00,30978387,30298470
27.95,25989850,25530710
27.93,26021413,25657164
27.92,25984324,25515079
27.92,25984092,25514479
27.81,31854721,31106852
27.69,27545698,27007831
27.04,26522611,26119549
33.93,34604319,13036460
34.71,33943828,11394507
34.32,34505897,12374021
33.87,34964031,13310878
33.29,29835330,14103230
32.31,30108794,10465056
32.65,34534306,11034834
33.01,16586218,16035718
32.99,16571353,16066251
32.89,16771471,15979056
32.76,17035893,16518127
32.62,18739734,17162483
31.63,17979924,16678449
31.62,17969522,16752317
31.62,17962859,16795199
31.52,17950518,16798034
41.48,19328934,3926450
41.24,19357624,4128806
41.66,22166002,4825486
41.25,22557581,5097248
41.37,22328551,5208666
35.84,27458762,6564790
35.89,26514806,7325975
27.34,39006298,12340550
18.44,37603090,21814238
18.96,37213268,21560773
18.80,37679140,21274161
18.74,37088847,21500961
13.30,73493592,41517255
33.20,16018826,15521920
32.99,16019762,15506311
33.21,16052335,15532728
33.45,17408699,16523462
33.38,17207596,16740024
33.41,17154273,16694510
33.36,16574567,15753689
33.06,16042124,15542848
33.07,16090253,15586354
33.18,16233133,15304917
33.03,16185851,15400095
32.65,16092246,15569973
33.14,16184303,15397036
33.21,17327269,16844860
33.26,17272762,16793603
33.14,17659931,16479034
33.14,17626465,16419338
33.06,17470019,16949135
32.77,17936566,16707656
32.58,18440372,17012584
32.66,18614628,16897807
32.66,18510959,16662921
32.67,17835095,17248290
31.93,18518147,16720765
31.85,19370134,16618515
31.77,19491533,16942723
31.76,19380452,16829914
31.79,18557241,17047665
33.86,22368397,9151142
33.66,22159254,9178880
33.51,21835487,9798702
31.69,21617572,9203346
31.11,21069801,9624988
25.74,27532519,11655528
25.34,35321223,25570020
24.47,34565202,23510402
29.91,21635908,20743104
29.91,21630937,20789612
30.17,21616580,20783274
30.00,21718875,20663500
30.05,24898862,23822210
29.84,21723365,20915892
29.69,21908195,20817309
29.93,25233277,23955309
29.83,22533387,21504693
29.46,22256132,20990929
29.75,25823408,22363667
28.98,22943640,21379840
29.00,22947896,21338595
29.07,22997172,21273753
40.11,24271242,3939261
40.17,24372223,4381614
35.39,28498157,5311274
23.48,34838885,15362366
23.65,36109334,15713791
23.37,34773400,15630772
14.27,78441249,30989668
13.68,80818716,32386093
30.08,24327678,23789962
30.30,23985921,23204945
30.35,23923041,23141787
30.21,24179121,23462521
30.12,24213514,23446546
30.02,20980401,20278733
29.82,21027269,20376054
30.26,24037053,23168040
29.94,24581618,23755247
30.10,24247760,23497792
30.09,24334997,23512372
30.02,24556699,23870799
29.62,25313478,24265522
29.76,24599034,23685610
29.64,25303587,24512026
28.93,26152991,22681062
33.75,27488840,10376012
31.52,31254945,13234979
29.88,33316782,14726425
30.73,33670976,13628114
30.06,32848403,10165900
27.65,34024530,14446296
26.78,33541348,16302635
28.31,31555257,27223952
26.43,34439124,14375775
26.81,31561051,28532738
26.99,33350406,20513283
26.54,34715146,15621507
23.21,37029253,19888870
26.48,21649330,20618771
26.60,26550450,22099250
26.58,26282089,21971845
26.63,26236563,21773026
26.29,22156395,20864491
26.60,28184574,21861887
26.59,28493597,22080271
38.61,29674584,4086718
38.59,29592335,4525869
38.58,29274181,4530278
38.40,29959719,4712960
36.79,33959573,5661026
30.60,35352952,7946133
27.49,30540061,12558612
26.77,31666189,14393312
16.12,69224378,24410971
15.81,70377022,23701880
15.68,68125247,31896337
26.75,20758643,20518816
26.72,21125592,20207441
26.64,21091268,20256616
26.61,21063434,20256115
26.69,25393843,24771359
26.43,25660308,24707119
26.68,25403442,24765752
26.70,25102312,24818101
26.78,24984123,24695017
26.77,24900409,24595218
26.76,25088648,24412812
26.68,25349147,24483597
26.57,21114717,20479040
26.74,24806183,24488573
26.96,26059473,24999254
26.85,23257406,22930647
26.39,21797081,20712854
26.76,27131446,23325243
32.72,30191783,9861183
32.65,30299914,10194274
31.58,29359439,12665541
32.38,30134541,10750938
31.81,29024385,12168838
31.73,29011170,12373782
30.74,34624102,13210510
31.36,35056051,11528165
30.36,32929238,25163240
29.69,32456416,25262864
30.03,33742125,14937876
31.71,33041184,29240370
30.47,34214031,14594741
29.13,16453898,15917655
31.80,17672535,16856841
31.67,17892832,16837500
31.48,17919541,16969014
30.99,16713510,15982982
31.49,18270264,17029574
31.44,18318526,17116368
31.15,17135978,15904087
31.12,17116189,16141018
31.12,17127897,15966183
30.40,17866370,16482075
43.15,18752199,3262502
43.48,21324449,3510406
43.23,21409998,3792309
43.16,18734766,3153831
43.15,18633648,3309624
37.96,22204145,4901675
37.84,22393472,5106739
28.84,29708863,10293410
22.31,30495982,16864890
22.03,29609234,18603407
14.44,62298384,33677896
14.24,65469030,33729162
14.09,65837285,34303016
31.69,16365548,15247866
31.35,16295663,15302148
31.39,16297436,15303579
31.18,17882896,16861620
31.17,16601501,15467040
30.77,18686156,16449385
30.60,18605491,17344988
30.57,18599920,17340195
33.24,18555849,8788821
32.92,18277460,9007604
30.32,21364769,9221198
30.46,20356559,10161255
27.03,30817165,22208765
25.03,28591545,19619201
26.21,36611719,33712143
23.21,31688726,17717631
29.37,16483644,15873493
29.42,16478772,15817097
29.52,16482100,15842643
29.22,16569846,15866716
29.25,16574104,15839389
29.49,17347347,16613826
29.35,16738199,15928331
29.52,18594141,17776767
29.01,17156130,16164574
29.07,17158246,16144928
28.59,19349961,16777897
28.33,17881470,16494728
28.41,17844703,16560557
38.91,19014911,3394965
34.12,22845670,5366575
34.27,28597737,7675268
34.28,28184868,7745897
27.40,34924682,10805954
21.29,33858971,19047231
20.70,34488481,18511881
20.73,34190033,19404225
14.06,66282156,36198012
29.07,16156841,15343848
29.11,15925936,15548409
29.17,16292878,15256346
29.14,16423528,15221413
29.17,16227067,15403263
28.73,16040225,15631434
28.98,16430611,15367285
28.93,16309372,15469419
28.94,16036408,15658314
28.89,16049796,15646992
28.82,18689097,18236438
28.79,18628946,18157122
28.10,16985436,15726170
28.14,16744860,15881641
28.09,16961846,15867623
28.14,16740687,15881502
28.80,18885402,12534179
30.83,22304976,11192033
29.51,26437839,10499686
30.62,20605156,8037050
26.20,29815547,19575021
25.95,29898001,17836769
25.04,28649459,18399134
24.47,25999769,13738160
25.46,27614354,11167850
24.11,26551807,14542850
20.62,35112115,18930380
23.01,37588934,29974423
24.23,38334698,27993447
23.30,36804159,15047819
40.67,25199888,15843859
43.03,24919923,16110629
40.75,25115550,15570004
40.86,25033702,15961767
40.83,25209082,15690484
40.86,25045995,15849193
40.52,25283501,15965100
40.53,25251056,16173458
39.87,26332501,15869286
40.61,25407971,16231264
40.03,25348136,16327545
39.76,25601381,16147546
39.37,27795959,16668305
38.70,26296366,16368960
38.55,26371275,16767539
38.77,26331157,16197601
38.61,26255679,16756649
53.68,30268096,4672561
57.06,25495035,3179039
56.75,25442451,3373060
56.47,25398305,3305747
45.66,29918880,5351572
46.18,30352002,5225953
43.97,38721082,9586257
46.51,30206073,5312388
34.00,53450511,11118191
33.76,38762052,10699711
33.64,53245808,11126312
23.61,45932038,17092087
22.98,46479387,20689271
12.67,79530766,32706681
12.38,79711797,37052252
12.36,80106977,36777584
12.61,78447900,40007532
12.58,79570330,37224005
41.18,24674885,15996655
41.33,25628693,15263909
41.37,24530103,15285043
41.12,25406139,16025496
41.38,24535745,15285708
41.67,24531237,15222654
41.21,24573424,15324730
40.89,24738558,16047976
40.89,24738240,15720570
40.60,24734167,15719324
40.59,24703149,15715255
39.61,27468113,15570650
40.08,24769596,15500695
39.82,24848989,15820846
38.82,25063253,15704713
38.74,25093222,15755661
37.75,29568146,18201944
32.81,41847572,12482396
36.93,31587694,8471466
34.24,32224528,10824850
31.17,39133797,25598302
29.63,42454948,14248153
20.74,59372267,24632964
21.35,58133180,25551956
38.83,28757322,16137477
38.73,30080460,15957977
38.42,28815580,16228470
38.52,30054313,16218552
38.41,28792165,16037853
38.52,28799497,15868775
38.54,28766747,16224580
37.95,29117496,15822988
37.79,30326400,16270137
38.07,30467669,15912563
38.09,30430280,15981426
37.95,29149947,16074820
38.01,29126655,16440424
37.92,29217276,15938047
37.83,29164732,16315259
37.58,29134055,16291823
37.81,29297610,16214455
37.45,29419706,16219363
37.68,29357211,15945991
37.49,29444283,16070790
39.52,29220542,16064601
37.61,29355831,16219011
37.50,29445752,16222743
37.35,29643480,16205854
37.16,29683667,16577716
37.13,29770594,16664309
37.18,29682041,16156947
36.89,30053546,16475770
37.07,29884191,16351273
37.10,29938317,16376893
37.10,29829501,16460364
36.67,33224271,17506473
37.11,29900366,16747302
36.96,29846450,16811939
49.45,29366630,4009869
48.34,34167225,5215119
49.38,29504083,4349697
42.53,34155025,5779209
41.68,33708857,5571768
31.72,43627257,9341213
22.71,50055491,18153131
22.24,48317389,22066410
22.96,50227420,18825106
22.58,49523999,20700033
11.56,87037401,35371804
11.68,86416539,36513325
11.63,86960922,37752571
11.53,86019166,42016328
39.58,29648384,15623770
39.41,28688843,15585830
39.49,28797517,15974502
39.80,28571565,15386420
38.73,29100981,15613516
39.02,29048182,15619225
38.30,29125290,15351972
38.07,30595904,15564377
38.19,30561548,15580536
38.19,29154560,15502497
38.35,29197502,15400077
37.92,31268203,16559386
38.39,29169068,15404203
37.70,29334727,16106644
38.12,28875082,15823250
38.24,28838407,15610147
37.03,29254910,15676526
36.75,29273509,15755811
38.11,30981907,7026395
37.26,31437583,9383755
37.65,31154073,8353515
33.98,35259198,9252575
32.52,36113861,10844904
33.32,35231806,9528512
34.03,45395121,16505028
29.31,44128795,15324367
28.78,43624204,16573215
22.26,55598776,24355163
25.33,22195390,20415329
25.29,22253096,20643303
25.26,22244018,20642942
25.30,22341284,20484550
25.24,22324243,20485260
25.28,22348926,20601743
25.12,22665358,20884952
25.19,23967564,21341389
24.93,23266411,20939322
36.29,23942509,3501803
35.44,23942990,3725853
33.44,27039303,4185709
33.24,31349646,5131414
32.65,26982176,4831306
28.34,43760845,10128683
28.04,36108960,8943226
25.05,30067145,11287060
24.17,29654599,12389324
24.62,28752465,13080692
22.91,27960471,14196903
17.09,57851878,23038607
16.86,55488936,30505975
25.68,26134354,24499034
25.52,26517797,24908045
25.55,26590004,24974552
25.36,21908303,20547890
25.76,26015605,24380771
25.57,21752892,20314531
25.40,21813490,20360610
25.40,21903782,20454225
25.43,21798416,20343791
25.22,22051558,20533614
25.16,22131880,20636830
25.23,21987259,20472465
25.32,27205955,25212640
25.03,22222328,20699169
25.00,28458675,23643728
25.12,28358997,23775385
24.94,22515315,21061901
27.81,26692554,11464109
27.83,26704735,11342127
27.27,27257077,11388227
28.56,39529172,13076787
28.08,27224444,10260540
23.64,32018713,26535018
23.23,32957213,15156667
22.85,34266920,15924452
27.97,37863585,15812292
27.82,37833118,15879164
27.96,37893445,15945157
28.45,37928663,16011777
28.54,37928746,15966180
28.34,37926962,16018122
28.55,37935342,16013636
28.48,37919307,16137473
28.24,38110514,16277801
28.36,38279093,16478583
28.23,41871159,18711043
28.02,38449551,16608269
27.98,38482605,16698793
27.46,39203177,17024036
27.44,39239949,17008736
27.29,39202439,17138071
27.34,39172832,16959404
27.30,39133759,17089360
27.36,39222834,17128765
34.21,40388729,8414756
34.30,40304764,8563232
31.27,42718285,13237827
30.97,43808439,14031319
31.21,42774472,14266909
31.13,42780324,13925210
25.83,51576017,12732188
25.38,48633054,11769175
25.33,48693281,12492588
19.55,48487347,17350324
19.20,47236482,17403620
19.21,46700234,17498518
18.87,46962286,18006015
14.36,61378164,33892161
14.25,63337240,36550581
28.18,40650303,17524622
28.44,40354397,17299907
28.05,40849065,17758462
28.04,40806029,17989590
28.92,40570298,17349639
28.69,40875466,17623916
28.47,38249675,15494515
28.61,38215170,15683636
28.71,40812454,17561103
28.34,38311446,15370269
28.53,38290275,15360275
28.64,41744984,17831727
28.23,38411632,15430256
28.40,38426631,15641650
27.74,38738707,15778149
27.86,38667878,15454435
26.93,39191915,15731769
26.98,39143283,15869805
26.93,39189717,15881106
28.82,44024590,10555131
28.63,40702696,10713202
27.04,43204623,12546021
26.31,50434296,12219611
22.27,47998511,26365467
22.92,47983345,21797015
22.23,48066445,21402135
16.99,56501840,37874047
30.80,26187947,16474591
30.55,24735848,15466340
30.63,24782415,15637110
30.59,24782473,15767301
30.63,24767391,15804619
30.35,24985519,15576119
30.81,26664665,16951133
30.50,26946851,17004895
30.49,26893424,17074594
30.33,27209806,16919971
30.32,27261865,16782142
29.80,28455835,16587755
29.68,28294009,17307645
29.90,28375214,16825268
41.90,24905020,3665553
41.82,26140524,4968274
41.69,28304058,5844165
36.51,33350831,6750431
36.21,32947261,7529321
36.29,27826266,5462371
27.40,37004357,8467723
27.20,45267659,10639220
27.41,36218841,8817872
20.29,35134609,17536283
14.58,57510943,31482105
14.44,56797839,31974985
30.62,24839266,15206252
30.61,24720012,15567311
30.46,24748547,15384593
30.56,24909837,15322748
30.52,24793391,15427637
30.70,26608596,16485879
30.45,24928396,15681937
30.35,24953243,15687446
30.48,26860000,16685380
30.12,24871583,15701604
30.27,24830741,15703112
29.86,25230652,15449134
29.80,25055789,15603944
30.00,25100396,15442599
29.94,25069825,15511497
29.67,25270095,15635549
29.96,25990688,16308408
29.91,25161662,15813172
29.16,25410715,16075560
31.92,26302729,9645179
30.22,29134926,10923705
30.86,28900778,9788363
26.40,34947693,19512300
24.83,34516182,25498946
25.65,34299353,12219268
20.26,44568229,19420563
23.29,41503123,33318027
28.35,27043489,15587647
28.33,27038903,15663139
28.24,27041303,15613970
28.23,30480380,18312275
28.29,27078514,15735557
28.20,27108914,15686308
28.08,27229717,15724803
28.01,27254522,15814981
27.78,27593099,15929310
27.21,28251658,16377312
37.43,32226919,6878472
37.83,32014418,6906067
37.91,31726407,7379737
33.58,30720436,5452807
33.10,30541816,5850997
33.49,30866751,5407115
33.29,30841926,5846987
26.29,38366352,9182295
26.59,38176172,9129312
26.61,38736662,9173887
20.61,39034162,16475900
19.83,37465540,17240253
14.97,56691904,31663486
14.94,57484940,35752155
28.28,27310812,15281244
28.47,27217224,15376152
28.41,27196305,15542275
28.34,30096471,17326159
28.33,27296345,15270499
28.30,27356171,15324879
28.16,28870633,16490956
28.16,27579892,15424494
28.03,31155891,17856543
27.77,27648060,15838264
27.28,28084755,15782118
27.23,28008043,16096749
29.78,28557544,9229986
28.17,31455745,10448925
29.11,31222996,10275597
24.12,37067010,23653340
22.82,36619800,14983479
22.20,43273801,16981349
20.83,45651042,19000732
31.85,50896197,11207654
31.87,50855021,11163350
32.35,52479012,11675364
32.54,52559624,11777417
32.57,52499440,11779933
32.12,51196525,11873647
32.33,52674117,12353174
31.44,52053600,12565395
31.64,53383847,13615127
31.68,53139635,13581903
30.51,54208618,14871023
34.84,53181245,16314061
34.71,53329581,18106761
30.63,55284157,28164628
30.75,55143671,24252248
30.82,51971056,20604602
30.56,52486498,18147263
23.19,58440479,16434700
15.94,61016311,22321241
16.13,61910767,22632156
12.68,65057572,43940970
32.35,52212150,10281059
32.09,52147257,10352372
31.81,52032296,10350421
32.36,52191202,10418234
32.63,52520288,10357195
32.51,51849857,10769983
32.28,52291350,10489884
32.36,52155541,10673465
32.13,52234982,10500116
32.19,52444686,10465068
32.33,53071793,11986735
32.03,53107025,11990558
29.93,52648002,12143675
30.04,53071957,10854898
30.17,55172900,12721261
29.90,57305025,9294327
29.96,53938079,8660050
26.98,61566554,13081820
26.96,55188413,13746328
28.39,55499292,11078293
27.14,61517398,13307891
25.59,61179882,20023794
20.39,58857770,20469617
20.65,58511407,21009402
21.61,59500985,25955205
16.00,66546076,24550663
13.98,64972164,18172320
15.75,61786028,47867849
13.86,65778887,17475015
