perf, CACHE_MISS_L1, CACHE_MISS_L2
38.17,2034835,1963060
50.96,1886848,1437462
43.83,1896369,1044418
52.28,2035315,824609
42.74,1822746,1073289
32.09,2692974,2002860
15.26,9858179,7561927
54.92,1889408,1274423
51.96,2038676,797171
42.75,1810403,1103531
46.76,2328677,901940
43.43,1855331,1092118
32.00,2689224,2020370
46.62,2324394,903994
31.55,2671836,2121302
31.09,2691034,2212108
30.18,2608750,2390794
20.31,4994796,4327725
8.05,19801659,15342344
7.66,19704967,17185708
37.30,1777304,1745614
51.58,1888234,1341706
47.08,2326210,924916
44.37,2109270,762428
18.00,10016516,3491768
9.61,20598705,7038186
51.85,2037779,884088
48.03,2327952,908128
23.80,5212862,2126819
9.67,20571309,6786749
52.33,1889735,1425774
52.06,2038090,823105
17.85,10029600,3697417
9.82,20479306,6565795
52.55,2037561,770104
48.06,2334083,829034
33.96,2910294,1265915
23.31,5189643,2188350
9.50,20723834,7227724
46.76,2330553,902524
43.94,1953051,952253
9.86,20158588,7019820
43.00,1727300,1208637
31.85,2801045,1705911
23.04,5149791,2562742
29.76,2620197,2404179
9.34,20354177,8026443
18.96,4903121,4753006
15.68,9932946,6492968
13.97,9784142,9490819
37.66,1778243,1745537
40.08,1819505,1514486
20.86,3066069,1610575
41.92,1819938,1430145
46.82,1894803,1130946
36.43,1481008,1107759
52.23,1889572,1381785
45.27,1613540,1376736
30.57,1880036,1578234
23.61,2533322,1904461
39.55,1598696,824001
23.94,2607053,1958444
46.78,2536272,1095761
44.04,1966073,1019276
37.22,2461051,1516569
29.94,2290691,1292056
41.02,2303011,1801551
34.09,1819559,1199087
27.71,2315055,1202553
16.34,5913307,4760143
13.70,8580630,6535271
13.15,9706563,9489899
37.17,1794547,1746623
36.34,2023498,1723571
37.23,2046516,1923696
29.89,1813873,1323166
23.64,2017041,1508303
54.62,2267751,1724886
53.30,1965980,1422396
52.35,2190069,1431717
36.07,2139177,1634311
26.30,2081176,1690075
49.71,2173961,792015
49.68,1932038,756739
33.27,1832512,752212
25.83,2192938,1145428
47.18,2074656,899467
42.15,1885873,897730
31.81,1866314,897097
42.32,1750167,1276334
38.18,1583676,1205978
29.43,2650499,2143282
23.32,1583001,1202362
25.55,2960989,2761250
19.37,3492350,3276228
16.76,5559233,5343077
14.26,4973025,4791425
11.39,11024088,10783506
37.77,1910585,1854872
43.96,2095508,1528984
44.41,2122136,772345
22.25,5151474,2046650
18.00,10052277,3682060
44.05,2124619,1569648
47.79,2329612,889435
42.94,2670648,1273386
33.96,2872548,1275528
17.97,10074551,3785766
9.82,20391490,7253158
22.69,5832647,2626331
17.28,9998277,4102345
32.13,2807209,1724850
22.29,5128896,2613676
17.42,10017202,4194162
9.66,20389374,7591589
16.59,9974452,5031269
13.95,9789333,9508770
37.60,1848238,1791086
37.46,1831731,1727096
37.24,1904863,1706622
36.42,2022271,1723590
39.33,2203451,2089252
31.97,1778155,1733591
26.44,1790555,1734715
44.20,2113775,1523495
41.67,1855528,1418015
29.17,1790609,1396533
23.39,2036324,1500969
50.77,2012188,1265149
26.42,2090648,1511762
50.75,2543913,1188463
43.71,1849171,768522
34.91,1818055,764786
33.42,2121152,1152141
41.26,2438315,1415259
33.45,1834313,896891
32.08,2429652,1440315
24.81,2390933,1376133
40.89,2313654,1800034
23.01,2526198,2000745
28.77,3985497,3726162
23.49,4353108,4019572
19.57,2612793,2407008
19.92,5926065,5706157
7.25,19609742,18969066
32.01,1752749,820873
44.54,2263392,706653
43.09,1576726,582498
22.21,2486504,755293
55.19,2027438,531238
48.38,1800956,574920
31.09,1870314,583141
57.76,2496180,431248
53.38,2277632,464919
32.27,1956496,432413
20.50,3274909,469416
53.28,2889257,443007
32.12,2097414,383544
40.14,3078566,433758
31.74,2487529,364688
37.37,4285512,503734
27.22,5620909,421975
21.14,6018530,397569
13.84,11352872,396661
11.14,19888310,1204040
39.07,2011278,1471236
36.88,1772412,1245829
45.17,2131596,1029932
40.61,1793714,869669
29.99,2070247,988104
22.55,1795949,880522
54.40,2166348,409116
54.22,2320475,421324
36.82,2501887,447761
34.83,1896283,376405
44.25,2756270,398896
34.47,2945389,579827
25.67,2654225,454182
38.69,2758229,356383
31.41,2767828,322648
23.66,2799180,386872
27.15,5079227,382801
18.68,5126115,511746
19.09,9856389,414728
36.80,1769551,1251459
38.64,2262522,1419828
33.96,1916254,1335530
41.59,1914042,875625
35.93,1782763,942413
29.67,1775748,935386
57.37,2319436,643331
53.25,1952909,742576
54.34,2443925,607859
54.09,1841542,464221
33.45,1820189,479584
23.55,1950921,551029
55.29,2662132,426158
55.40,1945350,435577
55.03,2885204,388846
54.13,2636988,398462
23.64,2227308,416456
46.88,2907031,400386
37.59,3142640,389725
28.46,6170589,377861
46.82,2471572,1316977
39.11,2737844,1768747
19.45,6637795,5618797
11.77,9839029,8700668
19.69,5280562,4432048
11.73,9836202,8767981
45.99,2501682,1331996
28.59,4145405,3324451
19.39,6635387,5620953
44.95,2087136,909110
19.70,5270548,4421446
7.30,19985078,17783297
28.54,4126006,3368808
11.68,9835333,8866299
7.17,20052813,17683408
11.60,9831146,8937720
7.17,20006360,17676019
11.02,9783568,9491670
6.96,19924336,18969150
38.46,1699904,1591132
51.19,1906885,1562733
20.32,6638680,3761734
13.99,10026863,5331615
47.66,1795278,817984
38.58,2894166,1233993
30.65,3727691,1680026
8.40,20493277,10393039
29.27,4281215,2318598
13.90,9999994,5102767
30.34,3097793,1537168
29.84,3046686,1659687
20.25,5430178,2975109
27.89,2924845,2398758
12.18,9901489,7599214
7.70,20488581,12993021
36.24,1573029,1350518
40.74,1788580,1075395
37.85,2056036,1047546
14.26,8541759,1709413
39.65,2059246,1081496
36.58,1931402,1027476
39.74,1954569,1418236
27.05,2913853,1912699
52.20,2058401,1072188
41.24,1978669,1083091
45.26,2083405,911224
19.30,5088513,4636377
14.43,8644103,5043737
38.47,1880472,1196282
18.55,5345506,2795709
13.80,9271080,7361222
26.42,4059170,3479410
12.70,9787673,5068933
17.37,5224478,4756637
11.10,11277034,4834117
8.55,14079353,9528278
34.00,1527703,1468150
34.30,1582704,1446942
31.34,1551561,1446453
38.75,1607836,1250353
41.50,1909679,1429001
36.65,1814056,1282020
34.53,1578635,1287716
25.32,1697328,1282298
18.55,1795385,1309539
40.62,1619024,1197003
31.12,2189339,1783545
21.28,1965589,1602859
45.67,1714847,762553
27.53,1782380,982347
21.00,2073103,1357964
44.70,2335889,1314835
26.68,1876672,952262
24.23,4119635,3508770
20.83,2991037,2397497
18.48,5268703,4757089
11.30,9792511,9493778
10.12,10102529,9635342
35.07,1529523,1468338
46.80,1645668,1217969
39.84,2363079,922000
37.84,1569500,1303787
50.48,1913545,1613273
51.98,2092301,1067615
44.63,2090186,881625
39.16,2350028,905842
30.55,3132022,1493014
39.70,2336680,938212
39.43,2319850,990240
7.97,20949965,10781686
39.50,2240448,1050355
7.83,20935382,11349111
39.38,2249085,1226905
21.00,5422250,3150861
8.06,20817633,11129243
28.07,2916723,2392196
6.88,19894271,18983866
33.82,1583139,1452438
23.29,1613427,1462950
38.69,1679042,1218503
36.90,1816740,1289632
31.58,1585704,1263272
25.88,1921481,1479905
19.54,1937681,1469092
53.82,1900309,1571461
52.30,1970228,1671387
31.49,2174427,1709044
48.93,1797960,805080
47.29,1935642,800901
48.19,2036969,1116208
40.29,2292065,1356136
26.72,2406201,1594475
20.02,1961754,1167536
35.84,1950657,1213000
24.83,1984855,1222530
29.94,2975976,2426840
18.11,5255686,4769248
12.98,5330889,4758848
9.87,9942421,9489254
6.91,19928201,18853033
34.56,1520080,981264
39.48,2042497,643549
14.52,8491013,1174111
37.17,1962477,619560
19.49,4839547,785668
54.04,1640080,401643
45.29,2108620,615346
14.98,8558884,737173
50.33,2066768,407214
43.27,2023531,462307
37.42,2153812,450713
28.85,2911786,455374
28.80,3097582,414783
20.71,5108601,409709
36.19,2526549,308899
28.01,3389278,341529
20.25,5434263,357625
34.31,3003852,523318
26.45,4091252,412296
24.14,5327804,366383
17.62,7394934,404238
13.41,11391563,528337
15.46,10111101,552597
11.80,14344748,881176
36.10,1521029,982659
38.05,1762303,1105833
23.76,1662307,997404
39.22,1561589,772821
36.98,1798496,772877
34.82,1560943,814658
31.99,1566044,789436
54.15,1898436,505686
54.15,1972715,621568
28.73,2026947,730598
45.53,2024331,442136
29.36,2225847,471335
21.41,1878204,424456
31.48,1833827,385308
28.92,1913475,406136
21.35,2001383,372539
44.05,2970124,406094
30.46,3100180,398190
25.32,3156829,365372
19.46,3261534,443687
34.28,1640497,933134
25.48,1981256,1341768
38.76,1588432,763407
37.88,1665558,778194
35.89,1793374,816685
40.46,1836187,803544
27.72,2043416,1012942
48.15,1837631,654122
34.44,2114626,549625
28.90,1732387,560828
34.46,1720534,416466
45.99,1886948,393802
29.32,1957093,391212
20.63,2048593,390175
32.55,2093966,381918
28.12,2181372,380568
20.06,2279703,382136
18.84,3231167,383848
31.75,1509850,1468454
37.25,1552076,1214987
18.49,5254389,4504608
40.85,1784339,1445164
40.55,2062077,1172846
18.43,5247387,4533598
40.50,2061150,1175061
18.55,5231604,4615184
11.92,9814565,8963448
7.23,19924536,17845465
29.13,2848445,2286188
7.33,19927585,17319156
29.15,2853021,2317802
40.81,2000114,1205801
18.25,5228493,4620771
7.28,19889490,17635996
29.12,2829684,2383471
11.93,9822991,8956221
17.91,5208557,4755964
11.80,9823594,9096833
11.72,9789403,9492589
7.05,19854368,18965645
32.01,1509754,1468480
48.35,1627555,1226285
47.67,1775965,822835
40.19,2119773,902697
20.27,5439340,2723766
8.32,20546304,11467904
45.66,1648089,1324015
48.07,1774592,805331
40.01,2107183,896914
31.01,2999001,1566695
8.77,21016543,9383812
40.30,2802655,1385533
13.91,9962001,5255701
8.47,20741446,10594634
49.40,1775061,774606
39.94,2121789,921826
19.92,5359368,2939168
13.57,10012486,6014551
8.37,20554418,11113488
46.89,2441943,1265131
30.50,4204106,2359707
19.76,6987896,3941370
13.90,10063737,5654151
40.06,2742065,1817895
19.23,7005330,4350937
8.52,20760099,11038367
13.40,10029969,6343091
8.36,20717852,11699478
7.96,20394913,13244944
11.46,9785058,9498803
6.97,19771972,18965695
39.15,1768039,1112041
31.60,1781013,1137387
19.52,4903014,1642291
40.23,1640988,1115202
41.32,1773942,1034808
37.15,1952762,1084622
25.31,2536509,1495110
53.90,1870893,1567513
50.20,2046827,1779322
45.01,2051730,1672150
35.86,1868991,1772705
28.05,3195889,2126126
20.07,4962848,2304154
44.64,2057035,887967
28.08,3340745,3048575
45.40,2058549,903690
38.61,2527017,1776290
18.99,5457950,2569001
17.19,5212864,4754395
8.92,13981507,9524025
6.62,19541564,18964015
31.86,1509922,1468203
32.23,1775864,1440063
31.60,1530450,1457388
24.35,1578494,1459530
37.29,1591928,1238349
37.64,1662009,1242674
36.31,1799512,1299870
36.56,1559845,1205996
31.59,1558706,1284631
47.82,1626565,1329877
28.54,1735497,868860
39.93,1781880,899921
32.53,1778499,899851
19.68,2038142,1227593
30.37,2843971,2406201
18.66,5179816,4795742
15.01,5180834,4766413
7.05,19791130,18966025
35.64,1553016,1264216
40.39,2340843,903564
14.42,10070692,5285573
50.47,1629567,1192424
20.49,5426991,2537085
8.39,20807775,10861238
51.34,2060464,1060460
44.60,2074795,847981
40.49,2304866,911149
31.07,2972995,1610902
8.52,20631110,11049797
49.03,1777897,775646
44.57,2072317,877272
20.55,5440992,2510694
14.15,10088236,5524904
19.78,5342669,3139532
13.65,9988587,6008767
40.23,2762306,1857191
8.32,20459731,11731087
28.95,2863909,2399780
17.74,5223955,4757768
11.68,9822729,9510002
31.82,1510390,1468532
32.39,1565749,1449502
32.22,1638140,1434459
32.04,1777175,1438544
23.21,1615028,1464856
35.50,1552996,1309646
37.30,1661901,1215330
25.31,1644888,1328930
45.49,1699817,1442224
32.36,1627142,1275203
28.44,1670674,1372177
47.24,1911512,793597
41.28,1658622,764850
33.38,1682999,778696
39.76,1788527,907614
27.28,1848100,911578
20.65,1881178,974438
25.72,2008719,1212233
30.31,2887949,2433367
17.25,3030164,2415169
14.98,5168457,4765097
11.53,9780564,9498467
9.64,9841052,9507314
7.03,19857840,18977811
33.96,1501658,980863
43.58,1830963,736796
44.49,2015828,839315
39.53,2028547,639222
38.98,2267506,905272
20.05,4992916,1082110
12.83,8746643,1105879
46.16,1869337,631102
43.95,2340943,786591
40.55,2335953,776543
26.49,3007163,822226
47.38,2037555,643576
43.12,1982604,584948
51.71,2057463,388809
29.00,2804481,505006
21.12,5222904,451945
44.61,2337765,337452
28.19,3122128,366523
20.50,5557335,359509
35.83,2945232,340518
26.17,3886669,348790
14.13,11511816,365614
15.90,10112377,498686
32.14,1500939,988560
32.73,1626105,951440
36.36,1644872,767766
36.47,1783132,761218
19.82,1681109,765533
21.91,1715508,444810
53.22,2229514,474638
46.03,1994951,418375
30.00,2015936,462714
29.42,1864096,372820
42.47,2025656,354978
21.53,2130842,354333
36.50,4084139,795512
31.14,4000881,417618
26.04,6320635,491661
15.93,9942969,632689
14.60,10138701,512168
32.97,1554331,936582
29.80,1519816,962983
36.10,1571683,799994
37.30,1644501,744572
36.31,1793715,799396
27.59,1582106,803974
24.16,1708012,826990
55.28,1608161,436902
51.28,1693083,498490
57.18,2059933,432421
20.96,1920370,425998
29.83,1862598,388337
21.08,1926473,390678
36.65,2078338,381826
28.58,2096394,383528
33.86,2988003,389238
26.03,3033283,377987
22.11,4709742,374084
17.37,5695930,390002
26.05,6210309,375973
41.65,1792952,1423888
44.87,2080208,922588
28.94,2923037,2265528
7.51,19937385,17596047
18.72,5310774,4499014
12.33,9880860,9077131
48.04,1642752,1391488
44.78,2082082,917915
18.51,5273306,4463953
44.81,2079700,903771
29.11,2956931,2298541
18.53,5273460,4484217
12.35,9892109,8922598
7.31,19986527,17785603
40.08,2070615,1186047
18.50,5265567,4486930
7.25,19974251,18052879
18.19,5301002,4638636
12.24,9869434,9238045
12.27,9850454,9490900
7.22,19804008,18973207
33.78,1522588,1468139
46.70,2519305,1217794
8.73,20677987,11179034
36.34,1566230,1316521
48.87,1643038,1297209
48.05,1785948,816587
44.88,2083084,852802
40.43,2430404,833462
14.03,10092673,5900614
40.26,2352204,904486
20.35,5790578,2616658
13.86,10071354,6177361
8.57,20788171,10801635
44.75,2087555,859437
29.67,3082577,1672760
19.98,5718076,3020837
14.12,10102529,5718352
29.76,3120492,1663133
40.44,2064968,1208465
13.87,10086176,6258133
19.00,5467396,3823692
17.89,5254440,4757355
12.96,9974478,7673445
8.08,20371055,13145511
12.06,9829807,9499741
7.76,20327976,15311728
7.09,19759909,18969763
42.03,2373775,1360627
31.18,2045584,1206763
27.79,2861019,1433914
37.03,1565238,1273296
42.09,1791770,1049046
40.34,2065027,1092952
44.26,2076055,1644263
21.16,4982164,2318485
16.10,7990332,2321885
42.31,2490810,2217906
28.48,2859639,2703615
21.12,4929070,3434463
15.78,8015998,3551018
44.78,2078398,907628
27.45,2999237,2171975
15.33,8302828,5720437
32.27,2563747,1205861
13.53,9345334,5371401
9.14,13778609,9557945
37.04,1816307,1573778
34.38,1783440,1427868
18.28,1755524,1508425
42.13,1828550,1411708
41.07,1895509,1456813
40.40,2023706,1463720
20.79,1933619,1447791
49.46,1714551,1375286
47.54,1910158,1646967
28.80,1707382,1404854
21.70,1805061,1297349
21.68,2104086,1346404
45.19,2079651,912518
44.29,1881541,901554
20.96,1924318,1100590
20.04,2089548,1377907
28.51,2873776,2385740
23.82,3590435,3069581
17.32,3086579,2414354
15.55,5186559,4764012
12.63,5339281,4769859
9.32,9946471,9504579
7.10,19838436,18972047
36.88,1563547,1260028
20.25,5618905,2962835
14.48,10205214,5213832
8.57,20834635,11267772
36.95,1566482,1289763
20.15,5748310,2850657
8.54,20588746,11165272
50.20,1643770,1295834
40.25,2372218,900489
29.58,4475523,2413006
13.96,10104453,5975188
40.51,2986055,1447174
14.24,10100878,5930432
29.25,4395045,2653360
19.95,5611846,3212304
40.18,2071512,1216557
29.15,3013548,1988268
13.86,10098973,6182505
8.50,20809431,10865078
19.11,5408412,3724246
13.41,9992594,6447953
8.17,20680267,12506931
7.22,19816990,18985109
33.15,1522250,1445441
32.64,1541567,1474908
34.02,1578255,1449440
33.24,1650529,1428309
31.30,1718094,1561349
25.94,1598608,1467971
17.94,1760702,1512809
37.71,1674133,1215011
35.66,1572800,1249538
45.45,1849759,1559284
45.72,1620207,1183741
29.39,1712300,1219302
21.52,1800435,1310718
46.31,1933248,812732
42.16,2007463,1228979
32.81,1699068,847074
29.08,1772286,913702
21.49,1837523,986344
45.03,2087331,920485
45.18,2368272,1307459
35.66,2765471,1978220
25.53,2851070,2127359
19.58,2764016,2001379
28.17,2892455,2390883
23.78,3611523,3006805
21.06,4555493,3914042
17.79,6342252,5705139
15.82,5189940,4767345
12.46,7820436,7070842
11.97,9822383,9499714
7.10,19823751,18979808
33.53,1510502,979130
41.21,1621183,586222
41.67,1768307,588345
40.43,2051899,682003
28.17,3163795,995461
19.95,4801654,1060128
15.21,7966818,1111602
44.61,1625309,503565
46.32,2058339,679014
40.38,2431486,802812
26.74,3097785,807214
51.39,1778941,495214
56.08,2107046,438827
44.67,2007977,415159
37.14,2151143,407178
21.75,4976051,541745
16.27,8144181,560641
52.05,2489511,424372
45.05,2746958,439622
21.47,5015800,488801
36.22,2539654,334816
28.81,3369995,339409
20.91,5308621,461516
15.95,8493576,348510
15.44,9363974,335538
14.23,10941976,437330
34.78,1568644,965437
33.46,1527341,943931
29.30,1531520,973742
36.73,1549840,835325
38.53,1586844,719322
37.77,1801157,738541
19.89,1771173,781118
51.95,1701943,439276
29.95,1707456,513802
54.38,1774253,394660
43.56,1660713,380314
30.72,1766729,407887
49.29,1941545,352154
30.03,2368611,428288
22.19,1982112,455925
45.18,2280266,310341
32.74,2946816,465363
25.86,3144766,356489
19.70,4576127,431570
24.91,5930903,519946
20.71,5398443,454557
16.06,5500113,374377
10.45,19989215,559698
34.62,1511662,972338
33.46,1567104,956332
34.01,1637011,933441
17.16,1746567,1056919
40.49,1859649,838579
35.32,1763888,814704
53.65,1697374,436506
49.70,1908338,568774
29.15,1844970,532759
20.59,1930078,644263
52.28,2102773,425548
38.09,2004331,419125
21.05,2018523,406720
50.91,2397189,405369
28.58,2123463,382599
22.74,4807259,379454
25.58,4955384,374967
15.93,8539035,378754
32.50,1510319,1447860
50.05,1629316,1227724
49.07,1775429,793389
40.82,2105090,1191807
29.70,2843971,2296679
7.29,19887509,18430175
41.87,1794218,1406148
40.59,2114633,1185619
28.97,4130609,3442597
18.59,5197945,4447779
12.18,9830927,9021736
12.05,9813064,9198730
49.54,1774022,757017
45.19,2067315,911006
18.84,5206527,4445722
40.58,2060740,1184498
29.74,2830475,2289829
18.41,5205999,4577818
12.06,9831889,8869097
7.38,19892430,18028083
29.08,2830135,2385610
7.14,19862358,18502005
52.08,2079398,1067825
40.72,2051399,890676
19.79,7603680,4161073
41.79,1794826,1423937
41.07,3018778,1302490
51.85,2065304,1061372
45.06,2072649,856325
8.47,20948097,10578139
49.48,1775153,762079
31.11,3018076,1541871
8.45,20692432,11214604
30.79,3025696,1648377
30.29,2958191,1940725
19.24,5283760,3520495
13.70,10125201,5904263
28.13,4034919,3554168
12.97,10013111,7512908
8.01,20372361,13557840
33.47,1531391,1483212
34.00,1554523,1357234
39.23,1770260,1089589
34.82,1894870,1055821
25.49,3016002,1529261
42.42,1802564,1365141
40.11,1634760,1125567
36.69,1923597,1058401
32.29,1838880,1241849
20.05,4879369,1780290
20.66,4856227,2272942
52.63,2051429,1023986
46.40,2051825,888233
15.47,8921592,3544430
14.98,8979277,5930993
33.01,2425290,1195678
25.92,3152678,1232010
27.16,4055256,3577703
17.00,6068766,2447176
17.32,5188250,4757468
13.98,7408338,4767697
10.60,9735445,9497838
7.01,19504718,18963426
33.42,1740918,1596996
30.11,1730989,1603937
23.49,1577428,1460055
37.97,1592730,1220502
36.50,1802219,1225392
38.28,1805947,1376986
30.45,1560323,1247256
49.54,2100771,1808843
22.31,1894658,1574167
49.83,1774114,757331
46.94,1682896,755805
40.73,1653652,753804
21.57,1755562,922997
45.60,2063840,898861
31.70,1773568,897931
20.02,2025654,1229000
29.12,2801672,2384153
17.18,2997121,2396886
9.27,9887110,9504546
40.86,2341666,948672
31.36,2965834,1525431
20.35,5329262,3035911
37.53,1556541,1243973
46.92,2498966,1228102
41.05,3011737,1333373
31.11,2992698,1641187
20.30,5353291,2953294
48.61,1778926,790982
41.09,3027751,1311404
13.96,10056009,5314702
8.51,20678745,10993634
52.44,2055864,1037478
45.30,2073377,871110
40.71,2943237,1433178
30.84,2951686,1658728
46.54,2472829,1293712
40.70,2246313,1039471
8.45,20941925,10835001
40.21,2776362,1864832
8.53,20502312,10695070
12.63,9967174,7796554
8.01,20306699,13484509
11.85,9858492,9518611
7.67,20334084,14845155
7.21,19760561,18979910
36.41,1730399,1620616
37.93,1802305,1636537
36.16,1855229,1601736
30.27,1531527,1456964
32.05,1770758,1639926
17.81,1664177,1473021
41.52,1795494,1443258
36.45,1590284,1281211
36.26,1801449,1182074
33.84,1789408,1379908
26.24,1634919,1315425
47.57,1600462,1062355
41.27,1594030,1071802
33.26,1624771,1145982
46.84,1913677,803057
46.58,1692343,767061
42.27,1950068,1077025
32.41,1670684,769914
45.56,2288417,1291282
27.86,2318674,1425566
21.09,1862079,955383
35.89,1953924,1193329
25.70,2891116,2078861
24.34,2844073,2395369
21.72,2891008,2388476
11.96,9796360,9503818
9.63,10210273,9608423
33.06,1503307,988994
41.26,1808081,1027485
41.96,2381988,972772
25.32,2548538,890514
20.20,4974366,1097004
37.29,1536929,758164
42.26,1757799,551756
37.10,1927498,589063
20.20,4973818,803358
15.18,9143311,871067
47.80,2041149,587008
37.24,1848830,523479
28.75,2619274,561795
20.69,5015895,671722
55.78,2094929,473530
45.78,2457236,487004
15.80,9165603,561528
51.32,2060707,383647
44.94,2128062,367693
29.49,2870844,408961
15.76,9232804,502752
44.47,2339800,323994
35.99,2963198,347202
19.95,6296909,406021
14.96,10343594,405691
24.02,5261749,415337
35.53,1996562,1148620
30.60,1514602,968549
28.36,1524621,980586
24.71,1600019,988257
42.04,1822402,834311
39.93,2048414,873036
26.75,1736215,799861
21.30,1894033,809988
53.47,1950879,645440
33.49,1882174,571933
51.79,2063207,432465
45.35,1969259,402907
35.54,1992424,441103
30.63,2009650,441655
22.71,2043133,433458
50.44,2351661,435026
22.47,2338669,424436
44.13,2331106,316538
28.66,2067776,340830
29.98,2994280,348062
20.26,3174584,385196
20.42,5344795,423029
16.31,5405436,417698
10.51,19876004,474831
34.29,1499890,970540
33.09,1762791,946184
32.94,1514865,961323
18.11,1807930,1060309
36.69,1534609,831846
37.62,1571674,781309
37.52,1648232,782472
40.42,2020880,851443
35.30,1538034,774717
17.91,1694802,760601
50.15,1685599,671669
48.24,1830966,648724
48.18,1589002,517670
46.68,1662579,408411
30.40,1730336,422278
43.87,2054336,380774
26.32,2992871,377601
22.67,4618750,382389
17.26,4730889,376624
35.61,1856927,1818522
31.59,1737413,1726551
35.29,1774817,1281903
37.01,1774776,1115542
41.26,1953871,1251490
35.56,1774241,1289458
44.38,1845294,776272
44.08,1845341,793862
43.46,1841475,931159
45.21,2015549,1186310
44.35,2023834,1402307
44.48,2173880,830979
40.91,2442662,905083
40.96,2456358,909963
39.48,2261284,745957
39.36,2271781,744884
37.93,1214709,909359
38.19,1269880,916442
37.80,1229824,907477
38.13,1266728,914729
37.90,1289804,922655
29.50,2713639,2381481
29.91,1936138,1796043
29.57,1913402,1801278
29.41,1956616,1801248
29.67,1939775,1800824
21.08,3715733,3564184
21.48,3741673,3551702
21.02,3719755,3535144
21.33,3715350,3590722
13.51,7181259,7050138
13.63,7146630,7120586
13.61,7179569,7063174
13.55,7164020,7122393
13.69,7152282,7120132
13.78,7175214,7137937
9.15,14321604,14113853
9.42,14338944,14267329
9.12,14313981,14131158
36.74,1965372,1802783
31.77,1736051,1622878
31.58,1735829,1631601
32.17,1738266,1726474
41.04,1984593,1218428
35.09,1773384,1277821
35.24,1772948,1226314
35.17,1774088,1315728
35.46,1773799,1283633
44.76,2044873,1181177
44.55,2036586,1285824
44.26,1846569,808519
43.00,1844077,882604
45.59,2018849,1132345
42.49,1990941,538694
42.62,1992076,503471
42.58,1990317,522982
42.63,1991107,491489
42.43,1990514,564287
39.94,2276153,530495
39.45,2270844,584188
39.42,2270797,714573
38.69,1249628,850448
37.93,1213877,914085
38.57,1286548,828593
37.69,1296865,929769
38.28,1243268,855146
30.34,1971875,1527505
30.48,2703635,1914002
30.05,2675261,2128869
29.58,1996641,1836289
30.60,2715510,1929758
29.33,2688809,2505622
29.66,1995566,1837445
22.20,3737393,3108664
21.23,3713490,3577110
22.04,4657664,3615175
21.10,3745445,3574731
14.04,7251742,6491916
13.66,7191218,7111366
14.18,7224927,6218468
13.61,7183020,7128889
9.44,14382929,13015401
9.23,14374902,14257296
9.34,14380769,14253938
36.67,1824541,1723585
36.68,1874465,1741756
31.80,1739327,1726773
40.89,1830499,1129161
35.12,1771837,1160857
36.15,1616910,1034766
35.46,1673041,1163958
35.40,1772423,1163705
35.05,1776820,1317814
43.28,1662931,730024
44.96,1744050,465934
44.72,1847232,455526
46.61,1930334,602596
42.47,1848604,1095041
44.57,1803569,333184
43.57,1992381,486267
44.85,2098377,695623
42.92,1993230,597171
41.40,1996308,957211
41.65,2166930,293330
41.65,2109091,403818
41.35,2159178,402954
41.71,1218932,234658
41.32,1365357,265780
41.37,1189539,360530
39.86,1235872,487254
38.82,1421910,544122
35.25,1728008,395363
33.89,1828637,520450
32.65,2057971,505124
29.70,3105935,313638
21.50,5852602,345719
20.78,6346064,426377
20.34,7289907,512661
21.32,5843287,596218
20.38,7272981,627413
20.25,7293670,994272
14.26,10856567,441864
13.79,11360862,427363
13.23,12375821,490647
13.13,12384217,1232343
13.07,14531238,1242950
37.07,1939765,1696253
39.94,1749871,1252055
40.75,1790006,1155239
39.80,1854635,1321554
40.68,1956879,1164744
39.12,1970131,1548007
46.57,2025977,911150
45.35,2035606,1087067
46.73,1982886,422271
46.88,2060057,441888
45.22,2074870,955616
45.30,2216503,914927
40.88,1984513,1408632
43.84,2014774,354495
42.96,2139875,373955
42.69,2254160,381894
41.66,2257611,597320
42.98,2541134,900784
42.26,1182925,352583
42.16,1232819,362661
40.20,1511805,370688
41.46,1226814,550808
40.80,1235780,736631
39.08,1489022,760050
37.23,1492899,763963
37.76,1685876,359487
37.01,1823424,369573
36.73,1829778,557048
35.25,2715224,382300
29.40,4100669,926571
28.51,4081838,1486635
24.98,5787487,378715
25.17,4757559,676049
24.69,4727653,879484
23.61,5856475,1369849
20.82,6004417,376980
19.91,6766609,746974
18.81,7751310,1017431
17.89,9474211,1557631
39.08,1894963,1834723
39.59,1906735,1780350
38.73,1906270,1843948
40.10,1891081,1829477
41.49,1914446,1484424
43.50,1895553,1271185
42.53,1906754,1351136
43.44,1897768,1331080
44.44,1895805,1183301
50.27,1943467,1071217
50.40,1944101,1050237
48.97,1946417,1258665
51.82,1939922,913263
48.55,2133051,778536
48.17,1993256,572450
48.21,1992984,545125
48.39,1986492,546928
44.26,2275655,658167
44.25,2278377,686202
44.39,2268933,701699
44.24,2273634,728454
44.17,2462653,926134
39.60,1613581,1171148
39.61,1280246,914472
39.18,1643568,1240210
39.36,1253765,909222
39.80,1608392,1199088
39.31,1675771,1270216
39.55,1205894,909418
30.15,1926730,1808953
30.13,1944000,1806400
30.32,1929789,1809409
20.50,4767227,4552447
20.68,3736210,3604492
20.98,3706866,3609691
20.68,3694892,3604953
13.36,7158960,7085871
13.48,7187324,7133476
12.90,7135666,7117547
13.08,7183763,7133466
13.52,7181678,7135472
13.07,7152571,7118099
9.31,14299826,14234875
9.31,14302472,14236177
9.35,14277703,14221222
9.43,14342412,14228792
9.31,14280860,14226884
9.53,14319031,14259665
36.49,1736985,1613812
35.31,1737325,1642232
39.18,1895447,1766100
39.06,1896863,1840219
39.33,1884484,1758794
40.62,1887163,1825808
43.24,1898815,1238652
44.55,1886253,1204454
42.34,1901688,1356152
42.89,1901399,1308890
41.65,1774112,1178876
41.59,1774023,1134999
49.17,1848108,798583
46.86,1848405,1194542
46.54,1843114,1282227
48.90,1846710,971709
50.08,1842669,888816
50.11,1843223,881012
48.63,1991532,493585
49.01,1993075,459183
48.39,1993958,535997
48.56,2109978,777045
45.19,2271831,498034
44.90,2423868,742122
44.60,2272126,613713
43.97,2274985,736349
39.58,1225150,926964
39.25,1671688,1304070
31.66,2569283,1697858
31.48,2552935,1833532
31.07,1950482,1653570
31.30,1946728,1553666
30.39,1959156,1830729
30.90,2602351,2446542
21.51,3668862,3197737
21.78,3708269,3148705
13.92,7209288,5760989
13.97,7245433,6030051
13.60,7207100,6439501
13.62,7207944,6379920
13.40,7162805,7122215
9.84,14409987,12811782
9.35,14301096,14229320
35.28,1574118,1543374
39.42,1791497,1649601
39.32,1901535,1683815
35.64,1635034,1610998
40.10,1583795,1024673
38.67,1611971,1224252
40.56,1668550,990694
39.80,1770897,1096142
43.04,1745538,1140405
40.38,1773041,1112922
51.87,1744418,581377
47.12,1687961,1142028
50.83,1948127,701804
51.00,1926537,374614
50.80,1883479,331010
51.05,1822307,447173
50.25,1883647,450990
47.60,1989263,906595
47.24,2156054,285869
47.47,2265065,332697
47.26,2105923,393122
43.97,1254790,239065
44.06,1206441,344160
43.54,1235458,371812
42.81,1440603,405123
42.19,1888626,601582
37.44,1713730,272090
36.82,1824719,276368
36.52,1843839,406722
36.07,1850273,508964
34.95,2050360,498481
28.96,3287689,345726
28.67,3800698,401849
28.66,3298126,455087
28.50,3805471,506146
28.14,4430041,750193
22.29,5488047,360395
21.60,6346082,385793
21.85,5880393,545497
21.10,6395887,795118
21.12,7359233,527603
20.55,7240965,726859
13.89,11226367,683793
13.91,12386931,625869
35.44,1533258,1501759
39.46,1795167,1659310
35.07,1734264,1527458
35.35,1562142,1534936
35.40,1619689,1561138
34.95,1734242,1556121
34.95,1735431,1612875
43.00,1751997,1167717
38.98,1768783,1151600
38.80,1774367,1325023
49.19,1842364,865001
50.39,1807872,565995
50.29,1879605,599604
48.16,2074620,359855
48.46,2145505,374483
46.62,2147442,798031
45.73,1141931,334632
45.58,1180715,341552
44.86,1279902,358915
43.44,1502993,368870
44.92,1234614,522301
39.79,1542015,968328
40.46,1625147,358891
39.71,1781592,554091
34.66,2509719,366663
33.50,2769895,369292
33.28,2765621,570604
32.73,2728274,792585
30.98,3279772,826284
24.33,5644327,369650
26.56,4149975,583365
24.10,5649509,604044
23.94,5644090,905707
19.90,6697101,372825
19.04,9455602,384830
19.47,7678475,729239
18.90,9483862,755231
19.36,7662782,970716
18.39,9368630,1010164
18.03,9257605,1227713
34.96,1738881,1727154
38.42,1877819,1831988
35.23,1738463,1726395
34.93,1738498,1726386
44.01,1892743,1350775
38.08,1774827,1362122
38.63,1775363,1311871
40.02,1774844,1220504
51.09,1939715,961465
49.89,1844766,842467
49.83,1846689,854560
49.00,1846331,924582
48.52,1845679,1056262
48.58,2123872,839576
47.70,1984876,603537
48.76,2116990,868205
47.37,1991176,579785
44.26,2271151,670924
43.86,2262153,748561
43.59,2273132,763432
39.71,1234178,921123
39.80,1256632,925847
39.59,1296360,926597
30.65,1917903,1806896
30.71,1958789,1815560
30.62,1960359,1809723
30.62,2655639,2508389
21.60,3681886,3590313
21.34,3680102,3589605
21.64,3681188,3585553
21.65,3685073,3588390
13.19,7170249,7110135
13.03,7152559,7123096
13.02,7181702,7131402
13.11,7178099,7133272
9.37,14314837,14179204
9.40,14346813,14268217
9.32,14308765,14202418
9.30,14314488,14232106
35.03,1735908,1581944
35.04,1736795,1612631
35.49,1737968,1649713
35.02,1737471,1650301
34.85,1738943,1726528
39.35,1774212,1213917
41.16,1776861,1095689
43.73,1890548,1167463
39.12,1776297,1287736
49.52,1846895,741369
49.36,1849507,769319
45.65,1845326,1445066
49.72,1845093,883111
48.32,1847861,1000975
48.03,1992388,507907
47.46,1997348,561566
47.71,1989391,577798
47.78,1996906,528849
47.67,1993334,546646
47.03,1997443,611977
47.35,1989282,615907
43.93,2270776,747267
41.06,1297610,766041
40.80,1281367,792168
39.33,1328376,936909
40.34,1241866,868413
31.36,1994264,1646256
31.65,1977498,1566038
30.77,1976781,1837161
22.02,3675481,3220471
21.56,4290368,4092974
13.67,7215710,6104414
13.71,7242972,6323551
13.10,7168299,7133872
13.14,7182831,7140846
13.26,7178234,7017430
9.46,14338599,14258999
9.32,14325773,14246535
40.02,1872123,1638693
36.13,1578014,1551256
34.89,1736451,1565904
35.47,1737643,1559788
34.79,1739498,1726705
38.91,1612413,1173878
42.05,1761850,1297426
39.35,1669512,1114631
38.74,1772816,1190196
38.72,1673471,1244440
39.86,1778924,1199890
48.80,1844388,825974
49.58,1747222,718104
49.88,1848817,690635
47.91,1850427,1073087
50.97,1797028,321599
49.67,1995825,370386
50.02,1826679,458041
49.67,1888528,449485
48.62,1995699,606741
47.77,2073493,283063
47.41,2111524,271937
46.71,2270506,326273
47.60,2460591,480510
45.28,1400788,295788
43.98,1290628,243959
43.11,1777493,335262
44.32,1495157,422868
43.62,1293789,363822
43.10,1750212,473333
41.09,1463440,524716
37.33,1656247,257968
35.61,2041193,485572
36.03,2043378,456760
35.73,1844770,505116
34.30,2044326,489480
30.71,2888218,300102
30.15,3016304,463844
20.99,5758637,472440
19.97,7407014,465050
21.18,5766955,519600
19.80,7401563,1214883
14.27,10766099,474415
12.92,14545014,745472
12.86,14566551,1066042
13.51,12307448,965845
12.84,14568804,1246358
12.92,14570518,1326548
34.88,1562318,1529183
40.22,1865183,1623978
35.89,1624188,1605023
39.65,1568780,1065207
39.38,1600970,1075018
37.95,1660508,1239551
51.59,1725507,490909
50.10,1679557,526404
50.11,1856460,764895
48.97,1990726,940971
46.18,1981043,1624047
49.69,2122499,421006
49.74,2007645,626068
48.67,1987858,610256
44.32,1988250,1393654
48.16,2093546,377043
44.53,2268267,587420
46.52,2270556,840086
45.33,1210384,349453
45.11,1270319,363471
42.60,1521013,563043
44.04,1270020,739560
41.43,1540320,739399
39.94,1775031,368918
39.52,1770190,562201
38.00,2455335,804571
33.22,2763253,770135
29.28,3833983,371436
26.49,4235833,373202
24.85,4831033,370034
25.35,5691504,603851
24.19,4852430,858838
25.13,5800000,946907
24.40,5699793,1229659
18.91,9416060,372457
18.89,9402556,725213
