perf, CACHE_MISS_L1, CACHE_MISS_L2
53.21,1083582,632867
49.80,1192961,833354
14.03,7270551,2587855
53.75,1081669,470088
52.13,938786,317452
48.24,1022236,216182
47.07,1034998,247414
33.77,1888713,582302
51.85,1075847,507858
32.77,1873298,910487
22.91,3662246,814581
21.63,3622615,1882285
51.61,1107985,694281
49.79,803690,403701
48.80,847627,1153900
17.75,1591201,1158436
17.22,1370005,1232960
51.52,613870,170927
50.52,1194823,486598
46.67,1298264,393159
50.27,978824,221847
50.92,601167,336916
50.74,463243,171258
36.35,666904,561215
38.55,716664,608137
51.67,613338,117656
50.99,621165,176779
16.58,1746933,1161094
47.42,1078770,223251
23.01,3665911,308939
17.45,7250868,709508
10.66,14427676,589352
39.22,731217,423055
49.46,666619,210624
45.24,635735,145451
16.94,2792045,713120
38.29,1084062,236251
14.43,6294509,346254
48.81,863594,1142204
51.70,429691,139618
50.91,450575,144068
38.78,574192,207925
37.13,628296,461673
15.33,2611746,199701
49.93,705477,323832
49.75,648235,217415
44.99,651890,132827
16.92,1886698,211669
49.91,550262,263085
29.71,780852,314208
50.31,623227,198038
43.52,706755,315032
40.07,846942,786422
17.05,1943948,661364
36.48,676697,594198
42.80,762679,542590
40.99,800657,547962
41.11,1217020,871869
35.83,1391129,391155
26.69,2745047,657137
19.19,5481889,954427
12.37,10880791,2695565
37.17,1425467,378682
47.90,590752,300834
24.97,2068443,1499261
47.46,1315864,707653
19.14,1944500,1211348
21.29,5120145,1164490
45.41,1398905,1291257
21.74,1484307,896902
41.69,1361465,2114355
48.74,1087467,112612
50.49,1322170,637200
47.86,744411,364419
45.17,693533,216964
31.43,2090271,559359
27.87,2106876,498568
47.13,1277538,250784
40.90,1427929,414174
32.51,1166915,262930
22.66,1697970,170676
46.46,667533,337524
39.34,711859,582237
32.81,739751,171130
38.98,1257174,1967646
43.69,1151238,970504
63.39,2110726,483315
62.70,2159735,351519
57.58,823006,259795
41.76,3074506,817073
42.22,3076601,792589
62.83,2107650,596314
63.72,2160800,353605
49.75,1917699,1542784
62.41,2315102,642058
61.73,2334166,644448
63.71,2123318,364655
62.67,1137727,516554
57.42,793284,218486
45.27,1181767,618466
50.41,1985112,1804670
39.18,1522372,633299
43.53,2452673,2257635
45.95,2309059,1459993
45.84,1753024,633395
31.02,2278026,1277000
47.39,2072674,1508622
62.72,2160235,447501
62.83,2478459,599759
58.76,1319878,581344
48.32,1903686,1650001
62.73,2333237,607079
53.67,1111985,426826
47.24,2177756,2059344
45.13,1910383,1639632
53.34,2282463,1954772
62.38,1123101,160018
47.62,1238244,368431
39.81,1860397,601281
43.50,2092054,738692
47.48,1915504,1739671
62.23,1933505,808428
46.03,1661921,496082
45.25,2290538,1532061
61.35,2320245,449260
43.45,2332235,579801
57.38,1967545,1316174
65.75,699230,201268
59.87,794567,486373
46.20,1613649,180615
49.13,2420800,2172548
57.66,1624721,213386
41.38,1935618,1876147
58.45,2014754,545209
63.07,1937283,160023
45.19,2034065,230232
45.91,1904670,1694086
50.05,1123867,170730
50.12,2102221,470272
42.95,1978677,1271480
58.26,2315874,355924
57.15,3009191,834203
51.21,1301743,508961
54.05,1358915,256185
51.30,1208240,586739
53.91,1313152,631578
52.49,764136,437636
48.44,1106569,759436
53.29,1233173,222942
50.15,940031,413951
52.21,1038960,201659
44.19,1264099,1091163
53.35,1359858,366702
52.99,646321,199721
53.56,653902,206952
42.96,1501611,564656
53.37,737795,175045
46.20,700953,165056
46.04,792737,267381
28.33,1657407,578459
38.05,1466548,259373
33.64,2328523,474387
35.43,2513885,288542
35.60,2051949,423617
49.12,1298179,1358414
53.04,755280,207682
49.65,787974,220051
48.08,789317,473819
36.95,1594477,145690
52.46,1170731,286281
48.18,1491497,253641
37.30,1641831,406569
32.96,3076883,423469
50.89,1466965,899236
53.18,717263,187141
53.01,756513,198229
39.77,885545,174447
36.68,1149596,1096415
52.04,1322385,563867
46.63,1252241,702782
46.21,1573440,881590
48.99,1240677,486303
49.73,1269793,793085
36.75,2437230,600957
38.97,909889,272081
29.69,1962432,872357
22.19,2731105,1481932
22.32,2728780,1407882
22.25,2723708,1447995
39.90,751873,615788
39.08,748589,601497
42.45,842899,419841
40.97,968388,518939
40.13,971005,430741
40.28,753131,592972
34.73,1035646,280488
19.41,2746238,2141917
38.51,658600,573612
39.62,897809,394971
36.96,981784,611314
32.89,979878,449731
23.32,1975346,1356274
23.06,1981219,1382368
42.06,764079,402847
25.20,2757110,673609
24.29,2736712,1330774
37.02,671391,880517
40.69,740098,327104
30.94,839971,295068
21.76,1978285,980531
37.70,719393,237349
35.64,727894,725776
41.31,764963,461148
25.14,2749626,674820
20.63,5209089,543866
34.65,924005,261296
34.37,1026860,311975
40.13,699531,555159
22.92,3117153,618959
39.99,742528,394716
40.50,799280,156950
39.72,770292,311949
32.31,838596,336404
23.91,2471431,196726
33.87,663269,422359
33.03,663798,459968
24.99,1785354,348988
29.34,1102971,171850
28.81,1610947,178094
36.17,1963080,1251356
52.57,592263,254283
52.26,652322,440429
51.93,652153,451198
45.05,1403243,1123247
34.60,3269512,1459882
34.57,1901765,1697257
51.80,558307,209623
52.04,620744,318970
44.80,837980,382838
33.09,1906954,2241330
34.95,1964834,1664213
53.80,835019,409033
38.86,1947179,799915
45.63,1112964,787495
42.64,1176345,333366
37.73,1973129,865165
39.17,1941855,723863
52.50,557541,127284
52.15,559354,198589
47.49,823727,294697
30.11,1930911,2711452
27.78,2680073,460707
51.58,681828,229351
39.49,2021235,713487
42.51,1231309,576136
25.80,1904448,4983450
28.94,1939224,3066870
28.30,1937249,3257252
28.40,2271961,169170
40.01,1904128,318400
31.65,3202770,311504
38.91,560951,242092
41.10,1165130,1062820
47.02,1197375,424882
47.04,1259250,318875
46.41,1163864,530048
46.23,1159822,548653
41.03,555793,216892
46.79,1224562,297325
36.35,1139235,1688355
43.96,1125871,190932
39.25,592841,235445
45.33,795864,177444
33.26,1110337,3010634
45.87,1187771,337231
44.49,1132361,178868
39.68,1133285,1291432
46.67,1163835,527587
31.41,2508610,465687
29.68,2468880,676546
42.99,1166164,1266434
40.31,867945,278097
32.86,1131928,146083
33.16,1889098,438283
40.48,1171697,1980159
40.24,1688862,305487
33.49,959922,171120
44.54,1382112,321358
40.81,1698352,304534
40.26,1686715,567213
40.77,1865707,558429
29.75,2683401,309815
58.59,1448401,467507
38.21,1337394,379767
52.24,1404844,1168443
43.95,1544771,893165
28.41,2660533,1012020
28.50,2659082,997726
56.80,1369675,602235
52.13,1505238,577237
28.51,3111735,2581777
53.31,1373229,1165224
51.84,1414753,466790
46.86,610886,326583
30.12,1361271,1002189
31.81,1238469,1106499
51.53,1253455,146782
31.11,1116664,751863
45.83,1053959,192439
45.48,1114318,228705
41.30,1226946,340530
31.81,2254862,1205827
45.56,1232836,994958
49.70,584190,191276
39.40,1874999,1259816
29.18,3367106,937997
48.52,690859,170608
45.66,798644,190148
39.92,1207424,776311
51.41,1216432,203827
51.42,1318418,342418
43.38,1166530,281011
50.18,1190619,275410
46.83,1081324,225071
49.48,1308324,581147
49.15,673393,361722
42.11,1085919,500727
45.67,1190351,1161210
51.85,1368013,278249
49.49,808524,216614
41.84,1113370,164759
48.62,1215562,441916
50.39,1508679,525819
48.62,1329073,1450323
49.43,1054442,228458
49.73,783809,191377
51.09,1261383,317967
50.32,1223415,307852
38.88,1655927,339891
45.47,1400886,1223778
46.23,2143116,1356299
47.89,2128804,442125
38.09,1635398,730691
32.91,1316386,764539
30.41,2473095,1407077
50.48,825225,337754
34.15,1139318,732963
47.87,2167262,1256310
47.04,778336,197493
31.36,1096851,629296
28.92,1238924,612853
40.52,1039292,183670
39.49,2214995,3464022
26.65,3247213,1279917
32.79,1217433,806604
43.50,1129691,146934
36.07,2161039,5104123
27.36,3054907,1270870
37.19,1964752,771721
45.27,617750,259221
36.72,1817804,760018
39.99,2213796,3353976
37.08,1923151,251384
32.66,2064160,287042
41.47,864657,133166
36.45,2025473,608253
42.74,1149706,329251
31.50,1580229,271312
36.95,1908204,200123
30.33,2201018,175238
44.01,1191358,950626
50.77,1415929,459184
43.50,687216,265921
36.80,1045154,388817
50.93,1423366,361441
43.38,1013222,492808
46.19,1055957,495717
25.35,2612942,2526714
47.46,1291117,1344114
43.75,1066330,618289
42.20,1223587,3072092
45.43,1454660,577552
24.43,2431235,1305291
43.56,1197397,1061714
51.00,1423861,344510
47.59,1255414,1260156
50.65,1391674,424462
43.03,984792,681372
48.03,1044503,162466
44.24,1061999,486503
43.29,1271881,2090698
49.12,1152323,209627
28.48,2120005,653751
49.82,1274734,271628
39.39,928777,369011
32.28,1470253,465139
29.07,2575625,491637
47.26,1220231,419369
50.19,1132254,115659
40.60,1166813,1553350
47.64,1185769,759070
30.23,2054369,198536
44.37,1189892,1074766
40.15,1216816,191106
46.94,1203721,384352
43.83,1191251,1175919
40.04,978964,323244
34.51,1158631,3160835
34.44,1176115,3172502
46.42,1249153,314967
40.74,1237268,302670
58.72,1472243,606345
35.61,3171635,1148927
18.81,7269174,1852652
11.06,14520494,3373712
37.17,3086228,663426
35.96,3083123,1188151
36.62,2636703,755125
11.47,14511562,2873885
53.78,1227234,584394
55.67,1415266,656109
55.95,895214,281404
51.27,1033333,584991
53.62,862537,463739
48.69,1241357,1189175
39.85,1044810,870745
35.41,962603,518293
15.64,2495763,1653997
49.29,733801,193124
54.99,1174158,427042
54.59,1232745,533329
32.99,2238722,1078138
32.68,2235130,1131438
15.91,7564623,2215061
54.41,537458,180481
38.32,689992,327867
36.68,736145,450039
17.94,1707537,1209457
17.61,2011739,899870
37.28,958667,844828
48.90,791240,214723
25.50,1782911,877753
55.53,1130992,560626
56.00,719024,220188
37.29,948452,821310
37.56,948840,804072
52.54,918930,431824
49.27,788810,156780
27.91,1715907,403939
55.81,612685,211399
54.38,559243,258654
27.07,1617402,137334
45.12,1026262,1552814
45.62,1119788,1322464
54.06,558894,330055
37.69,732747,127236
24.74,1591814,731715
18.87,2146617,417729
18.55,2825138,473927
40.68,1006262,630786
48.04,1153835,1583422
47.62,1290715,1284599
52.57,625187,443558
42.74,562063,184724
38.70,654624,178036
24.70,1500377,960499
19.58,2554703,188794
54.24,964892,321746
39.16,1039031,712827
39.80,912917,306504
57.06,1338875,529003
48.48,1024676,283186
10.78,14516446,3837746
10.80,14514874,3395893
50.31,1050441,385594
10.98,14506949,4439470
29.90,2926451,2082934
22.56,4479452,2345055
51.59,1140541,767287
56.02,505971,168672
25.01,1207197,855997
48.34,846567,258900
26.18,1145723,655299
19.19,2578708,1661471
54.58,1027122,512829
30.84,2467644,1145091
33.74,918025,325439
55.13,920193,314139
24.97,1673973,507172
21.39,2654445,828979
16.70,8075461,599420
50.45,803821,158028
54.60,1232994,938394
54.21,872421,214763
55.24,584698,267806
28.19,1880926,180035
48.00,1300205,1315224
53.23,825889,442614
45.42,545276,125594
37.08,951026,827094
40.72,1120870,971267
37.27,951377,837867
24.41,2255589,176964
45.31,975421,1503803
45.32,986953,1522156
53.41,530262,409228
44.51,718480,302273
43.77,1024146,511627
36.78,1206023,187986
28.24,957534,179597
26.64,1785795,180657
26.70,1793513,341478
19.96,2565753,1057747
40.11,1210515,540355
39.69,1473818,863765
56.32,1440500,394254
55.60,1441397,483342
35.33,3246265,909809
10.94,14534764,3316695
57.82,1336611,415292
56.36,1121568,605305
45.47,1295816,256981
32.92,2234673,1215623
14.29,7502215,6130004
57.46,601173,215269
17.38,2940257,2316827
48.14,1077924,1025302
18.72,1641669,1847134
47.71,843823,238801
56.06,1440569,446675
21.14,7265322,1114355
11.80,14524837,1512860
43.49,2047723,728508
33.74,2301092,955832
32.90,2314799,1251755
54.80,715311,362336
41.24,1051126,900777
52.33,1118619,494071
54.25,1213048,418865
55.64,1112992,243378
56.51,1128170,554401
56.00,1131199,599349
34.28,2243767,571330
55.21,888941,171277
40.09,911767,213435
23.05,2759966,686972
53.37,1014659,843893
52.79,1138999,773577
46.61,598505,218450
26.48,1605620,150904
41.37,1008525,614331
51.17,946191,556073
54.72,621956,318947
38.55,706455,179774
21.28,2509598,345414
41.36,1091666,935431
42.63,1188414,760903
24.30,2738426,1161984
42.22,1301385,815801
46.51,1395864,553543
38.26,1451657,1345285
30.00,2749122,722985
47.94,953812,430506
45.60,1487356,698877
43.62,738790,237397
26.57,1717235,1113190
26.54,1091898,631806
22.20,1610633,1367674
40.11,1534318,1360086
49.00,883679,183370
25.17,1284577,626964
39.14,1473347,345224
30.97,1730938,639540
52.19,770141,302221
16.43,8508111,3014549
52.25,678779,265463
28.56,1665939,891765
21.99,2743236,1501881
47.62,725557,120098
41.15,709156,198154
34.60,936015,268512
26.61,1306394,477122
32.70,1502862,2503963
22.40,2484318,834232
32.62,1502039,2627202
46.14,1618951,616095
43.53,1348690,254080
43.21,1528817,902731
39.01,689964,155502
31.19,938398,157971
37.52,1488274,2056779
23.33,2081512,541709
33.79,1500274,2376821
43.09,1357727,337129
41.47,785319,181227
36.28,1031114,333041
25.68,1127112,174217
41.19,1656771,369284
40.88,1593115,475769
47.13,603822,301182
44.89,1635422,760222
21.04,2892440,2124459
46.93,764648,300935
44.15,783909,234687
42.51,729670,143186
39.32,1028163,434389
37.06,1377730,292142
37.85,1711285,583028
45.64,1017365,303584
39.72,1502859,740275
44.74,676503,277175
40.87,758687,205914
21.44,3017842,1555279
21.47,2032264,803181
40.41,1409414,258158
41.00,763929,163899
23.10,2916607,735331
39.17,1343489,148053
37.07,1203637,218352
35.14,1537062,1425904
30.07,1170753,224107
37.90,1404432,596874
37.23,1209729,143200
44.54,1016422,641566
30.64,1518054,2315355
38.91,1349068,337314
45.98,1264390,736726
41.54,1264494,1070894
39.57,1260280,1171461
50.82,789020,206573
36.77,1169438,903439
43.78,1179563,1389114
51.90,1248247,319237
48.12,745723,233286
35.60,1144730,756834
50.59,1190621,264679
54.95,1139858,118752
43.59,1324436,437079
38.57,1830255,849242
29.70,2616235,1658787
37.76,1636912,633195
27.48,2856449,1160512
36.59,1162710,1018533
45.23,796326,278794
34.64,1134982,1095640
35.57,1173649,772051
54.23,1191324,168274
56.38,614851,219836
44.27,1675594,569759
34.77,1113732,1081060
35.32,1138381,737340
46.34,1228106,321298
34.26,2344990,464778
56.64,964233,189753
55.76,677932,166748
55.55,697140,284741
51.37,589166,138227
51.62,587487,195612
50.57,666995,435411
41.96,1263933,171129
44.80,1322799,1285999
51.42,1451517,693108
51.16,1042255,203751
39.02,1293514,252643
48.56,1357700,1449619
46.85,1357669,1417532
39.41,1220690,601806
41.74,1332411,1211755
53.71,1148764,204347
54.04,1222699,202545
45.94,1548146,507817
45.43,1457418,307553
35.00,2271071,610149
47.49,1033073,453577
39.72,778864,324530
40.04,781502,322697
18.40,5373885,2030595
18.04,5375106,2168122
38.58,991966,890637
47.09,1029796,453581
45.44,909153,275660
19.73,5151572,2513236
45.86,1007675,476189
46.17,1079016,339138
39.88,1104259,715710
39.71,905670,864709
41.57,1019694,1172043
27.17,1370670,846335
28.32,1221390,920932
45.50,911687,259173
20.38,5198766,1941549
37.48,971783,912196
39.76,811018,449207
20.02,4789442,2355356
44.05,1020904,435291
30.57,1343780,638549
42.94,1055709,933520
37.92,908316,934723
46.11,1030205,310818
41.88,699787,145917
31.32,1589278,184882
31.65,1638255,277913
37.86,883288,221017
25.87,2084243,266132
42.59,1087049,608071
44.72,982417,352363
37.50,897991,468009
30.85,1820561,180624
33.48,936193,716207
42.78,950546,484582
49.58,1533755,1275411
61.17,1567992,513056
59.64,1169236,457347
54.44,845095,336623
27.59,5179248,2023102
56.46,708787,283674
47.68,996641,480707
44.68,1535254,1075471
43.29,1536861,867414
60.35,1496883,371839
61.19,1134642,386654
59.21,791153,197026
40.40,1381679,1293761
63.16,1395009,115637
55.71,1813370,602403
56.33,864410,318527
49.05,1500432,591734
44.29,2728068,1310378
61.68,1522164,318379
49.65,1022759,349428
47.22,1426017,1447236
52.78,909465,265769
50.25,1009740,261173
31.92,2622195,816723
41.26,1420727,972618
51.08,1872951,718873
39.08,1635723,432769
52.33,1047043,344797
40.24,1385064,1347179
40.14,1399079,1349386
61.29,1460657,199032
59.59,1500648,394335
58.35,1527968,603302
45.77,1405367,1376907
58.72,834298,203378
57.82,1494500,401079
61.01,1425201,272103
62.18,1102523,213292
53.43,967730,172519
51.25,1069306,478569
53.78,1515128,752989
40.53,1543541,174776
34.45,1806239,173342
33.37,2228216,332225
41.10,1453706,1032405
59.84,1430012,336638
65.44,1108387,269885
38.38,2894169,998589
62.96,1624029,413331
66.33,566946,209736
59.71,696449,271242
54.95,1435783,1116517
59.81,716879,237977
37.55,1503180,1337694
67.84,829190,117375
60.89,827319,188508
60.19,1141770,190975
53.12,1683758,754384
45.77,1428179,1255379
60.59,704414,219790
44.65,1090977,446648
40.17,1599608,528720
54.33,1719920,1062399
66.36,1642711,145592
53.40,1237716,189647
51.24,1491503,330806
39.46,1766223,469106
64.27,1515993,335086
64.37,693450,229609
62.77,706531,253261
65.82,1400309,123627
63.06,1117826,135217
49.99,1450430,217597
39.66,1443585,1038807
64.39,1427681,193864
53.59,2389050,421608
63.13,1261081,202997
61.20,955421,476062
56.94,1056459,179629
56.13,1506760,514223
46.78,1678221,174964
45.97,1294598,325772
40.13,1436983,935897
37.68,1588929,173420
39.42,1426297,1063175
54.48,1473380,558834
34.16,3814889,1190622
52.44,1303106,503384
53.16,1363311,304672
25.88,5189912,1972606
52.92,715488,327809
39.69,1156502,1179075
27.97,2399986,1590741
50.12,1373748,464180
54.56,1168665,168563
49.38,1040924,241419
29.95,1945605,868866
49.82,1303259,642731
27.62,5198571,1168671
51.99,1410893,618132
52.32,1235282,587437
51.62,1245537,339535
52.32,854784,238569
45.95,864397,287687
35.14,1512064,475915
33.86,1988088,689338
32.39,1893938,489743
51.73,1234821,636330
44.87,1188955,196261
31.59,3822217,746228
36.11,1125416,1086709
46.67,921348,132523
45.57,1457500,301213
40.28,1316346,1203697
46.14,1368670,225150
53.38,835600,299973
35.90,1178723,1085189
51.58,1038278,194762
37.60,1168181,861203
31.18,2450435,609055
45.32,1264520,1047507
52.57,664308,165103
23.85,5263818,2328868
53.08,1288288,356129
52.92,685594,343246
43.22,1157335,1147492
49.58,1180239,888618
53.89,712236,146506
52.97,737651,286607
30.41,2031829,1470120
45.87,1158063,976109
50.72,1110351,229750
27.80,2268904,1230108
51.65,1117022,497380
41.64,2355470,1097260
42.99,2339691,926690
38.11,2759091,1121368
25.99,5330267,2059273
53.24,1359176,463261
29.30,3263785,1860703
44.89,1179832,1191413
36.21,1149065,1093210
43.79,1266477,833278
53.55,1438715,405010
53.20,1033571,179851
45.92,1685663,756290
52.85,1294824,408393
32.31,3277022,699872
37.49,1181904,728842
41.67,1295293,869538
50.49,1232640,405781
50.26,1232159,478999
36.99,2039480,624707
49.85,1206393,865199
52.75,1272993,370893
51.52,764020,144037
51.76,698179,197028
47.56,874973,139849
45.77,1011776,487303
40.75,1171157,1165856
54.72,771858,144822
54.10,796659,217355
51.65,715834,147502
40.82,1299342,408906
33.85,2641785,729643
53.49,1336522,173042
43.31,1229423,1411425
48.26,1325117,1502412
52.76,1230400,285246
51.82,731966,177542
40.67,1603709,332286
49.46,1202346,539169
31.67,1736897,172317
37.63,1248065,829717
38.87,1787890,310488
40.43,995754,874678
48.87,1032924,419385
47.53,1100150,265441
47.66,1100328,274426
47.44,1099014,316923
47.21,1098416,367906
37.48,1435224,404127
46.81,993389,570668
35.90,1289411,1015629
29.96,2344478,1388817
41.33,895841,807424
47.29,801335,145097
43.79,652318,231938
22.28,2376806,2097572
40.79,916827,941240
32.52,872836,835187
39.02,1165282,439313
25.07,2587336,1697519
47.12,1103461,336344
38.09,960824,903317
47.23,1003883,484879
42.35,782818,328991
21.70,4370050,2333500
40.68,963456,871553
38.21,834084,372425
33.50,896832,661419
46.09,957731,371694
42.55,962337,282189
40.03,1191659,323485
31.92,1382580,552416
29.52,1966264,1023444
45.13,1040385,852655
24.06,4486570,953609
32.53,892943,826028
42.67,947214,535259
32.31,1542735,300765
46.18,1031349,415328
46.86,813167,292923
39.80,928561,145381
39.45,952858,236494
42.13,968303,801751
47.36,1084234,390289
48.81,895042,145768
44.68,1157424,173577
41.35,1276861,526791
29.83,2891054,319564
38.93,1023214,474548
33.47,1023382,176417
45.51,1132239,550851
43.79,960533,508904
30.30,2718793,1156696
32.48,947990,856185
45.32,1018458,319610
44.50,742553,211539
33.73,2439415,1307992
20.04,5372386,2575866
38.61,994621,965750
38.94,992468,790961
31.24,2754169,808555
23.66,5297657,1485975
23.11,5314698,1998459
21.63,5271112,2547074
45.73,1061747,511137
45.27,979111,560598
22.98,3928138,2927919
44.19,987065,814547
44.51,767131,385532
31.44,1390952,1191272
30.37,1443851,952895
46.02,973131,203271
29.96,1376023,840876
26.41,1715546,1734808
44.55,952994,432200
44.01,953213,440429
43.49,931159,260138
45.55,1135183,458872
40.56,1434197,588509
31.49,2756802,687042
24.19,5305089,1550820
23.85,5323934,1863524
40.45,909610,954600
43.27,619570,250538
28.87,1610095,1002313
28.20,1748417,997333
40.06,991055,636954
43.93,957842,431660
32.54,1465375,430874
31.22,1704796,518352
38.36,952689,913018
38.65,953476,824309
38.05,953340,761731
46.29,967021,257751
45.69,963690,278504
43.62,992660,259578
42.33,1022315,259238
41.13,942669,901524
39.53,1326973,274132
34.57,1157334,243838
45.17,1050324,412555
42.43,1393768,241850
44.25,1093816,702911
46.38,902749,195344
33.90,889227,701148
43.56,1021901,771785
33.97,1588147,310203
43.38,745821,324952
39.85,993642,895950
43.72,784740,384739
50.45,1088270,542259
49.47,1187786,463295
37.21,1200667,1055033
20.53,3859501,2765334
20.80,3983044,3612984
20.54,3859557,2778539
44.11,633330,500802
32.52,1379478,1284875
34.26,869076,781638
50.05,697633,127534
38.98,791031,449244
40.27,989066,647090
45.77,941198,320867
49.94,1036862,149459
49.12,907881,181991
30.67,1691612,1275417
36.95,995664,1045671
41.04,995439,717847
48.76,756027,190429
48.28,754597,258022
44.29,932233,358778
38.10,2159722,834228
30.99,2784197,922536
47.15,985752,559581
49.40,1189596,544855
32.53,2165345,708582
40.68,906935,893552
33.56,988579,502151
38.45,983162,896018
45.74,1043039,566889
46.91,940869,291909
49.23,1090226,337584
35.71,1231097,480913
44.12,1034609,994806
49.62,1091373,603066
49.60,1198156,396224
48.53,980857,309200
33.13,2206601,596823
38.54,978065,880885
39.51,968957,633377
38.10,956436,643966
49.46,1172653,368468
33.24,1935946,453909
48.65,1032844,806690
49.27,1155384,417493
49.26,1032234,228111
48.34,748322,219071
45.51,925573,184473
34.68,1456426,400629
42.43,969513,953917
41.26,1047641,240784
34.80,1102458,189182
39.98,1003093,672173
48.42,1000206,171356
48.89,1017871,188439
34.90,1844721,694290
44.32,638491,479887
39.41,987542,686823
47.40,1077358,527315
48.45,976041,310089
46.85,1069548,311505
41.00,1147204,502017
33.79,1963026,346541
32.27,2758898,648827
38.43,1055982,882509
41.64,984776,609856
48.53,1097188,336941
35.85,1415615,603434
49.42,1027935,446992
37.46,1444953,639367
47.81,981426,532709
49.51,1187749,365122
49.45,1188744,430510
48.05,760632,333667
47.75,745629,418062
33.44,2143958,871963
30.92,2110480,1927211
24.08,3982681,2565116
44.85,929394,727635
47.29,1002264,429792
49.44,769614,139336
50.09,702171,178331
49.18,741802,208725
39.53,799147,443469
47.50,861906,272503
36.87,1281489,910541
49.64,1031529,375956
48.76,1097776,292201
47.92,1050081,362369
39.59,1217388,373576
23.79,3965287,2162923
47.40,990603,296375
45.67,1010743,473180
35.44,1007582,530065
33.02,1380365,453220
34.12,877669,571987
34.18,898975,594718
36.22,1687340,480550
29.29,2638955,764199
39.38,950277,905037
39.56,949847,867083
48.81,775405,227679
34.98,2143819,307884
34.86,2152697,504715
26.57,4027985,850362
26.70,4045436,867647
37.22,928370,854636
34.08,918050,694656
47.30,1190950,397998
42.62,1821212,470148
47.65,1056751,518599
39.83,948724,1223896
47.57,1108565,383297
39.08,995471,897964
48.36,965041,297384
47.55,885466,203513
38.74,1818508,392780
35.55,895203,703171
45.61,1006673,381109
47.78,923467,327867
42.16,1029459,177844
31.08,2432343,180016
32.58,888822,830880
36.47,925455,857547
48.61,1105803,341067
39.19,1035823,729345
33.33,983650,713277
52.01,1147954,516479
36.64,1392896,473108
47.91,1097036,305356
29.29,2714357,1393177
47.56,1051171,385461
43.04,961744,890517
43.26,1030770,1038134
37.10,1175640,732888
36.40,890210,964784
47.39,1000655,446645
32.65,1357903,1138442
24.45,2237128,1966878
40.89,898338,812631
46.96,985922,308398
39.67,792165,391611
33.84,1048076,1032944
32.62,1157732,659925
49.31,932669,171074
46.49,1180043,601770
34.25,1643581,805711
37.33,994734,919163
48.20,1054810,244101
48.70,728516,285288
47.88,1021356,589928
32.50,2145756,830076
47.64,1119433,595051
39.41,1337473,468444
27.02,1863710,647995
39.63,1023811,706726
49.06,905049,190327
37.87,1422536,443033
47.68,988498,491091
47.82,1057661,318719
44.86,747562,291498
34.93,2246430,562207
26.50,4024756,761559
26.54,4021803,784522
49.77,907389,135576
42.80,1254879,296369
40.26,1334302,263311
40.98,1318677,261554
36.37,1545526,305475
41.18,836067,217030
40.89,830014,316114
35.36,1497384,444156
29.70,1670774,273393
31.72,879660,832527
48.28,970623,232487
43.11,1288077,338090
44.09,980954,533026
42.64,736988,772716
40.43,993163,709283
37.50,995706,878743
41.78,977754,666575
47.91,922778,328300
45.13,955308,539172
38.25,2231076,806549
30.47,4382065,1338480
54.72,863075,488420
42.87,1761163,977587
52.90,2482314,342671
58.38,616479,204302
45.49,2258881,234900
42.22,1096181,595689
37.99,2213119,2049780
52.15,1215193,133574
37.76,1443759,547078
37.69,1906619,294020
31.62,2597611,1052891
60.32,502743,157229
43.51,2211543,849695
37.12,1856186,590257
38.36,2439761,3549324
44.64,2191311,152742
43.94,2203702,791435
28.13,2158217,5400268
44.59,2180875,190182
35.64,2458089,435654
37.73,2160536,2137613
45.14,2262835,321928
53.69,742713,141872
52.07,1227885,154892
49.82,1101401,144871
28.09,2156723,5372743
41.36,2236169,740980
44.67,1855332,228274
39.88,2305427,174776
33.86,2173482,3276716
51.58,1589328,591045
41.04,2075362,181404
43.75,1903708,316661
44.18,1197162,331413
42.69,1260339,357757
41.74,521733,202159
40.58,1166478,777570
43.46,1198044,384830
43.17,1263683,250057
42.08,576296,273527
39.39,597354,367990
23.77,3858271,2159833
37.56,1131383,1309820
39.81,585248,461948
37.02,1215867,502551
30.38,1364529,1242223
43.06,1221657,756218
30.19,1126294,730432
26.78,1742609,1271841
43.05,1177970,265442
42.57,1199282,456550
38.81,592902,273137
42.49,1163229,543584
43.18,790333,174308
31.17,1109696,3058926
34.20,1139152,1754218
44.24,1154836,165105
38.88,1132377,1049682
30.82,2418779,450939
30.13,2451670,796892
44.04,1141886,120173
32.95,1656457,299084
32.82,1712821,434547
32.81,1269790,161044
43.75,1277633,339030
43.49,1373465,299257
42.72,1329936,372964
42.28,1122310,250608
41.48,969896,198795
42.91,1535727,327360
46.91,834713,344480
38.45,1467001,991713
48.65,1612087,524263
44.99,601544,354474
42.14,1419776,980962
31.91,1195215,650472
43.09,1482123,2295450
46.18,1000451,409236
39.26,1280090,619941
44.90,1598638,735202
47.20,1515621,232560
46.14,1529418,338372
26.43,2605504,1289810
43.78,1496006,1193265
45.32,1540394,1415361
45.10,1541736,1607004
32.41,1386995,515900
31.03,1592086,810501
33.59,1404173,1819620
32.94,1399657,2387685
45.85,1417241,150368
45.87,1404785,156183
44.71,1425238,646966
41.19,870758,387517
33.75,2424280,587179
45.90,1409126,141457
31.46,2391594,447712
46.17,1148088,415120
37.17,1510919,2611590
34.41,1872329,265950
47.06,1550077,219632
46.53,1629878,203007
40.46,1539690,2291376
47.10,1727026,339210
45.40,871951,403269
29.18,2116545,867556
46.52,1590754,499241
46.33,843443,377210
46.01,1560024,651455
45.95,1639743,424960
32.80,1158450,850101
40.08,1524734,1549467
45.07,1663613,492906
43.56,897226,179090
43.51,790175,217263
27.44,1371469,3805986
27.48,1378916,3784303
40.20,1439463,150632
30.25,1754803,638249
38.95,1470226,657776
45.71,614853,276468
45.84,598980,227420
40.05,859232,482671
30.55,2035137,748520
36.86,1524498,2196284
42.88,1593417,381658
31.88,1937112,485420
37.59,1546409,2592837
43.22,1508664,1490705
44.69,1562542,1078538
46.04,1639849,331040
41.05,793417,203988
41.60,1173150,148296
44.37,1725220,262747
43.85,1725452,435401
43.54,1715715,405817
40.22,1860025,294192
32.81,2092426,391996
40.12,1522176,2367240
43.50,1576671,1530345
42.47,1596610,1756513
33.03,2084532,627487
42.99,1662421,720562
60.17,1722233,1042247
51.70,1537080,1073598
69.44,1902508,447001
35.69,2443377,899027
26.28,4655539,1702800
70.59,534981,215644
60.58,608447,352648
38.56,1407089,979290
62.91,1546458,554117
36.92,1333490,608327
43.89,1472558,436984
40.51,1530097,627311
65.72,1624479,335658
51.54,1297617,342576
65.57,1551632,435464
45.03,1413525,986752
44.72,1420798,1002201
45.25,1459571,1123336
59.22,839282,169994
57.56,910182,192341
36.79,1691054,521349
41.64,1426171,1351380
42.47,1450471,1040840
67.12,1446133,156496
34.70,2980058,851444
47.83,1462788,1241660
69.47,550361,217941
61.17,673826,224608
53.28,871169,243844
51.80,916508,357035
44.00,1434668,841854
51.73,1265898,159165
49.13,1420826,1181172
61.32,1458172,933337
69.67,641932,154849
52.34,1009311,144175
53.08,1476669,1319870
66.96,1415197,276345
51.99,1279923,135552
42.27,2092379,180643
52.99,1253127,170256
45.60,1372066,167161
37.58,2956225,1130474
41.25,1458229,1357434
42.43,1433903,1056175
62.46,1459837,468874
59.10,2044161,1324847
60.68,1566852,404292
63.06,510195,130916
25.06,5043440,1178900
62.61,548960,155262
59.72,1544693,301625
44.07,1006812,695251
48.71,1706296,1282675
54.84,1450191,941555
53.72,1496239,1079324
59.38,1773497,660164
61.73,1051009,292707
40.33,1446637,979970
41.09,1172405,907478
54.50,1139803,206688
41.08,1516443,445723
38.49,1738093,689590
62.19,1801321,612468
38.14,2389495,1136085
59.54,1749648,878454
63.01,577643,203215
60.96,1051510,427027
53.22,721106,248644
40.70,1728188,522961
41.46,1556163,780069
53.51,1568267,599271
43.15,1168334,323922
40.28,1231268,516329
30.52,1760010,738992
38.74,1427711,1351203
45.02,1451998,387124
56.43,1485956,371775
51.17,1510722,670781
59.07,1649340,284810
58.71,1449630,286034
54.27,1192353,169855
54.13,1380248,256733
44.86,1554997,289533
43.75,1597200,722462
42.94,1417179,181855
43.49,1764255,1565078
42.25,1828866,620789
44.32,1871561,1239780
56.88,1858885,529308
45.18,1746455,187737
39.60,1544786,1017851
54.18,1501008,542759
47.04,1924485,536128
46.82,1225800,361760
29.43,1940394,705976
44.71,1219672,608343
23.68,2833759,2871403
23.21,2789341,2967360
28.26,1281881,938814
46.33,1390124,553131
35.51,1347649,1109383
36.37,1221068,430361
28.23,1649899,669160
29.12,1595710,990372
36.71,1159546,1943493
36.65,943781,366919
35.27,1172689,2096073
36.40,1171531,1670224
45.75,1212495,309605
30.84,1432755,464595
41.47,1240243,3044108
45.52,1155559,180274
45.18,1155183,262909
31.30,1527144,318397
45.35,1261475,292111
37.96,886004,129526
32.70,1151339,3188883
36.82,1156429,1936958
39.68,1198232,1228996
45.28,810089,191777
42.16,748400,327611
32.99,1148382,3196653
44.26,1390572,340902
33.49,1941161,610007
41.81,1452871,860695
46.19,1539287,284554
51.13,510613,124578
44.79,547340,196127
27.42,3430991,1327919
44.17,1448423,666763
45.09,1456416,651019
42.21,1441620,918427
45.83,604787,211039
36.74,1014196,325652
31.01,1673388,643508
46.19,1540911,283763
26.44,3462183,2109411
32.63,1273123,785040
32.73,1435436,2148160
44.78,1464073,276746
42.49,1386479,217826
28.65,2323947,390116
46.75,932947,166427
43.17,1324375,129841
28.48,2675502,201224
34.76,1432242,2374925
41.03,1511660,780381
25.97,3742511,1079962
35.87,1011468,483537
35.60,886561,579151
35.22,955634,368991
36.78,1475285,695823
40.79,1393985,146626
40.63,1411360,148444
40.84,1551756,315101
42.90,605970,254853
36.50,894894,513251
29.63,1244002,512191
39.41,1631087,2395579
38.12,1717713,406950
28.69,1990359,501865
34.06,1437758,1342708
47.04,824589,174385
42.83,623514,212695
40.07,1653943,2488963
45.45,741190,182673
38.74,818282,132709
34.11,1762941,210709
31.34,1414446,240002
40.35,1652532,2658070
38.64,1343271,135619
31.53,2143001,123302
38.13,1635534,345128
26.95,1420608,3925722
29.78,1445280,2214779
35.12,1580848,321068
42.06,1989962,1037223
35.05,1714879,584556
