perf, CACHE_MISS_L1, CACHE_MISS_L2
37.49,1813981,801088
10.01,14469342,5885487
45.64,1336675,372411
12.52,10046684,2620502
59.45,601589,226759
47.41,1061511,426163
25.53,3365976,1369960
62.78,321893,109140
62.81,289656,96927
25.52,2037244,773549
29.90,1212037,79093
60.75,537741,59260
26.09,2512068,63087
59.68,1009771,58593
48.36,1569852,54500
50.82,710456,1197229
18.10,4515203,6520145
12.10,7236405,5766971
49.62,1148092,448440
35.21,2230845,829835
9.23,14489604,4117818
38.73,1759297,477703
27.65,3462660,898635
12.32,9075445,2908244
53.76,876000,244859
39.58,1627489,450734
19.75,4547225,1492649
12.27,8756447,2824933
17.01,3126764,1150833
62.21,420833,100353
24.47,1338920,381557
56.44,268142,73014
31.72,1003824,82077
40.70,775111,65989
30.93,1180608,72799
46.56,474440,487216
11.18,10889347,6185748
50.07,422580,130077
39.09,1227367,337541
28.71,2789146,893208
39.33,1353236,494877
24.95,3409342,1638694
50.44,428019,140563
39.77,1274267,509017
40.88,400205,350338
27.25,849377,700857
21.44,1554822,1399854
50.99,344853,132873
26.74,904279,677693
47.87,544904,104722
40.80,636759,191805
29.22,3184584,608697
20.00,5473616,856863
46.03,731859,201186
30.56,2810289,651638
13.47,9442352,1867959
40.41,933254,306229
51.08,273253,102908
41.53,401432,235898
33.69,972801,647623
21.80,1705120,1376231
41.50,512720,360091
27.25,864015,638356
21.60,1565765,1274309
47.71,407348,182654
33.58,819875,580197
40.87,797397,307577
31.47,1543969,567791
21.80,2302923,1275854
50.08,455760,83685
39.98,1422593,253576
13.49,9423565,1686709
33.26,598283,320689
51.35,536694,73763
48.03,546218,93006
20.45,1810481,1245538
31.69,1283353,323412
30.20,1613845,631572
21.74,2299537,1260772
41.80,413828,219181
51.40,347215,64616
42.06,557397,230266
27.51,911396,493372
21.69,1584346,980820
48.20,619811,119102
32.79,801750,345078
27.14,1126669,495529
31.82,1280523,292613
22.36,2300752,1044018
33.06,1683575,437404
34.01,850491,452120
23.06,1540066,1585973
51.39,538735,62413
22.25,1794347,1608664
52.44,997316,64330
49.38,1018388,113959
41.36,1106196,220803
48.35,295925,101286
42.48,409146,144631
29.96,902795,497212
24.83,1645159,656168
24.67,1576563,599707
48.31,285915,92828
42.43,377901,117360
24.99,1541303,616022
41.19,1308034,159779
34.44,1606253,278006
51.39,326641,57006
34.69,604419,98284
48.51,555536,72735
34.02,824981,84474
49.44,1027285,74909
51.18,548180,57161
49.47,1039596,58563
26.56,2249218,60073
52.11,1013284,53150
49.34,1152410,55472
43.37,470731,667150
25.88,3185804,914742
12.56,10857389,2363573
42.46,648484,192454
46.76,414740,123394
38.57,412090,359824
31.09,676709,713776
47.47,261507,110390
44.44,268603,188237
30.86,888103,878305
44.51,310045,147280
38.59,508833,427999
26.64,891366,762454
38.08,575638,225873
35.33,1361712,280915
46.39,438723,112792
27.35,2455815,533038
20.66,4861285,936664
13.27,9646013,1896031
46.94,441680,119177
24.85,3369392,1194942
47.65,309296,113226
44.71,380913,192947
44.60,308407,106949
38.74,396429,194267
47.69,889206,103380
42.82,649917,122081
13.13,9613545,1677441
44.89,280813,115649
39.00,523237,239978
45.05,491219,90659
25.93,1067695,633442
29.65,1465516,463967
25.36,3544129,871787
39.24,633521,231914
20.82,1742673,961905
28.94,1489184,527736
47.13,436633,69042
25.64,3363952,857914
31.65,599234,430747
22.04,1575555,1448707
27.17,1067625,798281
29.22,931507,464815
44.91,308325,99006
45.03,493461,95276
48.03,891193,63752
30.55,1155388,242192
44.99,897509,93532
32.32,578821,111011
28.51,1102517,116046
45.13,495495,61993
38.98,586914,60629
47.70,897848,53269
38.96,1009537,66577
25.31,2138297,72427
47.75,906230,54689
41.56,1047308,55410
32.83,1661719,54695
24.58,6037066,2546403
26.55,6056536,1953403
69.31,277214,99776
69.08,315416,114783
31.33,3783438,1731487
70.02,313267,122069
70.01,330729,120037
65.24,767821,470729
37.09,2587876,2259371
60.31,699079,308107
45.14,2022731,659269
66.39,491592,166372
48.25,2313098,122513
69.25,715909,60393
55.57,1613353,63905
48.78,2586022,62644
61.12,1635952,56504
55.28,278435,232744
22.11,5517975,3025106
54.57,363419,141133
50.22,1001801,381928
43.64,1400444,538262
35.16,2771846,1092477
57.22,271096,121729
40.53,1704536,1380876
57.19,312662,97872
44.98,1109900,507632
56.59,425877,147373
48.96,667702,315536
45.07,1108154,619963
55.75,589838,60817
40.36,1448488,64765
51.61,2001337,55246
38.10,1363525,781019
57.41,354961,148183
49.71,696398,281108
39.62,1904984,809208
34.98,2731722,1093364
50.88,649702,345243
58.73,303170,205359
30.61,2053077,920665
58.21,958599,54147
31.51,3550472,63788
32.76,651911,700691
21.72,2592097,2644078
40.27,268527,300538
17.46,5170407,2898264
40.53,390025,215016
34.85,900379,455281
31.54,1682340,882836
19.68,4028621,2762549
36.24,664273,426410
32.58,1017024,728418
26.51,1994829,1485606
42.05,284283,112319
40.36,377253,175352
24.77,2367305,754560
41.49,285139,107497
41.69,352277,149427
28.95,1261606,347946
42.67,313597,81475
43.81,398713,59938
36.50,706140,63156
25.63,2372603,64301
42.53,676684,56094
42.68,738183,55660
29.01,3195239,57246
57.48,219998,137274
27.03,4263003,2195121
40.40,2148051,813005
57.64,260342,139521
55.94,375425,214230
29.32,3478840,1851963
56.66,276832,168407
55.80,411246,293584
55.01,719106,593843
54.68,445856,178743
54.46,469650,137130
33.31,1718245,1263736
52.33,748410,73428
51.57,736062,88563
45.93,1374541,466294
49.66,1667850,265887
29.97,3163472,1276611
58.04,258528,88543
56.51,416068,204907
35.44,2578776,1425177
56.39,431162,169697
35.34,1714742,1233837
57.90,470456,103437
55.95,531360,124333
51.57,738295,80701
41.23,1339730,622549
45.49,1448163,159566
40.80,1929367,623166
43.94,1767722,695864
58.29,311626,82081
49.63,905305,430021
56.36,475106,68511
44.53,1061694,619735
56.92,755243,61420
50.37,836987,158870
32.25,1871945,1237593
45.51,1445681,160768
58.18,299392,64596
56.73,296732,113728
51.06,1224728,457066
48.03,1378423,872861
57.91,599929,233163
58.18,478922,63676
49.69,704411,427897
46.72,996688,744502
45.51,1448781,150311
43.91,1833684,400586
42.73,1889113,627428
57.42,294750,60370
51.86,745667,419389
48.34,1334190,848841
55.29,359683,114758
38.77,1560723,1535040
56.05,799596,116863
46.62,1004643,409174
47.65,1421618,66324
47.99,1352195,116699
43.99,1875341,856693
32.75,2889035,1672207
55.87,347125,99209
50.03,1047261,481376
56.08,806186,105513
52.12,847398,160271
46.36,1259813,465312
46.91,1957368,384439
56.68,451580,142652
52.16,615319,215701
55.77,1337121,65850
54.63,515017,55528
54.55,789289,57325
49.89,1406034,83102
55.81,887499,62265
55.70,1109685,66268
49.68,1519910,73757
50.64,1760591,62606
46.48,1895513,73625
51.25,1881640,55082
43.82,1737834,53897
26.68,1995401,1471868
24.54,3711467,2286424
36.29,1157840,945271
25.73,2886425,3206758
44.25,287652,141696
28.55,1619191,1563408
37.32,779025,900531
28.51,1570848,1438582
37.41,808832,802789
44.64,516115,114082
38.10,989846,703095
43.03,1113000,339468
32.91,1604350,698000
42.78,320440,168270
40.39,656573,265326
35.87,1012891,384037
44.24,217642,108232
40.75,613817,270341
44.21,245479,109195
27.20,2873869,2259162
44.27,287007,123456
43.56,292643,147788
29.25,1563430,1317565
41.25,547091,298581
45.61,564828,90163
38.29,815528,324817
48.02,1044420,91838
39.15,1284558,324185
28.34,2267752,1268998
31.19,1865593,796111
43.60,281854,122983
28.26,2884061,1677310
29.08,1595759,1219792
45.61,365771,73735
28.78,1550280,1223085
45.78,568039,89069
43.91,1145358,192895
28.26,2319362,1239592
43.50,276980,117539
37.58,801626,440745
33.89,1507385,852291
41.71,383806,218067
38.02,573099,419623
33.44,952898,813774
30.18,1628171,1311860
38.44,612133,306349
45.61,570316,94281
34.03,1153128,558311
39.95,1288587,285974
33.87,1617179,542624
43.51,577950,117432
43.65,655282,217172
34.78,1147809,816521
46.92,993118,68793
48.54,1045793,110760
40.40,1471754,454286
34.85,1609646,843115
34.89,944307,363520
48.87,1048661,103238
46.29,1132019,160028
44.14,302425,87708
41.92,1286926,180730
44.24,418280,69488
39.30,858151,82090
39.74,1045874,81699
50.37,1053181,63066
37.62,1636004,110670
33.21,2314597,152966
43.87,676127,67108
50.33,1061670,55942
44.39,1275816,73324
40.36,313502,491596
37.15,498790,425712
42.62,198732,170609
27.96,1996856,933964
22.65,3772833,2379250
23.79,3017904,2852026
29.26,1508329,1573795
23.49,2942554,2958637
39.15,424900,401943
35.48,565857,682394
42.65,279502,119630
41.36,313103,209653
27.40,1533710,1871953
43.64,334265,110448
29.86,907333,849553
43.32,507889,117614
36.03,917960,796646
43.95,822997,108594
40.03,262990,124575
38.36,506068,208145
27.97,1980452,793325
42.37,210306,106408
34.79,981359,467550
34.83,808550,558779
25.50,2939627,2145078
43.17,270232,113428
30.40,966009,845726
42.82,333187,118042
28.16,1501883,1328545
42.54,509633,146823
41.61,1006201,176643
40.46,351007,144366
39.04,623732,241079
34.98,1182241,461008
29.46,1936626,812511
23.88,3791590,1562714
43.26,241290,73891
28.06,1562161,1276955
39.86,413480,175345
30.49,919180,633935
44.31,489710,69726
30.21,1103101,626698
40.56,1061920,218283
27.05,2173738,1258534
39.37,610813,240403
26.38,3035172,1678018
43.39,275118,61306
37.00,753750,453680
28.95,1526822,1094424
43.68,468494,62611
38.74,457401,228021
41.14,352400,121613
31.67,966328,838488
43.95,488808,64257
40.74,598110,215115
45.92,924230,67408
31.22,1518193,726843
32.47,928546,469119
37.69,763773,260828
32.63,1096272,392622
31.13,2167707,789418
41.93,298797,64448
42.58,1006694,121469
42.62,393875,66958
40.68,429216,69315
37.94,788031,78585
32.99,1136152,77336
38.11,790645,61289
33.18,1197803,66055
43.72,871480,59979
41.49,1135187,65833
38.29,1445506,59907
42.95,1078223,55742
54.86,267460,102095
55.72,262234,112225
55.69,265196,99911
56.05,276438,94151
55.74,252108,95749
55.97,255478,119522
55.81,266453,128443
55.85,397752,69307
55.69,385427,95924
55.39,588742,92947
55.91,875893,116688
54.57,241599,188227
54.79,241584,171970
55.87,284357,120315
55.97,282872,113646
55.49,237173,118985
56.65,269970,120210
56.23,251632,94455
53.99,293457,75054
56.38,334293,83047
55.59,299884,87197
55.01,372530,89905
55.95,327923,111133
54.81,570397,55813
52.99,563386,62209
53.04,532009,81546
54.33,489603,109236
55.77,240756,134907
30.62,1656279,656554
49.27,473226,164484
39.58,873678,324838
59.05,252143,146926
56.25,285721,157824
32.50,1348274,822024
49.63,429168,244476
32.12,1722557,1289706
54.28,509199,128167
40.00,770998,321104
48.25,849061,81520
43.28,988382,160637
28.33,1955034,1256598
40.45,1630754,160276
26.84,2984618,1258537
59.75,214957,66367
58.91,264172,105637
41.19,697273,331482
32.09,1225160,640615
48.17,451720,162172
41.45,637817,314046
32.44,1730440,1244048
31.87,996692,618607
54.29,511626,90731
31.30,1684629,1233823
55.25,854814,125360
43.21,1603633,76137
36.73,1810035,312312
56.45,268289,85533
52.62,603171,227251
32.25,1676092,651974
41.67,680837,316618
33.23,2387716,1240335
57.56,377637,72941
32.55,960165,620976
32.62,1582824,1216815
52.21,493140,80613
43.14,979591,159645
42.69,1551507,82140
40.43,1618102,158971
57.51,282621,117165
46.24,718158,433855
57.95,350615,59731
58.43,419707,117248
36.46,1023770,742405
48.97,587772,218942
34.35,1069743,684774
57.42,284079,116005
46.66,669591,424820
39.20,1164720,858302
57.25,376856,61432
52.69,587208,224780
36.89,1569319,1635273
44.78,1414696,448210
35.89,1562892,848366
41.52,1618013,223997
38.17,1786220,433523
32.69,2145180,855043
31.13,2750687,1698137
58.42,568063,103786
45.17,747117,269807
38.50,1074097,454737
49.53,851303,96505
43.32,1635526,64246
55.68,366685,93705
51.34,457062,145748
33.52,2833508,397770
40.06,1270894,116814
50.33,883168,57672
51.33,1101699,84635
36.83,1981643,90411
38.50,1826367,77801
41.96,1130549,60607
36.92,1453881,61504
38.23,1848062,57269
33.11,2242050,68047
48.62,323285,398881
48.91,249944,106705
38.89,897188,352957
44.84,439320,349537
38.42,1186345,920351
49.64,270209,211774
38.94,766337,768885
52.76,282281,123320
25.67,1724648,1728234
49.51,291998,204148
25.56,1559122,1392826
53.19,568570,116210
24.64,1721898,1398992
49.09,288843,126123
38.81,902497,328143
30.06,1745021,684025
44.65,556398,341051
45.95,385623,234432
40.08,589161,424439
32.23,990921,775756
31.58,944630,709138
52.88,365987,103089
54.99,1013826,94537
40.99,1281179,326659
52.82,208768,70063
30.20,1752261,631247
26.41,2851667,1705095
53.28,300065,72623
41.09,829514,450340
45.29,445177,166516
39.61,817901,318945
24.94,1753141,1236798
47.81,1096432,165201
25.10,2318123,1248067
53.11,239271,61339
50.13,267965,116151
52.99,288373,67074
50.41,408758,115770
45.56,568575,230323
40.19,609105,282024
32.35,948414,491240
46.30,660065,150697
48.30,1106060,154908
53.13,242685,60448
53.14,298025,60552
49.21,295095,115262
46.62,501992,228343
34.09,960495,844658
53.88,572794,62189
50.63,576642,112332
47.29,660401,222330
27.32,1738014,1590675
49.03,1101615,217696
42.67,1270977,423903
35.21,977228,367314
34.69,947277,365268
31.74,1559994,574777
34.34,1149952,490435
29.92,1727022,637313
55.33,1017950,60984
34.73,1552808,377263
50.32,296758,89402
34.99,942443,384023
55.27,1016922,60894
43.99,1279455,157359
35.39,1562689,272660
35.77,1004494,82544
50.33,618884,64360
52.36,1027310,69690
49.76,1189314,74796
35.56,1597233,82994
54.08,579512,54235
47.53,832235,65010
30.83,1783595,75552
44.15,1299401,59137
30.59,2384677,63449
53.65,1068994,55071
26.65,2595496,56339
25.51,1829408,1520195
20.25,3642986,3039396
45.72,249059,107821
35.74,934715,404832
36.17,903578,389154
23.63,3522732,1766273
48.41,236313,118482
23.65,2912193,2914485
46.05,280922,202677
48.53,294575,116800
37.78,580555,479543
46.84,519517,135885
48.86,900833,118077
44.66,994251,210859
37.61,1351172,844873
30.39,1431406,724450
48.01,210459,146998
29.34,1852617,728196
23.66,3669906,1366165
23.63,3517447,1495670
46.31,272218,162993
37.87,790037,558504
30.66,1468801,1083760
46.02,347199,184002
42.84,386844,258043
48.91,297902,113998
26.52,1644526,1639456
49.43,346116,104972
46.78,334156,128552
42.71,414430,201835
38.08,588008,367709
30.46,927596,671749
43.50,601009,185139
25.05,1686789,1302986
41.83,474748,179177
30.16,1767270,694793
46.37,331444,98278
31.04,935642,646936
26.57,1549571,1252843
49.42,843543,77963
49.00,228880,60741
42.93,444712,227494
42.89,385509,222631
38.79,600139,425923
31.48,1012279,832938
38.55,588298,329816
46.93,518585,85894
39.00,577571,426049
32.14,978509,835379
43.88,698403,233546
49.61,840564,63344
45.80,993637,212623
31.65,1495959,761595
39.32,592890,221096
32.90,1036055,462410
31.05,1794078,787678
40.06,594475,230505
30.78,1549351,742539
49.70,520767,62048
51.91,897747,61807
46.18,991499,163136
28.43,2156947,594363
46.90,286790,86954
43.79,383867,152716
32.14,1681793,389888
51.48,895309,63560
47.07,333017,65118
43.49,424791,75696
39.89,1033402,112531
51.43,906703,57518
47.97,940032,75774
39.98,1371134,84208
29.33,2302436,93692
46.81,596595,56441
48.07,972568,57944
45.78,1138702,65212
49.73,889564,55480
26.80,2483388,56536
55.27,676083,488643
34.04,2566359,1498771
25.71,3894676,1829647
11.37,14480036,2686668
58.61,750782,238853
36.59,1916695,760570
26.26,3758515,1439298
37.00,1839917,780271
25.80,3547156,1393143
16.48,6592805,2583289
41.39,712845,440667
30.89,1188430,503235
63.75,329659,98908
42.27,634506,212715
23.97,2226071,185583
58.70,639601,56252
23.29,2488245,62650
22.41,3617518,1835634
57.20,725767,244630
53.34,1174790,273342
20.23,6619025,1529196
61.29,482792,127999
57.30,664610,219572
43.52,1163526,419475
31.62,2127065,789604
61.23,480899,128294
32.13,2063787,766653
23.21,4023555,1426337
21.88,2370658,1129570
22.43,2143672,746212
62.64,303104,61906
59.66,304580,75399
46.96,631009,92702
21.49,2199386,210605
44.90,600209,69781
31.26,2084938,58668
37.67,1789419,417132
17.64,7094666,1536572
41.82,1162750,397179
29.96,2974028,847158
21.23,4532567,1455842
14.46,8252549,2669875
26.59,1568917,504837
19.94,2825545,1208534
58.06,453137,168561
44.72,631703,100994
61.39,454326,59222
47.48,906998,66087
51.47,678875,790958
43.86,1249576,1333772
15.21,7244259,4133826
11.02,12376892,2811928
13.91,8147134,2774769
60.64,486280,129989
32.52,2083119,773976
62.03,377416,100515
58.56,442956,142438
46.07,643814,232952
27.35,1225841,310807
61.39,342217,71757
46.66,621113,107042
26.74,1190543,87238
44.76,886622,64398
16.50,7256738,3696573
19.82,7257986,1519622
61.81,685320,136378
30.98,3100054,798778
58.14,774530,237913
25.60,4000681,1545261
63.19,514129,133134
36.43,2104381,783305
60.54,414708,188447
30.73,1260429,641932
64.83,339333,100137
64.40,331902,65278
60.40,407681,90844
53.50,619847,90093
29.24,1192187,90990
59.17,612913,59202
22.43,2450428,72056
60.47,891084,53289
17.02,7244218,3486341
9.45,14463846,6968261
58.65,681611,200895
39.01,1690980,423697
20.09,6726900,1586793
41.59,1127104,398674
24.43,4099868,1450687
62.34,475553,123056
44.65,446439,249958
39.26,735367,400712
29.38,1265306,687150
59.48,343655,131232
45.23,406223,146726
63.06,299349,68841
45.33,429800,67540
39.01,756394,111012
21.85,2202848,195190
37.65,990280,63782
57.77,836208,54572
52.25,1027674,57310
32.52,2084449,55101
14.55,7238051,4456745
18.18,7244850,1689075
10.30,14476973,3212850
59.75,651151,141189
18.66,6878305,1552000
61.18,496074,128317
22.46,4346033,1528473
61.24,488810,126473
32.62,2110699,731491
22.56,4146488,1483469
57.94,348158,160904
58.40,302758,126922
36.66,717691,290432
58.37,379746,85814
20.11,2197209,89745
22.20,1376005,64261
33.07,2026556,54805
15.45,7239014,3638864
9.31,14466086,7748068
57.01,680386,268076
24.43,3621492,769327
53.40,895116,215867
39.22,1771311,414077
42.43,1194771,402439
55.50,863866,241307
43.10,1129322,404058
62.77,390822,106318
44.77,477826,248312
57.87,315591,143631
45.23,419534,84185
28.08,1173960,112156
21.55,2193142,82265
32.32,837610,62514
24.77,1368050,61035
52.44,1306272,54335
41.69,1326547,55157
21.06,3438155,59036
18.96,4621919,5489567
8.99,14467403,8991198
11.07,14480202,3260926
17.75,7261558,1548977
10.97,14487167,3023597
55.60,882591,251357
62.79,506179,130262
29.91,2206518,791811
20.99,4327879,1479061
58.36,328331,127818
32.22,1176417,377044
26.38,1243627,563385
58.61,280575,71783
26.13,1164178,106978
20.23,2189557,97472
22.10,1348139,60872
40.22,1808338,55977
27.00,1958660,58075
47.48,908161,600109
20.59,3615549,2446669
8.41,14463009,9497389
51.07,911065,240049
23.76,4539390,1525525
16.43,7246920,1849524
10.66,14470115,3347087
51.32,918421,225240
55.11,696218,218510
40.16,1703989,466938
29.92,2204506,768099
20.84,4488470,1534622
13.94,8393921,2656851
58.16,549197,186886
64.94,401337,102811
44.80,456754,146731
45.32,591554,88066
31.68,814807,58945
21.00,3368348,57386
44.33,449040,585773
47.47,446592,167606
29.11,2441596,686599
12.94,9509636,2604679
48.56,407201,123996
44.12,556945,205908
48.61,406245,124596
49.10,263724,116756
49.31,321005,115373
49.17,509302,110614
46.07,512195,113422
31.58,770437,392273
20.52,1749557,1392055
40.36,1032530,208343
29.21,1536176,684600
48.02,478206,117226
43.09,771198,184995
35.87,1360110,309455
26.97,2715239,568112
18.62,5438761,1112942
48.21,432157,109085
38.66,1285258,387047
21.47,1721471,1446308
49.48,268057,100805
27.01,851611,670330
46.29,392289,179067
49.36,511301,98790
20.66,1758586,1273760
45.89,953189,95797
49.42,293034,70996
40.27,387363,199972
21.28,1557306,1279747
21.17,1578787,1238586
39.55,605689,176425
40.62,1036278,167839
31.31,1205591,326522
29.43,1549522,637759
45.07,573817,124334
22.21,1710963,1409574
46.37,326633,110499
32.62,584010,353747
26.78,1100762,514600
20.85,1770102,993195
40.67,1037929,194846
48.94,408553,64761
31.96,1744640,436089
26.36,3256824,859632
32.94,882656,447768
46.49,520706,115403
39.95,603383,211768
22.36,2236167,1372268
49.60,286328,62713
33.40,680392,223027
24.38,1636275,672068
23.36,1765806,803728
41.00,1247433,182271
49.81,267084,60651
32.92,796175,101625
50.09,952330,59813
46.21,970214,75195
41.17,1055911,92881
25.47,2296876,118721
40.69,792133,58162
59.03,294942,184779
41.34,1417659,623564
33.92,2804673,1205978
59.67,265599,129398
51.28,601240,294833
37.68,1792781,1331000
59.69,285509,125922
38.26,1729546,1443774
27.01,3246105,2562566
60.69,326738,104740
48.98,693817,410613
60.74,341617,96418
51.12,444321,215054
49.54,768615,83081
34.63,2255433,264337
60.34,604494,61320
59.43,573222,65705
54.78,702764,59742
53.78,349514,200188
32.25,2742432,1493725
19.38,5475971,3105982
42.06,1386013,571793
37.91,2412475,1293179
59.11,259147,125762
57.90,417670,241980
59.18,266590,122287
39.36,1720679,1453179
48.08,666335,322529
43.77,1137299,534417
59.03,322319,97755
47.42,757484,78214
43.24,1234530,81495
54.85,1068634,56123
51.56,1994749,57725
49.29,343485,219418
27.08,2703417,1676168
20.84,5400556,2189301
46.40,663976,341420
41.99,936690,721838
33.95,1832244,1375248
47.27,516392,416652
42.04,926447,746221
48.22,415518,191810
43.18,666894,308206
52.36,307973,133130
37.38,1210030,342871
52.65,353677,64408
53.50,858307,63321
50.45,1044237,58912
46.83,1402571,54579
41.31,674354,459481
34.48,1341755,904221
26.88,2682472,1705892
43.46,682580,305039
20.44,5356508,2222310
20.38,5070068,2620656
48.00,306760,202942
45.16,533751,390318
40.20,954811,700741
48.13,301907,212512
40.32,943691,790469
45.00,414298,237540
29.23,2082350,419294
49.84,360296,70065
35.07,1214551,88101
28.30,2195709,194659
51.11,509283,59552
49.66,505912,58555
27.97,2427137,60599
52.04,901753,53747
48.33,1019692,55255
36.57,2148062,63802
41.60,919680,501781
30.79,1890994,1361370
22.07,3729450,2672041
27.68,2186436,798150
39.16,671994,222466
32.53,1400782,67283
35.59,2054866,57450
39.97,336054,294825
35.62,1004998,754285
21.14,3822797,2769335
29.33,1923767,1476027
21.26,3782161,2809779
35.52,688709,439406
39.75,414982,203840
36.39,682942,207977
43.09,317050,82334
43.94,453870,57318
40.44,1309942,69737
34.39,2086641,58644
53.35,343377,212502
45.28,957379,892895
36.35,1833638,1564176
47.86,979711,455864
49.71,751036,456396
58.76,316412,103393
29.21,2059627,901932
57.04,374203,79548
56.92,544656,55531
55.39,532334,61797
45.56,2109805,54046
33.42,1630853,1481000
25.60,2661007,1805626
49.31,279641,129856
36.28,1325447,712575
29.43,2627263,1383479
19.39,5211495,2717184
49.38,252714,126143
47.90,302579,200965
32.92,1213940,754142
48.22,291057,113456
34.05,1232657,279752
27.67,2089598,443529
49.90,352252,74844
39.81,891655,64731
49.99,944974,58427
40.15,271962,443687
15.43,5217764,4576232
40.52,280690,303808
18.35,5218247,2502087
36.33,669270,367102
34.53,1451850,870243
37.62,756815,437386
42.17,283504,102854
26.64,2153199,468058
42.59,319056,67147
26.62,2146485,79624
41.51,937889,56514
38.80,1290563,55367
32.93,1981540,56036
38.51,922951,1191547
46.35,345942,177484
46.65,345760,188167
28.93,2554704,1409895
20.29,5083979,2697103
37.55,974154,737777
42.57,420483,195946
27.54,2232744,664291
48.79,299517,101873
48.86,295122,120200
43.36,420973,198799
34.13,1201984,291468
34.18,1210735,132840
27.67,2179687,196253
27.38,2450548,59781
49.92,825525,53326
49.42,462770,533712
42.70,915542,979799
26.88,2675760,1665310
17.81,5345759,3338378
29.74,2681275,1142280
19.17,5351606,2233758
38.82,1584943,770776
31.71,2597901,1380699
21.17,5178541,2674392
54.24,254627,123027
51.89,299188,204848
54.81,313142,100446
30.07,2082930,430020
53.77,352311,68276
37.06,1221239,139631
41.86,912312,62634
29.32,2454732,60153
50.93,1273916,56111
35.17,3449265,58473
47.05,337960,237747
35.30,1340000,608141
50.57,289790,129301
48.87,309303,197317
30.10,1875516,1340187
51.16,289120,111591
32.83,1206433,531473
51.21,299414,101820
44.81,411297,195534
39.63,664369,214551
49.64,328320,81728
33.06,1218788,112707
37.26,2068503,55696
30.87,3336836,57950
45.55,262210,436731
33.18,1329425,658225
47.48,286418,136014
34.20,1344259,728963
41.52,543528,383383
40.85,415449,236951
31.49,1255473,497815
25.27,2228143,1197852
45.71,295224,148950
31.51,1208580,102936
26.60,2173864,102288
31.34,1404209,65874
26.02,2439134,69997
49.66,794177,57641
42.11,1328801,55782
35.16,2030789,57104
29.66,3295019,62218
42.77,335122,259334
16.02,5254963,3728762
44.30,309393,197064
29.54,1941816,1329440
20.91,3856620,2637003
41.32,534471,360527
45.32,290634,150587
31.63,1229920,709653
45.20,293580,132874
42.38,412771,193937
31.67,1213137,363382
26.94,2110711,569393
45.83,320321,71873
42.96,446593,76131
38.02,720564,86521
38.35,1217202,67457
50.02,802188,55149
49.14,803882,54964
29.67,3314480,55807
40.84,263252,446202
39.83,332391,289237
30.65,1307726,1117806
23.21,2616396,2209678
41.22,349162,185013
32.32,1326265,709150
25.54,2618834,1425927
41.08,418964,238540
38.96,735795,448654
34.36,1009365,708463
41.25,303948,200071
38.02,756082,452609
34.49,1004649,721581
35.20,687183,291709
34.79,675507,334706
30.78,1315983,346619
43.24,324700,79570
30.35,1192160,132091
30.31,1370942,67012
25.95,2389258,62409
46.44,753478,54636
43.65,939993,55135
39.83,1610361,70723
30.60,1307320,1160742
14.74,5211270,4633964
38.00,664911,337504
18.77,5224945,2723915
34.89,1017415,707556
20.39,3961916,2752541
39.99,416076,203972
30.31,1259531,577613
24.64,2291661,1191827
42.88,280983,121113
26.03,2155677,417182
44.29,330905,78917
44.21,434778,69152
47.35,742266,56348
46.99,753201,55779
41.34,1295194,60794
29.17,3276973,59169
22.26,3944085,1900657
37.95,501471,312641
34.88,963716,602288
28.70,1884683,1218682
23.38,3728733,2383406
43.64,231817,128892
35.20,806504,761200
42.30,275806,208913
39.64,451251,411402
30.66,954324,1086744
27.61,1593635,1785325
36.46,560722,536778
43.49,344365,145081
44.16,536340,104893
37.34,782168,368878
27.40,1675069,1474917
46.18,984615,96101
27.81,2211136,1370318
39.13,511353,199849
34.70,1293871,616054
43.60,212033,97470
41.48,276941,161353
39.97,452409,294866
26.02,2902367,2190145
40.54,375148,250602
36.44,567243,429724
31.49,957079,812581
39.99,377522,224050
43.65,343840,115390
41.11,424733,189178
41.64,617270,172114
38.30,1218025,330305
36.07,1223118,479742
30.92,1906912,790722
43.92,241956,71089
40.06,456539,225347
32.13,1505646,846749
43.28,290151,118210
31.27,937385,633729
44.56,535281,86119
31.80,1129262,630429
46.31,984314,85349
38.64,1227512,325796
39.44,636343,243098
44.24,280640,64666
43.24,283702,117207
37.64,576786,426183
41.20,527384,230950
45.13,521289,68050
38.15,788850,377847
29.09,2239421,1047644
37.67,569918,443860
42.15,624493,220970
39.21,1389842,452050
33.75,965288,405229
32.49,1634024,681186
41.58,434945,164315
38.65,598525,223048
32.66,1537820,617496
45.66,528766,62549
33.71,1118161,371351
47.40,988687,65106
35.06,1541797,396620
43.39,294643,90102
33.50,935615,365510
33.46,1604046,369340
32.59,1778391,88940
44.73,1083424,75611
40.51,1406837,96412
34.44,1229554,61883
44.66,1101079,64032
35.30,1583951,59884
47.85,1007729,58449
37.12,1760266,58312
78.19,241841,135318
83.59,297780,101530
80.16,241187,89460
80.00,239583,92542
83.87,263923,91248
83.01,272773,92004
81.47,434916,83097
78.85,692877,66834
67.66,247908,98413
68.87,234880,101883
70.26,317881,103049
69.66,423113,100724
73.87,236365,83890
74.48,264169,84184
74.79,323905,76154
74.46,344751,74394
73.74,344265,77061
72.80,425134,76868
69.94,673485,75117
70.32,254113,81138
71.32,233466,112267
74.24,256306,94779
74.08,261671,106862
72.37,312610,74333
72.61,307576,99096
71.16,645424,61754
61.58,241546,163266
62.41,253344,107651
64.51,235679,92707
64.45,302025,78146
65.18,310842,90370
62.49,585987,85435
55.81,271180,192081
55.47,251672,89220
56.51,250847,122099
56.70,241557,120658
55.41,310106,97143
55.74,282833,122385
54.16,513224,114653
49.32,178516,254193
35.68,923599,664329
29.82,1848076,760547
50.26,208536,116549
43.65,591531,349264
30.23,1754262,784940
23.06,3506256,1759266
50.43,242552,120616
47.76,268106,188161
43.83,438440,343821
30.74,1471406,1401225
49.98,238542,120621
30.43,1444040,1545312
23.95,2919969,2881639
43.85,383049,354895
43.65,379390,349823
38.52,574109,603857
38.70,822610,868852
48.10,548872,112967
38.22,789338,378875
30.31,1119670,732274
24.53,2318983,1433866
44.06,644528,310268
50.40,214303,94095
37.56,902122,326910
24.41,3529543,1372686
44.09,437189,295601
32.08,1470759,1086225
44.35,384593,272198
43.88,381352,230553
26.31,1629962,1380887
50.84,357919,106695
38.79,789835,329831
24.79,1705168,1291818
39.32,1208526,330038
30.62,1560138,649150
50.42,220754,74257
29.92,1770627,636645
50.65,247557,70966
48.04,349254,135489
26.54,2936388,1681155
26.27,1651988,1314154
31.29,945512,628383
44.70,630495,166834
24.61,1720322,1240356
52.94,951754,72069
25.24,2343340,1267718
48.33,269385,117851
44.37,446394,229326
39.72,790651,446306
32.88,1599560,879591
26.15,2978464,1721036
50.79,282266,61467
48.28,283141,115087
27.78,1767421,1639133
48.20,409406,118542
26.87,1560678,948464
31.06,1131252,494355
46.55,1038541,159902
31.99,1551262,503836
50.77,242995,61816
48.18,349589,123701
33.24,980435,831331
40.04,961035,449569
32.36,1123870,863777
47.21,1040924,221704
40.79,1211321,420931
32.61,1544926,818690
26.12,2320330,1538342
50.94,286197,61526
48.43,347072,104505
40.64,594738,276431
51.55,546196,61621
46.00,628128,145515
40.59,791624,271272
29.38,1717762,627552
51.09,968762,98512
47.92,1049161,146571
41.68,1217976,242107
50.68,300754,60840
40.85,579297,163404
51.12,360107,59153
46.20,638628,67148
34.04,1163293,125746
53.10,965088,57640
49.05,545199,57592
40.69,802305,58317
34.89,1557986,65967
43.98,1323211,54734
26.32,1831101,1427726
20.02,3652821,3210158
22.73,3668383,1596379
47.04,226267,119549
41.23,482571,216477
35.59,1222695,807715
46.76,234388,114479
44.24,361606,232812
41.09,661646,440122
41.22,442909,377620
29.21,1500410,1523879
44.68,277300,203660
46.99,338416,114243
45.06,316997,169935
41.34,570806,241245
30.00,1068332,788790
29.91,1419276,803190
23.58,2082930,1553615
46.72,201146,144970
44.24,336057,229267
35.67,921850,346405
29.05,1820320,661652
30.05,1502616,1119387
24.98,3050601,2222217
45.19,366246,196940
37.35,877908,672134
30.41,1021855,964567
26.18,1854532,1853150
41.84,374973,275985
26.05,1706932,1704148
46.88,348671,111342
45.27,321899,131045
37.28,576332,383742
45.57,487742,116320
37.25,968626,648557
37.13,1290675,644029
30.08,1425859,704418
40.95,485098,184750
44.67,273548,123859
30.58,983127,771731
41.54,407698,184410
37.63,812983,468678
30.35,924164,662099
45.01,541020,124691
29.91,1069351,645093
46.51,845197,96371
43.45,1014534,237903
30.10,1436060,674920
44.98,269862,120144
37.69,817830,445425
47.34,292119,64248
45.19,278911,114922
45.31,324202,102299
41.53,534208,234821
30.81,928211,571762
41.98,573509,170681
25.21,1686434,979993
49.06,833667,65174
46.52,845709,92079
43.75,925703,170412
45.04,271746,117668
27.32,1736650,1698973
47.81,496691,64341
26.14,1709734,1583635
48.96,831611,64833
46.56,850940,109297
38.53,601002,240979
29.49,1889549,873793
32.35,927315,384367
47.88,494637,60816
38.57,739567,213215
32.91,1438712,365605
39.00,852121,199180
32.80,958275,80075
32.52,1109746,80513
32.38,1096825,67089
38.60,1429958,72198
28.91,2146274,64616
34.93,1601503,59487
