[Task MobilNet_01] Current/Best:    0.00/   0.00 GFLOPS | Progress: (0/792) | 0.00 s
[Task MobilNet_01] Current/Best:   12.27/ 182.02 GFLOPS | Progress: (64/792) | 51.46 s
[Task MobilNet_01] Current/Best:  100.06/ 230.19 GFLOPS | Progress: (128/792) | 90.57 s
[Task MobilNet_01] Current/Best:   74.18/ 230.19 GFLOPS | Progress: (192/792) | 133.10 s
[Task MobilNet_01] Current/Best:   25.13/ 230.19 GFLOPS | Progress: (256/792) | 181.43 s
[Task MobilNet_01] Current/Best:    4.61/ 230.19 GFLOPS | Progress: (320/792) | 226.84 s
[Task MobilNet_01] Current/Best:   37.22/ 230.19 GFLOPS | Progress: (384/792) | 275.09 s
[Task MobilNet_01] Current/Best:   12.09/ 230.19 GFLOPS | Progress: (448/792) | 321.33 s
[Task MobilNet_01] Current/Best:   16.64/ 230.19 GFLOPS | Progress: (512/792) | 370.94 s
[Task MobilNet_01] Current/Best:    8.78/ 230.19 GFLOPS | Progress: (576/792) | 422.45 s
[Task MobilNet_01] Current/Best:   36.73/ 230.19 GFLOPS | Progress: (640/792) | 470.96 s
[Task MobilNet_01] Current/Best:   34.23/ 230.19 GFLOPS | Progress: (704/792) | 524.75 s
[Task MobilNet_01] Current/Best:    4.49/ 230.19 GFLOPS | Progress: (768/792) | 579.75 s
[Task MobilNet_01] Current/Best:   35.29/ 230.19 GFLOPS | Progress: (792/792) | 601.43 s
 Done.
[Task MobilNet_02] Current/Best:    0.00/   0.00 GFLOPS | Progress: (0/980) | 0.00 s
[Task MobilNet_02] Current/Best:   36.43/ 149.44 GFLOPS | Progress: (64/980) | 57.77 s
[Task MobilNet_02] Current/Best:   16.59/ 193.75 GFLOPS | Progress: (128/980) | 103.21 s
[Task MobilNet_02] Current/Best:   68.94/ 207.81 GFLOPS | Progress: (192/980) | 150.52 s
[Task MobilNet_02] Current/Best:   15.96/ 207.81 GFLOPS | Progress: (256/980) | 200.68 s
[Task MobilNet_02] Current/Best:    4.30/ 207.81 GFLOPS | Progress: (320/980) | 254.14 s
[Task MobilNet_02] Current/Best:    7.69/ 207.81 GFLOPS | Progress: (384/980) | 310.18 s
[Task MobilNet_02] Current/Best:   11.42/ 207.81 GFLOPS | Progress: (448/980) | 363.41 s
[Task MobilNet_02] Current/Best:   73.81/ 207.81 GFLOPS | Progress: (512/980) | 420.85 s
[Task MobilNet_02] Current/Best:   27.96/ 207.81 GFLOPS | Progress: (576/980) | 480.30 s
[Task MobilNet_02] Current/Best:    4.21/ 207.81 GFLOPS | Progress: (640/980) | 534.88 s
[Task MobilNet_02] Current/Best:   17.28/ 207.81 GFLOPS | Progress: (704/980) | 591.40 s
[Task MobilNet_02] Current/Best:   32.67/ 207.81 GFLOPS | Progress: (768/980) | 652.93 s
[Task MobilNet_02] Current/Best:   13.02/ 207.81 GFLOPS | Progress: (832/980) | 711.56 s
[Task MobilNet_02] Current/Best:   16.13/ 207.81 GFLOPS | Progress: (896/980) | 775.95 s
[Task MobilNet_02] Current/Best:   12.15/ 207.81 GFLOPS | Progress: (960/980) | 837.37 s
[Task MobilNet_02] Current/Best:    9.24/ 207.81 GFLOPS | Progress: (980/980) | 856.06 s
 Done.
[Task MobilNet_03] Current/Best:    0.00/   0.00 GFLOPS | Progress: (0/1280) | 0.00 s
[Task MobilNet_03] Current/Best:   50.25/ 226.81 GFLOPS | Progress: (64/1280) | 69.67 s
[Task MobilNet_03] Current/Best:   33.92/ 229.95 GFLOPS | Progress: (128/1280) | 117.72 s
[Task MobilNet_03] Current/Best:  157.83/ 229.95 GFLOPS | Progress: (192/1280) | 164.25 s
[Task MobilNet_03] Current/Best:   12.77/ 232.15 GFLOPS | Progress: (256/1280) | 211.35 s
[Task MobilNet_03] Current/Best:   52.71/ 232.15 GFLOPS | Progress: (320/1280) | 268.47 s
[Task MobilNet_03] Current/Best:   34.03/ 232.15 GFLOPS | Progress: (384/1280) | 326.95 s
[Task MobilNet_03] Current/Best:    8.38/ 232.15 GFLOPS | Progress: (448/1280) | 391.65 s
[Task MobilNet_03] Current/Best:   12.37/ 232.15 GFLOPS | Progress: (512/1280) | 468.77 s
[Task MobilNet_03] Current/Best:    4.20/ 232.15 GFLOPS | Progress: (576/1280) | 523.32 s
[Task MobilNet_03] Current/Best:   15.54/ 232.15 GFLOPS | Progress: (640/1280) | 584.09 s
[Task MobilNet_03] Current/Best:   26.65/ 232.15 GFLOPS | Progress: (704/1280) | 661.01 s
[Task MobilNet_03] Current/Best:   73.00/ 232.15 GFLOPS | Progress: (768/1280) | 737.12 s
[Task MobilNet_03] Current/Best:   26.01/ 232.15 GFLOPS | Progress: (832/1280) | 817.18 s
[Task MobilNet_03] Current/Best:   25.97/ 232.15 GFLOPS | Progress: (896/1280) | 888.06 s
[Task MobilNet_03] Current/Best:   50.73/ 232.15 GFLOPS | Progress: (960/1280) | 964.23 s
[Task MobilNet_03] Current/Best:   16.86/ 232.15 GFLOPS | Progress: (1024/1280) | 1044.00 s
[Task MobilNet_03] Current/Best:   16.63/ 232.15 GFLOPS | Progress: (1088/1280) | 1123.88 s
[Task MobilNet_03] Current/Best:    8.48/ 232.15 GFLOPS | Progress: (1152/1280) | 1208.51 s
[Task MobilNet_03] Current/Best:    8.16/ 232.15 GFLOPS | Progress: (1216/1280) | 1293.12 s
[Task MobilNet_03] Current/Best:   23.17/ 232.15 GFLOPS | Progress: (1280/1280) | 1379.80 s
 Done.
[Task MobilNet_04] Current/Best:    0.00/   0.00 GFLOPS | Progress: (0/1024) | 0.00 s
[Task MobilNet_04] Current/Best:   52.51/ 157.51 GFLOPS | Progress: (64/1024) | 48.48 s
[Task MobilNet_04] Current/Best:   11.64/ 181.39 GFLOPS | Progress: (128/1024) | 89.67 s
[Task MobilNet_04] Current/Best:   76.49/ 188.04 GFLOPS | Progress: (192/1024) | 131.22 s
[Task MobilNet_04] Current/Best:   43.86/ 188.04 GFLOPS | Progress: (256/1024) | 171.68 s
[Task MobilNet_04] Current/Best:   21.24/ 188.04 GFLOPS | Progress: (320/1024) | 219.35 s
[Task MobilNet_04] Current/Best:   61.36/ 188.04 GFLOPS | Progress: (384/1024) | 265.67 s
[Task MobilNet_04] Current/Best:   63.27/ 188.04 GFLOPS | Progress: (448/1024) | 309.36 s
[Task MobilNet_04] Current/Best:   45.63/ 188.04 GFLOPS | Progress: (512/1024) | 357.80 s
[Task MobilNet_04] Current/Best:   26.84/ 188.04 GFLOPS | Progress: (576/1024) | 405.50 s
[Task MobilNet_04] Current/Best:   56.26/ 188.04 GFLOPS | Progress: (640/1024) | 450.06 s
[Task MobilNet_04] Current/Best:   45.35/ 188.04 GFLOPS | Progress: (704/1024) | 493.91 s
[Task MobilNet_04] Current/Best:   11.83/ 188.04 GFLOPS | Progress: (768/1024) | 543.13 s
[Task MobilNet_04] Current/Best:   39.01/ 188.04 GFLOPS | Progress: (832/1024) | 594.04 s
[Task MobilNet_04] Current/Best:    2.13/ 188.04 GFLOPS | Progress: (896/1024) | 648.17 s
[Task MobilNet_04] Current/Best:   35.64/ 188.04 GFLOPS | Progress: (960/1024) | 702.51 s
[Task MobilNet_04] Current/Best:   21.59/ 188.04 GFLOPS | Progress: (1024/1024) | 752.74 s
 Done.
[Task MobilNet_05] Current/Best:    0.00/   0.00 GFLOPS | Progress: (0/1296) | 0.00 s
[Task MobilNet_05] Current/Best:  141.07/ 200.82 GFLOPS | Progress: (64/1296) | 73.73 s
[Task MobilNet_05] Current/Best:  120.27/ 226.34 GFLOPS | Progress: (128/1296) | 122.49 s
[Task MobilNet_05] Current/Best:   24.43/ 237.68 GFLOPS | Progress: (192/1296) | 169.15 s
[Task MobilNet_05] Current/Best:   74.01/ 241.56 GFLOPS | Progress: (256/1296) | 218.18 s
[Task MobilNet_05] Current/Best:   10.04/ 241.56 GFLOPS | Progress: (320/1296) | 276.95 s
[Task MobilNet_05] Current/Best:   52.86/ 241.56 GFLOPS | Progress: (384/1296) | 347.28 s
[Task MobilNet_05] Current/Best:   64.23/ 241.56 GFLOPS | Progress: (448/1296) | 407.00 s
[Task MobilNet_05] Current/Best:   16.86/ 241.56 GFLOPS | Progress: (512/1296) | 469.69 s
[Task MobilNet_05] Current/Best:    8.44/ 241.56 GFLOPS | Progress: (576/1296) | 528.19 s
[Task MobilNet_05] Current/Best:   64.11/ 241.56 GFLOPS | Progress: (640/1296) | 600.45 s
[Task MobilNet_05] Current/Best:   54.63/ 241.56 GFLOPS | Progress: (704/1296) | 669.58 s
[Task MobilNet_05] Current/Best:    4.22/ 241.56 GFLOPS | Progress: (768/1296) | 739.87 s
[Task MobilNet_05] Current/Best:   71.20/ 241.56 GFLOPS | Progress: (832/1296) | 817.92 s
...47%, 0.01 MB, 35 KB/s, 0 seconds passed...94%, 0.02 MB, 70 KB/s, 0 seconds passed...100%, 0.02 MB, 105 KB/s, 0 seconds passed
[Task MobilNet_05] Current/Best:    0.00/   0.00 GFLOPS | Progress: (0/1296) | 0.00 s
[Task MobilNet_05] Current/Best:  116.39/ 231.03 GFLOPS | Progress: (64/1296) | 74.99 s
[Task MobilNet_05] Current/Best:   12.83/ 231.49 GFLOPS | Progress: (128/1296) | 122.29 s
[Task MobilNet_05] Current/Best:   58.52/ 236.52 GFLOPS | Progress: (192/1296) | 173.32 s
[Task MobilNet_05] Current/Best:    8.41/ 236.52 GFLOPS | Progress: (256/1296) | 222.38 s
[Task MobilNet_05] Current/Best:   51.14/ 236.52 GFLOPS | Progress: (320/1296) | 287.85 s
[Task MobilNet_05] Current/Best:   13.54/ 236.52 GFLOPS | Progress: (384/1296) | 345.19 s
[Task MobilNet_05] Current/Best:  103.38/ 236.52 GFLOPS | Progress: (448/1296) | 410.59 s
[Task MobilNet_05] Current/Best:   34.59/ 236.52 GFLOPS | Progress: (512/1296) | 481.83 s
[Task MobilNet_05] Current/Best:  104.62/ 236.52 GFLOPS | Progress: (576/1296) | 550.02 s
[Task MobilNet_05] Current/Best:   59.22/ 236.52 GFLOPS | Progress: (640/1296) | 603.23 s
[Task MobilNet_05] Current/Best:   16.63/ 236.52 GFLOPS | Progress: (704/1296) | 672.15 s
[Task MobilNet_05] Current/Best:   63.75/ 236.52 GFLOPS | Progress: (768/1296) | 755.07 s
[Task MobilNet_05] Current/Best:   48.73/ 236.52 GFLOPS | Progress: (832/1296) | 820.52 s
[Task MobilNet_05] Current/Best:   25.73/ 236.52 GFLOPS | Progress: (896/1296) | 900.17 s
[Task MobilNet_05] Current/Best:   24.38/ 236.52 GFLOPS | Progress: (960/1296) | 971.98 s
[Task MobilNet_05] Current/Best:   12.86/ 236.52 GFLOPS | Progress: (1024/1296) | 1055.57 s
[Task MobilNet_05] Current/Best:   47.24/ 236.52 GFLOPS | Progress: (1088/1296) | 1136.81 s
[Task MobilNet_05] Current/Best:   42.68/ 236.52 GFLOPS | Progress: (1152/1296) | 1240.37 s
[Task MobilNet_05] Current/Best:    4.23/ 236.52 GFLOPS | Progress: (1216/1296) | 1330.59 s
[Task MobilNet_05] Current/Best:   23.77/ 236.52 GFLOPS | Progress: (1280/1296) | 1429.00 s
[Task MobilNet_05] Current/Best:   28.53/ 236.52 GFLOPS | Progress: (1296/1296) | 1449.54 s
 Done.
[Task MobilNet_06] Current/Best:    0.00/   0.00 GFLOPS | Progress: (0/972) | 0.00 s
[Task MobilNet_06] Current/Best:   90.25/ 139.78 GFLOPS | Progress: (64/972) | 51.61 s
[Task MobilNet_06] Current/Best:   32.97/ 195.60 GFLOPS | Progress: (128/972) | 90.49 s
[Task MobilNet_06] Current/Best:   47.61/ 195.60 GFLOPS | Progress: (192/972) | 131.03 s
[Task MobilNet_06] Current/Best:   52.64/ 195.60 GFLOPS | Progress: (256/972) | 171.99 s
[Task MobilNet_06] Current/Best:   26.12/ 195.60 GFLOPS | Progress: (320/972) | 219.61 s
[Task MobilNet_06] Current/Best:   25.99/ 195.60 GFLOPS | Progress: (384/972) | 263.05 s
[Task MobilNet_06] Current/Best:    8.40/ 195.60 GFLOPS | Progress: (448/972) | 312.30 s
[Task MobilNet_06] Current/Best:   11.63/ 195.60 GFLOPS | Progress: (512/972) | 360.21 s
[Task MobilNet_06] Current/Best:   11.58/ 195.60 GFLOPS | Progress: (576/972) | 408.76 s
[Task MobilNet_06] Current/Best:   35.54/ 195.60 GFLOPS | Progress: (640/972) | 454.83 s
[Task MobilNet_06] Current/Best:   24.12/ 195.60 GFLOPS | Progress: (704/972) | 505.40 s
[Task MobilNet_06] Current/Best:   12.15/ 195.60 GFLOPS | Progress: (768/972) | 556.75 s
[Task MobilNet_06] Current/Best:   32.72/ 195.60 GFLOPS | Progress: (832/972) | 605.57 s
[Task MobilNet_06] Current/Best:   32.20/ 195.60 GFLOPS | Progress: (896/972) | 656.50 s
[Task MobilNet_06] Current/Best:    8.41/ 195.60 GFLOPS | Progress: (960/972) | 709.69 s
[Task MobilNet_06] Current/Best:   21.19/ 195.60 GFLOPS | Progress: (972/972) | 721.99 s
 Done.
[Task MobilNet_07] Current/Best:    0.00/   0.00 GFLOPS | Progress: (0/1200) | 0.00 s
[Task MobilNet_07] Current/Best:   34.95/ 218.35 GFLOPS | Progress: (64/1200) | 105.00 s
[Task MobilNet_07] Current/Best:   47.37/ 226.61 GFLOPS | Progress: (128/1200) | 180.16 s
[Task MobilNet_07] Current/Best:   21.43/ 226.61 GFLOPS | Progress: (192/1200) | 254.71 s
[Task MobilNet_07] Current/Best:   92.35/ 226.61 GFLOPS | Progress: (256/1200) | 341.72 s
[Task MobilNet_07] Current/Best:   56.55/ 226.61 GFLOPS | Progress: (320/1200) | 439.83 s
[Task MobilNet_07] Current/Best:   42.60/ 226.61 GFLOPS | Progress: (384/1200) | 551.78 s
[Task MobilNet_07] Current/Best:    8.36/ 226.61 GFLOPS | Progress: (448/1200) | 639.70 s
[Task MobilNet_07] Current/Best:   28.75/ 226.61 GFLOPS | Progress: (512/1200) | 749.07 s
[Task MobilNet_07] Current/Best:   28.89/ 226.61 GFLOPS | Progress: (576/1200) | 850.67 s
[Task MobilNet_07] Current/Best:    2.10/ 226.61 GFLOPS | Progress: (640/1200) | 953.26 s
[Task MobilNet_07] Current/Best:    4.20/ 226.61 GFLOPS | Progress: (704/1200) | 1057.25 s
[Task MobilNet_07] Current/Best:    2.10/ 226.61 GFLOPS | Progress: (768/1200) | 1171.67 s
[Task MobilNet_07] Current/Best:    8.36/ 226.61 GFLOPS | Progress: (832/1200) | 1274.83 s
[Task MobilNet_07] Current/Best:    2.10/ 226.61 GFLOPS | Progress: (896/1200) | 1390.16 s
[Task MobilNet_07] Current/Best:   30.78/ 226.61 GFLOPS | Progress: (960/1200) | 1499.61 s
[Task MobilNet_07] Current/Best:   21.42/ 226.61 GFLOPS | Progress: (1024/1200) | 1603.90 s
[Task MobilNet_07] Current/Best:    4.19/ 226.61 GFLOPS | Progress: (1088/1200) | 1730.19 s
[Task MobilNet_07] Current/Best:   21.50/ 226.61 GFLOPS | Progress: (1152/1200) | 1871.69 s
[Task MobilNet_07] Current/Best:    8.36/ 226.61 GFLOPS | Progress: (1200/1200) | 1954.25 s
 Done.
[Task MobilNet_08] Current/Best:    0.00/   0.00 GFLOPS | Progress: (0/800) | 0.00 s
[Task MobilNet_08] Current/Best:    4.18/ 127.74 GFLOPS | Progress: (64/800) | 79.34 s
[Task MobilNet_08] Current/Best:   91.11/ 148.94 GFLOPS | Progress: (128/800) | 146.33 s
[Task MobilNet_08] Current/Best:   49.86/ 148.94 GFLOPS | Progress: (192/800) | 216.72 s
[Task MobilNet_08] Current/Best:   27.48/ 148.94 GFLOPS | Progress: (256/800) | 298.19 s
[Task MobilNet_08] Current/Best:   21.23/ 148.94 GFLOPS | Progress: (320/800) | 375.93 s
[Task MobilNet_08] Current/Best:   51.01/ 148.94 GFLOPS | Progress: (384/800) | 452.69 s
[Task MobilNet_08] Current/Best:   50.52/ 148.94 GFLOPS | Progress: (448/800) | 531.66 s
[Task MobilNet_08] Current/Best:    7.25/ 148.94 GFLOPS | Progress: (512/800) | 607.63 s
[Task MobilNet_08] Current/Best:   24.27/ 148.94 GFLOPS | Progress: (576/800) | 689.72 s
[Task MobilNet_08] Current/Best:   21.52/ 148.94 GFLOPS | Progress: (640/800) | 771.28 s
[Task MobilNet_08] Current/Best:   21.14/ 148.94 GFLOPS | Progress: (704/800) | 853.57 s
[Task MobilNet_08] Current/Best:   18.20/ 148.94 GFLOPS | Progress: (768/800) | 941.01 s
[Task MobilNet_08] Current/Best:    7.24/ 148.94 GFLOPS | Progress: (800/800) | 984.65 s
 Done.
[Task MobilNet_09] Current/Best:    0.00/   0.00 GFLOPS | Progress: (0/968) | 0.00 s
[Task MobilNet_09] Current/Best:   10.42/ 128.46 GFLOPS | Progress: (64/968) | 246.70 s
[Task MobilNet_09] Current/Best:   28.22/ 143.10 GFLOPS | Progress: (128/968) | 441.75 s
[Task MobilNet_09] Current/Best:   80.72/ 143.10 GFLOPS | Progress: (192/968) | 634.73 s
[Task MobilNet_09] Current/Best:   26.82/ 143.10 GFLOPS | Progress: (256/968) | 863.32 s
[Task MobilNet_09] Current/Best:    7.29/ 143.10 GFLOPS | Progress: (320/968) | 1076.04 s
[Task MobilNet_09] Current/Best:   35.65/ 143.10 GFLOPS | Progress: (384/968) | 1315.59 s
[Task MobilNet_09] Current/Best:   26.31/ 143.10 GFLOPS | Progress: (448/968) | 1548.65 s
[Task MobilNet_09] Current/Best:   21.22/ 143.10 GFLOPS | Progress: (512/968) | 1780.32 s
[Task MobilNet_09] Current/Best:   33.76/ 143.10 GFLOPS | Progress: (576/968) | 2027.66 s
[Task MobilNet_09] Current/Best:    3.67/ 143.10 GFLOPS | Progress: (640/968) | 2260.07 s
[Task MobilNet_09] Current/Best:   25.41/ 143.10 GFLOPS | Progress: (704/968) | 2503.90 s
[Task MobilNet_09] Current/Best:    2.10/ 143.10 GFLOPS | Progress: (768/968) | 2769.69 s
[Task MobilNet_09] Current/Best:   14.43/ 143.10 GFLOPS | Progress: (832/968) | 3021.27 s
[Task MobilNet_09] Current/Best:    7.30/ 143.10 GFLOPS | Progress: (896/968) | 3299.40 s
[Task MobilNet_09] Current/Best:    7.30/ 143.10 GFLOPS | Progress: (960/968) | 3542.91 s
[Task MobilNet_09] Current/Best:    7.30/ 143.10 GFLOPS | Progress: (968/968) | 3574.06 s
 Done.
[Task ResNet18_01] Current/Best:    0.00/   0.00 GFLOPS | Progress: (0/308) | 0.00 s
[Task ResNet18_01] Current/Best:  179.73/ 229.87 GFLOPS | Progress: (64/308) | 44.63 s
[Task ResNet18_01] Current/Best:   12.72/ 229.87 GFLOPS | Progress: (128/308) | 82.58 s
[Task ResNet18_01] Current/Best:   55.03/ 229.87 GFLOPS | Progress: (192/308) | 130.48 s
[Task ResNet18_01] Current/Best:   27.37/ 229.87 GFLOPS | Progress: (256/308) | 175.57 s
[Task ResNet18_01] Current/Best:   19.45/ 229.87 GFLOPS | Progress: (308/308) | 213.37 s
 Done.
[Task ResNet18_02] Current/Best:    0.00/   0.00 GFLOPS | Progress: (0/980) | 0.00 s
[Task ResNet18_02] Current/Best:   60.29/ 227.27 GFLOPS | Progress: (64/980) | 42.22 s
[Task ResNet18_02] Current/Best:   66.84/ 230.08 GFLOPS | Progress: (128/980) | 74.55 s
[Task ResNet18_02] Current/Best:   32.90/ 232.70 GFLOPS | Progress: (192/980) | 108.82 s
[Task ResNet18_02] Current/Best:  116.09/ 232.70 GFLOPS | Progress: (256/980) | 147.47 s
[Task ResNet18_02] Current/Best:   25.34/ 232.70 GFLOPS | Progress: (320/980) | 183.16 s
[Task ResNet18_02] Current/Best:   17.06/ 232.70 GFLOPS | Progress: (384/980) | 222.51 s
[Task ResNet18_02] Current/Best:   12.72/ 232.70 GFLOPS | Progress: (448/980) | 263.06 s
[Task ResNet18_02] Current/Best:   15.70/ 232.70 GFLOPS | Progress: (512/980) | 298.11 s
[Task ResNet18_02] Current/Best:   54.29/ 232.70 GFLOPS | Progress: (576/980) | 337.85 s
[Task ResNet18_02] Current/Best:    8.88/ 232.70 GFLOPS | Progress: (640/980) | 378.85 s
[Task ResNet18_02] Current/Best:   36.88/ 232.70 GFLOPS | Progress: (704/980) | 424.32 s
[Task ResNet18_02] Current/Best:   53.18/ 232.70 GFLOPS | Progress: (768/980) | 468.35 s
[Task ResNet18_02] Current/Best:   29.22/ 232.70 GFLOPS | Progress: (832/980) | 510.42 s
[Task ResNet18_02] Current/Best:   28.01/ 232.70 GFLOPS | Progress: (896/980) | 558.18 s
[Task ResNet18_02] Current/Best:   41.60/ 232.70 GFLOPS | Progress: (960/980) | 602.89 s
[Task ResNet18_02] Current/Best:    8.60/ 232.70 GFLOPS | Progress: (980/980) | 615.12 s
 Done.
[Task ResNet18_03] Current/Best:    0.00/   0.00 GFLOPS | Progress: (0/980) | 0.00 s
[Task ResNet18_03] Current/Best:   15.31/ 130.87 GFLOPS | Progress: (64/980) | 34.89 s
[Task ResNet18_03] Current/Best:   15.24/ 141.77 GFLOPS | Progress: (128/980) | 65.32 s
[Task ResNet18_03] Current/Best:    8.69/ 141.77 GFLOPS | Progress: (192/980) | 96.30 s
[Task ResNet18_03] Current/Best:   59.76/ 141.77 GFLOPS | Progress: (256/980) | 128.69 s
[Task ResNet18_03] Current/Best:   15.19/ 141.77 GFLOPS | Progress: (320/980) | 162.07 s
[Task ResNet18_03] Current/Best:   21.04/ 141.77 GFLOPS | Progress: (384/980) | 196.52 s
[Task ResNet18_03] Current/Best:   37.68/ 141.77 GFLOPS | Progress: (448/980) | 229.52 s
[Task ResNet18_03] Current/Best:   34.31/ 141.77 GFLOPS | Progress: (512/980) | 263.03 s
[Task ResNet18_03] Current/Best:   20.40/ 141.77 GFLOPS | Progress: (576/980) | 297.32 s
[Task ResNet18_03] Current/Best:   39.43/ 141.77 GFLOPS | Progress: (640/980) | 330.73 s
[Task ResNet18_03] Current/Best:   12.85/ 141.77 GFLOPS | Progress: (704/980) | 364.91 s
[Task ResNet18_03] Current/Best:   26.88/ 141.77 GFLOPS | Progress: (768/980) | 398.66 s
[Task ResNet18_03] Current/Best:   14.57/ 141.77 GFLOPS | Progress: (832/980) | 433.13 s
[Task ResNet18_03] Current/Best:   29.74/ 141.77 GFLOPS | Progress: (896/980) | 467.40 s
[Task ResNet18_03] Current/Best:    8.83/ 141.77 GFLOPS | Progress: (960/980) | 500.68 s
[Task ResNet18_03] Current/Best:   20.28/ 141.77 GFLOPS | Progress: (980/980) | 510.55 s
 Done.
[Task ResNet18_04] Current/Best:    0.00/   0.00 GFLOPS | Progress: (0/896) | 0.00 s
[Task ResNet18_04] Current/Best:    8.76/ 160.00 GFLOPS | Progress: (64/896) | 38.80 s
[Task ResNet18_04] Current/Best:  150.81/ 168.69 GFLOPS | Progress: (128/896) | 70.78 s
[Task ResNet18_04] Current/Best:   74.77/ 180.10 GFLOPS | Progress: (192/896) | 104.24 s
[Task ResNet18_04] Current/Best:   81.44/ 180.10 GFLOPS | Progress: (256/896) | 138.78 s
[Task ResNet18_04] Current/Best:   42.31/ 180.10 GFLOPS | Progress: (320/896) | 174.93 s
[Task ResNet18_04] Current/Best:   54.26/ 180.10 GFLOPS | Progress: (384/896) | 211.52 s
[Task ResNet18_04] Current/Best:   60.57/ 180.10 GFLOPS | Progress: (448/896) | 248.64 s
[Task ResNet18_04] Current/Best:   41.84/ 180.10 GFLOPS | Progress: (512/896) | 283.72 s
[Task ResNet18_04] Current/Best:    2.16/ 180.10 GFLOPS | Progress: (576/896) | 320.38 s
[Task ResNet18_04] Current/Best:   42.50/ 180.10 GFLOPS | Progress: (640/896) | 358.20 s
[Task ResNet18_04] Current/Best:   46.59/ 180.10 GFLOPS | Progress: (704/896) | 396.69 s
[Task ResNet18_04] Current/Best:   53.52/ 180.10 GFLOPS | Progress: (768/896) | 436.52 s
[Task ResNet18_04] Current/Best:   42.60/ 180.10 GFLOPS | Progress: (832/896) | 477.99 s
[Task ResNet18_04] Current/Best:   26.16/ 180.10 GFLOPS | Progress: (896/896) | 515.32 s
 Done.
[Task ResNet18_05] Current/Best:    0.00/   0.00 GFLOPS | Progress: (0/896) | 0.00 s
[Task ResNet18_05] Current/Best:   40.33/  74.85 GFLOPS | Progress: (64/896) | 34.09 s
[Task ResNet18_05] Current/Best:   26.29/  98.32 GFLOPS | Progress: (128/896) | 63.88 s
[Task ResNet18_05] Current/Best:   28.48/  98.32 GFLOPS | Progress: (192/896) | 95.76 s
[Task ResNet18_05] Current/Best:    9.78/  98.32 GFLOPS | Progress: (256/896) | 127.09 s
[Task ResNet18_05] Current/Best:   36.54/  98.32 GFLOPS | Progress: (320/896) | 158.70 s
[Task ResNet18_05] Current/Best:   27.10/  98.32 GFLOPS | Progress: (384/896) | 190.55 s
[Task ResNet18_05] Current/Best:   23.73/  98.32 GFLOPS | Progress: (448/896) | 223.00 s
[Task ResNet18_05] Current/Best:   18.35/  98.32 GFLOPS | Progress: (512/896) | 255.44 s
[Task ResNet18_05] Current/Best:   38.17/  98.32 GFLOPS | Progress: (576/896) | 287.08 s
[Task ResNet18_05] Current/Best:    9.46/  98.32 GFLOPS | Progress: (640/896) | 319.09 s
[Task ResNet18_05] Current/Best:   31.96/  98.32 GFLOPS | Progress: (704/896) | 352.40 s
[Task ResNet18_05] Current/Best:   21.17/  98.32 GFLOPS | Progress: (768/896) | 385.57 s
[Task ResNet18_05] Current/Best:   18.71/  98.32 GFLOPS | Progress: (832/896) | 419.12 s
[Task ResNet18_05] Current/Best:   28.83/  98.32 GFLOPS | Progress: (896/896) | 451.36 s
 Done.
[Task ResNet18_06] Current/Best:    0.00/   0.00 GFLOPS | Progress: (0/1024) | 0.00 s
[Task ResNet18_06] Current/Best:   80.00/ 216.79 GFLOPS | Progress: (64/1024) | 40.07 s
[Task ResNet18_06] Current/Best:   17.00/ 223.49 GFLOPS | Progress: (128/1024) | 72.33 s
[Task ResNet18_06] Current/Best:    4.29/ 230.31 GFLOPS | Progress: (192/1024) | 104.65 s
[Task ResNet18_06] Current/Best:   33.91/ 230.31 GFLOPS | Progress: (256/1024) | 136.88 s
[Task ResNet18_06] Current/Best:   23.13/ 230.31 GFLOPS | Progress: (320/1024) | 175.05 s
[Task ResNet18_06] Current/Best:   55.95/ 230.31 GFLOPS | Progress: (384/1024) | 214.34 s
[Task ResNet18_06] Current/Best:   16.51/ 230.31 GFLOPS | Progress: (448/1024) | 251.35 s
[Task ResNet18_06] Current/Best:   63.54/ 230.31 GFLOPS | Progress: (512/1024) | 292.40 s
[Task ResNet18_06] Current/Best:    2.13/ 230.31 GFLOPS | Progress: (576/1024) | 332.23 s
[Task ResNet18_06] Current/Best:   16.40/ 230.31 GFLOPS | Progress: (640/1024) | 367.20 s
[Task ResNet18_06] Current/Best:   23.90/ 230.31 GFLOPS | Progress: (704/1024) | 406.21 s
[Task ResNet18_06] Current/Best:   63.71/ 230.31 GFLOPS | Progress: (768/1024) | 447.61 s
[Task ResNet18_06] Current/Best:   44.75/ 230.31 GFLOPS | Progress: (832/1024) | 491.48 s
[Task ResNet18_06] Current/Best:   63.40/ 230.31 GFLOPS | Progress: (896/1024) | 535.55 s
[Task ResNet18_06] Current/Best:    8.41/ 230.31 GFLOPS | Progress: (960/1024) | 579.90 s
[Task ResNet18_06] Current/Best:   16.34/ 230.31 GFLOPS | Progress: (1024/1024) | 623.40 s
 Done.
[Task ResNet18_07] Current/Best:    0.00/   0.00 GFLOPS | Progress: (0/864) | 0.00 s
[Task ResNet18_07] Current/Best:   63.23/ 178.01 GFLOPS | Progress: (64/864) | 38.40 s
[Task ResNet18_07] Current/Best:    8.27/ 183.13 GFLOPS | Progress: (128/864) | 69.21 s
[Task ResNet18_07] Current/Best:   99.87/ 185.33 GFLOPS | Progress: (192/864) | 100.87 s
[Task ResNet18_07] Current/Best:    4.19/ 185.33 GFLOPS | Progress: (256/864) | 135.02 s
[Task ResNet18_07] Current/Best:    4.26/ 185.33 GFLOPS | Progress: (320/864) | 167.08 s
[Task ResNet18_07] Current/Best:   48.19/ 185.33 GFLOPS | Progress: (384/864) | 203.88 s
[Task ResNet18_07] Current/Best:   50.16/ 185.33 GFLOPS | Progress: (448/864) | 239.51 s
[Task ResNet18_07] Current/Best:   23.38/ 185.33 GFLOPS | Progress: (512/864) | 276.36 s
[Task ResNet18_07] Current/Best:   34.12/ 185.33 GFLOPS | Progress: (576/864) | 311.51 s
[Task ResNet18_07] Current/Best:   47.35/ 185.33 GFLOPS | Progress: (640/864) | 349.45 s
[Task ResNet18_07] Current/Best:   47.84/ 185.33 GFLOPS | Progress: (704/864) | 386.75 s
[Task ResNet18_07] Current/Best:   48.54/ 185.33 GFLOPS | Progress: (768/864) | 423.23 s
[Task ResNet18_07] Current/Best:   45.55/ 185.33 GFLOPS | Progress: (832/864) | 461.06 s
[Task ResNet18_07] Current/Best:    2.13/ 185.33 GFLOPS | Progress: (864/864) | 479.77 s
 Done.
[Task ResNet18_08] Current/Best:    0.00/   0.00 GFLOPS | Progress: (0/1152) | 0.00 s
[Task ResNet18_08] Current/Best:   86.47/ 203.71 GFLOPS | Progress: (64/1152) | 52.88 s
[Task ResNet18_08] Current/Best:  150.22/ 235.01 GFLOPS | Progress: (128/1152) | 88.61 s
[Task ResNet18_08] Current/Best:  105.47/ 236.05 GFLOPS | Progress: (192/1152) | 124.98 s
[Task ResNet18_08] Current/Best:   54.09/ 236.05 GFLOPS | Progress: (256/1152) | 163.77 s
[Task ResNet18_08] Current/Best:   29.90/ 236.05 GFLOPS | Progress: (320/1152) | 209.11 s
[Task ResNet18_08] Current/Best:   13.22/ 236.05 GFLOPS | Progress: (384/1152) | 255.11 s
[Task ResNet18_08] Current/Best:   17.06/ 236.05 GFLOPS | Progress: (448/1152) | 305.32 s
[Task ResNet18_08] Current/Best:   91.96/ 236.05 GFLOPS | Progress: (512/1152) | 363.26 s
[Task ResNet18_08] Current/Best:   46.70/ 236.05 GFLOPS | Progress: (576/1152) | 407.66 s
[Task ResNet18_08] Current/Best:    8.56/ 236.05 GFLOPS | Progress: (640/1152) | 453.80 s
[Task ResNet18_08] Current/Best:   24.42/ 236.05 GFLOPS | Progress: (704/1152) | 501.61 s
[Task ResNet18_08] Current/Best:   36.45/ 236.05 GFLOPS | Progress: (768/1152) | 548.17 s
[Task ResNet18_08] Current/Best:   60.03/ 236.05 GFLOPS | Progress: (832/1152) | 601.49 s
[Task ResNet18_08] Current/Best:   54.02/ 236.05 GFLOPS | Progress: (896/1152) | 654.00 s
[Task ResNet18_08] Current/Best:   51.89/ 236.05 GFLOPS | Progress: (960/1152) | 711.07 s
[Task ResNet18_08] Current/Best:   65.26/ 236.05 GFLOPS | Progress: (1024/1152) | 765.91 s
[Task ResNet18_08] Current/Best:   14.17/ 236.05 GFLOPS | Progress: (1088/1152) | 828.58 s
[Task ResNet18_08] Current/Best:   45.49/ 236.05 GFLOPS | Progress: (1152/1152) | 885.34 s
 Done.
[Task ResNet18_09] Current/Best:    0.00/   0.00 GFLOPS | Progress: (0/972) | 0.00 s
[Task ResNet18_09] Current/Best:   70.14/ 200.53 GFLOPS | Progress: (64/972) | 46.97 s
[Task ResNet18_09] Current/Best:   63.10/ 207.52 GFLOPS | Progress: (128/972) | 82.82 s
[Task ResNet18_09] Current/Best:   61.61/ 218.56 GFLOPS | Progress: (192/972) | 117.76 s
[Task ResNet18_09] Current/Best:   25.21/ 218.56 GFLOPS | Progress: (256/972) | 154.27 s
[Task ResNet18_09] Current/Best:   63.60/ 218.56 GFLOPS | Progress: (320/972) | 200.05 s
[Task ResNet18_09] Current/Best:   16.79/ 218.56 GFLOPS | Progress: (384/972) | 244.05 s
[Task ResNet18_09] Current/Best:   88.73/ 218.56 GFLOPS | Progress: (448/972) | 287.80 s
[Task ResNet18_09] Current/Best:   33.08/ 218.56 GFLOPS | Progress: (512/972) | 328.72 s
[Task ResNet18_09] Current/Best:    8.44/ 218.56 GFLOPS | Progress: (576/972) | 374.16 s
[Task ResNet18_09] Current/Best:   52.57/ 218.56 GFLOPS | Progress: (640/972) | 418.39 s
[Task ResNet18_09] Current/Best:   54.19/ 218.56 GFLOPS | Progress: (704/972) | 463.76 s
[Task ResNet18_09] Current/Best:    4.20/ 218.56 GFLOPS | Progress: (768/972) | 509.25 s
[Task ResNet18_09] Current/Best:   28.88/ 218.56 GFLOPS | Progress: (832/972) | 556.52 s
[Task ResNet18_09] Current/Best:   25.32/ 218.56 GFLOPS | Progress: (896/972) | 605.80 s
[Task ResNet18_09] Current/Best:   16.74/ 218.56 GFLOPS | Progress: (960/972) | 653.55 s
[Task ResNet18_09] Current/Best:   34.93/ 218.56 GFLOPS | Progress: (972/972) | 662.74 s
 Done.
[Task ResNet18_10] Current/Best:    0.00/   0.00 GFLOPS | Progress: (0/800) | 0.00 s
[Task ResNet18_10] Current/Best:    4.18/ 138.22 GFLOPS | Progress: (64/800) | 81.98 s
[Task ResNet18_10] Current/Best:   31.43/ 154.02 GFLOPS | Progress: (128/800) | 152.00 s
[Task ResNet18_10] Current/Best:   77.76/ 154.02 GFLOPS | Progress: (192/800) | 223.33 s
[Task ResNet18_10] Current/Best:   30.41/ 154.02 GFLOPS | Progress: (256/800) | 303.41 s
[Task ResNet18_10] Current/Best:   49.76/ 154.02 GFLOPS | Progress: (320/800) | 381.65 s
[Task ResNet18_10] Current/Best:    8.37/ 154.02 GFLOPS | Progress: (384/800) | 459.04 s
[Task ResNet18_10] Current/Best:   14.41/ 154.02 GFLOPS | Progress: (448/800) | 541.78 s
[Task ResNet18_10] Current/Best:   14.55/ 154.02 GFLOPS | Progress: (512/800) | 622.70 s
[Task ResNet18_10] Current/Best:    3.65/ 154.02 GFLOPS | Progress: (576/800) | 709.82 s
[Task ResNet18_10] Current/Best:   20.80/ 154.02 GFLOPS | Progress: (640/800) | 792.82 s
[Task ResNet18_10] Current/Best:   20.42/ 154.02 GFLOPS | Progress: (704/800) | 884.35 s
[Task ResNet18_10] Current/Best:    3.66/ 154.02 GFLOPS | Progress: (768/800) | 972.03 s
[Task ResNet18_10] Current/Best:   31.39/ 154.02 GFLOPS | Progress: (800/800) | 1016.25 s
 Done.
[Task ResNet18_11] Current/Best:    0.00/   0.00 GFLOPS | Progress: (0/720) | 0.00 s
[Task ResNet18_11] Current/Best:   20.21/  89.06 GFLOPS | Progress: (64/720) | 28.72 s
[Task ResNet18_11] Current/Best:   14.59/  97.64 GFLOPS | Progress: (128/720) | 54.23 s
[Task ResNet18_11] Current/Best:   13.01/  97.64 GFLOPS | Progress: (192/720) | 81.73 s
[Task ResNet18_11] Current/Best:   53.76/  97.64 GFLOPS | Progress: (256/720) | 108.84 s
[Task ResNet18_11] Current/Best:   24.77/  97.64 GFLOPS | Progress: (320/720) | 135.37 s
[Task ResNet18_11] Current/Best:   25.75/  97.64 GFLOPS | Progress: (384/720) | 162.40 s
[Task ResNet18_11] Current/Best:   17.56/  97.64 GFLOPS | Progress: (448/720) | 190.87 s
[Task ResNet18_11] Current/Best:   33.63/  97.64 GFLOPS | Progress: (512/720) | 218.87 s
[Task ResNet18_11] Current/Best:   23.17/  97.64 GFLOPS | Progress: (576/720) | 246.57 s
[Task ResNet18_11] Current/Best:    7.55/  97.64 GFLOPS | Progress: (640/720) | 275.97 s
[Task ResNet18_11] Current/Best:    7.42/  97.64 GFLOPS | Progress: (704/720) | 303.27 s
[Task ResNet18_11] Current/Best:   13.88/  97.64 GFLOPS | Progress: (720/720) | 309.94 s
 Done.
[Task ResNet18_12] Current/Best:    0.00/   0.00 GFLOPS | Progress: (0/800) | 0.00 s
[Task ResNet18_12] Current/Best:    4.20/ 150.74 GFLOPS | Progress: (64/800) | 78.64 s
[Task ResNet18_12] Current/Best:   58.97/ 160.64 GFLOPS | Progress: (128/800) | 144.90 s
[Task ResNet18_12] Current/Best:   54.13/ 160.64 GFLOPS | Progress: (192/800) | 212.27 s
[Task ResNet18_12] Current/Best:   27.92/ 160.64 GFLOPS | Progress: (256/800) | 289.29 s
[Task ResNet18_12] Current/Best:    8.34/ 160.64 GFLOPS | Progress: (320/800) | 365.20 s
[Task ResNet18_12] Current/Best:    4.20/ 160.64 GFLOPS | Progress: (384/800) | 440.53 s
[Task ResNet18_12] Current/Best:   34.59/ 160.64 GFLOPS | Progress: (448/800) | 513.15 s
[Task ResNet18_12] Current/Best:    7.33/ 160.64 GFLOPS | Progress: (512/800) | 594.25 s
[Task ResNet18_12] Current/Best:   21.18/ 160.64 GFLOPS | Progress: (576/800) | 670.50 s
[Task ResNet18_12] Current/Best:    3.66/ 160.64 GFLOPS | Progress: (640/800) | 755.02 s
[Task ResNet18_12] Current/Best:    7.30/ 160.64 GFLOPS | Progress: (704/800) | 841.98 s
[Task ResNet18_12] Current/Best:   20.45/ 160.64 GFLOPS | Progress: (768/800) | 930.41 s
[Task ResNet18_12] Current/Best:   16.37/ 160.64 GFLOPS | Progress: (800/800) | 973.80 s
 Done.
[Task Yolo9000_00] Current/Best:    0.00/   0.00 GFLOPS | Progress: (0/216) | 0.00 s
[Task Yolo9000_00] Current/Best:   19.99/ 214.11 GFLOPS | Progress: (64/216) | 182.30 s
[Task Yolo9000_00] Current/Best:   34.52/ 218.47 GFLOPS | Progress: (128/216) | 355.92 s
[Task Yolo9000_00] Current/Best:   78.42/ 218.47 GFLOPS | Progress: (192/216) | 539.28 s
[Task Yolo9000_00] Current/Best:   10.27/ 218.47 GFLOPS | Progress: (216/216) | 606.88 s
 Done.
[Task Yolo9000_02] Current/Best:    0.00/   0.00 GFLOPS | Progress: (0/756) | 0.00 s
[Task Yolo9000_02] Current/Best:    8.87/ 241.32 GFLOPS | Progress: (64/756) | 205.64 s
[Task Yolo9000_02] Current/Best:   90.69/ 241.32 GFLOPS | Progress: (128/756) | 355.76 s
[Task Yolo9000_02] Current/Best:   32.35/ 241.32 GFLOPS | Progress: (192/756) | 523.98 s
[Task Yolo9000_02] Current/Best:   37.82/ 241.32 GFLOPS | Progress: (256/756) | 698.09 s
[Task Yolo9000_02] Current/Best:   72.56/ 241.32 GFLOPS | Progress: (320/756) | 918.23 s
[Task Yolo9000_02] Current/Best:   53.46/ 241.32 GFLOPS | Progress: (384/756) | 1122.21 s
[Task Yolo9000_02] Current/Best:   61.55/ 241.32 GFLOPS | Progress: (448/756) | 1379.70 s
[Task Yolo9000_02] Current/Best:   64.56/ 241.32 GFLOPS | Progress: (512/756) | 1605.11 s
[Task Yolo9000_02] Current/Best:   32.73/ 241.32 GFLOPS | Progress: (576/756) | 1859.46 s
[Task Yolo9000_02] Current/Best:   24.71/ 241.32 GFLOPS | Progress: (640/756) | 2112.62 s
[Task Yolo9000_02] Current/Best:   17.65/ 241.32 GFLOPS | Progress: (704/756) | 2378.80 s
[Task Yolo9000_02] Current/Best:    9.26/ 241.32 GFLOPS | Progress: (756/756) | 2627.42 s
 Done.
[Task Yolo9000_04] Current/Best:    0.00/   0.00 GFLOPS | Progress: (0/1008) | 0.00 s
[Task Yolo9000_04] Current/Best:   11.82/ 224.17 GFLOPS | Progress: (64/1008) | 145.76 s
[Task Yolo9000_04] Current/Best:   44.73/ 245.08 GFLOPS | Progress: (128/1008) | 243.29 s
[Task Yolo9000_04] Current/Best:   81.92/ 247.55 GFLOPS | Progress: (192/1008) | 338.42 s
[Task Yolo9000_04] Current/Best:   34.87/ 247.55 GFLOPS | Progress: (256/1008) | 485.13 s
[Task Yolo9000_04] Current/Best:   42.09/ 247.55 GFLOPS | Progress: (320/1008) | 592.46 s
[Task Yolo9000_04] Current/Best:   11.78/ 247.55 GFLOPS | Progress: (384/1008) | 775.82 s
[Task Yolo9000_04] Current/Best:   25.93/ 247.55 GFLOPS | Progress: (448/1008) | 914.38 s
[Task Yolo9000_04] Current/Best:   14.87/ 247.55 GFLOPS | Progress: (512/1008) | 1042.25 s
[Task Yolo9000_04] Current/Best:   59.96/ 247.55 GFLOPS | Progress: (576/1008) | 1227.43 s
[Task Yolo9000_04] Current/Best:   33.55/ 247.55 GFLOPS | Progress: (640/1008) | 1419.08 s
[Task Yolo9000_04] Current/Best:   55.30/ 247.55 GFLOPS | Progress: (704/1008) | 1587.60 s
[Task Yolo9000_04] Current/Best:   50.95/ 247.55 GFLOPS | Progress: (768/1008) | 1768.84 s
[Task Yolo9000_04] Current/Best:   17.58/ 247.55 GFLOPS | Progress: (832/1008) | 1963.42 s
[Task Yolo9000_04] Current/Best:   17.54/ 247.55 GFLOPS | Progress: (896/1008) | 2162.99 s
[Task Yolo9000_04] Current/Best:   36.54/ 247.55 GFLOPS | Progress: (960/1008) | 2384.29 s
[Task Yolo9000_04] Current/Best:   17.29/ 247.55 GFLOPS | Progress: (1008/1008) | 2557.72 s
 Done.
[Task Yolo9000_05] Current/Best:    0.00/   0.00 GFLOPS | Progress: (0/1008) | 0.00 s
[Task Yolo9000_05] Current/Best:    2.49/ 190.49 GFLOPS | Progress: (64/1008) | 108.73 s
[Task Yolo9000_05] Current/Best:   22.26/ 195.41 GFLOPS | Progress: (128/1008) | 195.46 s
[Task Yolo9000_05] Current/Best:   11.34/ 195.41 GFLOPS | Progress: (192/1008) | 286.59 s
[Task Yolo9000_05] Current/Best:   31.42/ 195.41 GFLOPS | Progress: (256/1008) | 391.38 s
[Task Yolo9000_05] Current/Best:   12.43/ 195.41 GFLOPS | Progress: (320/1008) | 484.38 s
[Task Yolo9000_05] Current/Best:   27.20/ 195.41 GFLOPS | Progress: (384/1008) | 589.12 s
[Task Yolo9000_05] Current/Best:    9.29/ 195.41 GFLOPS | Progress: (448/1008) | 686.10 s
[Task Yolo9000_05] Current/Best:   20.16/ 195.41 GFLOPS | Progress: (512/1008) | 792.69 s
[Task Yolo9000_05] Current/Best:   18.33/ 195.41 GFLOPS | Progress: (576/1008) | 899.31 s
[Task Yolo9000_05] Current/Best:   36.31/ 195.41 GFLOPS | Progress: (640/1008) | 1008.49 s
[Task Yolo9000_05] Current/Best:   21.92/ 195.41 GFLOPS | Progress: (704/1008) | 1115.02 s
[Task Yolo9000_05] Current/Best:   19.18/ 195.41 GFLOPS | Progress: (768/1008) | 1232.20 s
[Task Yolo9000_05] Current/Best:    7.30/ 195.41 GFLOPS | Progress: (832/1008) | 1344.69 s
[Task Yolo9000_05] Current/Best:   22.86/ 195.41 GFLOPS | Progress: (896/1008) | 1458.96 s
[Task Yolo9000_05] Current/Best:   34.93/ 195.41 GFLOPS | Progress: (960/1008) | 1575.18 s
[Task Yolo9000_05] Current/Best:   10.16/ 195.41 GFLOPS | Progress: (1008/1008) | 1658.66 s
 Done.
[Task Yolo9000_08] Current/Best:    0.00/   0.00 GFLOPS | Progress: (0/1296) | 0.00 s
[Task Yolo9000_08] Current/Best:  197.12/ 213.82 GFLOPS | Progress: (64/1296) | 155.13 s
[Task Yolo9000_08] Current/Best:    8.58/ 245.25 GFLOPS | Progress: (128/1296) | 232.94 s
[Task Yolo9000_08] Current/Best:   45.64/ 245.25 GFLOPS | Progress: (192/1296) | 302.85 s
[Task Yolo9000_08] Current/Best:   41.79/ 245.25 GFLOPS | Progress: (256/1296) | 380.55 s
[Task Yolo9000_08] Current/Best:   27.80/ 245.25 GFLOPS | Progress: (320/1296) | 496.89 s
[Task Yolo9000_08] Current/Best:   36.01/ 245.25 GFLOPS | Progress: (384/1296) | 604.11 s
[Task Yolo9000_08] Current/Best:   36.93/ 245.25 GFLOPS | Progress: (448/1296) | 789.56 s
[Task Yolo9000_08] Current/Best:   64.89/ 245.25 GFLOPS | Progress: (512/1296) | 875.21 s
[Task Yolo9000_08] Current/Best:   24.18/ 245.25 GFLOPS | Progress: (576/1296) | 1024.02 s
[Task Yolo9000_08] Current/Best:   35.83/ 245.25 GFLOPS | Progress: (640/1296) | 1158.27 s
[Task Yolo9000_08] Current/Best:   26.74/ 245.25 GFLOPS | Progress: (704/1296) | 1283.65 s
[Task Yolo9000_08] Current/Best:   18.87/ 245.25 GFLOPS | Progress: (768/1296) | 1397.58 s
[Task Yolo9000_08] Current/Best:   20.31/ 245.25 GFLOPS | Progress: (832/1296) | 1521.57 s
[Task Yolo9000_08] Current/Best:   35.03/ 245.25 GFLOPS | Progress: (896/1296) | 1687.41 s
[Task Yolo9000_08] Current/Best:   16.94/ 245.25 GFLOPS | Progress: (960/1296) | 1807.64 s
[Task Yolo9000_08] Current/Best:   39.92/ 245.25 GFLOPS | Progress: (1024/1296) | 1973.84 s
[Task Yolo9000_08] Current/Best:   13.50/ 245.25 GFLOPS | Progress: (1088/1296) | 2154.77 s
[Task Yolo9000_08] Current/Best:   20.89/ 245.25 GFLOPS | Progress: (1152/1296) | 2364.00 s
[Task Yolo9000_08] Current/Best:   44.97/ 245.25 GFLOPS | Progress: (1216/1296) | 2574.77 s
[Task Yolo9000_08] Current/Best:   23.46/ 245.25 GFLOPS | Progress: (1280/1296) | 2774.91 s
[Task Yolo9000_08] Current/Best:    4.28/ 245.25 GFLOPS | Progress: (1296/1296) | 2830.64 s
 Done.
[Task Yolo9000_09] Current/Best:    0.00/   0.00 GFLOPS | Progress: (0/1296) | 0.00 s
[Task Yolo9000_09] Current/Best:   48.07/ 157.35 GFLOPS | Progress: (64/1296) | 71.39 s
[Task Yolo9000_09] Current/Best:   47.64/ 160.27 GFLOPS | Progress: (128/1296) | 129.63 s
[Task Yolo9000_09] Current/Best:    4.39/ 160.27 GFLOPS | Progress: (192/1296) | 189.71 s
[Task Yolo9000_09] Current/Best:    7.93/ 160.27 GFLOPS | Progress: (256/1296) | 255.77 s
[Task Yolo9000_09] Current/Best:   14.26/ 160.27 GFLOPS | Progress: (320/1296) | 323.79 s
[Task Yolo9000_09] Current/Best:   15.51/ 160.27 GFLOPS | Progress: (384/1296) | 385.45 s
[Task Yolo9000_09] Current/Best:   17.23/ 160.27 GFLOPS | Progress: (448/1296) | 457.19 s
[Task Yolo9000_09] Current/Best:   28.85/ 160.27 GFLOPS | Progress: (512/1296) | 521.89 s
[Task Yolo9000_09] Current/Best:   54.60/ 160.27 GFLOPS | Progress: (576/1296) | 593.56 s
[Task Yolo9000_09] Current/Best:   23.11/ 160.27 GFLOPS | Progress: (640/1296) | 667.65 s
[Task Yolo9000_09] Current/Best:   18.38/ 160.27 GFLOPS | Progress: (704/1296) | 730.59 s
[Task Yolo9000_09] Current/Best:   15.12/ 160.27 GFLOPS | Progress: (768/1296) | 806.22 s
[Task Yolo9000_09] Current/Best:   18.48/ 160.27 GFLOPS | Progress: (832/1296) | 879.67 s
[Task Yolo9000_09] Current/Best:   15.16/ 160.27 GFLOPS | Progress: (896/1296) | 953.49 s
[Task Yolo9000_09] Current/Best:   21.95/ 160.27 GFLOPS | Progress: (960/1296) | 1029.83 s
[Task Yolo9000_09] Current/Best:   20.90/ 160.27 GFLOPS | Progress: (1024/1296) | 1107.13 s
[Task Yolo9000_09] Current/Best:   18.64/ 160.27 GFLOPS | Progress: (1088/1296) | 1193.79 s
[Task Yolo9000_09] Current/Best:    9.42/ 160.27 GFLOPS | Progress: (1152/1296) | 1272.50 s
[Task Yolo9000_09] Current/Best:   35.70/ 160.27 GFLOPS | Progress: (1216/1296) | 1352.19 s
[Task Yolo9000_09] Current/Best:   16.56/ 160.27 GFLOPS | Progress: (1280/1296) | 1432.58 s
[Task Yolo9000_09] Current/Best:   27.21/ 160.27 GFLOPS | Progress: (1296/1296) | 1450.83 s
 Done.
[Task Yolo9000_12] Current/Best:    0.00/   0.00 GFLOPS | Progress: (0/1440) | 0.00 s
[Task Yolo9000_12] Current/Best:   47.55/ 215.79 GFLOPS | Progress: (64/1440) | 153.69 s
[Task Yolo9000_12] Current/Best:   28.33/ 220.69 GFLOPS | Progress: (128/1440) | 227.49 s
[Task Yolo9000_12] Current/Best:   24.92/ 234.14 GFLOPS | Progress: (192/1440) | 310.64 s
[Task Yolo9000_12] Current/Best:   53.16/ 234.14 GFLOPS | Progress: (256/1440) | 387.76 s
...47%, 0.01 MB, 38 KB/s, 0 seconds passed...94%, 0.02 MB, 76 KB/s, 0 seconds passed...100%, 0.02 MB, 114 KB/s, 0 seconds passed
[Task Yolo9000_12] Current/Best:    0.00/   0.00 GFLOPS | Progress: (0/1440) | 0.00 s
[Task Yolo9000_12] Current/Best:   47.73/ 215.66 GFLOPS | Progress: (64/1440) | 152.50 s
[Task Yolo9000_12] Current/Best:   52.62/ 225.19 GFLOPS | Progress: (128/1440) | 243.23 s
[Task Yolo9000_12] Current/Best:   22.77/ 237.41 GFLOPS | Progress: (192/1440) | 320.16 s
[Task Yolo9000_12] Current/Best:    7.64/ 237.41 GFLOPS | Progress: (256/1440) | 403.20 s
[Task Yolo9000_12] Current/Best:   16.79/ 237.41 GFLOPS | Progress: (320/1440) | 526.56 s
[Task Yolo9000_12] Current/Best:   21.79/ 237.41 GFLOPS | Progress: (384/1440) | 641.32 s
[Task Yolo9000_12] Current/Best:   59.77/ 237.41 GFLOPS | Progress: (448/1440) | 762.63 s
[Task Yolo9000_12] Current/Best:    4.22/ 237.41 GFLOPS | Progress: (512/1440) | 886.03 s
[Task Yolo9000_12] Current/Best:   31.36/ 237.41 GFLOPS | Progress: (576/1440) | 978.97 s
[Task Yolo9000_12] Current/Best:   30.87/ 237.41 GFLOPS | Progress: (640/1440) | 1132.98 s
[Task Yolo9000_12] Current/Best:   42.40/ 237.41 GFLOPS | Progress: (704/1440) | 1246.61 s
[Task Yolo9000_12] Current/Best:   37.04/ 237.41 GFLOPS | Progress: (768/1440) | 1430.32 s
[Task Yolo9000_12] Current/Best:   33.43/ 237.41 GFLOPS | Progress: (832/1440) | 1615.49 s
[Task Yolo9000_12] Current/Best:   26.11/ 237.41 GFLOPS | Progress: (896/1440) | 1768.26 s
[Task Yolo9000_12] Current/Best:   40.80/ 237.41 GFLOPS | Progress: (960/1440) | 1927.34 s
[Task Yolo9000_12] Current/Best:   53.88/ 237.41 GFLOPS | Progress: (1024/1440) | 2082.30 s
[Task Yolo9000_12] Current/Best:   42.55/ 237.41 GFLOPS | Progress: (1088/1440) | 2232.96 s
[Task Yolo9000_12] Current/Best:    8.41/ 237.41 GFLOPS | Progress: (1152/1440) | 2414.59 s
[Task Yolo9000_12] Current/Best:   23.78/ 237.41 GFLOPS | Progress: (1216/1440) | 2601.69 s
[Task Yolo9000_12] Current/Best:   49.01/ 237.41 GFLOPS | Progress: (1280/1440) | 2804.78 s
[Task Yolo9000_12] Current/Best:   10.08/ 237.41 GFLOPS | Progress: (1344/1440) | 3002.32 s
[Task Yolo9000_12] Current/Best:   30.97/ 237.41 GFLOPS | Progress: (1408/1440) | 3182.80 s
[Task Yolo9000_12] Current/Best:   21.50/ 237.41 GFLOPS | Progress: (1440/1440) | 3286.90 s
 Done.
[Task Yolo9000_13] Current/Best:    0.00/   0.00 GFLOPS | Progress: (0/1440) | 0.00 s
[Task Yolo9000_13] Current/Best:   51.96/ 167.37 GFLOPS | Progress: (64/1440) | 52.89 s
[Task Yolo9000_13] Current/Best:   39.49/ 202.69 GFLOPS | Progress: (128/1440) | 99.64 s
[Task Yolo9000_13] Current/Best:    8.58/ 202.69 GFLOPS | Progress: (192/1440) | 144.53 s
[Task Yolo9000_13] Current/Best:   31.00/ 202.69 GFLOPS | Progress: (256/1440) | 193.04 s
[Task Yolo9000_13] Current/Best:   50.67/ 202.69 GFLOPS | Progress: (320/1440) | 241.59 s
[Task Yolo9000_13] Current/Best:   43.28/ 202.69 GFLOPS | Progress: (384/1440) | 293.39 s
[Task Yolo9000_13] Current/Best:   12.06/ 202.69 GFLOPS | Progress: (448/1440) | 344.14 s
[Task Yolo9000_13] Current/Best:   14.34/ 202.69 GFLOPS | Progress: (512/1440) | 396.51 s
[Task Yolo9000_13] Current/Best:   30.95/ 202.69 GFLOPS | Progress: (576/1440) | 451.47 s
[Task Yolo9000_13] Current/Best:   47.35/ 202.69 GFLOPS | Progress: (640/1440) | 505.53 s
[Task Yolo9000_13] Current/Best:   21.93/ 202.69 GFLOPS | Progress: (704/1440) | 562.88 s
[Task Yolo9000_13] Current/Best:    8.55/ 202.69 GFLOPS | Progress: (768/1440) | 623.13 s
[Task Yolo9000_13] Current/Best:   44.35/ 202.69 GFLOPS | Progress: (832/1440) | 681.94 s
[Task Yolo9000_13] Current/Best:   40.23/ 202.69 GFLOPS | Progress: (896/1440) | 737.14 s
[Task Yolo9000_13] Current/Best:    8.58/ 202.69 GFLOPS | Progress: (960/1440) | 794.31 s
[Task Yolo9000_13] Current/Best:   44.09/ 202.69 GFLOPS | Progress: (1024/1440) | 849.37 s
[Task Yolo9000_13] Current/Best:   47.70/ 202.69 GFLOPS | Progress: (1088/1440) | 907.16 s
[Task Yolo9000_13] Current/Best:   51.97/ 202.69 GFLOPS | Progress: (1152/1440) | 969.80 s
[Task Yolo9000_13] Current/Best:   13.97/ 202.69 GFLOPS | Progress: (1216/1440) | 1034.10 s
[Task Yolo9000_13] Current/Best:   45.75/ 202.69 GFLOPS | Progress: (1280/1440) | 1097.68 s
[Task Yolo9000_13] Current/Best:   38.93/ 202.69 GFLOPS | Progress: (1344/1440) | 1170.36 s
[Task Yolo9000_13] Current/Best:    2.18/ 202.69 GFLOPS | Progress: (1408/1440) | 1235.16 s
[Task Yolo9000_13] Current/Best:   27.77/ 202.69 GFLOPS | Progress: (1440/1440) | 1269.60 s
 Done.
[Task Yolo9000_18] Current/Best:    0.00/   0.00 GFLOPS | Progress: (0/1320) | 0.00 s
[Task Yolo9000_18] Current/Best:  106.82/ 176.26 GFLOPS | Progress: (64/1320) | 191.50 s
[Task Yolo9000_18] Current/Best:   23.37/ 218.88 GFLOPS | Progress: (128/1320) | 320.01 s
[Task Yolo9000_18] Current/Best:   39.55/ 218.88 GFLOPS | Progress: (192/1320) | 444.95 s
[Task Yolo9000_18] Current/Best:   74.99/ 218.88 GFLOPS | Progress: (256/1320) | 585.76 s
[Task Yolo9000_18] Current/Best:   39.10/ 218.88 GFLOPS | Progress: (320/1320) | 787.80 s
[Task Yolo9000_18] Current/Best:   62.15/ 218.88 GFLOPS | Progress: (384/1320) | 964.83 s
[Task Yolo9000_18] Current/Best:   31.58/ 218.88 GFLOPS | Progress: (448/1320) | 1174.02 s
[Task Yolo9000_18] Current/Best:   40.50/ 218.88 GFLOPS | Progress: (512/1320) | 1341.50 s
[Task Yolo9000_18] Current/Best:   22.13/ 218.88 GFLOPS | Progress: (576/1320) | 1541.65 s
[Task Yolo9000_18] Current/Best:   20.41/ 218.88 GFLOPS | Progress: (640/1320) | 1777.35 s
[Task Yolo9000_18] Current/Best:   38.44/ 218.88 GFLOPS | Progress: (704/1320) | 1956.75 s
[Task Yolo9000_18] Current/Best:   40.67/ 218.88 GFLOPS | Progress: (768/1320) | 2203.17 s
[Task Yolo9000_18] Current/Best:   21.55/ 218.88 GFLOPS | Progress: (832/1320) | 2425.10 s
[Task Yolo9000_18] Current/Best:   13.06/ 218.88 GFLOPS | Progress: (896/1320) | 2668.16 s
[Task Yolo9000_18] Current/Best:   10.19/ 218.88 GFLOPS | Progress: (960/1320) | 2910.48 s
[Task Yolo9000_18] Current/Best:    7.91/ 218.88 GFLOPS | Progress: (1024/1320) | 3141.00 s
[Task Yolo9000_18] Current/Best:   20.02/ 218.88 GFLOPS | Progress: (1088/1320) | 3383.60 s
[Task Yolo9000_18] Current/Best:    8.38/ 218.88 GFLOPS | Progress: (1152/1320) | 3606.98 s
[Task Yolo9000_18] Current/Best:   25.98/ 218.88 GFLOPS | Progress: (1216/1320) | 3875.93 s
[Task Yolo9000_18] Current/Best:    7.90/ 218.88 GFLOPS | Progress: (1280/1320) | 4146.19 s
[Task Yolo9000_18] Current/Best:   33.07/ 218.88 GFLOPS | Progress: (1320/1320) | 4309.11 s
 Done.
[Task Yolo9000_19] Current/Best:    0.00/   0.00 GFLOPS | Progress: (0/1320) | 0.00 s
[Task Yolo9000_19] Current/Best:   94.97/ 135.32 GFLOPS | Progress: (64/1320) | 58.08 s
[Task Yolo9000_19] Current/Best:   28.23/ 185.76 GFLOPS | Progress: (128/1320) | 102.15 s
[Task Yolo9000_19] Current/Best:   31.26/ 189.41 GFLOPS | Progress: (192/1320) | 145.19 s
[Task Yolo9000_19] Current/Best:   51.24/ 189.41 GFLOPS | Progress: (256/1320) | 189.77 s
[Task Yolo9000_19] Current/Best:   27.29/ 189.41 GFLOPS | Progress: (320/1320) | 233.73 s
[Task Yolo9000_19] Current/Best:   54.85/ 189.41 GFLOPS | Progress: (384/1320) | 278.73 s
[Task Yolo9000_19] Current/Best:    4.14/ 189.41 GFLOPS | Progress: (448/1320) | 333.43 s
[Task Yolo9000_19] Current/Best:   61.12/ 189.41 GFLOPS | Progress: (512/1320) | 388.82 s
[Task Yolo9000_19] Current/Best:    4.23/ 189.41 GFLOPS | Progress: (576/1320) | 434.68 s
[Task Yolo9000_19] Current/Best:    6.66/ 189.41 GFLOPS | Progress: (640/1320) | 481.14 s
[Task Yolo9000_19] Current/Best:   55.52/ 189.41 GFLOPS | Progress: (704/1320) | 540.06 s
[Task Yolo9000_19] Current/Best:   33.31/ 189.41 GFLOPS | Progress: (768/1320) | 602.40 s
[Task Yolo9000_19] Current/Best:   22.94/ 189.41 GFLOPS | Progress: (832/1320) | 658.39 s
[Task Yolo9000_19] Current/Best:   28.99/ 189.41 GFLOPS | Progress: (896/1320) | 714.21 s
[Task Yolo9000_19] Current/Best:   27.07/ 189.41 GFLOPS | Progress: (960/1320) | 775.98 s
[Task Yolo9000_19] Current/Best:   26.77/ 189.41 GFLOPS | Progress: (1024/1320) | 843.97 s
[Task Yolo9000_19] Current/Best:   51.79/ 189.41 GFLOPS | Progress: (1088/1320) | 909.62 s
[Task Yolo9000_19] Current/Best:   21.42/ 189.41 GFLOPS | Progress: (1152/1320) | 967.40 s
[Task Yolo9000_19] Current/Best:    3.82/ 189.41 GFLOPS | Progress: (1216/1320) | 1036.16 s
[Task Yolo9000_19] Current/Best:    6.41/ 189.41 GFLOPS | Progress: (1280/1320) | 1102.59 s
[Task Yolo9000_19] Current/Best:   28.69/ 189.41 GFLOPS | Progress: (1320/1320) | 1142.61 s
 Done.
[Task Yolo9000_23] Current/Best:    0.00/   0.00 GFLOPS | Progress: (0/1320) | 0.00 s
[Task Yolo9000_23] Current/Best:    0.00/   0.00 GFLOPS | Progress: (64/1320) | 392.14 s
[Task Yolo9000_23] Current/Best:    0.00/   0.00 GFLOPS | Progress: (128/1320) | 845.04 s
[Task Yolo9000_23] Current/Best:    0.00/   0.00 GFLOPS | Progress: (192/1320) | 1267.19 s
