x,y,w,h,c,f,perf
1,1,1,3,1,15,7.90763444
1,1,1,3,1,14,8.70776507
1,1,1,3,1,13,9.20515208
1,1,1,3,1,12,11.97069673
1,1,1,3,1,1,12.14229249
1,1,1,3,1,11,14.98669505
1,2,1,3,1,14,16.35111091
1,1,1,3,1,10,16.74187431
1,2,1,3,1,12,21.37142592
1,1,1,3,1,9,22.19368097
1,1,1,3,1,2,23.96255850
1,2,1,3,1,1,24.04884922
1,2,1,3,1,11,25.01776830
1,1,1,3,1,7,25.11797412
1,3,1,3,1,13,25.27488292
1,3,1,3,1,12,25.71332912
1,2,1,3,1,13,26.53061224
1,1,1,3,1,3,29.17563632
1,1,1,3,1,5,29.85770935
1,1,1,3,1,6,30.26799790
1,1,1,3,1,8,30.88834146
1,1,1,3,1,4,30.89610781
1,2,1,3,1,10,31.29966989
1,3,1,3,1,11,33.08227493
1,4,1,3,1,12,34.16370107
1,5,1,3,1,11,34.24818584
1,5,1,3,1,10,34.34796998
1,6,1,3,1,8,35.64528762
1,3,1,3,1,1,35.97751405
1,4,1,3,1,10,36.36837183
1,8,1,3,1,7,36.38363210
1,9,1,3,1,6,36.54757918
1,10,1,3,1,5,36.56167879
1,7,1,3,1,8,36.61907073
1,5,1,3,1,9,36.81295271
1,11,1,3,1,5,36.89179629
1,7,1,3,1,7,36.95026756
1,12,1,3,1,4,37.13284177
1,6,1,3,1,9,37.19461883
1,9,1,3,1,5,37.25502878
1,8,1,3,1,6,37.33743872
1,11,1,3,1,4,37.52415218
1,6,1,3,1,7,37.79571845
1,2,1,3,1,9,38.07320499
1,6,1,3,1,10,38.36770718
1,4,1,3,1,11,38.74562862
1,10,1,3,1,6,38.76373303
1,5,1,3,1,8,38.91908327
1,7,1,3,1,6,39.00598585
1,13,1,3,1,3,39.24322625
1,10,1,3,1,4,39.27585149
1,8,1,3,1,8,39.70691591
1,8,1,3,1,5,39.78192461
1,3,1,3,1,10,39.78587463
1,7,1,3,1,9,40.11640922
1,5,1,3,1,7,40.43564595
1,4,1,3,1,9,40.68095876
1,9,1,3,1,7,41.31323912
1,12,1,3,1,3,41.45748988
1,6,1,3,1,6,42.18621258
1,9,1,3,1,4,43.07280064
1,4,1,3,1,8,45.09937056
1,7,1,3,1,5,45.33877579
1,2,1,3,1,2,47.39278001
1,4,1,3,1,1,47.87283777
1,11,1,3,1,3,48.03001876
1,3,1,3,1,9,49.05490762
1,8,1,3,1,4,49.42383107
1,14,1,3,1,2,52.12964534
1,10,1,3,1,3,52.60394073
1,2,1,3,1,8,52.80391904
1,3,1,3,1,8,55.79030208
1,2,1,3,1,4,56.13009318
1,5,1,3,1,6,56.31186606
1,2,1,3,1,7,56.41725260
1,2,1,3,1,3,56.88888889
1,2,1,3,1,6,58.37344819
1,5,1,3,1,1,58.52766347
1,2,1,3,1,5,58.53212408
1,6,1,3,1,5,61.02987921
1,3,1,3,1,2,66.64738212
1,6,1,3,1,1,67.55607682
1,4,1,3,1,7,68.21902164
1,7,1,3,1,1,76.25531915
1,13,1,3,1,2,76.30110814
1,3,1,3,1,3,78.72437358
1,3,1,3,1,4,80.49611320
1,3,1,3,1,5,81.66158645
1,4,1,3,1,2,81.69126446
1,3,1,3,1,7,81.88880427
1,8,1,3,1,1,83.64874064
1,3,1,3,1,6,84.67993874
1,7,1,3,1,4,86.84274291
1,9,1,3,1,1,89.08364480
1,4,1,3,1,3,90.21143305
1,12,1,3,1,2,90.87413105
1,5,1,3,1,2,91.33071709
1,9,1,3,1,3,91.80095626
1,10,1,3,1,1,92.46327956
1,4,1,3,1,6,92.72096182
1,4,1,3,1,4,93.19681456
1,5,1,3,1,5,93.33074081
1,11,1,3,1,1,93.76248613
1,4,1,3,1,5,93.85311011
1,11,1,3,1,2,94.24889831
1,8,1,3,1,3,94.42622951
1,6,1,3,1,4,94.57642773
1,6,1,3,1,2,95.41360389
1,13,1,3,1,1,95.62302461
1,12,1,3,1,1,96.16026711
1,14,1,3,1,1,96.43049327
1,5,1,3,1,3,96.53900947
1,15,1,3,1,1,96.66051351
1,7,1,3,1,2,96.96095230
1,8,1,3,1,2,97.42329343
1,9,1,3,1,2,97.49629734
1,6,1,3,1,3,97.53069000
1,5,1,3,1,4,97.64159939
1,10,1,3,1,2,97.90298936
1,7,1,3,1,3,98.00085070

