name, onednn, gen
yolo9000_0, 26.098343, 31.568693
yolo9000_2, 70.410494, 84.798402
Yolo9000_4, 79.132258, 91.495225
yolo9000_5, 47.485693, 75.319904
yolo9000_8, 82.411741, 86.265113
yolo9000_9, 65.918739, 86.261411
yolo9000_12, 82.244424, 66.675445
yolo9000_13, 74.114859, 87.752505
yolo9000_18, 68.242452, 64.126199
yolo9000_19, 70.098557, 41.118823
mobilNet_1, 69.199818, 87.877603
mobilNet_2, 53.935225, 80.576366
mobilNet_3, 81.615109, 85.586458
mobilNet_4, 57.884383, 88.864663
mobilNet_5, 75.070837, 78.132813
mobilNet_6, 56.999866, 76.140777
mobilNet_7, 65.699417, 68.585836
mobilNet_8, 37.835975, 62.133090
mobilNet_9, 33.365621, 41.131568
resNet18_1, 69.013917, 47.250451
resNet18_2, 74.034897, 91.673848
resNet18_3, 42.120020, 77.830258
resNet18_4, 62.567752, 88.260032
resNet18_5, 34.182456, 85.040464
resNet18_6, 76.352000, 93.671092
resNet18_7, 62.151700, 79.746976
resNet18_8, 77.043734, 39.865152
resNet18_9, 67.527299, 79.581723
resNet18_10, 38.085507, 63.809176
resNet18_11, 42.673108, 88.468472
resNet18_12, 39.462160, 66.239454

===
Sans packing pour oneDNN

8:50 PM
name, onednn, gen
yolo9000_0, 61.324227, 31.514783
yolo9000_2, 85.083007, 84.822226
Yolo9000_4, 86.268224, 91.546826
yolo9000_5, 83.250862, 76.934623
yolo9000_8, 86.172084, 79.352188
yolo9000_9, 88.449088, 85.959314
yolo9000_12, 86.685912, 64.026056
yolo9000_13, 85.710883, 85.788326
yolo9000_18, 78.271912, 65.500424
yolo9000_19, 82.253897, 39.798303
mobilNet_1, 79.218783, 87.185195
mobilNet_2, 64.165746, 79.327554
mobilNet_3, 86.167835, 93.359726
mobilNet_4, 62.322671, 87.967046
mobilNet_5, 80.315114, 79.759358
mobilNet_6, 71.758778, 75.846246
mobilNet_7, 78.347853, 68.821150
mobilNet_8, 58.512722, 64.291343
mobilNet_9, 58.199334, 41.596807
resNet18_1, 83.003351, 47.392762
resNet18_2, 82.431825, 91.810558
resNet18_3, 74.349272, 75.689089
resNet18_4, 71.229305, 88.091649
resNet18_5, 76.171681, 84.322326
resNet18_6, 83.781080, 94.583336
resNet18_7, 77.201929, 78.714071
resNet18_8, 84.289195, 39.460568
resNet18_9, 80.599664, 78.749296
resNet18_10, 58.430851, 63.660417
resNet18_11, 80.819209, 88.548877
resNet18_12, 61.107391, 66.640903

Yolo23, 78.974528, 55.995835

====
How did the first candidate on metric performs
yolo0 : 27.126
yolo2 : 81.516
yolo4 : 85.796
yolo5 : 65.808
yolo8 : 83.609
yolo9 : 77.021
yolo12 : 36.799
yolo13 : 74.680
yolo18 : 16.342
yolo19 : 30.221
yolo23 : 9.073


mbnet1 : 81.915
mbnet2 : 60.969
mbnet3 : 84.284
mbnet4 : 71.137
mbnet5 : 34.050
mbnet6 : 37.005
mbnet7 : 31.831
mbnet8 : 30.916
mbnet9 : 22.646

resNet1: 38.606
resNet2: 80.100
resNet3: 60.163
resNet4: 66.981
resNet5: 84.181
resNet6: 83.349
resNet7: 36.919
resNet8: 37.244
resNet9: 37.855
resNet10: 31.455
resNet11: 83.895
resNet12: 40.999

