perf, CACHE_MISS_L1, CACHE_MISS_L2
36.87,4131620,3565817
27.57,9162045,7057228
10.63,30355493,28244478
49.88,4816764,1590375
37.51,6942001,1922168
30.52,10081465,2013589
29.98,9378822,2864131
14.16,31205903,6596194
8.04,59958095,18997295
45.90,6969685,3209573
13.97,31289374,9560565
14.62,31573057,7026018
31.09,8926268,3504980
41.83,4163525,1302773
35.38,3679660,2394250
36.46,4540667,1694429
38.28,5109898,2802549
49.66,4813668,1675269
45.08,5730079,1563615
38.10,7007451,1616122
30.24,9186926,2751129
14.21,31492663,6210180
37.72,4107821,2203836
30.58,9275930,2722520
20.43,16360643,4589540
9.07,60673130,10156583
46.42,4905620,1615436
37.75,7171497,2830176
33.99,6471627,1052895
32.22,6446122,2300927
16.50,15674972,6814983
39.45,4158973,2709539
20.13,15169236,9865631
37.52,4132322,2142715
44.28,5765328,2349155
8.97,60783075,10075948
34.56,3785233,2312154
33.68,4113910,2178899
22.70,16257568,6235171
46.18,6722635,3295839
36.19,3536328,2253680
16.45,15840746,3233020
12.32,27748917,5048401
35.45,3788604,2309795
33.47,4126520,2193823
40.99,5523591,1885423
43.94,3804230,1147565
35.62,3898528,2182426
28.52,8814110,3389478
23.10,16752589,2874963
34.97,5703119,1874827
32.74,6504338,1895159
34.77,3872983,2279712
24.48,17072479,900995
22.61,16296232,4977726
34.64,3927963,2307314
33.69,4137710,2252300
34.55,4605279,1985777
35.20,4052110,2050099
40.06,6994874,2106005
25.48,16346355,3473679
41.05,4143584,1386580
45.00,7233625,3170716
13.59,40012259,10573780
29.73,7094339,2535366
22.05,9954023,6990848
41.70,4842808,7013194
41.48,5294833,7176783
33.63,6078653,5036371
36.07,4679861,4370643
39.02,5845027,3304220
31.02,5426672,3712393
28.03,6727318,3245982
50.26,5830807,2482931
45.83,7338625,1956190
40.94,4909433,2270409
35.84,6330147,1720657
41.52,5297580,7515911
39.55,3069080,1111726
40.07,5147278,4740260
36.78,5344133,3257664
27.11,7196121,2791401
47.89,5859112,2766436
35.52,6354364,1944982
34.83,4645893,4342484
36.86,5362031,3228904
36.19,5366868,3495535
31.68,7110381,3129556
22.29,8906608,5051469
36.54,5814069,1785257
26.27,6032983,2697082
39.08,5300141,4800187
40.50,5765828,1531393
31.08,4078945,2015463
31.54,6099454,852903
23.41,9185971,2237168
60.09,8444835,2206685
60.54,8752200,1871486
40.07,8215046,7413842
61.24,8752763,2551400
58.86,9374590,2503846
45.98,7049150,2528142
42.42,5749417,1818957
41.44,7881278,4853926
58.67,8013699,973417
46.79,8075226,1791600
42.58,7885034,2360743
30.45,9537993,6631885
51.18,8469511,4321383
57.10,11279451,3674579
55.17,5087254,2147922
39.17,12573728,3891022
39.88,12592093,5420499
40.74,9635980,8519335
54.39,8225349,4011723
57.61,8531121,4222177
58.20,9926660,4770870
52.72,4972834,2026128
40.43,7560380,7500963
44.71,7783977,4645885
53.52,5377647,1529026
36.15,6743169,2478154
40.97,7224385,5393272
40.30,7560958,5758840
39.78,7552171,7490374
39.94,7441804,7415882
39.93,7718897,7604349
43.03,8073160,3487258
44.22,6762970,2529255
40.10,7446071,7418303
51.26,7175396,1517553
46.79,7552146,2819796
38.47,9569855,3419948
40.41,7693022,7461369
37.51,11484001,4043021
51.19,9047605,2920199
52.28,8763337,2660166
42.81,7878452,4550099
42.07,9266843,5542621
53.72,8290038,2740309
43.21,8758433,763494
51.90,5515532,1067437
51.43,5513601,1101946
37.35,5178588,4587702
41.59,9044105,4033199
41.73,9010926,3916595
39.10,6890618,1837852
34.74,11464162,3115487
23.02,22581512,6122400
23.51,22579351,5803218
37.99,5617199,4707618
48.25,5170559,3031490
40.13,5934364,3691281
35.20,7828052,6349918
41.62,4539036,2431525
35.90,6177259,3534425
31.46,6119839,4116952
35.39,4513122,4309494
48.53,6103436,1682126
50.69,6054679,2953193
34.17,11455576,3615476
25.70,22599118,5452203
24.01,22273999,6560190
38.63,4777391,2946450
35.41,4596680,4361696
36.48,6676750,3420884
36.67,11648448,2644161
35.19,4460337,4344741
44.15,6366085,1607917
41.29,5506807,2892228
35.97,4650291,4306183
38.27,5116922,4650373
40.12,6179040,1339664
35.59,4565279,4340938
40.52,6704730,2576997
39.84,4779452,2038195
42.16,4919959,1468795
27.03,10963587,2587651
34.76,4538767,4282947
30.55,11016430,3696368
40.11,5380989,2763850
35.42,7678692,1001447
34.97,4414752,4354710
40.18,5403437,3173597
42.33,7830970,3417194
35.39,4901991,4353930
36.19,4769890,4463684
37.95,5663016,4992566
40.97,5409395,3451389
34.11,2914574,2845937
38.09,4416353,1786775
13.66,21123641,20553378
13.59,21104687,19494447
40.99,3378766,877344
28.43,7667009,2529643
32.03,5726284,2975820
20.26,13126977,6911478
36.44,3152979,1063403
36.70,3735013,1411621
18.36,12330076,7378858
17.80,10899622,7390538
32.62,4179596,1767959
34.19,2915078,2292349
33.37,5859217,1533577
20.58,13898923,3350016
31.12,2917105,2394692
38.87,3392785,1282021
40.27,3378731,1205330
38.70,3991873,1285563
27.70,7569216,2731764
17.58,21254578,5540690
36.27,3127101,1066201
30.62,5039937,2877882
30.78,2828509,2324731
36.19,3395342,2152667
29.16,5283620,4752315
33.77,3092150,2419104
40.05,3399878,1280166
32.49,5806036,1672378
28.35,7660184,2146684
31.15,2671494,2403766
36.85,3515233,1515449
38.56,3391590,1742258
37.60,3970663,1832421
18.64,21456896,3463171
31.16,2642312,2346847
36.31,3149856,1111222
36.49,3302947,1098623
32.90,5362064,1686453
34.56,2698358,2281996
31.35,2709219,2295947
37.45,3558365,1381484
36.60,4560671,1540731
31.96,5329575,2029212
31.13,2697836,2333384
31.04,6091422,3538162
33.34,7129857,1801855
31.68,8099558,3295867
23.56,14968531,4521461
24.28,15001838,5136628
31.49,2968807,2269479
34.13,4492419,1652287
34.37,6179167,2092478
27.50,8768819,1790232
26.52,7763757,7401053
39.72,8876074,1639096
39.82,8834002,2978083
27.17,17120547,7274088
39.65,8881265,1951442
41.19,5305101,3427793
26.21,7740868,7458022
39.60,8904096,2288544
42.01,6676497,6044123
37.70,7900252,7289891
38.23,8073074,4496884
38.37,8099801,4355940
30.22,8190964,5604361
30.84,8188479,5300374
30.54,9954166,9889520
40.53,8291322,2392301
30.72,17491651,4901486
36.12,8019012,5499068
36.34,6490018,2594658
25.85,7429521,7407760
36.84,7452412,2795478
36.93,7510499,2815872
27.19,11364210,7165712
26.27,7765777,7450396
38.93,8821203,2122169
37.64,8753990,3977794
35.62,7799713,5821637
39.63,8677120,1950339
36.32,8169996,3324967
30.24,9427052,9607565
40.86,5195684,1615288
41.49,5961092,1615601
30.75,9617179,9910923
30.33,9308045,8082969
35.81,8795856,4929961
44.82,9488441,1907756
42.15,6158296,799451
35.58,7430115,2613775
30.44,9278147,9198343
36.61,4727290,4522123
45.56,5424585,1598120
25.06,8860631,5176158
24.86,8908441,5145366
44.23,5038377,2763485
32.63,7469704,2710066
37.50,4629244,4182533
35.79,4718277,4515879
42.34,6386810,2184098
32.54,7419910,5439170
39.75,4635479,4296202
28.91,5448666,2601040
44.99,5014850,2522011
32.45,7782703,4276641
36.61,4517072,4405304
33.76,4382737,4318109
36.29,4704924,3042052
38.95,5574413,1192823
30.58,7111161,2149711
33.83,4471561,4293600
36.65,4651126,4220168
40.99,4929182,4172153
34.74,4297991,2449019
28.91,5697341,3329258
28.87,8651573,2669024
34.21,4357028,4301662
33.74,4440791,4344218
34.00,4435464,4362297
30.36,6954547,3288680
33.97,4529011,3102233
33.92,4454374,4366678
36.78,5109893,3813938
31.39,7127643,2120705
29.89,9813371,1219011
33.93,7993987,1431341
37.62,5155643,4438883
48.06,5279906,2104527
51.16,6338581,2090064
41.48,5584991,4589669
38.51,5189826,4419709
48.42,5688478,2560258
38.65,5301745,4492477
39.23,4663883,4358762
39.93,4842545,4532303
44.15,5609118,1975129
41.59,5902176,1573918
41.29,4703198,4524554
46.23,5167730,1879888
44.44,5540302,1267295
26.44,12525854,3921780
39.82,5159012,4448319
40.15,5257838,4539452
26.50,13109277,4030498
39.11,4855266,4405375
39.18,4851693,2458149
50.17,5752208,2161362
39.54,7874368,2049167
41.61,4753877,4454652
40.91,4877366,3131741
42.26,4971546,2815085
33.67,6885489,1747147
33.05,10944384,2775632
39.85,5143490,4445723
46.03,5372176,2565890
47.37,6996965,2691928
29.25,12116203,3213456
46.37,5239347,1595295
30.79,7915713,1591402
29.31,7906295,3413841
24.55,11898797,2876342
40.68,5151453,3251965
32.93,11329890,2921078
43.26,4893161,2707775
39.44,4639029,4417996
44.06,5184311,2684360
41.01,10402907,4061406
31.85,11905204,2628199
39.64,5174991,4309743
40.19,4865548,3380624
41.71,7994551,3298710
40.63,6487713,2939271
25.96,7714657,7516216
43.51,3255940,1252196
28.75,8015520,3020009
37.53,8257508,2252247
36.53,8245706,3656663
34.84,7720317,7707379
29.65,8519035,6802890
26.07,7656768,7512847
31.90,8039679,7585762
26.57,7611593,7342817
27.14,9480171,4298030
37.80,7959569,2618499
39.35,9821538,4428040
36.71,9770633,5877842
29.77,10658752,4273380
31.35,7644866,4811817
31.13,11123584,7592753
32.86,11236780,2616520
26.06,7636413,7402223
27.80,7953420,5426569
33.74,8169239,3827578
26.56,7586581,7426579
40.11,9146800,6774100
30.03,6905032,2697190
37.99,5802859,2119648
30.65,10227764,4841136
36.35,8929140,8652657
26.03,7651400,7407750
29.22,10157974,1095662
25.76,7737867,7530137
26.72,7627725,7360317
26.12,7847520,7467120
28.80,7932606,5255842
33.78,7925000,3285095
36.10,4755484,4444912
49.46,4954755,2059627
46.20,5752319,1400297
35.39,5324777,1726325
35.79,5379428,1831733
45.40,5836496,1469059
34.09,5588233,3186579
35.77,4817992,4440590
37.44,4631102,2226993
36.12,4694104,1958882
36.51,4498717,4336607
35.33,4719873,4390677
38.99,5253583,3700027
28.63,8868643,5819016
36.05,4862903,4375521
43.06,4980675,3764454
41.53,5705484,3213095
23.78,10819013,5113529
49.49,5730255,2513643
35.33,4666998,4311698
44.69,5376168,1059565
35.76,4790577,4296377
29.55,7860970,3570172
35.61,4721441,4431720
43.75,5116237,4115381
40.45,6362110,1784725
37.13,4997998,3202152
28.87,10143768,2745323
36.25,6445778,4566034
8.31,63374742,31902259
45.69,6540372,1391829
55.58,6485228,3186455
44.88,5270523,3215213
48.09,7109404,4723990
46.57,4373615,1846356
44.89,5604913,1909091
42.50,5503061,2883597
43.94,3862170,3778493
8.71,66771440,9122243
52.69,5833835,3115773
17.52,30760887,7207689
40.47,4164436,2800153
45.78,4832447,1927590
38.73,3866155,3385486
44.78,3957437,1917812
27.64,16043752,3429487
18.35,30904983,3044076
41.52,4810691,4101961
45.77,6253083,2542999
49.15,7190732,3928574
38.62,4264719,1621135
36.96,6201119,1581906
44.23,6056796,2126505
44.53,6363433,2618838
37.88,4425994,3337038
35.41,6117549,2496836
24.87,10864830,2477420
53.04,5838216,2339754
48.94,8162139,3728815
25.56,15753861,4073202
17.15,30552077,14301976
49.74,7232033,3458261
48.82,6055465,3075770
45.03,7815434,2316133
44.17,6190126,2759057
43.38,5532558,2010838
42.70,4803139,4176570
54.41,5830127,1869126
24.66,18493822,8377551
10.01,62346046,11116634
48.06,5282965,2700128
39.04,3894885,3425162
23.47,9768529,4963469
45.20,6003492,3050713
46.30,6013039,2896294
34.29,9339688,2234528
18.05,30824880,7576482
39.24,4264683,3241173
41.08,4700945,2518753
42.95,4126244,2218584
18.76,17882343,4940982
38.55,4354083,3243384
40.03,4978408,3115525
21.75,14435241,3461643
44.12,5652220,1895989
45.30,4094196,1866220
32.69,7866863,1408463
40.23,5149071,3886539
25.71,9432146,1505129
22.17,13992687,2297227
39.05,4708134,3507383
39.72,4862720,2825252
45.28,4200104,2472394
23.08,16392086,8970586
55.35,7158576,2567937
49.91,8295740,2881864
45.20,9128109,1895122
16.86,30653088,6690657
52.96,5345552,2712489
53.14,5800809,3252746
16.92,30762239,12199851
54.10,5542167,3946190
34.96,11266205,3488984
43.99,4987300,3603059
50.58,5379196,2755129
29.44,5993952,3246224
31.83,6401980,2992804
15.96,18723465,8937081
15.69,18718031,12976428
39.05,4036688,3250108
41.28,4597353,2644555
49.81,3921871,1183113
43.33,5148811,2570880
45.37,6396818,1441770
45.34,6352549,1517416
44.95,6264259,1444073
54.27,5373068,2343881
33.76,9666629,2884518
46.16,4374622,2043271
45.92,4828157,1811720
46.14,4828693,1944799
45.46,5650911,1517994
39.92,3754527,3515562
36.29,5390815,2021669
24.90,7975822,6766222
19.45,12539616,6967250
44.31,6619325,1472947
34.13,9743126,2158001
37.69,5177267,1928810
49.36,5950541,3045673
36.06,8169710,1817756
19.22,19809211,3625534
9.51,41223892,3930311
40.62,4235651,1723746
22.62,10729459,2189071
39.50,3827279,3499761
45.70,6306736,2271065
36.38,6035904,1921420
25.04,8534966,3696584
46.85,4053562,1495113
45.51,4058254,1813111
38.09,4187351,3583723
40.88,4312197,2039325
42.92,7452986,3779040
26.02,8943266,3708010
20.23,16439265,5121328
45.81,4322917,2055034
45.95,6959570,1636593
17.35,21920681,6423261
43.71,5230966,2020178
20.22,22018580,6106741
44.80,6339194,3424788
29.58,9937487,6026421
20.68,17084933,10720597
20.88,17015213,11156533
15.55,31986466,10393920
34.70,5771232,4204506
25.30,8322427,4936968
18.31,13044037,7724941
37.38,6282543,8727723
38.11,3493861,1669255
39.78,3412379,1194870
18.57,8815896,5933352
41.35,5718438,2001261
19.79,10107872,5795260
46.15,6515038,2490522
29.32,11362801,3566741
44.32,6339635,3738606
41.96,7599980,2750468
37.12,7027642,6087966
31.40,5547832,5439127
30.95,5647598,5379009
33.71,5780439,6775184
36.47,7253428,4290372
39.16,5606768,1006212
23.17,9486461,3111265
37.26,7071678,5993146
43.90,4447664,2243751
30.86,5912745,5283795
32.65,4410327,2783579
36.50,7365592,4582714
37.99,6137983,3037604
36.17,6272960,6081089
36.86,5923100,4249308
34.10,8795601,2875385
36.75,6934943,4145266
39.69,6967430,2051871
21.61,22229386,4257741
20.96,22249400,5946058
20.72,22082625,5783255
34.97,6337510,2523450
29.47,10893351,6826443
18.63,13104128,8253354
31.53,5668327,4069884
40.63,4911602,2415710
34.94,3453579,2579287
19.77,8481235,6224961
34.04,6482976,6284147
28.80,5677117,5428365
40.48,8737495,2695757
40.47,5972106,1874764
39.45,4582130,1697487
33.85,6980262,5453241
26.56,5669319,2947079
33.83,6585926,6405285
28.86,5659395,5367771
29.85,6398314,4267492
29.26,7068335,2584631
38.51,6371015,3695846
38.45,6822578,3519871
38.42,6818541,3550837
22.73,16920405,5385220
30.23,6424015,4050999
21.53,10905825,2953833
35.67,7238182,4097097
30.73,5657118,4276566
33.96,4089003,1252440
27.44,5482271,2746644
21.95,8251553,2964057
28.51,5968404,5263083
27.99,5967003,5290603
30.03,6357016,3938303
35.40,5612007,1810424
39.29,3494177,1889173
27.58,5514494,2635546
35.13,5591718,2673873
28.57,5716212,5378632
28.60,5972605,5271239
32.48,7004159,4353760
29.68,6367610,4277285
36.60,5921301,2182608
34.39,6653064,4661230
36.28,4991912,4722397
35.17,5069649,4684595
35.83,6318731,3754927
17.64,22306211,12631433
53.71,6310016,2126359
44.66,8430320,2526435
37.11,6349977,2530344
31.92,11798122,3777074
49.08,6099690,2194971
43.08,6366441,3500977
35.11,11586945,4419726
45.65,4800208,2620375
49.10,6073948,2970960
38.66,5197565,5037622
36.48,4528915,4501184
38.17,5128828,4623652
44.17,5373082,3201741
47.45,6355056,4132419
43.29,5645179,2857231
37.33,6470389,5406886
39.52,6664390,3973845
24.02,11380401,11068248
48.92,5870437,2507095
51.09,7355622,2340057
36.14,4967705,4304977
49.46,5181598,2268900
43.42,8367624,3247321
44.06,6425208,2794848
32.14,11600236,6758786
42.04,4834056,2513002
42.56,4793654,2588693
30.81,6527222,3886876
35.44,4571928,4505056
38.02,5811528,4512546
47.76,5197261,2392949
50.51,5498740,2740439
34.65,11624882,4222587
34.88,4531981,4387274
49.46,5242004,1054005
40.90,5246812,3332997
49.12,5653610,1482857
36.00,4656888,4317394
40.95,4886759,2749319
48.26,5210881,3427379
36.13,4625731,4389347
46.69,5735004,2120402
24.76,11599561,4123043
35.89,4391033,4328533
48.48,5272497,1497837
41.07,4904573,2556838
38.84,4903454,2831469
46.65,5790779,2470235
40.43,4941417,2327071
38.51,5231085,3489704
35.53,4822939,4366436
31.55,11712817,953307
33.34,9341222,1554903
35.15,4670550,4377689
43.09,5059801,1499430
14.92,21738251,16975460
35.95,4149618,3649227
32.45,4001222,3329185
31.70,7355710,3069478
24.43,13219613,3929028
32.76,3854907,3450127
42.19,4122651,1744019
24.50,12868057,5578185
33.15,3759718,3457045
31.19,6770136,3495583
33.27,3585908,3302498
37.07,5482935,1886864
23.70,7928048,6589587
36.79,4487066,2530133
42.32,5023343,2647103
32.91,7070786,6791733
26.21,8415471,6225426
42.88,4690471,2366754
37.69,4154003,2405086
42.95,5071202,1617374
32.07,7797903,2475314
24.59,13317958,3643978
43.70,4416414,2228869
19.42,20374879,6654460
41.18,4142417,1975158
40.92,4123298,2115879
41.55,4550410,1967141
39.80,5242167,2738443
35.76,5438224,2821093
20.46,11271314,6311398
35.42,3884477,3704229
36.17,4056372,3690417
36.39,5711298,2356551
33.01,3978501,3456822
25.07,14280431,3218212
35.10,4234309,3505798
33.59,3846896,3301132
32.53,9907673,3505953
35.89,3836200,3621927
39.83,4223301,1534299
37.23,5657559,1840036
23.01,12661878,3277219
32.54,3892684,3262413
32.95,3886744,3285984
34.99,4084811,2361315
33.21,4020534,2726427
35.95,4181609,3589657
36.58,4953172,2907237
40.18,5242941,2777254
36.54,5673436,2881180
35.39,7702212,4988315
27.68,14262211,1544990
43.69,6804056,6056050
59.64,6984026,2844918
44.05,6968644,6224075
58.52,7010134,2895780
43.75,6895672,6222389
43.71,7111139,5787222
24.59,20894950,7571444
43.76,6271266,5955682
58.62,7677099,1879192
44.05,6227155,5990581
49.07,6613147,4041379
57.72,7084392,1999325
56.13,6576688,2230166
41.29,5389226,5363169
41.53,5697211,5514353
45.27,5815097,3000076
34.91,9015611,3538346
32.54,9506518,6183678
51.94,8336034,2855224
43.89,6945791,6063236
43.63,7069487,6356813
57.45,7191022,2408362
39.29,11039514,3979518
41.53,5417870,5377602
42.10,5416016,5375418
44.04,6357575,6097465
48.49,6898606,1839701
34.84,9013695,3599266
43.52,7090008,5835104
56.12,8210254,3745514
53.01,8288250,2454249
44.95,11259459,4001624
43.80,6380112,6105159
33.71,8837888,4615387
55.68,6820482,2587767
58.61,6819351,1594034
43.86,7503413,2446728
51.58,6065560,1860973
41.37,7548349,990610
41.97,5361805,1374916
41.79,6347852,1369027
41.56,5708749,5405369
41.20,5668687,5367622
56.12,6124572,1548712
55.61,6872503,2706654
42.85,5542354,5367775
51.17,6212244,3146155
50.28,6586515,3683788
51.08,5116517,993761
31.29,10427139,4367004
47.10,6521698,3471780
35.32,10641211,5971917
56.10,9612865,2847167
52.17,9976598,2825525
21.54,23466172,12192445
22.16,23541213,10748122
40.16,6132168,5584468
54.14,6297813,2592406
60.84,6604159,1971198
39.29,11978825,2927485
23.16,23712567,7510525
51.05,6196885,3135435
54.41,6053472,2275089
40.37,5589338,5529631
57.19,6184945,3628489
58.16,7717413,3568125
55.42,5391943,1671589
43.13,8217359,7811845
28.17,11319062,7325850
42.71,6122268,5994576
50.71,6198940,1557917
42.48,6908050,6003624
39.44,6151770,5241580
62.96,7514892,1960300
61.47,6602764,1928334
46.29,7151740,1719477
24.53,24265833,4548120
23.11,24071846,7272086
40.52,6011974,5414920
39.89,5542115,5344987
56.55,7188259,2603072
50.87,7579241,3526263
52.30,5917635,3074017
46.07,6238438,3177520
40.75,5855881,3582716
39.73,5474977,5399400
55.10,5770212,1522125
56.35,7232279,3104497
39.42,5758768,5319494
57.64,7179544,1979167
32.99,8832847,2457252
40.38,5514820,5376280
53.95,6459178,2134122
41.99,6455367,5736420
49.49,5960778,2891178
54.41,5558218,2625045
50.32,5025424,2041403
55.67,6156694,1972843
51.08,7504918,2894857
34.52,10125649,892828
35.93,9373370,2576239
44.15,5516485,1883820
26.99,12380905,7073559
26.80,12317800,7327306
36.87,4996529,4345796
45.61,5832351,1151035
43.74,7918971,2744704
36.88,4954544,4328497
50.68,6107015,1625227
29.49,12534925,5661177
46.66,4922260,2379410
43.71,5635628,2551244
37.20,4542110,4484331
25.99,11004474,7166206
37.45,4537023,4463224
30.28,12555670,5123617
39.86,5075603,4708852
23.78,12486490,7021413
50.98,6106837,1321308
37.97,8103187,1984558
30.66,12691219,3985643
25.41,21190458,4600144
44.96,5884148,1582211
42.63,6461184,1333507
36.97,4831533,4235744
28.18,16559446,2336520
38.96,5040844,4586181
49.16,5699321,1602859
46.78,5054149,1437253
37.20,4777176,4314956
40.15,4753350,2786705
36.83,4759012,4326147
38.78,5051294,3013232
46.20,5819347,2724414
31.53,9887328,2361458
37.45,4867170,4318594
39.48,5003692,3042716
44.33,5624004,2862979
29.59,13271768,4755721
47.95,6127975,1570152
37.67,4984373,4367140
44.49,6271065,2372668
32.38,12071597,4288946
51.01,5513880,2444792
36.61,4676110,4285768
36.95,4733865,4435298
49.85,5206403,2743793
24.14,12852200,7728553
25.61,14105895,12135024
37.69,4503433,4395815
45.33,5265901,3077212
44.77,5016802,2443332
38.44,4652186,3334973
37.37,4437489,4327737
36.32,6963976,3648305
35.31,7486492,3005036
25.08,12327434,7475489
36.79,4989090,4327374
36.87,4989085,4378827
49.41,5215972,1905034
52.77,6270749,1770664
50.49,7390087,1535328
45.40,6303346,1977746
38.99,7544308,2177650
22.79,22862567,5823659
36.82,5035933,4541389
48.29,5894266,2941492
49.62,6137214,1715148
48.65,6115592,2544005
49.12,6121708,2087840
32.94,6730948,3604604
40.95,4798997,2604656
44.56,5395983,2707107
46.83,5221488,2512736
47.90,5217879,2400086
39.29,7923474,2547003
38.29,7931068,3184702
34.37,12356715,2513532
43.96,5893872,3739234
50.43,5374744,1069879
47.71,5432808,1546283
46.96,6904055,2908778
50.32,5851135,1419332
45.97,6076356,1464376
40.37,6863818,1393053
35.61,9177858,2597300
40.23,5108263,4802240
45.66,5079264,1648910
36.94,4523718,4337729
40.56,4784013,2708117
44.96,5386015,2158366
45.01,5845064,1944281
25.07,13962151,6443592
43.35,4921944,2446882
45.64,5239910,1700750
43.72,4806756,1209822
42.48,8555368,1963805
29.87,10012238,2430915
50.45,5363187,1538136
40.28,6961051,3840774
37.12,4679815,4326247
32.90,3991792,3334957
44.29,5052207,1353692
44.17,6094455,2291762
34.03,10706242,2697057
32.98,7339145,2713653
25.89,12486379,3705054
18.29,21589749,8323414
41.14,4109117,2020591
26.07,12933199,4928816
26.19,12710143,4491446
19.58,21564250,8634572
33.29,3750925,3353448
36.16,3953921,3635144
32.91,3856311,3289721
39.65,7071436,1444383
20.82,11029102,5854285
36.54,3877005,3467979
26.91,7270560,4032759
23.63,11732023,7220673
35.85,4356801,3579253
46.68,5097388,1578527
18.24,21838431,6769824
33.01,7231633,2306325
18.74,21230707,7379376
38.25,3793081,1935327
39.25,6041902,2514529
36.28,3907297,2226722
44.10,4844416,2101754
22.54,11928436,7332633
44.69,4475219,1924737
42.62,5099856,2435416
26.86,12978298,3312215
33.22,3755779,3245412
40.37,5476517,1657202
35.99,5544341,2681949
39.07,5524007,1494685
28.82,7711490,2499433
33.24,3789760,3440839
44.01,4352582,2299603
43.03,4916687,1987890
27.25,11438203,2715128
27.10,11481987,2933645
33.32,3593684,3311114
40.36,4122647,1437622
33.35,3763258,3266482
33.23,3718783,3299406
42.31,4953167,1681310
27.76,13401086,2265484
42.83,4601275,1630362
40.45,4166319,1520199
37.99,5486000,1783625
35.28,5545937,3268307
27.02,8571199,4592590
27.74,13849645,2665654
33.37,3883669,3346116
32.07,3982372,3294359
33.36,3825900,3292364
38.19,6933712,3409796
44.83,4454949,1189437
36.68,8241900,3719810
30.50,7681653,4113519
45.03,4442185,1351345
37.44,6243773,1725613
31.66,7860549,2299805
43.83,4447753,1894802
32.48,8063478,3037210
42.00,4249285,2675939
34.10,3569875,3301812
39.48,4673619,2197804
34.12,5603114,3199444
23.25,11158118,6312841
43.11,4307633,1277459
34.58,3921224,3392068
33.82,3998833,3252197
43.55,5047051,1311231
36.74,8459881,2651269
34.24,3995809,3329568
31.06,8011531,2726047
36.28,3926531,3641476
24.22,12209245,8074782
37.89,5445239,2072960
40.71,4312594,1922962
38.47,5449777,2422232
38.14,5469340,2458623
43.92,4671786,2550700
34.61,3593235,3282038
34.59,3596754,3303523
34.70,3592588,3306030
33.87,3663702,3282532
33.13,3670033,3390311
25.72,12140667,2877397
34.10,3586533,3412379
37.86,4866385,2664444
26.56,13372170,2269641
38.00,3845010,2020744
40.87,4603531,1660623
27.48,12701125,1191607
41.32,5202516,2107494
39.14,5290906,2378094
34.13,3843332,3282732
33.94,3633417,3314058
27.64,11386670,2487143
32.18,3913849,3293948
42.92,4141862,1776368
26.18,12262370,4184410
19.60,21619254,6257010
31.60,3949167,3423937
45.90,4442934,1859250
40.12,4030363,1531213
39.35,4005300,1550525
42.49,4345271,1964803
43.81,5322059,2741785
43.48,5329203,2879237
35.75,4930608,3168838
28.78,6552967,3580871
38.27,5155117,3316478
31.75,3995274,3450487
39.45,6638964,1822679
34.93,7056725,2005434
19.61,21743091,5544321
32.19,3910693,3295320
45.69,4435647,2007028
43.60,5037760,2297866
35.39,3887977,2209664
38.96,3823589,1919205
35.43,3735470,2457734
35.71,3732433,2332238
43.24,4228973,1903855
25.43,11535312,7057900
44.97,6137751,2684236
39.87,8147910,3028609
31.43,3821296,3226666
32.59,3663226,3431493
39.43,4087806,2154354
37.71,7172697,2138076
37.88,4944625,1295838
35.70,3791255,3467360
42.30,4852865,2732201
33.26,7731665,2113978
34.45,3757358,3334107
36.11,7701751,2366830
31.47,8533467,873179
40.52,5338413,1264609
43.70,4717015,2173860
35.35,7184891,1535529
33.32,3920223,3789546
44.79,5042019,1420755
38.29,6416816,2452015
24.95,11865466,8459446
15.70,21608280,16887544
36.29,4027119,3533004
40.16,6618559,1604630
33.51,3810517,3265260
43.89,4808717,2371537
40.52,4730479,2259034
39.00,5204877,2813366
32.48,7243249,3690246
40.10,4147922,2231630
48.72,5074480,1724601
27.48,12365455,3578438
39.31,6599582,2398652
40.35,6436406,3770760
33.16,3585139,3303549
43.47,4605056,2075746
44.93,4598726,1586644
38.62,5259135,2641027
41.83,5233489,1964149
33.56,7389839,3599593
28.37,11744475,8505329
33.11,3995895,3221320
45.54,4149240,1736594
44.01,5058897,2055911
34.71,7661614,1510968
34.13,7635229,1961986
33.27,7560444,2680979
33.84,3546011,3287517
34.08,3522290,3420556
39.89,5517967,1413913
44.16,3968966,1899437
44.77,4901846,1343805
29.79,10980625,1888035
23.96,16447272,3945472
24.27,16546990,2022714
39.99,4117584,1471007
35.13,5147675,2201814
33.78,3704449,3277052
32.96,3729446,3308323
41.32,7282252,2582767
33.37,3665313,3288656
33.10,3771181,3309071
34.18,4027767,2506728
41.16,4359053,2310741
30.02,12850047,4927149
33.27,3569418,3278671
32.91,3874231,3318332
36.71,5461658,2915224
45.68,4436699,1731200
45.14,6066206,2444447
44.31,4209575,2190909
32.04,3707033,3359191
39.78,4002071,1574775
39.64,4580873,1692070
37.04,4984607,2221232
35.92,3957694,3659559
32.33,3670070,3351414
26.29,11035712,11451461
39.63,6483323,1577352
39.50,6493655,1734320
28.99,12345422,2553896
46.20,4602035,1862255
45.04,4410852,1939133
20.56,21953291,7976934
43.61,4735372,1600826
39.30,5459777,2591218
27.81,6573416,3853470
32.19,3524067,3471480
44.39,4551691,1520533
27.44,11422871,5412689
27.84,11457698,9860976
33.06,3915479,3307570
41.40,4143301,1734581
41.99,4142410,1738987
31.58,3677522,3295539
36.15,4128184,2480185
41.96,4904392,2030134
41.62,6617999,2990968
46.36,4718264,2830905
45.88,4786724,3076500
42.54,4611392,1628650
41.26,6658426,1569259
36.44,6707847,3762745
25.74,12571420,3186517
24.80,11337499,4455474
34.75,4051032,3435293
36.26,4204941,2565431
37.75,5727594,4086998
35.69,3826205,3403884
37.87,7072046,1171434
35.56,3716374,3307939
35.19,3818948,3371466
35.44,3961444,3528927
35.23,3991634,3384808
43.80,4620004,2056643
35.01,3761029,3427127
35.54,4437930,2875239
42.54,5191839,2212665
42.53,7326424,1628929
42.40,8419398,1492468
41.17,10096169,2110973
43.99,9050141,2838919
49.85,6387722,2307874
27.06,17548172,6910587
28.32,17559139,6811685
47.61,9989804,3930120
46.21,10026729,4948552
39.05,9335885,3591456
39.18,9363579,3454484
38.71,9356280,3327727
47.47,6461417,3783718
45.68,10582421,1556154
39.37,10255909,5184578
45.74,9817235,4597605
38.79,10022627,5515453
44.72,10831042,3488735
42.88,9696377,6976430
44.02,6095703,1968381
35.29,8880538,4443113
36.24,10621056,2681910
33.91,9514613,9153654
43.32,6068361,1275711
41.31,6636845,1722140
29.73,8552843,8452657
33.90,9656351,9387177
44.51,11085961,2566561
44.82,9605259,1892899
35.56,11387502,1234305
37.07,6066303,2249740
32.12,4523281,4327023
40.34,5976936,2891591
28.07,6852942,4215705
41.25,5796631,2114968
25.63,7821892,5165797
42.35,5107991,2586322
34.11,6996902,2538384
27.22,9063788,3650906
35.99,4997875,4784728
40.23,5189500,4480458
26.63,8448327,7827277
40.57,5561458,3528577
32.33,4674577,4283151
24.62,15729007,5916429
35.83,4762179,4667878
31.69,4530091,4338168
40.63,5045377,1874062
33.85,5351344,2266546
32.22,4507862,4385259
40.13,5212987,4644468
33.98,4740214,2977533
41.06,5034951,1588984
32.61,6559967,1714775
35.70,4898002,4533845
41.55,5542499,2427026
36.58,5001855,4860068
36.12,6552864,3658196
37.32,5760462,2838424
45.05,6167973,1574880
29.71,9002623,3373212
22.63,16389238,7408611
31.19,5726509,5214300
40.89,5586527,3275159
35.85,5328005,3788461
27.99,8650794,5151641
25.50,14929856,8806713
31.57,5436110,5404754
31.51,5517214,5440548
41.87,6371940,3843233
35.14,4715592,3231640
30.05,6836278,5566891
31.01,5503007,5390386
36.05,5964818,5832714
28.74,8829799,6403654
46.45,6700397,2910330
31.47,5462157,5410108
30.83,5485326,5369302
26.70,8383290,4980961
30.89,5560642,5392790
42.00,6781529,2227155
41.50,7082220,3208865
32.05,9155789,2361903
44.83,6547871,4283665
41.74,6034109,4084281
30.54,9912149,2785042
41.06,6232923,5843006
42.36,7246152,3393182
41.91,6535540,2506122
37.60,5932957,3396448
32.05,6200604,2720452
31.29,5605047,5321954
40.67,7985956,2407033
38.36,6406718,4093853
44.14,6889230,2112802
32.58,5909336,3905316
42.56,6850877,1854742
29.42,9062676,3408111
34.13,6520777,5574647
39.62,7123847,3399696
38.28,6161375,2859855
41.07,7464256,2724156
37.48,5983959,3927785
27.61,9360981,7748300
26.56,9065610,5635051
28.46,5482961,5330259
36.72,4307522,1882612
28.85,7911019,5471771
28.78,5394883,5358522
40.04,5739940,1610861
26.22,16584632,5595670
37.57,6778841,2148933
25.74,14619262,8416411
28.32,5433552,5397624
28.27,5410959,5373104
30.19,5747409,3818351
33.86,6334222,4612755
29.89,7848011,2713114
34.40,5897079,4823717
38.25,5883246,3243620
31.04,9427903,3889275
34.75,5739257,5137544
28.51,5553568,5324152
39.17,5506174,2000116
28.57,5376153,5337291
34.87,6454767,3971428
38.75,6774067,5800359
34.36,6052936,6140453
27.66,5366897,5330149
32.08,6305720,4207999
42.66,6018532,5404058
54.53,6236971,3147154
55.05,4864890,1359658
41.15,5770616,2307746
42.54,6162377,5312522
22.81,21144110,7801383
42.54,6220165,5488780
42.08,5845055,5568017
50.96,6007167,3180395
52.89,6096673,2092880
54.62,7542246,3199421
37.46,5730847,4108652
32.86,7524061,3574444
43.91,6216006,6037765
57.17,6244041,2708995
29.57,14281790,8956748
64.19,7834896,2673580
57.23,8679842,2795045
54.05,5163449,1277755
33.98,11890237,3823230
63.73,6642799,2917251
57.37,7184364,3089981
52.81,5401476,1398920
44.62,7098325,6392845
54.55,7578294,2862938
37.77,5891646,3825757
33.22,8298095,3802892
46.35,6948615,6688037
42.55,5689532,5557596
45.18,7240796,6336420
34.50,11344848,5407492
35.43,12002978,4862621
42.00,5657096,5492502
43.96,5881146,5458939
54.08,6276572,2971800
47.71,6311468,1409432
42.95,5953471,5436136
60.49,7825245,4857863
57.23,8240688,3004075
37.39,9612843,3090652
47.97,6026786,3249920
43.44,5662730,5332701
50.19,7802746,3653920
50.13,7805143,3530206
54.50,5291432,1870065
47.40,6786560,4428217
42.64,5513691,5412724
43.07,7319097,6340146
59.06,6491148,1495595
47.41,7207936,5778121
54.71,7129092,1404281
52.68,8508896,2434328
48.14,5507925,1331597
41.38,11738867,2737902
41.60,6676922,1693178
38.03,6653220,2210759
33.57,11632436,3793731
48.02,5670557,2261466
49.57,7274649,3592423
52.20,7034268,2245033
46.86,6353614,2177623
47.27,5755140,1322331
26.49,9732679,6816340
39.35,5597769,5465275
38.85,5763095,5599529
38.24,6227279,5328939
40.33,7101637,4129071
40.15,7140039,3909393
23.11,20344682,7404617
23.04,20381530,7011361
37.39,5819464,5566957
38.29,5750582,5471311
41.14,6044603,3602275
38.89,5719072,5557698
38.54,6206262,5416951
48.82,8600878,2764699
34.35,11826469,3057534
41.24,6979523,6599254
40.97,7459790,6384505
48.14,5814426,2289706
37.97,5662623,5438026
37.80,5713440,5317334
50.48,7696522,2941354
28.28,11485733,4130680
39.42,5634035,5407093
37.87,5620372,5307124
53.47,6635132,941271
40.84,7474678,1721307
46.57,5989676,2938971
48.68,7001173,2987237
48.47,6997919,3206484
36.10,7592039,4514429
38.85,5834067,5402831
39.70,5618585,5453416
40.00,5851013,3879520
33.65,15351978,3878836
38.25,5909213,5415733
44.54,6307342,3658697
52.79,6251700,1871621
43.69,6564120,4475062
40.45,11637213,2664190
41.42,8178897,1298481
32.82,4877058,4560729
43.10,6576831,2414068
39.67,5603412,2102045
40.85,5735335,1845938
33.31,4858496,4485085
32.85,8475444,6471266
24.99,9948802,6515854
26.69,8948452,6460304
33.89,4588307,4399225
33.31,4918801,4447248
44.59,5319900,1960537
33.30,4925038,4317685
37.54,4963538,4325829
23.70,9942527,8518731
39.79,5484312,3592267
41.82,6009193,3984178
26.18,10171547,6370296
39.83,5329827,4737967
45.00,5530960,3208564
38.88,4964810,4607017
39.17,5698335,3701933
33.57,4788788,4470033
37.20,5127358,4674345
41.95,5421869,4239338
35.64,5224792,2305407
36.16,5022657,3067130
40.64,5281253,2357168
33.53,4769620,4459358
30.00,10606917,1648871
28.98,11785334,2564424
45.49,6212831,1512483
35.96,5086602,1824617
30.28,5667773,5424018
30.61,5667212,5425395
33.39,5808181,3524613
30.15,5718830,5420385
30.49,5807027,5475983
42.47,6768027,1662169
43.49,6260732,2869587
30.24,5573108,5462342
30.09,5526845,5431797
40.00,6227823,2648838
28.82,9704599,2685144
35.79,6147906,4181797
32.15,7269722,1186590
30.79,5563523,5422987
30.42,5609321,5405277
37.60,6618269,3570874
37.91,4820315,1201509
31.97,5880831,3926860
36.77,6386665,2212616
30.33,5526857,5437560
29.93,5645445,5346244
40.82,6266151,1361308
38.30,6584099,2485834
31.79,6300062,5763255
35.03,6013386,3677947
34.88,6570396,5912406
36.57,7659434,3693917
27.90,5865645,5303237
38.05,7351000,3229287
38.30,7250099,4288847
35.60,6544979,5933625
37.58,7261743,3417124
24.59,9778624,5323990
27.70,5692266,5324868
32.95,6420689,5735228
30.43,5874259,3565745
37.19,6149976,1175307
27.94,5809762,5451001
27.87,5795013,5479720
28.87,9043008,3236541
37.43,6053307,1165813
34.13,5530925,1907336
27.68,5758777,5426718
34.12,6053234,3961976
30.19,9243212,1497682
27.46,5805664,5362590
29.58,5974328,3984828
37.18,6300661,1706497
