perf, CACHE_MISS_L1, CACHE_MISS_L2
35.08,1336316,1246709
35.22,1343452,1235960
35.27,1334396,1237958
35.55,1343741,1238263
35.68,1337133,1241748
35.59,1340414,1236185
35.89,1374018,1262399
35.65,1343781,1236519
35.19,1333852,1249811
35.59,1342008,1243467
35.50,1336333,1244348
35.56,1342657,1236396
35.56,1338368,1237636
35.12,1335020,1249511
35.73,1336054,1240619
34.88,1375528,1271296
34.94,1373056,1273336
34.91,1374481,1268715
35.06,1364914,1266948
35.14,1364068,1275503
34.98,1372541,1259121
34.49,1362892,1273845
34.94,1371407,1267368
35.03,1370870,1275661
34.94,1372716,1266060
34.95,1371792,1275608
34.75,1375044,1274489
35.09,1417802,1303151
34.88,1372107,1271744
35.06,1371262,1269976
36.38,1430548,1010729
36.73,1423520,1012627
36.95,1424759,972731
36.92,1422034,972858
35.71,1424741,1085720
36.52,1427951,1010794
37.08,1426383,968920
36.50,1430961,1002885
36.19,1428307,1020429
36.72,1432512,996964
36.62,1428721,988867
36.65,1425490,970568
37.05,1430152,961756
37.11,1431065,959089
36.37,1433823,1005528
44.18,1540114,474436
43.97,1544467,459616
44.27,1537231,461764
44.66,1537446,460733
43.54,1539086,498714
44.49,1538087,467740
43.68,1537961,486645
43.34,1542555,484820
43.55,1539899,487192
44.87,1652755,535396
43.54,1545307,472128
43.09,1542977,485713
44.61,1537381,461888
43.48,1546487,485889
43.63,1547992,464881
41.33,1768045,505800
41.40,1767756,505301
38.01,1752195,500293
41.22,1769134,490995
42.72,1949847,600758
42.29,1760629,525143
41.26,1769365,531952
41.82,1968232,656676
41.30,1768749,508945
41.21,1768918,522912
42.15,1761666,556291
41.55,1760350,594798
42.51,1951380,646357
42.06,1962837,639711
41.44,1771320,494018
36.91,2468331,681726
36.52,2203283,494258
37.15,2467374,674800
37.01,2201971,513505
36.42,2201938,533934
37.05,2198787,517760
36.57,2202919,530645
36.42,2205923,538594
37.04,2200358,530451
36.73,2201320,565724
36.59,2207483,593046
36.28,2207309,574741
36.50,2207417,601894
36.21,2206437,612830
36.89,2204049,652819
26.99,3226983,652194
27.00,3223769,676638
26.49,3249244,691527
26.93,3227974,679727
26.61,3251006,644137
26.57,3810468,1032802
26.62,3245041,682751
26.84,3219359,734414
26.51,3239824,665066
26.59,3731881,970259
26.50,3249850,722047
27.05,3227565,727055
26.68,3204686,809314
26.54,3251443,776848
26.99,3228907,854361
19.47,4570342,908393
19.14,4672777,878433
19.64,4526934,926145
19.15,4587672,928561
18.82,5422290,1354405
19.36,4560761,926410
19.02,4642159,926579
19.17,4599811,907341
19.11,4600582,952055
18.84,4699293,908344
18.76,5485361,1276207
19.34,4592695,933429
19.07,4595276,1007949
19.09,4604676,937275
18.30,5951936,1785908
16.36,6084334,1610570
16.06,6076248,1826547
16.29,6086846,1638980
16.39,6172885,1687764
16.36,6075067,1634149
16.57,6124902,1535310
16.36,6107987,1591326
16.36,6079800,1557993
16.29,6082659,1664155
16.27,6077101,1650435
16.47,6178822,1538171
16.26,6095251,1642146
16.52,6119090,1607898
16.46,6158907,1629009
16.29,6099235,1537476
9.74,12303261,3085737
9.84,12256289,3052156
9.74,12300425,3114182
9.59,12446774,3008220
9.81,12285513,2964650
9.74,12305020,3159573
9.78,12301742,2973253
9.76,12295680,3286525
9.84,12312982,3078280
9.82,12295683,2753700
9.86,12384344,3164670
9.88,12296088,2944860
9.75,12277284,3192886
9.89,12258065,2769011
9.77,12314527,2797169
35.23,1484473,1292822
35.21,1601958,1325220
34.77,1577785,1334188
34.65,1555697,1347970
43.96,1623842,583981
43.58,1770690,524440
38.59,2488181,816419
30.04,3750563,1301611
20.83,5776078,2348707
14.71,9727557,4241896
35.10,1497722,1310659
34.39,1573945,1309104
34.49,1607921,1365271
43.85,1673294,564952
43.58,1771229,512728
37.74,3107662,1048166
30.33,3738592,1251781
20.63,5744376,2352621
14.55,9764978,4348178
34.88,1516452,1334617
34.54,1552740,1366104
43.17,1662555,616134
43.36,1769662,500087
38.30,2475451,753501
30.51,3745198,1284297
20.67,5740813,2296777
14.60,9765717,4390081
34.47,1604424,1365239
43.30,1623055,590653
43.58,1788747,510851
38.35,2456553,778259
30.09,4829522,1944402
20.96,5740688,2103478
14.58,9786892,4440322
43.54,1863796,737022
43.48,1816961,493162
37.97,2444353,774051
29.77,3725859,1301509
20.73,5747960,2256799
14.64,9783472,4398376
43.77,1825019,524054
37.30,3144422,1090005
30.83,3746053,1241045
20.74,5742065,2253993
14.73,9761201,3946974
37.81,2473425,785594
30.67,3768130,1283021
20.88,5728697,2190475
14.71,9745772,4322275
30.64,3722269,1186466
20.96,5743875,2261701
14.53,9731911,4557961
21.11,5696147,2137847
14.90,9680496,4139598
15.09,9610254,4158718
33.90,1391536,1176465
34.09,1292390,1178458
33.84,1351568,1179899
34.58,1345117,1188995
33.59,1293249,1177078
34.12,1293355,1173639
34.89,1328737,1185271
34.05,1366543,1174369
34.57,1311031,1195917
33.78,1388002,1179590
33.46,1394132,1170362
33.84,1316401,1179292
34.29,1423171,1198609
33.94,1399420,1176308
33.78,1333433,1171523
34.04,1353191,1214495
33.91,1302692,1185019
33.78,1303339,1181477
33.29,1399903,1180598
33.51,1401882,1182541
34.12,1407446,1217652
34.15,1368092,1221671
33.51,1310697,1190294
33.66,1365478,1189125
33.70,1302064,1192095
33.67,1407753,1189937
33.73,1303788,1199455
33.78,1398358,1189814
33.74,1342742,1186087
33.68,1386435,1186097
33.41,1321110,1207807
33.29,1472239,1242097
33.33,1417212,1204041
33.18,1420058,1206593
33.34,1402551,1196272
33.17,1414981,1206854
32.97,1379419,1215193
33.39,1321471,1208928
33.31,1418083,1202645
33.20,1424366,1214972
32.99,1426200,1208435
33.46,1324189,1206117
32.88,1401735,1207937
33.38,1323035,1208332
33.21,1417897,1201520
32.53,1455032,1247956
32.74,1358196,1245411
32.71,1424431,1232967
32.65,1358605,1246461
32.73,1356412,1239268
32.49,1362746,1244932
32.45,1454929,1245184
32.65,1360522,1238585
32.71,1381669,1244601
32.37,1452954,1233042
32.73,1431157,1278910
32.48,1452802,1245648
32.64,1359263,1239987
32.39,1453896,1229346
32.50,1455258,1243373
39.73,1433439,493189
40.01,1463398,477197
39.80,1439803,484818
39.71,1652955,584438
39.42,1568384,593531
38.89,1559835,617820
40.12,1637912,543471
39.73,1512391,483646
39.83,1466377,483931
39.66,1631603,560453
37.63,1640348,674945
39.87,1640183,562757
38.72,1646003,621728
39.75,1556594,568594
40.09,1477101,465439
39.66,1865341,506030
39.92,1868529,491799
39.96,1862211,493261
40.17,1793569,503214
40.00,1654097,392819
39.62,1598656,413375
39.96,1643731,389782
39.86,1659224,425496
40.27,1843141,484758
39.47,1829311,518487
39.95,1661771,396705
39.75,1837245,515796
39.33,1867028,527532
39.66,1790922,515156
39.73,1847653,518748
34.89,2367332,627184
34.70,2335677,607895
34.28,2438217,645606
34.25,2133682,543391
34.78,2078886,510442
34.50,2093932,527744
34.16,2121602,553473
34.70,2069149,524552
34.49,2137279,539271
34.17,2073100,567645
34.61,2071447,575797
34.42,2134793,567259
33.52,2130344,614247
34.14,2102580,595305
34.30,2111884,613346
28.42,3073603,764478
28.30,3045221,803498
28.42,3063913,779133
28.41,3045239,795225
27.67,3074213,930548
28.42,3036546,783578
28.25,3059013,803563
28.17,3035378,820459
28.23,3043762,810896
28.37,3631195,1032583
28.29,3722197,1106130
27.98,3690607,1144220
28.30,3076448,866050
28.18,3677254,1156626
28.01,3748837,1247432
20.17,4616698,1271712
20.03,4637754,1270398
20.06,4608305,1324834
19.75,4624707,1418821
20.11,4622066,1247087
20.47,4633510,1269998
20.24,4626480,1247755
20.16,4635511,1278514
20.20,4604812,1253450
20.14,4612879,1342092
20.04,4577384,1292044
20.06,4621766,1347008
20.11,4619363,1278163
20.02,4609906,1300978
20.01,4675718,1260050
19.52,5264521,2262784
19.63,5252365,2184281
19.50,5261365,2270496
19.35,5278904,2216858
19.54,5276465,2119315
19.36,5290431,2313419
19.76,5278955,2339250
19.44,5275898,2272134
19.31,5279759,2277555
19.66,5272145,2143872
19.35,5310588,2343736
19.79,5306996,2331901
19.98,5266612,2283015
19.37,5265447,2322685
19.85,5299562,2217857
33.61,5875337,1385725
32.06,5870467,1375874
31.44,5922501,1395032
31.27,5906737,1419988
34.35,5671586,1973671
34.02,5604202,704021
30.64,5966716,794448
24.83,6702560,1403923
17.94,6558297,2588154
12.76,10175664,5093141
32.23,6036758,1440017
31.53,5910109,1403062
31.13,5933420,1419069
34.35,5455065,1762572
33.65,5664506,670162
30.53,5931364,855259
24.58,6672123,1491532
18.08,6542719,2572343
12.63,10198065,5321863
31.67,5899801,1396410
31.07,5917865,1441472
33.86,5503828,1804731
33.75,5618557,674569
30.29,5964479,837206
24.93,6683433,1495562
17.84,6604660,2699892
12.85,10231331,4725816
31.22,5926526,1420554
34.22,5477295,1765197
33.07,5893798,1245144
30.56,5926503,824989
24.93,6715465,1475877
18.13,6541801,2528471
12.85,10178001,5276579
33.88,5726231,2102574
33.44,5642130,648750
30.36,5965437,821099
24.76,6675029,1438079
17.97,6610433,2787964
13.09,10192819,4829092
32.98,5891004,1297899
30.46,5937676,835066
24.21,7434269,1689859
18.30,6687426,2459756
13.10,10184925,4805236
29.63,6338514,1073183
24.79,6755442,1491591
18.02,6490904,2611032
12.87,10181280,5275397
24.80,6720105,1383306
17.84,6678587,2641945
12.81,10177185,5347161
17.85,6670767,2680431
12.96,10085485,5039573
12.99,9958885,5201923
33.41,4761048,1302355
33.54,4742038,1310918
33.34,4779831,1318050
33.36,4771349,1335857
33.26,4609348,1401007
33.23,4612595,1373585
33.38,4769493,1308723
32.89,4613097,1400079
33.07,4618885,1392765
32.99,4617681,1413846
33.24,4609386,1408002
33.01,4619890,1407706
33.08,4617300,1406790
33.04,4613733,1406727
33.26,4609586,1405190
32.77,4622516,1432540
32.62,4635663,1425236
32.79,4626364,1386173
32.79,4627650,1426834
32.39,4621824,1419788
32.73,4630966,1431776
32.95,4620756,1428690
32.72,4625056,1434776
32.69,4629644,1432843
32.77,4623548,1410791
32.72,4631127,1427035
32.74,4629144,1421500
33.06,4784841,1395801
33.16,4622467,1426716
32.68,4632137,1414332
32.90,4800584,1556235
32.45,4648561,1415876
32.71,4792493,1544882
32.37,4779478,1543846
32.49,4802760,1569597
32.06,4650288,1407251
31.54,4642555,1408722
32.58,4639970,1413153
32.52,4784236,1531892
32.46,4789754,1530035
32.52,4793759,1520466
32.47,4799897,1536385
31.98,4650607,1415756
32.25,4743203,1477609
32.81,4639035,1404031
31.72,4847971,1670178
31.78,4843006,1690001
31.68,4856648,1769729
31.94,4829055,1670493
31.83,4835726,1694545
31.91,4834164,1655868
31.69,4837625,1685899
31.62,4681604,1370032
31.67,4674705,1375147
31.84,4676327,1368928
31.77,4687687,1379891
31.68,4844124,1690622
31.68,4843053,1664943
31.77,4681761,1367828
31.49,4684287,1367131
35.46,4832297,1602874
34.66,4748976,1576842
35.31,4732776,1405940
35.33,4737458,1364044
35.22,4736237,1569403
34.97,4719530,1430415
34.66,4755884,1574145
35.04,4735895,1406446
35.49,4840368,1596893
35.52,4867333,1657739
35.49,4733314,1364390
34.02,4747107,1460663
34.82,4743484,1434045
35.31,4849571,1547314
35.19,4739668,1381011
35.31,4889585,678041
35.30,4881624,681232
35.14,4993474,1452109
35.74,4890425,689691
35.41,4890414,697365
34.78,4898252,705004
35.45,4887880,685759
34.76,5004655,1502691
34.63,5014766,1511797
34.71,5004183,1345397
35.10,5025150,1648643
35.37,4898222,805593
34.77,5008359,1442771
35.03,5013258,1531435
35.35,4906160,923706
30.89,5140929,557180
30.99,5138317,537533
31.04,5341318,838156
30.97,5378434,840303
31.10,5352060,840988
31.52,5371571,920261
31.58,5375716,948934
31.80,5128057,543484
31.12,5339134,857268
31.11,5352262,867356
30.84,5381325,871277
31.10,5358550,824631
30.84,5214808,646695
31.35,5340294,791522
31.17,5159039,607633
25.34,6143863,1139509
25.06,5634570,852564
24.36,6048629,1025900
24.90,5639563,841444
24.99,5632313,868468
25.16,5991930,924439
24.85,5638387,824241
24.76,5640371,843817
25.74,5620297,864196
25.26,6099420,1134334
24.57,5644394,890397
24.84,5636090,846321
25.10,5996552,950923
25.77,5627397,855181
24.90,5647153,773782
18.50,6200236,1415457
18.09,6210512,1565735
18.84,6234076,1502425
18.36,6199109,1431699
18.15,6232644,1461352
18.68,6282505,1480667
18.52,6161864,1616618
18.37,6226035,1508003
18.39,6220619,1408196
18.28,6266558,1442028
18.65,6300305,1506181
17.91,6263939,1570700
18.07,6239520,1569073
18.29,6236503,1382854
17.87,6288017,1489734
18.36,5893570,2717493
18.46,5945647,2696311
18.79,5908434,2606900
18.75,5895698,2517822
18.64,5915452,2568398
18.31,5931622,2754278
18.32,5911556,2634244
18.65,5952871,2554705
18.50,5869478,2608184
18.72,5891631,2558801
17.59,5916498,2889812
18.44,5869238,2672446
18.61,5886232,2537110
18.57,5922449,2612533
18.62,5938946,2528993
26.76,2937985,2806219
27.33,2265446,2156716
27.07,2934977,2834625
27.40,2265601,2187119
27.16,2746533,2673771
27.13,2264845,2143457
27.31,2266027,2153814
27.45,2265502,2172031
27.51,2742610,2676351
27.42,2266611,2157046
27.51,2741834,2639756
27.51,2761087,2691269
27.37,2264858,2179230
27.48,2768162,2709646
27.34,2265784,2219442
27.20,2276624,2155420
27.38,2275276,2151707
27.26,2275082,2169852
27.27,2803686,2735374
27.19,2276175,2206474
27.26,2815395,2750175
27.27,2275979,2152446
27.43,2767569,2657633
26.83,2274582,2203560
27.29,2275198,2162411
27.01,2959051,2863500
26.97,2956379,2884479
27.40,2274925,2178057
26.94,2274727,2218185
27.31,2275652,2209370
27.30,2294191,2170771
27.11,2294640,2234385
27.34,2798026,2520609
26.88,2989387,2792870
27.21,2294064,2226512
27.26,2293245,2203732
27.31,2293812,2172219
27.12,2292898,2235888
27.21,2293417,2224358
27.24,2838409,2608363
27.30,2820328,2552913
27.28,2820484,2598920
27.11,2838661,2616885
26.75,2979852,2815831
27.23,2834301,2610983
26.05,2893307,2403624
25.92,3076074,2632217
26.19,2329681,2206770
26.14,2330305,2252287
26.07,2329308,2253186
26.10,2329549,2253706
26.21,2329013,2190872
26.01,2329698,2269477
26.16,2329351,2250235
26.28,2897279,2418740
26.17,2329423,2218574
26.17,2330329,2239763
26.09,2328772,2253108
25.99,2329866,2215975
26.05,2329860,2259479
36.72,2404818,689935
36.72,2404008,676174
36.32,2405387,705906
36.97,2404378,648309
36.38,2404016,697888
36.96,2995280,902129
35.12,3188084,1112739
36.69,2403999,706130
36.73,2993741,893221
36.86,3001748,922631
36.84,2404626,710549
36.79,2991469,895303
36.79,2403965,733248
36.57,2403844,713061
35.03,3178816,1173558
37.21,2562578,665406
37.12,2562085,689052
36.82,2565720,633406
36.71,2565139,669097
36.57,2565812,643084
37.00,2562556,730933
36.72,2563831,758696
36.60,3128222,963822
36.34,2562905,689170
36.51,2561912,811723
36.39,2562808,842631
36.27,2562039,757484
36.09,2564256,908647
35.62,3372952,1231799
35.71,3107254,1239190
33.99,3049069,784622
33.99,3047031,849920
34.05,3465993,1027059
33.84,3042502,756323
33.48,3047994,841732
34.11,3410985,1124016
33.75,3047526,953573
33.57,3048186,959545
33.48,3396075,1110635
33.50,3047974,1069630
33.49,3503164,1257315
33.47,3388458,1197854
33.27,3647664,1464061
33.23,3046560,1160072
32.74,3704920,1714089
33.26,3303062,649713
33.32,3303654,648580
33.13,3316021,819067
33.07,3833266,916465
32.71,3280181,882312
32.86,3333505,947643
32.83,3309617,779338
32.86,3308294,814546
32.72,3299870,861853
33.02,3327166,739716
33.03,3311636,769590
32.38,3285954,973873
32.60,3318286,964902
32.47,3295758,1063341
32.20,3307471,1143028
29.85,3307579,822518
29.16,3353417,901928
29.37,3358497,929768
28.43,3340004,1342121
27.94,3318477,1319942
29.44,3323724,847576
28.55,3395344,1347329
28.97,3364097,1117122
28.69,3420165,1321008
28.77,3352630,1330026
28.74,3352758,1112423
28.27,3392494,1308643
28.81,3336908,1193849
28.21,3408997,1512945
28.32,3321322,1288692
24.79,5463491,1287972
23.94,5465513,2043388
24.56,5471177,1311025
24.25,5500794,1799763
23.15,5468341,2336491
24.87,5474600,1236349
23.92,5470708,2294015
23.84,5472552,1776010
23.23,5462213,2213429
24.13,5469408,1646067
24.05,5466404,1893978
23.30,5467003,2170321
24.29,5463062,2020975
23.17,5466521,2290902
24.04,5493489,2338060
