perf, CACHE_MISS_L1, CACHE_MISS_L2
47.75,546065,462911
47.96,601794,345973
44.79,715276,296207
36.98,891407,333005
38.63,892230,319144
28.99,1278003,485654
19.80,2115773,999183
13.09,3837135,1960829
8.41,7498921,3473090
47.96,545051,286740
48.07,603061,312161
50.75,699632,436113
46.68,883322,423884
39.55,905642,176703
39.35,905450,207005
29.41,1342143,215955
29.37,1324649,260810
28.98,1335839,285516
20.93,2260802,369825
20.87,2259448,334720
15.87,3948402,756806
45.20,601329,245246
45.49,597870,249531
40.77,525141,260831
41.44,590029,161945
41.72,586750,165626
41.20,581570,207952
40.49,572469,264120
35.35,767362,145683
35.32,765582,153039
31.72,979679,186325
28.22,972480,288772
27.91,1239266,190497
23.51,2239134,192428
23.29,2247760,282877
34.15,480004,288326
33.66,515696,286643
32.81,567115,296117
32.46,541333,366897
31.83,474526,274483
39.38,655697,302868
31.15,657665,421961
28.82,631660,378684
30.04,1032127,474360
24.54,1986731,663486
48.33,685871,371956
46.37,685942,453446
48.97,686004,327478
48.10,685777,381413
48.11,735194,483842
47.83,740399,274235
44.49,940448,372728
45.12,938844,319739
44.88,938217,361176
44.55,939440,378450
40.25,770563,271616
40.47,758314,254577
40.21,783433,331896
34.76,774860,141747
33.70,1064710,299176
33.88,777917,179424
33.82,953763,296604
34.01,758534,211559
33.86,776942,200808
25.39,1424726,285825
24.40,1895165,603924
25.07,1421859,321466
17.71,2751896,580137
18.01,2753140,518251
17.54,2752048,608576
12.59,5481730,808796
12.38,5489236,1191949
46.41,684453,471424
47.00,785749,433175
47.24,809685,481375
47.47,807538,449348
44.16,946638,445575
44.08,914798,441813
44.10,945997,510662
40.06,801547,291666
40.65,569615,146703
39.89,715030,251033
34.72,1092248,261255
34.64,1087640,333891
34.46,792595,176059
35.16,797981,172437
34.51,792162,181785
26.15,1873793,507908
25.72,1433697,318078
25.69,1905639,576251
18.38,2766715,583550
19.10,2774941,548003
18.30,2763183,555322
13.11,5398941,913302
12.99,5405878,1040944
12.69,5380973,1097206
13.09,5406812,940098
12.66,5378710,1047897
40.90,628293,882232
40.94,637798,861905
40.08,647105,930040
40.87,647075,893958
39.93,896179,837161
40.89,865004,685574
40.02,868094,708356
42.15,592010,193981
43.17,436187,206838
43.16,428974,187594
41.30,600405,321661
38.34,445031,228754
36.95,478794,178128
37.67,457788,247838
29.99,608334,386407
28.68,651035,283261
21.80,1057803,537852
24.28,914633,708626
22.25,984353,733393
19.50,1465146,910855
16.35,1825832,931391
34.48,584048,551896
34.37,612376,583149
33.96,612444,549731
36.12,679083,431917
35.67,698610,452664
36.21,697905,439894
35.28,682177,449341
35.79,697084,458530
42.52,627003,206812
41.97,602908,305620
43.87,625565,204057
40.76,733038,203594
30.91,670477,271924
29.39,767966,301456
29.64,766632,294892
27.07,765862,384281
26.32,828521,534644
25.27,929223,382315
23.39,1120655,526991
23.37,1126713,513097
23.63,1121797,517004
33.71,697902,575125
33.81,697839,564690
49.11,884653,401019
45.86,826089,317787
40.23,1425188,469654
29.43,2042757,363184
19.78,3835479,644472
33.77,696633,562916
41.88,716657,292214
46.80,754277,312898
46.04,826067,351787
39.66,988641,255501
21.51,3826607,317275
37.65,694788,610590
34.44,654351,627684
38.72,648141,392665
41.68,769967,352953
36.80,734184,270783
40.68,736798,298607
30.27,846928,655939
25.14,1344833,303795
36.70,642467,618768
36.35,655798,613413
35.89,728500,692609
33.45,764874,645393
36.52,618810,1113451
29.43,702552,632174
31.85,452036,400691
29.81,437818,390129
33.56,457236,343254
36.73,494878,258178
36.99,495064,250135
36.97,495484,260373
37.00,724895,325023
36.60,568176,218711
25.15,1434228,574140
18.57,2489053,1114065
18.67,2469170,1149037
18.61,2611232,1298634
13.42,3779794,2330746
13.96,3786896,2129249
29.71,434582,361349
32.40,455955,242257
32.23,453475,296451
36.50,493594,225606
37.24,569377,164305
36.53,567378,237493
25.53,1960793,592641
25.56,1442097,329544
19.93,2487324,620733
19.74,2486465,791000
17.26,3796641,951064
29.50,433328,293721
31.27,453760,224651
23.80,449072,244661
31.03,444670,272054
31.36,434187,303252
33.59,489513,158945
29.74,806544,270435
26.37,1650399,622999
25.01,1891895,174022
21.77,2003422,552264
22.88,2874147,437445
22.55,2850753,422912
29.64,422838,291127
29.25,394662,377123
29.14,449161,300256
28.89,482512,292888
26.87,659652,332994
30.30,976335,625032
27.21,1215777,682492
25.95,873779,433588
30.52,1549525,303290
23.36,1478580,551686
23.60,2556592,579729
44.37,670179,280739
41.54,738692,189361
36.45,883271,240389
31.95,767903,239235
31.45,792503,302288
30.77,1242522,444230
31.73,786731,281185
24.34,1401134,552810
24.30,1387401,548750
24.89,1397733,462183
24.12,1397923,559410
20.65,2551349,758388
20.81,2551391,688573
20.60,2552291,770198
19.08,2549121,1128362
20.25,2537544,804928
32.77,616123,542812
35.69,641865,540701
32.88,615030,552292
39.09,634728,491891
38.07,633725,560378
38.29,634555,516543
40.44,683260,581672
40.36,682937,589998
43.76,670251,309100
43.02,744099,453285
42.54,741892,198865
42.08,740036,232918
41.50,738739,272110
40.93,880487,407553
41.74,740581,272919
40.51,869602,486015
37.33,882840,193632
31.08,819393,304754
25.39,1413860,526272
25.61,1443800,515012
24.06,1406981,532289
24.58,1405997,528008
21.44,2573968,938633
19.00,2538952,1111054
19.65,2540953,972637
32.32,597045,581005
37.55,660920,534270
35.87,607734,516737
37.98,660828,555777
38.23,651540,663534
40.94,793009,249387
40.85,704151,256267
40.44,708298,310940
37.63,790902,167142
37.96,782343,235375
36.52,806769,280103
32.42,900676,703244
25.32,1026451,542038
25.00,1005608,544568
25.50,1335554,882336
23.19,1473539,736328
24.31,1406936,1288007
23.54,1473961,651450
32.43,564145,556287
32.49,574049,565452
32.39,589261,586914
32.22,587019,563605
32.28,601510,588417
34.21,594028,402785
40.50,634727,230828
41.31,646386,212315
41.07,650996,268822
41.16,645648,238206
40.94,651793,294584
41.42,670684,242889
42.03,664343,197637
41.62,678087,216428
41.51,680171,223375
39.92,730107,205517
36.56,751557,250813
35.11,831438,286963
34.69,833622,301721
36.50,751580,252200
34.85,831679,300900
25.48,1151305,521499
26.38,1236581,809381
25.64,1441789,560791
26.18,1240644,831091
37.25,716992,565476
40.41,832700,668658
44.06,728989,257694
43.03,729141,311739
47.57,766494,234697
40.20,967652,249008
40.95,972906,252617
24.39,2023171,466162
23.71,2022166,603137
20.09,3793785,1056535
34.30,637836,534727
34.16,636841,567198
34.37,635870,560635
34.17,638678,563431
41.24,653751,446643
48.04,687663,232172
44.78,756578,168022
45.18,898471,338170
38.55,852256,251992
33.97,805969,226061
33.63,764882,259384
25.46,1402433,416889
24.23,1437032,615470
24.46,1434516,565327
20.63,2516132,771756
19.93,2519871,918691
19.11,2519143,1148711
19.25,2520113,1103022
18.98,2521366,1168759
33.54,642018,573292
34.70,637233,530233
33.94,637631,569309
39.92,654679,478999
43.19,711538,487531
47.62,775833,359708
46.91,688700,302794
45.93,689017,336229
43.63,756087,217844
43.93,758525,226522
44.23,895639,327155
38.51,1145886,420301
37.89,1167027,437080
38.53,858074,264981
34.41,810504,238917
32.89,852594,295875
26.82,1473045,452086
24.93,1471024,532523
21.59,2593386,719126
19.61,2575092,978325
21.01,2585692,722575
21.05,2583058,701091
33.94,621881,566355
34.14,628164,572022
36.04,633533,555679
34.24,624104,562459
37.87,668959,601103
40.74,700670,503043
37.58,648310,472515
43.71,732446,581844
40.85,676629,532094
42.58,844952,396581
40.92,748514,368336
40.01,1026242,237218
38.60,1098479,556090
37.80,880453,431187
38.67,880197,357201
37.80,880849,422749
34.63,730473,516448
26.50,1108953,912828
25.76,1164440,558411
20.20,1810909,1049752
34.14,579644,558729
34.37,588331,569435
34.38,590570,570022
36.84,685616,629706
33.37,623199,589068
37.41,671760,442651
37.76,677607,463461
35.40,614324,400384
35.25,645533,439155
43.44,692061,304589
42.83,737729,251387
42.40,877212,462361
41.66,959362,649407
39.60,850601,318517
36.48,1034721,798446
26.61,1214259,503164
26.57,1213514,515582
26.18,1215246,567251
22.87,1540897,632974
19.62,1843876,1025424
19.42,1844368,1028855
22.73,1441515,601389
48.84,730655,416990
47.30,685508,370381
46.89,687026,401350
45.85,685867,450149
46.36,740565,295828
46.22,742321,289999
43.13,842324,264406
42.92,845424,284773
42.86,846798,296792
41.22,546833,157296
41.47,533010,152741
40.87,551859,158949
35.18,772450,227876
27.76,1417424,284602
27.73,1415137,278439
27.42,1421304,337934
19.21,2771067,489202
12.73,5473805,834743
12.62,5473863,958182
12.59,5477087,1026873
12.59,5474631,1207864
12.64,5474604,959873
46.85,684655,415521
45.59,685010,466918
45.22,740360,384984
45.03,741368,407047
45.13,738640,429286
42.59,843397,351359
42.07,844182,419714
41.82,845560,422424
42.24,844972,425868
41.29,556262,142563
40.67,557819,143060
36.14,808338,157808
35.90,812128,168601
27.74,1432456,310717
20.19,2713972,481696
20.50,2749506,512377
19.05,2704766,555952
13.11,5329125,1102588
13.18,5328659,1001555
40.05,646079,890375
38.74,700096,953572
39.21,683551,902886
38.89,778535,537590
38.93,787892,576354
43.07,428391,156730
43.07,436497,197701
43.27,443207,150916
37.98,477735,178773
39.39,447500,228259
32.28,611389,428620
30.96,657323,299570
26.79,895108,483673
25.86,926544,704081
23.15,1069681,517760
18.64,1668611,1210577
33.92,585775,552082
33.83,612652,580711
34.02,595055,562688
33.91,612527,580395
33.60,606817,540335
33.52,613539,548536
35.06,696684,469105
35.79,696330,440422
43.73,628531,194196
41.37,597115,146416
39.30,671311,184965
38.46,876120,522013
40.19,626492,212887
39.20,670486,206613
34.06,681050,287263
34.94,647365,339223
27.70,861570,551325
26.79,1014105,446359
24.86,1131441,524104
19.24,1102038,715854
18.39,1216858,907718
17.52,1481920,728967
15.67,1825758,1019362
18.45,1214155,914444
17.45,1488093,747430
37.68,964160,769506
60.65,1021065,278490
58.31,1020856,383442
59.04,1092469,219167
57.21,1092713,331727
55.56,1092331,448068
53.53,770570,177673
44.50,1081583,147985
24.67,3958029,418381
37.54,954088,786136
44.41,970724,468757
45.74,979647,542372
58.71,1009998,435405
56.75,1013834,548431
60.20,1084827,270885
54.89,1091331,667937
45.87,1071135,226384
40.31,1793344,346196
30.72,3211109,171411
30.40,3212364,314472
37.98,823221,776332
37.74,830234,798262
41.80,889843,554100
48.87,881040,414240
47.99,953440,399245
47.10,971952,420251
45.58,623296,644664
47.14,505519,426899
37.62,584513,501558
39.87,554973,427529
35.80,587703,904639
31.81,654799,1027165
28.11,671135,512428
37.85,816565,810257
37.07,908755,891352
37.49,828680,804900
37.25,848430,822178
39.87,1162072,1055199
36.71,974828,883394
48.93,1095111,830758
46.81,838635,813015
38.60,1048119,1624346
41.53,871036,815343
38.69,914810,1273027
30.44,1241788,1159197
28.52,894248,834807
37.95,961678,802393
55.45,1092805,212763
54.35,1093117,279499
53.35,1092704,341304
47.65,1539741,382276
47.55,1527856,424300
41.01,2020858,314708
41.21,1151822,218725
38.61,2023190,315104
38.27,2026000,404517
25.01,3972730,454971
24.15,3968570,413468
24.72,3980911,544069
48.09,1155679,595921
44.94,969309,549694
47.40,1160645,619045
54.14,1238439,566095
55.10,1314231,348668
47.72,1454048,481880
47.53,1203686,392798
42.17,1753860,355552
29.08,3188206,398845
38.18,827737,773851
37.81,846256,817334
44.41,1013439,618941
40.77,932353,612938
45.98,959084,399033
45.74,964101,406533
48.59,632611,588223
44.74,645342,655862
40.46,616444,674008
30.92,752236,1031966
38.94,995560,944643
37.98,844532,793899
37.82,852009,801364
37.55,880156,786837
37.19,901362,807364
46.71,980533,836006
46.22,838994,813338
38.05,857451,1586723
35.88,870211,1868075
28.41,895540,840242
30.68,698880,593602
48.57,756904,261187
44.88,829154,343503
40.08,911176,256564
38.87,912102,345982
27.45,2144164,621641
27.12,2134963,608808
26.36,2119720,738181
17.09,3860243,1226040
30.47,690923,553147
47.88,750409,332771
46.67,822517,207831
45.36,823837,352390
40.24,916320,263089
35.30,1213194,243366
30.37,2054185,325794
29.39,2049764,415112
21.67,3499921,674272
36.70,743843,410812
34.17,657318,385179
40.53,689055,281475
39.14,702874,335919
41.50,819907,424932
38.26,760583,271906
39.87,761540,300879
36.24,757831,615753
33.50,1075730,681490
32.21,765320,415333
35.83,1153240,303714
29.12,1112575,488958
33.28,664586,626946
30.31,645765,634065
32.75,606613,537338
32.68,613080,544382
34.81,714927,594303
32.17,674954,630230
31.82,647770,536542
31.64,676200,574628
37.69,649759,771762
28.42,708762,630381
40.05,672571,557791
30.66,902038,1236409
23.93,1182892,926891
22.58,1277439,929521
22.26,698339,613928
40.00,718779,410342
38.92,718291,366695
49.92,756427,229160
48.63,756794,279717
49.13,1046191,315756
48.13,828760,265096
44.14,929518,241514
42.84,1381077,409884
35.89,1858856,505451
29.17,2113458,535064
18.46,3834609,975879
18.52,3832251,856595
33.31,696942,543944
33.08,696986,564541
33.14,696184,607824
43.62,830222,409444
48.67,754194,305606
48.00,753404,367091
49.06,826625,183920
46.02,825938,498207
42.50,942783,374782
37.84,1891233,265811
38.71,1192996,241783
36.52,1898835,412096
22.09,3654418,482018
22.48,3661251,428778
21.81,3664657,606309
35.90,673181,467929
41.28,678661,287240
40.46,748436,278706
42.26,672326,300859
34.43,679353,390607
31.17,1590945,302378
30.04,1559272,585201
28.58,1586204,746213
26.20,1593539,468412
36.27,665592,634381
35.94,742738,716518
33.30,576748,545194
33.34,602501,543276
33.16,636143,579228
33.20,629231,529077
33.33,633509,535760
32.64,710655,622720
43.85,612651,554772
31.02,689356,630540
29.17,697580,630791
38.80,678299,557937
35.38,682239,865032
32.62,694840,1162787
27.45,722227,602179
26.46,734284,631142
26.01,858945,647805
34.04,698100,579247
49.99,754368,232322
50.18,754821,257041
38.49,1189375,234639
29.81,2078152,448468
29.56,2089791,476292
18.46,3831602,1106396
33.90,694606,621578
48.63,754638,348668
48.05,753487,383262
46.20,751672,443214
46.56,1042262,607216
43.50,1393331,446762
36.71,705013,620414
33.71,652839,627316
41.01,743088,453082
42.78,716743,312207
43.38,819279,419016
42.11,859547,292570
44.55,727066,427716
43.52,925990,596834
40.33,956067,657203
40.72,920480,637114
35.95,624718,389806
40.56,865086,301721
30.56,1363522,588179
26.52,1393470,518423
36.61,633763,611103
37.11,679395,655570
36.81,719783,700055
36.12,668972,615986
33.90,613183,587462
35.26,713660,539535
35.38,716379,546644
32.26,727931,588784
40.18,734233,853946
36.60,721202,1129426
30.28,768884,634620
39.19,630705,858846
29.12,664242,598409
25.86,888151,777803
26.67,1138860,992822
32.38,1436128,1213392
31.83,1441222,1290517
35.77,1158528,702758
34.80,1159646,781167
34.96,1160239,771279
45.75,1461071,477758
40.23,1195773,383490
44.54,1526799,391597
40.31,1280487,254207
40.03,1279540,267036
39.26,1273042,292049
46.27,632373,197790
45.49,1221617,433936
43.21,1241916,665295
43.84,1166911,557471
39.65,1363270,592911
37.84,1368823,733542
33.28,1371536,510892
25.16,2566068,1008965
24.89,2566523,1072830
27.29,2537577,599381
31.82,1436501,1284548
26.19,1138244,1065360
31.89,1438430,1299319
40.26,1423041,919813
40.81,1430786,937491
35.29,1151133,766595
33.97,1153600,848905
33.85,1158617,918528
38.97,1189888,541000
39.74,1268441,238943
39.44,1269329,282304
38.87,1274689,358701
39.54,1267496,259176
39.18,1269883,318456
46.16,1161939,256740
45.04,699298,212182
36.63,1209516,608975
33.08,1269675,534357
25.18,2241135,1110173
28.08,2125506,762418
26.49,2220954,932645
26.01,2215715,994416
26.25,1086870,1043600
26.22,1097645,1050904
26.50,1098449,1020586
30.33,1107650,940636
30.25,1137100,908817
33.81,1175851,982661
39.01,1211541,192958
38.69,1217951,261359
38.62,1217092,280485
42.36,808091,214236
36.94,855916,291254
40.31,719483,228265
38.98,766725,210129
31.21,1179087,512535
34.48,996391,313175
31.06,1183730,523622
31.10,1127635,622703
27.87,1453833,633112
30.18,1244450,517429
24.77,1847307,1020159
26.04,1073558,1066933
25.94,1092201,1069696
32.06,1309132,887760
28.59,1131229,811165
28.92,1130677,777598
35.90,1176599,516518
41.16,1551771,386041
38.94,1572849,709371
39.79,1706078,308235
39.60,1708204,345824
37.87,1833845,634730
35.36,1753186,740360
34.17,1904656,803335
35.94,1109123,192719
34.28,1272703,308003
34.14,1268980,327396
30.94,1598225,555648
32.97,1359287,376477
30.08,1619628,494334
28.04,1782907,634232
25.38,2315553,984723
28.69,877685,811493
28.70,878703,826193
40.40,1075572,766480
36.91,897018,676408
38.91,980690,647103
42.77,1125628,493915
41.14,933085,352542
41.42,931838,324189
43.32,1119345,457238
40.97,933295,365333
41.09,1011261,229716
41.17,1011442,207333
40.92,1011018,234406
41.79,1195822,380951
39.99,1140670,434302
41.04,740855,217461
40.80,739130,238882
38.78,1125051,608218
36.78,788790,227711
31.19,1392916,419687
30.86,1408756,444955
30.28,1401972,450801
29.02,1374067,574888
28.82,1395922,591767
23.54,2519759,866934
23.93,2526493,838965
23.96,2523894,782045
23.13,2541352,1069583
29.14,872659,767732
31.92,1055616,942692
32.44,1062342,960495
38.40,1085198,836123
36.84,893151,673821
40.30,929898,444989
39.47,932169,503852
41.70,1195828,347524
41.17,1190695,420832
39.83,1006741,319527
40.53,1202576,550006
38.57,1117705,568502
40.39,760911,239715
37.41,816070,261275
36.46,824916,291647
35.04,831292,312726
31.90,1320014,426704
30.64,1322156,492437
30.88,1356633,482562
25.67,2295642,969067
23.36,2365080,1057427
25.36,2319976,779986
28.75,838670,797545
28.85,845559,794368
28.42,857306,827626
28.61,845560,813283
32.02,1042177,1008321
32.63,876410,736019
32.29,864962,680260
36.23,894694,719565
35.43,912357,796245
35.37,900853,846745
35.20,912336,869771
39.63,964063,226945
39.30,970500,287512
38.41,981792,369155
39.53,803484,248403
38.70,831041,276193
38.24,703998,246433
35.79,792143,276868
34.55,1198467,698662
35.96,1092214,671759
31.28,1041172,540494
31.33,1009055,486142
27.45,1416680,927201
23.85,1761944,1003869
26.42,1547854,820489
26.02,1540443,862364
24.39,1771791,929959
32.27,1004493,1008698
32.29,1010579,1015880
28.39,849533,843761
31.78,1030307,1034120
28.77,828593,804931
28.68,845021,823436
32.19,1070052,1043601
28.65,862003,844773
34.29,1080220,702117
30.40,887396,649914
30.79,887778,623879
39.70,905532,202093
40.05,911087,182887
37.79,1369003,606766
38.04,1198212,306175
34.85,1054048,315522
32.41,1216669,377705
31.79,1177197,393098
29.88,1377425,566332
30.07,1378133,546489
27.14,1450870,750276
26.10,879279,810292
32.55,899463,647740
33.57,899407,662713
33.53,899395,659184
38.38,934914,297963
38.06,934418,344327
42.94,1082790,519043
37.11,934840,419336
36.85,1006051,179369
34.28,1003823,189098
36.59,1005457,212591
36.32,1005412,245553
36.76,1005944,209035
36.29,1004502,251367
39.03,1179174,415122
34.66,735888,291413
36.15,749796,194465
35.05,729707,298282
29.05,1361620,364044
26.43,1356833,563551
22.76,2590494,760779
22.24,2603950,980952
32.53,894960,650876
39.88,1015845,829398
32.97,896599,715695
43.03,1077153,542029
37.20,931978,426812
36.96,1005015,211010
36.92,1003949,225179
36.65,1005402,270695
36.54,1006556,278363
38.50,745373,263511
38.32,747309,271088
37.81,750019,256332
34.49,778886,307214
35.38,792129,297035
30.34,1290815,428272
29.58,1282276,559124
28.76,1288741,466129
27.01,1307094,535589
22.75,2316749,962619
24.34,2301067,865632
22.43,2317964,1012621
26.20,840185,802706
26.61,855231,825178
29.40,850557,699195
29.27,877161,741610
32.97,900041,823805
32.84,918476,863362
39.83,1179634,461338
32.59,729380,279724
32.61,1162427,537246
34.09,1049855,657297
32.64,1155033,543015
29.74,937050,525382
29.75,937939,508897
34.31,997824,969234
33.24,981848,958349
34.62,989223,928903
26.52,846205,824168
26.52,835766,810567
29.11,861183,587458
29.16,891954,613682
28.68,892581,649589
35.72,896824,232477
35.34,934985,301178
34.77,936114,347009
36.72,933971,218061
36.41,925401,191114
36.34,921631,187029
35.87,975777,199496
35.81,972926,215437
34.12,876704,210895
29.24,1057296,288235
29.18,1062773,298873
28.15,1311823,414882
26.16,1374769,553724
23.58,2062946,1021425
23.54,2067278,1015321
23.46,2061333,1045704
29.18,880282,768326
29.25,880164,780447
35.80,898250,670331
34.46,898672,698814
35.98,898206,675389
39.83,933196,368811
39.86,932826,372097
39.44,1005953,256397
42.97,1189588,371330
40.57,749548,209746
40.26,759501,219337
37.84,755656,202675
37.70,751306,193298
30.14,1376508,356985
29.00,1365369,437935
27.51,1361339,511824
29.50,1403460,415485
23.91,2607580,797346
22.59,2590004,983678
24.19,2608771,723965
29.15,874466,763743
28.92,877819,812740
35.20,895378,666920
34.45,897356,736308
35.11,894719,681993
39.21,930837,454007
38.58,932035,495448
39.51,929879,433658
39.07,932176,467351
39.53,1001936,228334
38.98,1002749,303437
38.58,1004201,348175
40.30,779701,175001
40.04,775942,228298
39.33,775749,271159
39.71,768106,270094
29.77,1292490,539551
27.95,1299593,574809
29.76,1307185,513965
28.14,1312612,551080
28.28,1300827,536573
23.40,2303095,1034368
25.91,2253059,1052619
23.61,2305798,999766
23.91,2313129,938501
28.65,857791,841561
39.74,1025169,959404
34.16,913325,857410
37.72,966843,313895
37.46,981737,387280
36.45,667996,238687
34.82,742295,277300
30.82,838446,480632
28.13,821433,814365
27.99,850719,841915
28.03,850485,841620
28.02,850686,843173
30.14,904607,871770
28.81,867684,844341
28.88,868016,840185
29.34,889968,647784
29.67,889812,619777
39.46,913487,256429
40.79,1165424,571868
39.43,901856,181353
39.67,1233737,453150
38.12,974554,187594
37.91,977037,203087
32.65,999908,350256
24.46,2090394,946201
31.20,616321,555801
31.02,616405,567117
32.03,621773,572667
31.16,616541,566840
38.01,635067,535577
42.60,669585,326603
43.12,740544,385584
41.39,740351,214847
40.87,860431,358614
40.73,854754,399823
40.79,858336,357878
40.00,881064,487061
36.24,906609,265228
33.79,805442,253503
33.15,811512,290552
27.38,1392657,419844
27.59,1389993,375644
26.57,1384213,514703
21.94,2537029,722821
20.98,2537585,934752
30.86,615864,543026
30.89,615572,562366
30.93,615190,563439
37.01,634636,539269
37.82,634873,491692
42.36,670534,332555
41.96,669075,378546
40.81,739288,273213
36.46,915317,246000
36.15,910271,305551
32.97,803894,318906
33.57,839889,293372
33.12,837855,325917
27.27,1439458,579107
27.46,1424669,522590
20.38,2518285,1147753
20.65,2517502,1065249
22.30,2529204,845201
31.09,588932,548632
34.06,606637,467424
34.57,606480,513097
34.34,614110,538733
34.84,606222,517462
33.31,614993,503509
37.85,634472,511306
36.87,650365,660277
37.36,642332,609724
39.88,716800,312991
40.05,703874,243703
37.83,902244,306432
37.62,780907,315377
38.33,770382,239183
37.60,782537,332808
36.91,626792,247759
35.44,912623,526077
34.12,971378,772323
33.42,1037898,794203
35.46,630544,352130
34.45,660021,299205
29.55,980311,611559
22.52,1634565,949924
31.08,563313,554573
31.02,572575,564968
30.93,588823,584807
30.87,574518,553942
30.75,600464,587412
33.96,650391,624509
30.78,600368,585565
32.78,598255,414963
34.98,692155,537221
41.20,651066,233558
40.08,668699,285071
41.32,678686,217435
39.05,685743,223210
38.07,709712,320953
34.60,1040483,545942
35.19,827474,309286
35.15,829404,318978
28.75,1149722,513908
28.42,1150600,567741
22.08,1816568,978413
21.89,1818701,1032824
36.32,715810,588454
42.06,731459,360461
51.22,768844,201865
49.48,842141,164207
34.53,2152084,519722
26.25,2074289,487081
26.17,2075775,644711
20.27,3780327,1080556
20.73,3781196,846040
34.85,1055340,922041
34.65,1054492,873814
32.66,902235,622146
31.92,902125,627988
32.50,902285,591499
32.14,902175,688175
33.31,901791,510453
43.45,1095526,392897
43.01,1101649,440875
35.35,1007969,222106
38.52,630546,161568
37.76,653418,196122
37.63,645766,197009
34.63,732393,198192
34.61,738253,199636
34.00,736990,227758
32.10,1322351,643398
27.53,1340740,333059
27.58,1343546,353734
25.50,1341141,562481
27.21,1340032,353380
26.57,1343308,378385
23.31,2512975,693676
23.40,2512884,566328
22.54,2514223,733023
25.93,883608,778982
25.39,884226,772900
25.28,883309,810806
25.81,885270,730765
31.87,903595,628053
31.16,903973,678173
30.95,904541,642314
30.79,903934,734883
35.88,939397,389508
35.52,939132,407803
35.25,939907,423556
35.52,938505,414586
35.84,938898,400098
35.45,1010642,233681
35.11,1010268,281841
38.50,714478,154826
37.63,703845,185396
36.63,1258552,588011
33.99,803970,262646
32.91,797759,290118
34.18,803152,242482
32.96,795462,296896
34.42,800819,245254
26.11,1330960,533278
27.43,1307397,424091
26.03,1305860,512052
23.93,2305350,745764
25.22,834418,794226
34.15,1025432,928739
28.87,864842,639244
37.09,1014652,735684
28.98,865753,685373
28.70,864848,646836
31.37,891492,769866
38.97,1081039,941991
38.23,1117008,992741
33.03,962814,326631
33.31,975615,313435
33.27,976121,325145
32.73,995115,420930
33.19,641806,325113
32.39,688770,258794
31.16,770573,283347
32.29,1185267,849410
30.94,770394,298549
28.81,899517,517075
27.23,931205,363888
25.53,1107484,519486
26.10,1203025,756378
25.24,1421807,557591
22.75,1784094,916753
33.67,1022244,988218
24.61,855179,847052
24.53,837978,810435
24.43,869522,843944
24.50,849710,823126
32.86,1065720,992952
26.51,876746,612825
26.91,898301,604554
26.52,896358,636107
32.12,945515,376323
37.47,1174210,486399
32.24,922670,337727
34.57,888903,132302
34.33,902309,184204
33.84,925598,191038
33.43,974500,199065
31.72,898787,217142
31.04,953778,211307
30.05,1069585,325952
25.55,1177471,349145
25.00,1392399,476169
23.75,1622343,601999
25.16,1393310,421008
21.10,2074357,1003723
28.30,883329,771186
35.76,901348,594264
35.80,902028,575586
43.52,1022151,604722
36.52,901838,600122
41.03,937697,263571
46.38,1068642,430631
39.53,1006350,163867
39.21,1008367,187399
38.96,1009704,201682
38.95,1007503,209542
40.68,676142,177798
41.41,653550,173629
33.83,1360545,675809
26.63,1350219,549906
26.81,1352504,517878
23.21,2519038,763679
28.00,883603,804261
27.82,883610,828209
27.92,883098,825237
28.48,884210,761564
28.27,883425,789208
34.85,904552,646301
34.01,903612,765152
34.95,902979,652679
39.89,941009,370234
39.01,940100,431208
38.96,940592,422728
39.63,940195,407289
40.69,701038,198316
40.02,710168,196773
39.55,719776,204654
33.46,1381871,713472
30.70,1326416,380619
28.68,1334795,487270
30.00,1365711,502382
27.32,1317148,515623
26.21,2322784,687668
22.89,2297798,1022421
24.98,2319651,912674
24.50,2313798,845319
23.10,2300724,986118
23.16,2299317,987355
27.97,837060,810168
35.46,990614,923749
31.71,867685,671951
32.30,857905,662917
35.25,896374,733433
35.14,906445,688034
37.69,965344,279986
37.88,976045,289449
39.92,703949,152300
38.87,1177285,544561
37.55,1270120,819725
39.04,1164999,544416
38.90,743958,251705
33.83,787532,297937
36.27,656935,335267
35.29,700901,282552
33.79,781218,305637
30.63,821542,415673
29.91,872634,490475
26.95,1186335,558170
26.54,1249888,806847
23.13,1802456,932824
26.64,1234603,823490
27.93,827021,818370
27.85,838293,828601
27.72,856886,845285
27.70,841145,811461
27.57,869880,843153
27.55,870005,843713
27.43,872177,845242
29.60,876783,597397
29.65,898681,611924
29.62,877823,596215
37.81,904922,193888
36.13,947929,378917
38.05,888071,134476
37.12,926464,190486
36.44,979177,204497
37.00,927172,195251
36.66,976616,206161
36.48,977850,218706
34.26,875670,209071
33.02,958904,228811
33.69,907530,229522
32.02,1075388,317746
32.18,1073978,319881
27.47,1182358,366911
26.02,1410849,558166
25.96,1409019,590926
25.00,1620164,675379
22.45,2072825,972353
28.16,685334,607119
28.25,673791,605372
39.24,776821,554432
35.15,695773,487293
36.22,687301,437656
40.21,719068,246718
39.31,716792,300802
39.87,722623,270547
40.02,975215,334080
38.51,787701,222767
38.18,794932,240382
36.01,867445,216672
35.69,873795,259116
27.61,868497,291333
29.95,1442850,550925
29.44,1453522,694288
29.74,1439534,640232
24.48,1491494,535725
24.60,1479575,499873
24.02,1477740,605040
20.38,2532205,1057754
28.63,689247,569828
34.69,769055,609526
28.37,686448,587248
28.12,685226,606688
34.84,697914,461288
34.92,700730,471448
39.50,793266,556712
35.66,714714,474259
40.18,790715,493136
39.37,791013,544299
41.52,863294,394411
41.51,850478,401108
41.03,853622,430281
38.56,724002,347684
40.30,972357,317845
39.69,967739,418318
36.28,1155433,291932
35.96,893992,239488
36.18,900186,238512
36.08,865617,236700
30.78,1479200,523442
31.18,907924,302278
25.86,1512454,475995
26.09,1534130,453532
25.26,1498377,457215
24.54,1511300,538970
25.53,1523440,436903
24.76,1495355,514575
24.56,1495247,535020
23.37,2542343,760881
34.15,713062,615136
34.95,733548,638952
28.42,684113,598877
28.34,672298,591585
28.50,664246,582067
34.79,747473,650949
28.12,676112,608007
37.60,765513,508562
32.34,675208,481347
38.53,800418,633350
36.65,780910,291548
38.98,924034,305510
37.64,957989,563596
34.54,1179844,845225
35.83,871393,365055
32.43,805386,512082
32.22,807434,514147
27.37,1222503,725652
25.15,1670800,1309362
23.25,1759044,1344030
25.06,1694510,1281534
23.63,1781256,1332740
21.78,1908951,1067314
21.94,1931304,1030932
35.36,669638,621691
27.99,654889,609271
28.10,652645,605219
28.33,636880,567558
30.17,660603,447805
35.13,810293,549082
37.26,671820,198817
36.83,695191,283260
36.90,720618,311849
35.75,723103,375685
37.30,699369,143561
36.64,719040,214187
35.55,792917,274612
35.05,1003993,341289
32.03,926067,375241
33.26,830420,362386
32.30,924425,358913
28.19,990542,536814
27.08,1090743,545086
25.64,1280193,587344
25.69,1277763,567265
25.73,1276952,565919
26.14,1249246,703499
24.80,1361070,881690
20.65,1926295,1059216
23.79,1554890,743177
20.81,1941426,998049
34.26,639114,546101
37.81,688401,613227
43.79,715145,460451
41.39,654532,439121
46.19,691823,256440
46.20,691863,254836
46.25,690620,266434
44.80,758163,164514
44.21,761040,194314
44.09,760597,197320
44.37,889807,335093
38.26,873100,212997
38.61,871075,220007
38.22,1019929,315182
38.44,874223,232924
34.56,796164,266979
33.99,807661,281570
34.41,806856,280672
32.32,1271217,621061
26.44,1432464,414270
26.69,1423921,385669
26.01,1406165,499627
25.31,1438524,627582
24.78,1428721,673563
21.29,2522448,853723
20.41,2519813,998384
34.24,642664,548140
33.99,640536,577186
40.25,659475,430190
42.70,718842,449214
40.17,658801,470722
46.85,781856,354954
46.57,783244,413524
45.57,692428,316391
44.66,909741,271992
43.82,763199,219192
39.02,884206,187191
38.77,879680,236720
32.43,1312169,594542
27.87,1456189,435561
20.76,2568953,1003447
37.86,660590,578335
37.82,668809,590705
37.65,669258,601118
41.51,689188,484914
39.19,713312,515760
40.28,688002,557177
43.42,747314,216848
42.69,750402,290509
42.71,750308,267720
39.76,842949,166097
37.87,725353,270417
36.06,743681,489132
36.07,727621,481628
35.14,755647,331963
29.07,1112923,724245
26.76,1180132,569783
26.77,1173824,542541
25.16,1536517,1319264
23.72,1669229,1178100
33.88,592001,574100
37.38,648646,603054
33.94,613610,592311
33.88,593416,555793
35.54,619005,404595
41.77,696732,324436
42.76,748503,330156
40.38,697743,348719
42.29,700450,236140
34.95,1231279,949101
30.59,915672,537655
27.81,1225418,526900
29.08,1018410,458554
29.24,1027294,441717
27.65,1235401,565895
26.54,1166864,666797
24.28,1605051,752901
25.22,1268386,880073
20.97,1906088,1007889
