IdRun;NameConv;Time(ms);std;NbMicroKernel;AxeFuse;SizeAxeFuse;Schema;Time_search(4.415044069290161)
0;ResNet18_4;0.22550090000000003;0.001723871889091541;1;axe_out_channels_1,axe_yy_0,axe_xx_0;31;[V f, U (1, f), U (14, y), U (3, h), T (32, c), Hoist_vars [c], T (3, w),  T (28, x), T (2, y), T (1, f), T (2, c), T (8, f)];5.341832399368286
1;ResNet18_4;0.8970692999999998;0.0032639036765811633;2;axe_out_channels1_0,axe_yy1_0,axe_xx1_0,axe_out_channels1_1;7;[V f, U (2, f), ULambda y, T (32, c), Hoist_vars [c], T (3, h), T (14, x),  T (3, w), T (2, c), T (2, f), T (2, x),  Lambda_apply y [((Iter 1), (Arg 13)), ((Iter 1), (Arg 15))], T (2, f)];6.549258470535278
2;ResNet18_4;0.11323659999999999;0.0010675679088470208;2;axe_out_channels1_0,axe_yy1_0,axe_xx1_0,axe_out_channels1_1;11;[V f, U (2, f), ULambda y, T (64, c), Hoist_vars [c], T (3, h), T (7, x),  T (3, w), T (1, c), T (1, f), T (4, x),  Lambda_apply y [((Iter 2), (Arg 9)), ((Iter 1), (Arg 10))], T (4, f)];7.967588424682617
3;ResNet18_4;0.8434555000000001;0.010525360366752314;2;axe_out_channels1_0,axe_yy1_0,axe_xx1_0,axe_out_channels1_1;8;[V f, U (2, f), ULambda y, T (32, c), Hoist_vars [c], T (3, h), T (14, x),  T (3, w), T (2, c), T (4, f), T (2, x),  Lambda_apply y [((Iter 1), (Arg 13)), ((Iter 1), (Arg 15))], T (1, f)];9.162299394607544
4;ResNet18_4;0.2790395;0.009432822729702917;1;axe_out_channels_0,axe_yy_0,axe_xx_0,axe_out_channels_1;11;[V f, U (4, f), U (4, y), U (3, w), T (32, c), Hoist_vars [c], T (28, x),  T (3, h), T (2, c), T (2, f), T (1, x), T (7, y), T (1, f)];10.135339498519897
5;ResNet18_4;0.114345;0.0013443337383254208;2;axe_out_channels1_0,axe_yy1_0,axe_xx1_0,axe_out_channels1_1;10;[V f, U (2, f), ULambda y, T (64, c), Hoist_vars [c], T (3, h), T (7, x),  T (3, w), T (1, c), T (1, f), T (4, x),  Lambda_apply y [((Iter 1), (Arg 8)), ((Iter 2), (Arg 10))], T (4, f)];11.451615333557129
6;ResNet18_4;0.1061056;0.001152562293327352;1;axe_out_channels_1,axe_yy_0,axe_xx_0;38;[V f, U (1, f), U (14, y), U (3, h), T (32, c), Hoist_vars [c], T (3, w),  T (28, x), T (2, y), T (8, f), T (2, c), T (1, f)];12.384542465209961
7;ResNet18_4;0.8476623;0.004580633341580611;2;axe_out_channels1_0,axe_yy1_0,axe_xx1_0,axe_out_channels1_1;7;[V f, U (2, f), ULambda y, T (16, c), Hoist_vars [c], T (3, h), T (28, x),  T (3, w), T (4, c), T (4, f), T (1, x),  Lambda_apply y [((Iter 1), (Arg 8)), ((Iter 2), (Arg 10))], T (1, f)];13.591413259506226
8;ResNet18_4;0.1804249;0.005996017135565906;1;axe_out_channels_0,axe_yy_0,axe_xx_0,axe_out_channels_1;11;[V f, U (2, f), U (14, y), T (64, c), Hoist_vars [c], T (3, h), T (7, x),  T (3, w), T (1, c), T (4, f), T (4, x), T (2, y), T (1, f)];14.512496709823608
9;ResNet18_4;1.0766474000000001;0.006198374548218244;2;axe_out_channels1_0,axe_yy1_0,axe_xx1_0,axe_out_channels1_1;7;[V f, U (2, f), ULambda y, T (16, c), Hoist_vars [c], T (3, h), T (14, x),  T (3, w), T (4, c), T (2, f), T (2, x),  Lambda_apply y [((Iter 1), (Arg 13)), ((Iter 1), (Arg 15))], T (2, f)];15.714068174362183
10;ResNet18_4;0.1082479;0.0013002977697435315;2;axe_out_channels1_0,axe_yy1_0,axe_xx1_0,axe_out_channels1_1;21;[V f, U (2, f), ULambda y, U (3, h), T (64, c), Hoist_vars [c], T (2, x),  T (3, w), T (1, c), T (1, f), T (14, x),  Lambda_apply y [((Iter 2), (Arg 9)), ((Iter 1), (Arg 10))], T (4, f)];16.942421436309814
11;ResNet18_4;0.1287736;0.0043245115839826275;1;axe_out_channels_1,axe_yy_0,axe_xx_0;38;[V f, U (1, f), U (14, y), U (3, h), T (16, c), Hoist_vars [c], T (3, w),  T (28, x), T (2, y), T (8, f), T (4, c), T (1, f)];17.892135620117188
12;ResNet18_4;1.4599794;0.010321968263853589;2;axe_out_channels1_0,axe_yy1_0,axe_xx1_0,axe_out_channels1_1;7;[V f, U (2, f), ULambda y, T (16, c), Hoist_vars [c], T (3, h), T (28, x),  T (3, w), T (4, c), T (4, f), T (1, x),  Lambda_apply y [((Iter 1), (Arg 13)), ((Iter 1), (Arg 15))], T (1, f)];19.148486614227295
13;ResNet18_4;0.6489126;0.005483915885569339;2;axe_out_channels1_0,axe_yy1_0,axe_xx1_0,axe_out_channels1_1;6;[V f, U (4, f), ULambda y, U (3, w), T (32, c), Hoist_vars [c], T (28, x),  T (3, h), T (2, c), T (2, f), T (1, x),  Lambda_apply y [((Iter 2), (Arg 5)), ((Iter 3), (Arg 6))], T (1, f)];20.36989974975586
14;ResNet18_4;0.46178420000000003;0.005445387622566466;2;axe_out_channels1_0,axe_yy1_0,axe_xx1_0,axe_out_channels1_1;10;[V f, U (2, f), ULambda y, T (64, c), Hoist_vars [c], T (3, h), T (7, x),  T (3, w), T (1, c), T (4, f), T (4, x),  Lambda_apply y [((Iter 1), (Arg 13)), ((Iter 1), (Arg 15))], T (1, f)];21.533332347869873
15;ResNet18_4;0.10701480000000001;0.0006015064089434117;2;axe_out_channels1_0,axe_yy1_0,axe_xx1_0,axe_out_channels1_1;34;[V f, U (2, f), ULambda y, T (32, c), Hoist_vars [c], T (3, h), T (1, x),  T (3, w), T (2, c), T (1, f), T (28, x),  Lambda_apply y [((Iter 1), (Arg 8)), ((Iter 2), (Arg 10))], T (4, f)];22.686200618743896
16;ResNet18_4;0.09841680000000001;0.0005609701952866999;2;axe_out_channels1_0,axe_yy1_0,axe_xx1_0,axe_out_channels1_1;35;[V f, U (2, f), ULambda y, U (3, h), T (64, c), Hoist_vars [c], T (1, x),  T (3, w), T (1, c), T (1, f), T (28, x),  Lambda_apply y [((Iter 2), (Arg 9)), ((Iter 1), (Arg 10))], T (4, f)];23.832326889038086
17;ResNet18_4;0.1267451;0.0028196296370268173;2;axe_out_channels1_0,axe_yy1_0,axe_xx1_0,axe_out_channels1_1;20;[V f, U (2, f), ULambda y, T (32, c), Hoist_vars [c], T (3, h), T (2, x),  T (3, w), T (2, c), T (1, f), T (14, x),  Lambda_apply y [((Iter 1), (Arg 8)), ((Iter 2), (Arg 10))], T (4, f)];25.051239013671875
18;ResNet18_4;0.1487349;0.0004478183671981358;1;axe_out_channels_0,axe_yy_0,axe_xx_0,axe_out_channels_1;9;[V f, U (4, f), U (7, y), U (3, h), T (32, c), Hoist_vars [c], T (14, x),  T (3, w), T (2, c), T (1, f), T (2, x), T (4, y), T (2, f)];26.206180572509766
19;ResNet18_4;0.1252791;0.0008896486328882889;1;axe_out_channels_1,axe_yy_0,axe_xx_0;32;[V f, U (1, f), U (14, y), U (3, h), T (64, c), Hoist_vars [c], T (3, w),  T (28, x), T (2, y), T (2, f), T (1, c), T (4, f)];27.144185781478882
20;ResNet18_4;0.10042790000000001;0.0012757929651789107;1;axe_out_channels_0,axe_yy_0,axe_xx_0,axe_out_channels_1;14;[V f, U (2, f), U (14, y), T (16, c), Hoist_vars [c], T (3, h), T (4, x),  T (3, w), T (4, c), T (4, f), T (7, x), T (2, y), T (1, f)];28.1328022480011
21;ResNet18_4;0.1937107;0.001476434356820509;1;axe_out_channels_0,axe_yy_0,axe_xx_0,axe_out_channels_1;11;[V f, U (2, f), U (14, y), T (64, c), Hoist_vars [c], T (3, h), T (7, x),  T (3, w), T (1, c), T (1, f), T (4, x), T (2, y), T (4, f)];29.068557739257812
22;ResNet18_4;0.4920428;0.002874167837827172;1;axe_out_channels_0,axe_yy_0,axe_xx_0,axe_out_channels_1;9;[V f, U (2, f), U (14, y), T (16, c), Hoist_vars [c], T (3, h), T (14, x),  T (3, w), T (4, c), T (4, f), T (2, x), T (2, y), T (1, f)];30.05212426185608
23;ResNet18_4;0.7063645000000001;0.0050719756949338946;2;axe_out_channels1_0,axe_yy1_0,axe_xx1_0,axe_out_channels1_1;6;[V f, U (2, f), ULambda y, T (32, c), Hoist_vars [c], T (3, h), T (28, x),  T (3, w), T (2, c), T (2, f), T (1, x),  Lambda_apply y [((Iter 1), (Arg 8)), ((Iter 2), (Arg 10))], T (2, f)];31.267046451568604
24;ResNet18_4;0.1070363;0.0014768246375247115;2;axe_out_channels1_0,axe_yy1_0,axe_xx1_0,axe_out_channels1_1;35;[V f, U (2, f), ULambda y, T (64, c), Hoist_vars [c], T (3, h), T (1, x),  T (3, w), T (1, c), T (1, f), T (28, x),  Lambda_apply y [((Iter 2), (Arg 8)), ((Iter 1), (Arg 12))], T (4, f)];32.38077163696289
25;ResNet18_4;0.8213976000000001;0.0047155860971887726;2;axe_out_channels1_0,axe_yy1_0,axe_xx1_0,axe_out_channels1_1;8;[V f, U (2, f), ULambda y, T (16, c), Hoist_vars [c], T (3, h), T (28, x),  T (3, w), T (4, c), T (1, f), T (1, x),  Lambda_apply y [((Iter 2), (Arg 9)), ((Iter 1), (Arg 10))], T (4, f)];33.60256481170654
26;ResNet18_4;0.8577205000000001;0.005070661263582906;2;axe_out_channels1_0,axe_yy1_0,axe_xx1_0,axe_out_channels1_1;7;[V f, U (2, f), ULambda y, T (16, c), Hoist_vars [c], T (3, h), T (28, x),  T (3, w), T (4, c), T (2, f), T (1, x),  Lambda_apply y [((Iter 2), (Arg 9)), ((Iter 1), (Arg 10))], T (2, f)];34.82524085044861
27;ResNet18_4;0.5575066;0.0031886544560362777;2;axe_out_channels1_0,axe_yy1_0,axe_xx1_0,axe_out_channels1_1;8;[V f, U (2, f), ULambda y, T (32, c), Hoist_vars [c], T (3, h), T (14, x),  T (3, w), T (2, c), T (2, f), T (2, x),  Lambda_apply y [((Iter 2), (Arg 9)), ((Iter 1), (Arg 10))], T (2, f)];35.98346948623657
28;ResNet18_4;0.43230329999999995;0.004596215596553314;1;axe_out_channels_0,axe_yy_0,axe_xx_0,axe_out_channels_1;8;[V f, U (4, f), U (7, y), U (3, w), T (32, c), Hoist_vars [c], T (28, x),  T (3, h), T (2, c), T (2, f), T (1, x), T (4, y), T (1, f)];37.00169825553894
29;ResNet18_4;0.24634479999999997;0.004393557460646213;1;axe_out_channels_0,axe_yy_0,axe_xx_0,axe_out_channels_1;11;[V f, U (4, f), U (4, y), U (3, w), T (64, c), Hoist_vars [c], T (28, x),  T (3, h), T (1, c), T (2, f), T (1, x), T (7, y), T (1, f)];37.91973400115967
30;ResNet18_4;0.5192471999999999;0.015923661958230598;1;axe_out_channels_0,axe_yy_0,axe_xx_0,axe_out_channels_1;8;[V f, U (2, f), U (14, y), T (16, c), Hoist_vars [c], T (3, h), T (28, x),  T (3, w), T (4, c), T (4, f), T (1, x), T (2, y), T (1, f)];38.894712686538696
31;ResNet18_4;0.1393774;0.0009823532154983705;2;axe_out_channels1_0,axe_yy1_0,axe_xx1_0,axe_out_channels1_1;11;[V f, U (2, f), ULambda y, T (32, c), Hoist_vars [c], T (3, h), T (7, x),  T (3, w), T (2, c), T (1, f), T (4, x),  Lambda_apply y [((Iter 2), (Arg 9)), ((Iter 1), (Arg 10))], T (4, f)];40.223437786102295
32;ResNet18_4;0.1303726;0.005484194785016304;2;axe_out_channels1_0,axe_yy1_0,axe_xx1_0,axe_out_channels1_1;20;[V f, U (2, f), ULambda y, T (64, c), Hoist_vars [c], T (3, h), T (2, x),  T (3, w), T (1, c), T (1, f), T (14, x),  Lambda_apply y [((Iter 1), (Arg 13)), ((Iter 1), (Arg 15))], T (4, f)];41.43737745285034
33;ResNet18_4;0.0980483;0.0017347015334056764;1;axe_out_channels_1,axe_yy_0,axe_xx_0;34;[V f, U (1, f), U (14, y), U (3, h), T (64, c), Hoist_vars [c], T (3, w),  T (28, x), T (2, y), T (4, f), T (1, c), T (2, f)];42.37344694137573
34;ResNet18_4;0.14886879999999997;0.0025692255564663865;2;axe_out_channels1_0,axe_yy1_0,axe_xx1_0,axe_out_channels1_1;21;[V f, U (2, f), ULambda y, T (16, c), Hoist_vars [c], T (3, h), T (2, x),  T (3, w), T (4, c), T (1, f), T (14, x),  Lambda_apply y [((Iter 2), (Arg 9)), ((Iter 1), (Arg 10))], T (4, f)];43.572312116622925
35;ResNet18_4;0.13765080000000002;0.0009477870857951194;2;axe_out_channels1_0,axe_yy1_0,axe_xx1_0,axe_out_channels1_1;10;[V f, U (2, f), ULambda y, T (32, c), Hoist_vars [c], T (3, h), T (7, x),  T (3, w), T (2, c), T (1, f), T (4, x),  Lambda_apply y [((Iter 1), (Arg 8)), ((Iter 2), (Arg 10))], T (4, f)];44.90163564682007
36;ResNet18_4;0.7926880000000001;0.010098616400279798;2;axe_out_channels1_0,axe_yy1_0,axe_xx1_0,axe_out_channels1_1;8;[V f, U (2, f), ULambda y, T (16, c), Hoist_vars [c], T (3, h), T (28, x),  T (3, w), T (4, c), T (1, f), T (1, x),  Lambda_apply y [((Iter 2), (Arg 8)), ((Iter 1), (Arg 12))], T (4, f)];46.098426818847656
37;ResNet18_4;0.5317369000000001;0.003532991804406014;2;axe_out_channels1_0,axe_yy1_0,axe_xx1_0,axe_out_channels1_1;7;[V f, U (2, f), ULambda y, T (32, c), Hoist_vars [c], T (3, h), T (14, x),  T (3, w), T (2, c), T (2, f), T (2, x),  Lambda_apply y [((Iter 1), (Arg 8)), ((Iter 2), (Arg 10))], T (2, f)];47.26113796234131
38;ResNet18_4;0.1164856;0.0013268119836661106;2;axe_out_channels1_0,axe_yy1_0,axe_xx1_0,axe_out_channels1_1;35;[V f, U (2, f), ULambda y, T (16, c), Hoist_vars [c], T (3, h), T (1, x),  T (3, w), T (4, c), T (1, f), T (28, x),  Lambda_apply y [((Iter 2), (Arg 8)), ((Iter 1), (Arg 12))], T (4, f)];48.388612270355225
39;ResNet18_4;0.186394;0.0009101275734752775;2;axe_out_channels1_1,axe_yy1_0,axe_xx1_0;34;[V f, U (1, f), ULambda y, U (3, h), T (32, c), Hoist_vars [c], T (3, w),  T (28, x), Lambda_apply y [((Iter 2), (Arg 9)), ((Iter 1), (Arg 10))],  T (4, f), T (2, c), T (2, f)];49.507577657699585
40;ResNet18_4;0.1557682;0.0014739274609016592;1;axe_out_channels_1,axe_yy_0,axe_xx_0;34;[V f, U (1, f), U (14, y), U (3, h), T (16, c), Hoist_vars [c], T (3, w),  T (28, x), T (2, y), T (4, f), T (4, c), T (2, f)];50.44636559486389
41;ResNet18_4;0.100993;0.0017907746368541174;2;axe_out_channels1_0,axe_yy1_0,axe_xx1_0,axe_out_channels1_1;35;[V f, U (2, f), ULambda y, U (3, h), T (32, c), Hoist_vars [c], T (1, x),  T (3, w), T (2, c), T (1, f), T (28, x),  Lambda_apply y [((Iter 2), (Arg 9)), ((Iter 1), (Arg 10))], T (4, f)];51.59156847000122
42;ResNet18_4;0.26872660000000004;0.0016488342063409487;2;axe_out_channels1_1,axe_yy1_0,axe_xx1_0;32;[V f, U (1, f), ULambda y, U (3, h), T (32, c), Hoist_vars [c], T (3, w),  T (28, x), Lambda_apply y [((Iter 2), (Arg 9)), ((Iter 1), (Arg 10))],  T (2, f), T (2, c), T (4, f)];52.697020530700684
43;ResNet18_4;0.0869578;0.0006304447319154934;1;axe_out_channels_0,axe_yy_0,axe_xx_0,axe_out_channels_1;14;[V f, U (2, f), U (14, y), T (32, c), Hoist_vars [c], T (3, h), T (4, x),  T (3, w), T (2, c), T (4, f), T (7, x), T (2, y), T (1, f)];53.65064525604248
44;ResNet18_4;0.3995323;0.007446721950630366;2;axe_out_channels1_0,axe_yy1_0,axe_xx1_0,axe_out_channels1_1;9;[V f, U (2, f), ULambda y, T (16, c), Hoist_vars [c], T (3, h), T (14, x),  T (3, w), T (4, c), T (1, f), T (2, x),  Lambda_apply y [((Iter 2), (Arg 8)), ((Iter 1), (Arg 12))], T (4, f)];54.79770374298096
45;ResNet18_4;0.7224008999999999;0.006915748989805802;2;axe_out_channels1_0,axe_yy1_0,axe_xx1_0,axe_out_channels1_1;7;[V f, U (2, f), ULambda y, U (3, h), T (32, c), Hoist_vars [c], T (28, x),  T (3, w), T (2, c), T (2, f), T (1, x),  Lambda_apply y [((Iter 2), (Arg 9)), ((Iter 1), (Arg 10))], T (2, f)];56.03053522109985
46;ResNet18_4;0.3302408;0.002031424958003611;2;axe_out_channels1_0,axe_yy1_0,axe_xx1_0,axe_out_channels1_1;9;[V f, U (2, f), ULambda y, T (32, c), Hoist_vars [c], T (3, h), T (14, x),  T (3, w), T (2, c), T (1, f), T (2, x),  Lambda_apply y [((Iter 2), (Arg 8)), ((Iter 1), (Arg 12))], T (4, f)];57.20466065406799
47;ResNet18_4;0.5389366000000001;0.00884063947008361;1;axe_out_channels_0,axe_yy_0,axe_xx_0,axe_out_channels_1;8;[V f, U (4, f), U (7, y), U (3, h), T (16, c), Hoist_vars [c], T (28, x),  T (3, w), T (4, c), T (1, f), T (1, x), T (4, y), T (2, f)];58.22415208816528
48;ResNet18_4;0.7746424000000001;0.007767865179056603;2;axe_out_channels1_0,axe_yy1_0,axe_xx1_0,axe_out_channels1_1;7;[V f, U (2, f), ULambda y, T (16, c), Hoist_vars [c], T (3, h), T (28, x),  T (3, w), T (4, c), T (2, f), T (1, x),  Lambda_apply y [((Iter 2), (Arg 8)), ((Iter 1), (Arg 12))], T (2, f)];59.388303995132446
49;ResNet18_4;0.1244504;0.002162003802031814;1;axe_out_channels_0,axe_yy_0,axe_xx_0,axe_out_channels_1;10;[V f, U (2, f), U (14, y), T (64, c), Hoist_vars [c], T (3, h), T (7, x),  T (3, w), T (1, c), T (2, f), T (4, x), T (2, y), T (2, f)];60.2904269695282
50;ResNet18_4;0.11022150000000001;0.002612273234177467;2;axe_out_channels1_0,axe_yy1_0,axe_xx1_0,axe_out_channels1_1;20;[V f, U (2, f), ULambda y, T (64, c), Hoist_vars [c], T (3, h), T (2, x),  T (3, w), T (1, c), T (1, f), T (14, x),  Lambda_apply y [((Iter 1), (Arg 8)), ((Iter 2), (Arg 10))], T (4, f)];61.46764516830444
51;ResNet18_4;0.6703417;0.0022120986890281223;2;axe_out_channels1_0,axe_yy1_0,axe_xx1_0,axe_out_channels1_1;8;[V f, U (2, f), ULambda y, T (32, c), Hoist_vars [c], T (3, h), T (28, x),  T (3, w), T (2, c), T (1, f), T (1, x),  Lambda_apply y [((Iter 2), (Arg 9)), ((Iter 1), (Arg 10))], T (4, f)];62.69392156600952
52;ResNet18_4;0.6352002999999999;0.005317729779708632;2;axe_out_channels1_0,axe_yy1_0,axe_xx1_0,axe_out_channels1_1;8;[V f, U (2, f), ULambda y, T (32, c), Hoist_vars [c], T (3, h), T (14, x),  T (3, w), T (2, c), T (2, f), T (2, x),  Lambda_apply y [((Iter 2), (Arg 8)), ((Iter 1), (Arg 12))], T (2, f)];63.88726878166199
53;ResNet18_4;0.1833234;0.003679662924779937;2;axe_out_channels1_0,axe_yy1_0,axe_xx1_0,axe_out_channels1_1;13;[V f, U (2, f), ULambda y, T (32, c), Hoist_vars [c], T (3, h), T (4, x),  T (3, w), T (2, c), T (1, f), T (7, x),  Lambda_apply y [((Iter 1), (Arg 13)), ((Iter 1), (Arg 15))], T (4, f)];65.16749954223633
54;ResNet18_4;0.1111231;0.0003073972836574854;1;axe_out_channels_0,axe_yy_0,axe_xx_0,axe_out_channels_1;9;[V f, U (4, f), U (7, y), U (3, w), T (64, c), Hoist_vars [c], T (14, x),  T (3, h), T (1, c), T (1, f), T (2, x), T (4, y), T (2, f)];66.31696891784668
55;ResNet18_4;0.13653010000000002;0.001090454992193627;1;axe_out_channels_0,axe_yy_0,axe_xx_0,axe_out_channels_1;10;[V f, U (2, f), U (14, y), T (32, c), Hoist_vars [c], T (3, h), T (7, x),  T (3, w), T (2, c), T (2, f), T (4, x), T (2, y), T (2, f)];67.24983787536621
56;ResNet18_4;0.1232115;0.0037948057460165142;1;axe_out_channels_0,axe_yy_0,axe_xx_0,axe_out_channels_1;14;[V f, U (2, f), U (14, y), T (32, c), Hoist_vars [c], T (3, h), T (4, x),  T (3, w), T (2, c), T (1, f), T (7, x), T (2, y), T (4, f)];68.22375273704529
57;ResNet18_4;0.0936777;0.001616004149128335;1;axe_out_channels_1,axe_yy_0,axe_xx_0;38;[V f, U (1, f), U (14, y), U (3, h), T (64, c), Hoist_vars [c], T (3, w),  T (28, x), T (2, y), T (8, f), T (1, c), T (1, f)];69.1413209438324
58;ResNet18_4;0.07253000000000001;0.0034245148561511613;1;axe_out_channels_0,axe_yy_0,axe_xx_0,axe_out_channels_1;35;[V f, U (2, f), U (14, y), T (64, c), Hoist_vars [c], T (3, h), T (1, x),  T (3, w), T (1, c), T (1, f), T (28, x), T (2, y), T (4, f)];70.07894110679626
59;ResNet18_4;0.10416810000000001;0.0016249072250439417;2;axe_out_channels1_0,axe_yy1_0,axe_xx1_0,axe_out_channels1_1;34;[V f, U (2, f), ULambda y, T (64, c), Hoist_vars [c], T (3, h), T (1, x),  T (3, w), T (1, c), T (1, f), T (28, x),  Lambda_apply y [((Iter 1), (Arg 8)), ((Iter 2), (Arg 10))], T (4, f)];71.15181016921997
60;ResNet18_4;0.2230222;0.007425511090827357;2;axe_out_channels1_0,axe_yy1_0,axe_xx1_0,axe_out_channels1_1;13;[V f, U (2, f), ULambda y, T (16, c), Hoist_vars [c], T (3, h), T (4, x),  T (3, w), T (4, c), T (1, f), T (7, x),  Lambda_apply y [((Iter 1), (Arg 13)), ((Iter 1), (Arg 15))], T (4, f)];72.4101870059967
61;ResNet18_4;0.2176208;0.0022989596690677224;1;axe_out_channels_0,axe_yy_0,axe_xx_0,axe_out_channels_1;11;[V f, U (2, f), U (14, y), T (32, c), Hoist_vars [c], T (3, h), T (7, x),  T (3, w), T (2, c), T (1, f), T (4, x), T (2, y), T (4, f)];73.36730313301086
62;ResNet18_4;0.13904789999999997;0.010912161806443305;2;axe_out_channels1_0,axe_yy1_0,axe_xx1_0,axe_out_channels1_1;21;[V f, U (2, f), ULambda y, T (16, c), Hoist_vars [c], T (3, h), T (2, x),  T (3, w), T (4, c), T (1, f), T (14, x),  Lambda_apply y [((Iter 2), (Arg 8)), ((Iter 1), (Arg 12))], T (4, f)];74.56564331054688
63;ResNet18_4;0.6388235;0.005341452616096103;2;axe_out_channels1_0,axe_yy1_0,axe_xx1_0,axe_out_channels1_1;9;[V f, U (2, f), ULambda y, T (32, c), Hoist_vars [c], T (3, h), T (14, x),  T (3, w), T (2, c), T (4, f), T (2, x),  Lambda_apply y [((Iter 2), (Arg 8)), ((Iter 1), (Arg 12))], T (1, f)];75.75133919715881
64;ResNet18_4;0.158826;0.000706234380358252;1;axe_out_channels_0,axe_yy_0,axe_xx_0,axe_out_channels_1;10;[V f, U (2, f), U (14, y), T (16, c), Hoist_vars [c], T (3, h), T (7, x),  T (3, w), T (4, c), T (2, f), T (4, x), T (2, y), T (2, f)];76.69407749176025
65;ResNet18_4;0.0853502;0.0004677766133529959;1;axe_out_channels_0,axe_yy_0,axe_xx_0,axe_out_channels_1;35;[V f, U (2, f), U (14, y), T (16, c), Hoist_vars [c], T (3, h), T (1, x),  T (3, w), T (4, c), T (1, f), T (28, x), T (2, y), T (4, f)];77.64340448379517
66;ResNet18_4;0.3554898;0.003439242236307312;1;axe_out_channels_0,axe_yy_0,axe_xx_0,axe_out_channels_1;8;[V f, U (4, f), U (7, y), U (3, w), T (64, c), Hoist_vars [c], T (28, x),  T (3, h), T (1, c), T (1, f), T (1, x), T (4, y), T (2, f)];78.62996530532837
67;ResNet18_4;0.7244240999999999;0.015492646594110406;2;axe_out_channels1_0,axe_yy1_0,axe_xx1_0,axe_out_channels1_1;8;[V f, U (2, f), ULambda y, U (3, h), T (32, c), Hoist_vars [c], T (28, x),  T (3, w), T (2, c), T (4, f), T (1, x),  Lambda_apply y [((Iter 2), (Arg 9)), ((Iter 1), (Arg 10))], T (1, f)];79.84844541549683
68;ResNet18_4;0.3472477;0.01319120560108136;1;axe_out_channels_0,axe_yy_0,axe_xx_0,axe_out_channels_1;11;[V f, U (4, f), U (4, y), U (3, w), T (16, c), Hoist_vars [c], T (28, x),  T (3, h), T (4, c), T (1, f), T (1, x), T (7, y), T (2, f)];80.79414367675781
69;ResNet18_4;0.38218270000000004;0.010722858686469773;1;axe_out_channels_0,axe_yy_0,axe_xx_0,axe_out_channels_1;8;[V f, U (4, f), U (7, y), U (3, w), T (64, c), Hoist_vars [c], T (28, x),  T (3, h), T (1, c), T (2, f), T (1, x), T (4, y), T (1, f)];81.81547951698303
70;ResNet18_4;0.2041972;0.0027558907380373396;1;axe_out_channels_0,axe_yy_0,axe_xx_0,axe_out_channels_1;9;[V f, U (4, f), U (7, y), U (3, w), T (32, c), Hoist_vars [c], T (14, x),  T (3, h), T (2, c), T (2, f), T (2, x), T (4, y), T (1, f)];82.92392420768738
71;ResNet18_4;0.2466961;0.00133081444611937;2;axe_out_channels1_0,axe_yy1_0,axe_xx1_0,axe_out_channels1_1;10;[V f, U (2, f), ULambda y, T (64, c), Hoist_vars [c], T (3, h), T (7, x),  T (3, w), T (1, c), T (1, f), T (4, x),  Lambda_apply y [((Iter 1), (Arg 13)), ((Iter 1), (Arg 15))], T (4, f)];84.05178236961365
72;ResNet18_4;0.10335679999999998;0.004316696232073782;1;axe_out_channels_0,axe_yy_0,axe_xx_0,axe_out_channels_1;14;[V f, U (2, f), U (14, y), T (64, c), Hoist_vars [c], T (3, h), T (4, x),  T (3, w), T (1, c), T (1, f), T (7, x), T (2, y), T (4, f)];85.00989151000977
73;ResNet18_4;0.2901167;0.009187909860789878;1;axe_out_channels_0,axe_yy_0,axe_xx_0,axe_out_channels_1;11;[V f, U (2, f), U (14, y), T (16, c), Hoist_vars [c], T (3, h), T (7, x),  T (3, w), T (4, c), T (4, f), T (4, x), T (2, y), T (1, f)];85.94733166694641
74;ResNet18_4;0.13311299999999998;0.0010559000899706397;2;axe_out_channels1_0,axe_yy1_0,axe_xx1_0,axe_out_channels1_1;11;[V f, U (2, f), ULambda y, U (3, h), T (32, c), Hoist_vars [c], T (7, x),  T (3, w), T (2, c), T (1, f), T (4, x),  Lambda_apply y [((Iter 2), (Arg 9)), ((Iter 1), (Arg 10))], T (4, f)];87.28427338600159
75;ResNet18_4;0.12513639999999998;0.0005262480783812908;1;axe_out_channels_0,axe_yy_0,axe_xx_0,axe_out_channels_1;9;[V f, U (4, f), U (7, y), U (3, w), T (32, c), Hoist_vars [c], T (14, x),  T (3, h), T (2, c), T (1, f), T (2, x), T (4, y), T (2, f)];88.45501184463501
76;ResNet18_4;0.1032241;0.0009223057464854042;2;axe_out_channels1_0,axe_yy1_0,axe_xx1_0,axe_out_channels1_1;35;[V f, U (2, f), ULambda y, T (64, c), Hoist_vars [c], T (3, h), T (1, x),  T (3, w), T (1, c), T (1, f), T (28, x),  Lambda_apply y [((Iter 2), (Arg 9)), ((Iter 1), (Arg 10))], T (4, f)];89.55324292182922
77;ResNet18_4;0.6584513000000001;0.0059972049664823;2;axe_out_channels1_0,axe_yy1_0,axe_xx1_0,axe_out_channels1_1;9;[V f, U (2, f), ULambda y, T (16, c), Hoist_vars [c], T (3, h), T (14, x),  T (3, w), T (4, c), T (4, f), T (2, x),  Lambda_apply y [((Iter 2), (Arg 9)), ((Iter 1), (Arg 10))], T (1, f)];90.71783208847046
78;ResNet18_4;0.6346303000000001;0.004290229435589678;1;axe_out_channels_0,axe_yy_0,axe_xx_0,axe_out_channels_1;8;[V f, U (4, f), U (7, y), T (16, c), Hoist_vars [c], T (3, h), T (28, x),  T (3, w), T (4, c), T (1, f), T (1, x), T (4, y), T (2, f)];91.67148876190186
79;ResNet18_4;0.1603297;0.004489643505892198;2;axe_out_channels1_0,axe_yy1_0,axe_xx1_0,axe_out_channels1_1;14;[V f, U (2, f), ULambda y, T (16, c), Hoist_vars [c], T (3, h), T (4, x),  T (3, w), T (4, c), T (1, f), T (7, x),  Lambda_apply y [((Iter 2), (Arg 8)), ((Iter 1), (Arg 12))], T (4, f)];92.87102246284485
80;ResNet18_4;0.1178884;0.0005724447920978926;2;axe_out_channels1_0,axe_yy1_0,axe_xx1_0,axe_out_channels1_1;35;[V f, U (2, f), ULambda y, T (16, c), Hoist_vars [c], T (3, h), T (1, x),  T (3, w), T (4, c), T (1, f), T (28, x),  Lambda_apply y [((Iter 2), (Arg 9)), ((Iter 1), (Arg 10))], T (4, f)];93.98535108566284
81;ResNet18_4;0.1434125;0.0061675087717813545;2;axe_out_channels1_0,axe_yy1_0,axe_xx1_0,axe_out_channels1_1;13;[V f, U (2, f), ULambda y, T (64, c), Hoist_vars [c], T (3, h), T (4, x),  T (3, w), T (1, c), T (1, f), T (7, x),  Lambda_apply y [((Iter 1), (Arg 13)), ((Iter 1), (Arg 15))], T (4, f)];95.23135042190552
82;ResNet18_4;0.29606279999999996;0.004891898604836357;1;axe_out_channels_0,axe_yy_0,axe_xx_0,axe_out_channels_1;11;[V f, U (2, f), U (14, y), T (16, c), Hoist_vars [c], T (3, h), T (7, x),  T (3, w), T (4, c), T (1, f), T (4, x), T (2, y), T (4, f)];96.18604922294617
83;ResNet18_4;1.0712070999999999;0.008549282021900988;2;axe_out_channels1_0,axe_yy1_0,axe_xx1_0,axe_out_channels1_1;8;[V f, U (2, f), ULambda y, T (16, c), Hoist_vars [c], T (3, h), T (14, x),  T (3, w), T (4, c), T (4, f), T (2, x),  Lambda_apply y [((Iter 1), (Arg 13)), ((Iter 1), (Arg 15))], T (1, f)];97.35985207557678
84;ResNet18_4;0.15544089999999997;0.0019601133360089094;2;axe_out_channels1_0,axe_yy1_0,axe_xx1_0,axe_out_channels1_1;13;[V f, U (2, f), ULambda y, T (16, c), Hoist_vars [c], T (3, h), T (4, x),  T (3, w), T (4, c), T (1, f), T (7, x),  Lambda_apply y [((Iter 1), (Arg 8)), ((Iter 2), (Arg 10))], T (4, f)];98.54720783233643
85;ResNet18_4;0.13810219999999998;0.0006176100387785194;2;axe_out_channels1_0,axe_yy1_0,axe_xx1_0,axe_out_channels1_1;11;[V f, U (2, f), ULambda y, T (32, c), Hoist_vars [c], T (3, h), T (7, x),  T (3, w), T (2, c), T (1, f), T (4, x),  Lambda_apply y [((Iter 2), (Arg 8)), ((Iter 1), (Arg 12))], T (4, f)];99.90765929222107
86;ResNet18_4;0.1663587;0.013768643818837058;2;axe_out_channels1_0,axe_yy1_0,axe_xx1_0,axe_out_channels1_1;20;[V f, U (2, f), ULambda y, T (16, c), Hoist_vars [c], T (3, h), T (2, x),  T (3, w), T (4, c), T (1, f), T (14, x),  Lambda_apply y [((Iter 1), (Arg 13)), ((Iter 1), (Arg 15))], T (4, f)];101.12401270866394
87;ResNet18_4;0.1128065;0.0008229988153089879;2;axe_out_channels1_0,axe_yy1_0,axe_xx1_0,axe_out_channels1_1;11;[V f, U (2, f), ULambda y, U (3, h), T (64, c), Hoist_vars [c], T (7, x),  T (3, w), T (1, c), T (1, f), T (4, x),  Lambda_apply y [((Iter 2), (Arg 9)), ((Iter 1), (Arg 10))], T (4, f)];102.42441534996033
88;ResNet18_4;0.14109359999999999;0.00765382245939897;2;axe_out_channels1_0,axe_yy1_0,axe_xx1_0,axe_out_channels1_1;20;[V f, U (2, f), ULambda y, T (32, c), Hoist_vars [c], T (3, h), T (2, x),  T (3, w), T (2, c), T (1, f), T (14, x),  Lambda_apply y [((Iter 1), (Arg 13)), ((Iter 1), (Arg 15))], T (4, f)];103.66663837432861
89;ResNet18_4;0.6411306000000001;0.003872126061997467;2;axe_out_channels1_0,axe_yy1_0,axe_xx1_0,axe_out_channels1_1;7;[V f, U (2, f), ULambda y, T (16, c), Hoist_vars [c], T (3, h), T (14, x),  T (3, w), T (4, c), T (2, f), T (2, x),  Lambda_apply y [((Iter 1), (Arg 8)), ((Iter 2), (Arg 10))], T (2, f)];104.83250117301941
90;ResNet18_4;0.6615156;0.0034562252009960256;2;axe_out_channels1_0,axe_yy1_0,axe_xx1_0,axe_out_channels1_1;8;[V f, U (2, f), ULambda y, T (16, c), Hoist_vars [c], T (3, h), T (14, x),  T (3, w), T (4, c), T (2, f), T (2, x),  Lambda_apply y [((Iter 2), (Arg 9)), ((Iter 1), (Arg 10))], T (2, f)];105.99765014648438
91;ResNet18_4;0.21034570000000002;0.004879513070993871;2;axe_out_channels1_0,axe_yy1_0,axe_xx1_0,axe_out_channels1_1;11;[V f, U (2, f), ULambda y, T (16, c), Hoist_vars [c], T (3, h), T (7, x),  T (3, w), T (4, c), T (1, f), T (4, x),  Lambda_apply y [((Iter 2), (Arg 9)), ((Iter 1), (Arg 10))], T (4, f)];107.33825898170471
92;ResNet18_4;0.11635519999999999;0.0012082062572259743;2;axe_out_channels1_0,axe_yy1_0,axe_xx1_0,axe_out_channels1_1;11;[V f, U (2, f), ULambda y, T (64, c), Hoist_vars [c], T (3, h), T (7, x),  T (3, w), T (1, c), T (1, f), T (4, x),  Lambda_apply y [((Iter 2), (Arg 8)), ((Iter 1), (Arg 12))], T (4, f)];108.64396953582764
93;ResNet18_4;0.220323;0.004794626033383626;1;axe_out_channels_0,axe_yy_0,axe_xx_0,axe_out_channels_1;11;[V f, U (2, f), U (14, y), T (32, c), Hoist_vars [c], T (3, h), T (7, x),  T (3, w), T (2, c), T (4, f), T (4, x), T (2, y), T (1, f)];109.57713270187378
94;ResNet18_4;0.7922627999999999;0.0054163970090826755;2;axe_out_channels1_0,axe_yy1_0,axe_xx1_0,axe_out_channels1_1;8;[V f, U (2, f), ULambda y, U (3, h), T (16, c), Hoist_vars [c], T (28, x),  T (3, w), T (4, c), T (1, f), T (1, x),  Lambda_apply y [((Iter 2), (Arg 9)), ((Iter 1), (Arg 10))], T (4, f)];110.82368516921997
95;ResNet18_4;0.8269776999999999;0.00813697297586763;2;axe_out_channels1_0,axe_yy1_0,axe_xx1_0,axe_out_channels1_1;6;[V f, U (2, f), ULambda y, T (16, c), Hoist_vars [c], T (3, h), T (28, x),  T (3, w), T (4, c), T (2, f), T (1, x),  Lambda_apply y [((Iter 1), (Arg 8)), ((Iter 2), (Arg 10))], T (2, f)];112.01956939697266
96;ResNet18_4;0.1376944;0.0076667395834213664;2;axe_out_channels1_0,axe_yy1_0,axe_xx1_0,axe_out_channels1_1;14;[V f, U (2, f), ULambda y, U (3, h), T (32, c), Hoist_vars [c], T (4, x),  T (3, w), T (2, c), T (1, f), T (7, x),  Lambda_apply y [((Iter 2), (Arg 9)), ((Iter 1), (Arg 10))], T (4, f)];113.2469425201416
97;ResNet18_4;0.13821869999999997;0.0032810091450649758;2;axe_out_channels1_0,axe_yy1_0,axe_xx1_0,axe_out_channels1_1;13;[V f, U (2, f), ULambda y, T (32, c), Hoist_vars [c], T (3, h), T (4, x),  T (3, w), T (2, c), T (1, f), T (7, x),  Lambda_apply y [((Iter 1), (Arg 8)), ((Iter 2), (Arg 10))], T (4, f)];114.45979809761047
98;ResNet18_4;1.3582737;0.007639408119088769;2;axe_out_channels1_0,axe_yy1_0,axe_xx1_0,axe_out_channels1_1;7;[V f, U (2, f), ULambda y, T (16, c), Hoist_vars [c], T (3, h), T (28, x),  T (3, w), T (4, c), T (1, f), T (1, x),  Lambda_apply y [((Iter 1), (Arg 13)), ((Iter 1), (Arg 15))], T (4, f)];115.71452021598816
99;ResNet18_4;0.6556778000000001;0.004181326626801604;2;axe_out_channels1_0,axe_yy1_0,axe_xx1_0,axe_out_channels1_1;7;[V f, U (2, f), ULambda y, T (32, c), Hoist_vars [c], T (3, h), T (28, x),  T (3, w), T (2, c), T (1, f), T (1, x),  Lambda_apply y [((Iter 1), (Arg 8)), ((Iter 2), (Arg 10))], T (4, f)];116.93867015838623
100;ResNet18_4;0.4776591;0.006105358539021272;1;axe_out_channels_0,axe_yy_0,axe_xx_0,axe_out_channels_1;8;[V f, U (4, f), U (7, y), U (3, w), T (16, c), Hoist_vars [c], T (28, x),  T (3, h), T (4, c), T (1, f), T (1, x), T (4, y), T (2, f)];117.94787311553955
101;ResNet18_4;0.37274330000000006;0.0029532335176887087;2;axe_out_channels1_0,axe_yy1_0,axe_xx1_0,axe_out_channels1_1;8;[V f, U (2, f), ULambda y, T (16, c), Hoist_vars [c], T (3, h), T (14, x),  T (3, w), T (4, c), T (1, f), T (2, x),  Lambda_apply y [((Iter 1), (Arg 8)), ((Iter 2), (Arg 10))], T (4, f)];119.09930515289307
102;ResNet18_4;0.22187070000000003;0.0013240127680653239;1;axe_out_channels_0,axe_yy_0,axe_xx_0,axe_out_channels_1;9;[V f, U (4, f), U (7, y), U (3, h), T (32, c), Hoist_vars [c], T (14, x),  T (3, w), T (2, c), T (2, f), T (2, x), T (4, y), T (1, f)];120.18481659889221
103;ResNet18_4;0.1155517;0.006443768882416559;2;axe_out_channels1_0,axe_yy1_0,axe_xx1_0,axe_out_channels1_1;34;[V f, U (2, f), ULambda y, T (64, c), Hoist_vars [c], T (3, h), T (1, x),  T (3, w), T (1, c), T (1, f), T (28, x),  Lambda_apply y [((Iter 1), (Arg 13)), ((Iter 1), (Arg 15))], T (4, f)];121.3176805973053
104;ResNet18_4;0.2861121;0.0023131309712162884;1;axe_out_channels_0,axe_yy_0,axe_xx_0,axe_out_channels_1;9;[V f, U (4, f), U (7, y), T (16, c), Hoist_vars [c], T (3, h), T (14, x),  T (3, w), T (4, c), T (2, f), T (2, x), T (4, y), T (1, f)];122.38527226448059
105;ResNet18_4;0.1446908;0.002274495759503633;1;axe_out_channels_0,axe_yy_0,axe_xx_0,axe_out_channels_1;9;[V f, U (4, f), U (7, y), U (3, w), T (64, c), Hoist_vars [c], T (14, x),  T (3, h), T (1, c), T (2, f), T (2, x), T (4, y), T (1, f)];123.45576453208923
106;ResNet18_4;0.1364894;0.005208930546666947;1;axe_out_channels_0,axe_yy_0,axe_xx_0,axe_out_channels_1;21;[V f, U (2, f), U (14, y), T (16, c), Hoist_vars [c], T (3, h), T (2, x),  T (3, w), T (4, c), T (1, f), T (14, x), T (2, y), T (4, f)];124.43997550010681
107;ResNet18_4;0.6614044;0.00853745377966992;2;axe_out_channels1_0,axe_yy1_0,axe_xx1_0,axe_out_channels1_1;8;[V f, U (2, f), ULambda y, T (16, c), Hoist_vars [c], T (3, h), T (14, x),  T (3, w), T (4, c), T (4, f), T (2, x),  Lambda_apply y [((Iter 1), (Arg 8)), ((Iter 2), (Arg 10))], T (1, f)];125.57557797431946
108;ResNet18_4;0.2976317;0.0024649227594389124;2;axe_out_channels1_0,axe_yy1_0,axe_xx1_0,axe_out_channels1_1;8;[V f, U (2, f), ULambda y, T (32, c), Hoist_vars [c], T (3, h), T (14, x),  T (3, w), T (2, c), T (1, f), T (2, x),  Lambda_apply y [((Iter 1), (Arg 8)), ((Iter 2), (Arg 10))], T (4, f)];126.79387617111206
109;ResNet18_4;0.8298427;0.007007151105121105;2;axe_out_channels1_0,axe_yy1_0,axe_xx1_0,axe_out_channels1_1;8;[V f, U (2, f), ULambda y, U (3, h), T (16, c), Hoist_vars [c], T (28, x),  T (3, w), T (4, c), T (4, f), T (1, x),  Lambda_apply y [((Iter 2), (Arg 9)), ((Iter 1), (Arg 10))], T (1, f)];128.02705240249634
110;ResNet18_4;0.1359955;0.001295675750332629;1;axe_out_channels_0,axe_yy_0,axe_xx_0,axe_out_channels_1;9;[V f, U (4, f), U (7, y), T (32, c), Hoist_vars [c], T (3, h), T (14, x),  T (3, w), T (2, c), T (1, f), T (2, x), T (4, y), T (2, f)];129.14410138130188
111;ResNet18_4;0.10673079999999999;0.0009942630235506087;2;axe_out_channels1_0,axe_yy1_0,axe_xx1_0,axe_out_channels1_1;35;[V f, U (2, f), ULambda y, T (32, c), Hoist_vars [c], T (3, h), T (1, x),  T (3, w), T (2, c), T (1, f), T (28, x),  Lambda_apply y [((Iter 2), (Arg 9)), ((Iter 1), (Arg 10))], T (4, f)];130.24861192703247
112;ResNet18_4;0.11982220000000002;0.0010634751337008346;2;axe_out_channels1_0,axe_yy1_0,axe_xx1_0,axe_out_channels1_1;13;[V f, U (2, f), ULambda y, T (64, c), Hoist_vars [c], T (3, h), T (4, x),  T (3, w), T (1, c), T (1, f), T (7, x),  Lambda_apply y [((Iter 1), (Arg 8)), ((Iter 2), (Arg 10))], T (4, f)];131.42903852462769
113;ResNet18_4;0.6712448999999999;0.010099708089345938;2;axe_out_channels1_0,axe_yy1_0,axe_xx1_0,axe_out_channels1_1;8;[V f, U (2, f), ULambda y, U (3, h), T (32, c), Hoist_vars [c], T (28, x),  T (3, w), T (2, c), T (1, f), T (1, x),  Lambda_apply y [((Iter 2), (Arg 9)), ((Iter 1), (Arg 10))], T (4, f)];132.65293502807617
114;ResNet18_4;0.3034913;0.0017662495322009325;2;axe_out_channels1_0,axe_yy1_0,axe_xx1_0,axe_out_channels1_1;10;[V f, U (2, f), ULambda y, T (32, c), Hoist_vars [c], T (3, h), T (7, x),  T (3, w), T (2, c), T (1, f), T (4, x),  Lambda_apply y [((Iter 1), (Arg 13)), ((Iter 1), (Arg 15))], T (4, f)];133.81703066825867
115;ResNet18_4;0.1569909;0.0010711743508878468;1;axe_out_channels_1,axe_yy_0,axe_xx_0;32;[V f, U (1, f), U (14, y), U (3, h), T (32, c), Hoist_vars [c], T (3, w),  T (28, x), T (2, y), T (2, f), T (2, c), T (4, f)];134.755939245224
116;ResNet18_4;0.5506774999999999;0.005799262164275744;2;axe_out_channels1_0,axe_yy1_0,axe_xx1_0,axe_out_channels1_1;6;[V f, U (4, f), ULambda y, U (3, w), T (64, c), Hoist_vars [c], T (28, x),  T (3, h), T (1, c), T (1, f), T (1, x),  Lambda_apply y [((Iter 2), (Arg 5)), ((Iter 3), (Arg 6))], T (2, f)];135.95533680915833
117;ResNet18_4;0.13742970000000002;0.0010230604136608936;2;axe_out_channels1_0,axe_yy1_0,axe_xx1_0,axe_out_channels1_1;14;[V f, U (2, f), ULambda y, T (32, c), Hoist_vars [c], T (3, h), T (4, x),  T (3, w), T (2, c), T (1, f), T (7, x),  Lambda_apply y [((Iter 2), (Arg 8)), ((Iter 1), (Arg 12))], T (4, f)];137.17180013656616
118;ResNet18_4;0.1361707;0.0032077629292078325;2;axe_out_channels1_0,axe_yy1_0,axe_xx1_0,axe_out_channels1_1;14;[V f, U (2, f), ULambda y, T (32, c), Hoist_vars [c], T (3, h), T (4, x),  T (3, w), T (2, c), T (1, f), T (7, x),  Lambda_apply y [((Iter 2), (Arg 9)), ((Iter 1), (Arg 10))], T (4, f)];138.36618614196777
119;ResNet18_4;0.12436539999999999;0.004032083337432398;2;axe_out_channels1_0,axe_yy1_0,axe_xx1_0,axe_out_channels1_1;14;[V f, U (2, f), ULambda y, T (64, c), Hoist_vars [c], T (3, h), T (4, x),  T (3, w), T (1, c), T (1, f), T (7, x),  Lambda_apply y [((Iter 2), (Arg 9)), ((Iter 1), (Arg 10))], T (4, f)];139.5445432662964
120;ResNet18_4;0.7142587;0.006701121086057178;2;axe_out_channels1_0,axe_yy1_0,axe_xx1_0,axe_out_channels1_1;8;[V f, U (2, f), ULambda y, T (32, c), Hoist_vars [c], T (3, h), T (28, x),  T (3, w), T (2, c), T (4, f), T (1, x),  Lambda_apply y [((Iter 2), (Arg 9)), ((Iter 1), (Arg 10))], T (1, f)];140.7832329273224
121;ResNet18_4;0.22022560000000002;0.003831458056667191;2;axe_out_channels1_0,axe_yy1_0,axe_xx1_0,axe_out_channels1_1;11;[V f, U (2, f), ULambda y, T (16, c), Hoist_vars [c], T (3, h), T (7, x),  T (3, w), T (4, c), T (1, f), T (4, x),  Lambda_apply y [((Iter 2), (Arg 8)), ((Iter 1), (Arg 12))], T (4, f)];142.09919953346252
122;ResNet18_4;0.41043820000000003;0.0053877481344249975;2;axe_out_channels1_0,axe_yy1_0,axe_xx1_0,axe_out_channels1_1;10;[V f, U (2, f), ULambda y, T (16, c), Hoist_vars [c], T (3, h), T (7, x),  T (3, w), T (4, c), T (1, f), T (4, x),  Lambda_apply y [((Iter 1), (Arg 13)), ((Iter 1), (Arg 15))], T (4, f)];143.25816082954407
123;ResNet18_4;0.7839847;0.0066816555740325315;2;axe_out_channels1_0,axe_yy1_0,axe_xx1_0,axe_out_channels1_1;8;[V f, U (2, f), ULambda y, T (16, c), Hoist_vars [c], T (3, h), T (28, x),  T (3, w), T (4, c), T (4, f), T (1, x),  Lambda_apply y [((Iter 2), (Arg 8)), ((Iter 1), (Arg 12))], T (1, f)];144.45004320144653
124;ResNet18_4;0.11525129999999999;0.0006830844823299642;1;axe_out_channels_1,axe_yy_0,axe_xx_0;34;[V f, U (1, f), U (14, y), U (3, h), T (32, c), Hoist_vars [c], T (3, w),  T (28, x), T (2, y), T (4, f), T (2, c), T (2, f)];145.38136839866638
125;ResNet18_4;0.5651773;0.0027321105047197307;2;axe_out_channels1_0,axe_yy1_0,axe_xx1_0,axe_out_channels1_1;9;[V f, U (2, f), ULambda y, T (32, c), Hoist_vars [c], T (3, h), T (14, x),  T (3, w), T (2, c), T (4, f), T (2, x),  Lambda_apply y [((Iter 2), (Arg 9)), ((Iter 1), (Arg 10))], T (1, f)];146.52664875984192
126;ResNet18_4;0.7749683;0.006278582691181194;2;axe_out_channels1_0,axe_yy1_0,axe_xx1_0,axe_out_channels1_1;7;[V f, U (2, f), ULambda y, T (16, c), Hoist_vars [c], T (3, h), T (28, x),  T (3, w), T (4, c), T (1, f), T (1, x),  Lambda_apply y [((Iter 1), (Arg 8)), ((Iter 2), (Arg 10))], T (4, f)];147.736590385437
127;ResNet18_4;0.12356980000000002;0.0029449947640021366;2;axe_out_channels1_0,axe_yy1_0,axe_xx1_0,axe_out_channels1_1;14;[V f, U (2, f), ULambda y, U (3, h), T (64, c), Hoist_vars [c], T (4, x),  T (3, w), T (1, c), T (1, f), T (7, x),  Lambda_apply y [((Iter 2), (Arg 9)), ((Iter 1), (Arg 10))], T (4, f)];148.9588418006897
128;ResNet18_4;0.0819799;0.0052618797297163695;1;axe_out_channels_0,axe_yy_0,axe_xx_0,axe_out_channels_1;21;[V f, U (2, f), U (14, y), T (64, c), Hoist_vars [c], T (3, h), T (2, x),  T (3, w), T (1, c), T (1, f), T (14, x), T (2, y), T (4, f)];149.93866300582886
129;ResNet18_4;0.2507499;0.004345911100103165;1;axe_out_channels_0,axe_yy_0,axe_xx_0,axe_out_channels_1;9;[V f, U (2, f), U (14, y), T (16, c), Hoist_vars [c], T (3, h), T (14, x),  T (3, w), T (4, c), T (1, f), T (2, x), T (2, y), T (4, f)];150.88917303085327
130;ResNet18_4;0.3166234;0.0034585874920261897;1;axe_out_channels_0,axe_yy_0,axe_xx_0,axe_out_channels_1;9;[V f, U (4, f), U (7, y), U (3, h), T (16, c), Hoist_vars [c], T (14, x),  T (3, w), T (4, c), T (2, f), T (2, x), T (4, y), T (1, f)];151.99641227722168
131;ResNet18_4;0.38736919999999997;0.0037356351213682346;1;axe_out_channels_0,axe_yy_0,axe_xx_0,axe_out_channels_1;8;[V f, U (4, f), U (7, y), U (3, w), T (32, c), Hoist_vars [c], T (28, x),  T (3, h), T (2, c), T (1, f), T (1, x), T (4, y), T (2, f)];152.99065375328064
132;ResNet18_4;0.7250759;0.005251265398930072;2;axe_out_channels1_0,axe_yy1_0,axe_xx1_0,axe_out_channels1_1;8;[V f, U (2, f), ULambda y, T (16, c), Hoist_vars [c], T (3, h), T (14, x),  T (3, w), T (4, c), T (2, f), T (2, x),  Lambda_apply y [((Iter 2), (Arg 8)), ((Iter 1), (Arg 12))], T (2, f)];154.16107034683228
133;ResNet18_4;0.22437369999999998;0.001454021048678452;1;axe_out_channels_1,axe_yy_0,axe_xx_0;32;[V f, U (1, f), U (14, y), U (3, h), T (16, c), Hoist_vars [c], T (3, w),  T (28, x), T (2, y), T (2, f), T (4, c), T (4, f)];155.09537315368652
134;ResNet18_4;0.3005388;0.001204572023583468;2;axe_out_channels1_0,axe_yy1_0,axe_xx1_0,axe_out_channels1_1;9;[V f, U (2, f), ULambda y, T (32, c), Hoist_vars [c], T (3, h), T (14, x),  T (3, w), T (2, c), T (1, f), T (2, x),  Lambda_apply y [((Iter 2), (Arg 9)), ((Iter 1), (Arg 10))], T (4, f)];156.26309776306152
135;ResNet18_4;0.12138070000000001;0.006096691644654502;2;axe_out_channels1_0,axe_yy1_0,axe_xx1_0,axe_out_channels1_1;21;[V f, U (2, f), ULambda y, T (32, c), Hoist_vars [c], T (3, h), T (2, x),  T (3, w), T (2, c), T (1, f), T (14, x),  Lambda_apply y [((Iter 2), (Arg 8)), ((Iter 1), (Arg 12))], T (4, f)];157.47338795661926
136;ResNet18_4;0.1973197;0.002733213678072016;1;axe_out_channels_0,axe_yy_0,axe_xx_0,axe_out_channels_1;9;[V f, U (4, f), U (7, y), T (16, c), Hoist_vars [c], T (3, h), T (14, x),  T (3, w), T (4, c), T (1, f), T (2, x), T (4, y), T (2, f)];158.59240746498108
137;ResNet18_4;0.0788879;0.0004630471790217514;1;axe_out_channels_0,axe_yy_0,axe_xx_0,axe_out_channels_1;14;[V f, U (2, f), U (14, y), T (64, c), Hoist_vars [c], T (3, h), T (4, x),  T (3, w), T (1, c), T (4, f), T (7, x), T (2, y), T (1, f)];159.5642795562744
138;ResNet18_4;0.3507755;0.013595362005110427;1;axe_out_channels_0,axe_yy_0,axe_xx_0,axe_out_channels_1;11;[V f, U (4, f), U (4, y), U (3, w), T (16, c), Hoist_vars [c], T (28, x),  T (3, h), T (4, c), T (2, f), T (1, x), T (7, y), T (1, f)];160.49726915359497
139;ResNet18_4;0.12202159999999998;0.0025552662561854457;2;axe_out_channels1_0,axe_yy1_0,axe_xx1_0,axe_out_channels1_1;21;[V f, U (2, f), ULambda y, T (32, c), Hoist_vars [c], T (3, h), T (2, x),  T (3, w), T (2, c), T (1, f), T (14, x),  Lambda_apply y [((Iter 2), (Arg 9)), ((Iter 1), (Arg 10))], T (4, f)];161.71415781974792
140;ResNet18_4;0.8318951;0.007216505781193547;2;axe_out_channels1_0,axe_yy1_0,axe_xx1_0,axe_out_channels1_1;7;[V f, U (2, f), ULambda y, U (3, h), T (16, c), Hoist_vars [c], T (28, x),  T (3, w), T (4, c), T (2, f), T (1, x),  Lambda_apply y [((Iter 2), (Arg 9)), ((Iter 1), (Arg 10))], T (2, f)];162.9446907043457
141;ResNet18_4;0.12318500000000002;0.0008816343913437124;2;axe_out_channels1_0,axe_yy1_0,axe_xx1_0,axe_out_channels1_1;14;[V f, U (2, f), ULambda y, T (64, c), Hoist_vars [c], T (3, h), T (4, x),  T (3, w), T (1, c), T (1, f), T (7, x),  Lambda_apply y [((Iter 2), (Arg 8)), ((Iter 1), (Arg 12))], T (4, f)];164.1565442085266
142;ResNet18_4;0.15033200000000002;0.0053099519018537196;2;axe_out_channels1_0,axe_yy1_0,axe_xx1_0,axe_out_channels1_1;20;[V f, U (2, f), ULambda y, T (16, c), Hoist_vars [c], T (3, h), T (2, x),  T (3, w), T (4, c), T (1, f), T (14, x),  Lambda_apply y [((Iter 1), (Arg 8)), ((Iter 2), (Arg 10))], T (4, f)];165.37523126602173
143;ResNet18_4;0.49647489999999994;0.008722423705026038;1;axe_out_channels_0,axe_yy_0,axe_xx_0,axe_out_channels_1;7;[V f, U (2, f), U (14, y), T (16, c), Hoist_vars [c], T (3, h), T (28, x),  T (3, w), T (4, c), T (2, f), T (1, x), T (2, y), T (2, f)];166.34010338783264
144;ResNet18_4;0.5282628999999999;0.00704249939226124;2;axe_out_channels1_0,axe_yy1_0,axe_xx1_0,axe_out_channels1_1;8;[V f, U (2, f), ULambda y, T (32, c), Hoist_vars [c], T (3, h), T (14, x),  T (3, w), T (2, c), T (1, f), T (2, x),  Lambda_apply y [((Iter 1), (Arg 13)), ((Iter 1), (Arg 15))], T (4, f)];167.5215528011322
145;ResNet18_4;0.1560122;0.0022414260549926653;2;axe_out_channels1_1,axe_yy1_0,axe_xx1_0;38;[V f, U (1, f), ULambda y, U (3, h), T (32, c), Hoist_vars [c], T (3, w),  T (28, x), Lambda_apply y [((Iter 2), (Arg 9)), ((Iter 1), (Arg 10))],  T (8, f), T (2, c), T (1, f)];168.61956667900085
146;ResNet18_4;0.62345;0.004959092618614804;1;axe_out_channels_0,axe_yy_0,axe_xx_0,axe_out_channels_1;8;[V f, U (4, f), U (7, y), T (16, c), Hoist_vars [c], T (3, h), T (28, x),  T (3, w), T (4, c), T (2, f), T (1, x), T (4, y), T (1, f)];169.58599495887756
147;ResNet18_4;0.5426851;0.0018863088532899339;2;axe_out_channels1_0,axe_yy1_0,axe_xx1_0,axe_out_channels1_1;8;[V f, U (2, f), ULambda y, T (32, c), Hoist_vars [c], T (3, h), T (14, x),  T (3, w), T (2, c), T (4, f), T (2, x),  Lambda_apply y [((Iter 1), (Arg 8)), ((Iter 2), (Arg 10))], T (1, f)];170.77126574516296
148;ResNet18_4;0.5601605;0.002294844580794079;2;axe_out_channels1_0,axe_yy1_0,axe_xx1_0,axe_out_channels1_1;6;[V f, U (4, f), ULambda y, U (3, w), T (64, c), Hoist_vars [c], T (28, x),  T (3, h), T (1, c), T (2, f), T (1, x),  Lambda_apply y [((Iter 2), (Arg 5)), ((Iter 3), (Arg 6))], T (1, f)];171.98053908348083
149;ResNet18_4;1.373373;0.0061413314680124525;2;axe_out_channels1_0,axe_yy1_0,axe_xx1_0,axe_out_channels1_1;6;[V f, U (2, f), ULambda y, T (16, c), Hoist_vars [c], T (3, h), T (28, x),  T (3, w), T (4, c), T (2, f), T (1, x),  Lambda_apply y [((Iter 1), (Arg 13)), ((Iter 1), (Arg 15))], T (2, f)];173.2334589958191
150;ResNet18_4;0.3919219;0.011413274450831365;2;axe_out_channels1_0,axe_yy1_0,axe_xx1_0,axe_out_channels1_1;9;[V f, U (2, f), ULambda y, T (16, c), Hoist_vars [c], T (3, h), T (14, x),  T (3, w), T (4, c), T (1, f), T (2, x),  Lambda_apply y [((Iter 2), (Arg 9)), ((Iter 1), (Arg 10))], T (4, f)];174.3834400177002
151;ResNet18_4;0.29464539999999995;0.008958693802112002;1;axe_out_channels_0,axe_yy_0,axe_xx_0,axe_out_channels_1;11;[V f, U (4, f), U (4, y), U (3, w), T (32, c), Hoist_vars [c], T (28, x),  T (3, h), T (2, c), T (1, f), T (1, x), T (7, y), T (2, f)];175.32917666435242
152;ResNet18_4;0.5651716;0.003771553213200086;2;axe_out_channels1_0,axe_yy1_0,axe_xx1_0,axe_out_channels1_1;10;[V f, U (2, f), ULambda y, T (16, c), Hoist_vars [c], T (3, h), T (7, x),  T (3, w), T (4, c), T (4, f), T (4, x),  Lambda_apply y [((Iter 1), (Arg 13)), ((Iter 1), (Arg 15))], T (1, f)];176.49103355407715
153;ResNet18_4;0.289844;0.004102509451543039;1;axe_out_channels_0,axe_yy_0,axe_xx_0,axe_out_channels_1;9;[V f, U (4, f), U (7, y), U (3, w), T (16, c), Hoist_vars [c], T (14, x),  T (3, h), T (4, c), T (2, f), T (2, x), T (4, y), T (1, f)];177.59691882133484
154;ResNet18_4;0.3903388;0.008073031125915474;1;axe_out_channels_0,axe_yy_0,axe_xx_0,axe_out_channels_1;8;[V f, U (2, f), U (14, y), T (32, c), Hoist_vars [c], T (3, h), T (14, x),  T (3, w), T (2, c), T (2, f), T (2, x), T (2, y), T (2, f)];178.54816150665283
155;ResNet18_4;0.11267109999999998;0.0007513544370002745;2;axe_out_channels1_0,axe_yy1_0,axe_xx1_0,axe_out_channels1_1;34;[V f, U (2, f), ULambda y, T (32, c), Hoist_vars [c], T (3, h), T (1, x),  T (3, w), T (2, c), T (1, f), T (28, x),  Lambda_apply y [((Iter 1), (Arg 13)), ((Iter 1), (Arg 15))], T (4, f)];179.72177982330322
156;ResNet18_4;0.20503239999999998;0.0020833173162050954;1;axe_out_channels_0,axe_yy_0,axe_xx_0,axe_out_channels_1;9;[V f, U (2, f), U (14, y), T (32, c), Hoist_vars [c], T (3, h), T (14, x),  T (3, w), T (2, c), T (1, f), T (2, x), T (2, y), T (4, f)];180.70110249519348
157;ResNet18_4;0.6342432;0.00521383288569935;2;axe_out_channels1_0,axe_yy1_0,axe_xx1_0,axe_out_channels1_1;6;[V f, U (4, f), ULambda y, U (3, w), T (32, c), Hoist_vars [c], T (28, x),  T (3, h), T (2, c), T (1, f), T (1, x),  Lambda_apply y [((Iter 2), (Arg 5)), ((Iter 3), (Arg 6))], T (2, f)];181.9174292087555
158;ResNet18_4;0.6349104999999999;0.00412808656038121;1;axe_out_channels_0,axe_yy_0,axe_xx_0,axe_out_channels_1;8;[V f, U (4, f), U (7, y), U (3, h), T (16, c), Hoist_vars [c], T (28, x),  T (3, w), T (4, c), T (2, f), T (1, x), T (4, y), T (1, f)];182.91606903076172
159;ResNet18_4;0.5476286;0.0026049056105740378;2;axe_out_channels1_0,axe_yy1_0,axe_xx1_0,axe_out_channels1_1;9;[V f, U (2, f), ULambda y, U (3, h), T (32, c), Hoist_vars [c], T (14, x),  T (3, w), T (2, c), T (4, f), T (2, x),  Lambda_apply y [((Iter 2), (Arg 9)), ((Iter 1), (Arg 10))], T (1, f)];184.09447407722473
160;ResNet18_4;0.2145822;0.005081133944308098;2;axe_out_channels1_0,axe_yy1_0,axe_xx1_0,axe_out_channels1_1;10;[V f, U (2, f), ULambda y, T (16, c), Hoist_vars [c], T (3, h), T (7, x),  T (3, w), T (4, c), T (1, f), T (4, x),  Lambda_apply y [((Iter 1), (Arg 8)), ((Iter 2), (Arg 10))], T (4, f)];185.3978250026703
161;ResNet18_4;0.3944594;0.009218527097101793;1;axe_out_channels_0,axe_yy_0,axe_xx_0,axe_out_channels_1;9;[V f, U (2, f), U (14, y), T (32, c), Hoist_vars [c], T (3, h), T (14, x),  T (3, w), T (2, c), T (4, f), T (2, x), T (2, y), T (1, f)];186.3301887512207
162;ResNet18_4;0.1241077;0.004323273621921238;2;axe_out_channels1_0,axe_yy1_0,axe_xx1_0,axe_out_channels1_1;21;[V f, U (2, f), ULambda y, U (3, h), T (32, c), Hoist_vars [c], T (2, x),  T (3, w), T (2, c), T (1, f), T (14, x),  Lambda_apply y [((Iter 2), (Arg 9)), ((Iter 1), (Arg 10))], T (4, f)];187.53316712379456
163;ResNet18_4;0.32282;0.0023334651058029717;1;axe_out_channels_1,axe_yy_0,axe_xx_0;31;[V f, U (1, f), U (14, y), U (3, h), T (16, c), Hoist_vars [c], T (3, w),  T (28, x), T (2, y), T (1, f), T (4, c), T (8, f)];188.49733448028564
164;ResNet18_4;0.0763613;0.0018263304219116512;1;axe_out_channels_0,axe_yy_0,axe_xx_0,axe_out_channels_1;35;[V f, U (2, f), U (14, y), T (32, c), Hoist_vars [c], T (3, h), T (1, x),  T (3, w), T (2, c), T (1, f), T (28, x), T (2, y), T (4, f)];189.4540822505951
165;ResNet18_4;0.8594372;0.010376774728209137;2;axe_out_channels1_0,axe_yy1_0,axe_xx1_0,axe_out_channels1_1;8;[V f, U (2, f), ULambda y, T (16, c), Hoist_vars [c], T (3, h), T (28, x),  T (3, w), T (4, c), T (4, f), T (1, x),  Lambda_apply y [((Iter 2), (Arg 9)), ((Iter 1), (Arg 10))], T (1, f)];190.65575003623962
166;ResNet18_4;0.10290080000000001;0.0010133243113633515;2;axe_out_channels1_0,axe_yy1_0,axe_xx1_0,axe_out_channels1_1;35;[V f, U (2, f), ULambda y, T (32, c), Hoist_vars [c], T (3, h), T (1, x),  T (3, w), T (2, c), T (1, f), T (28, x),  Lambda_apply y [((Iter 2), (Arg 8)), ((Iter 1), (Arg 12))], T (4, f)];191.79624891281128
167;ResNet18_4;0.1140293;0.0005563775786280397;2;axe_out_channels1_0,axe_yy1_0,axe_xx1_0,axe_out_channels1_1;34;[V f, U (2, f), ULambda y, T (16, c), Hoist_vars [c], T (3, h), T (1, x),  T (3, w), T (4, c), T (1, f), T (28, x),  Lambda_apply y [((Iter 1), (Arg 8)), ((Iter 2), (Arg 10))], T (4, f)];192.9136996269226
168;ResNet18_4;0.3860284;0.0026366746936245323;2;axe_out_channels1_1,axe_yy1_0,axe_xx1_0;31;[V f, U (1, f), ULambda y, U (3, h), T (32, c), Hoist_vars [c], T (3, w),  T (28, x), Lambda_apply y [((Iter 2), (Arg 9)), ((Iter 1), (Arg 10))],  T (1, f), T (2, c), T (8, f)];194.0161542892456
169;ResNet18_4;0.1345093;0.003822348337082849;2;axe_out_channels1_0,axe_yy1_0,axe_xx1_0,axe_out_channels1_1;34;[V f, U (2, f), ULambda y, T (16, c), Hoist_vars [c], T (3, h), T (1, x),  T (3, w), T (4, c), T (1, f), T (28, x),  Lambda_apply y [((Iter 1), (Arg 13)), ((Iter 1), (Arg 15))], T (4, f)];195.1783516407013
170;ResNet18_4;0.5645178000000001;0.0071206238462651755;1;axe_out_channels_0,axe_yy_0,axe_xx_0,axe_out_channels_1;8;[V f, U (4, f), U (7, y), U (3, w), T (16, c), Hoist_vars [c], T (28, x),  T (3, h), T (4, c), T (2, f), T (1, x), T (4, y), T (1, f)];196.17710518836975
171;ResNet18_4;0.5757755;0.00357350881487648;2;axe_out_channels1_1,axe_yy1_0,axe_xx1_0;31;[V f, U (1, f), ULambda y, U (3, h), T (16, c), Hoist_vars [c], T (3, w),  T (28, x), Lambda_apply y [((Iter 2), (Arg 9)), ((Iter 1), (Arg 10))],  T (1, f), T (4, c), T (8, f)];197.2961368560791
172;ResNet18_4;0.7193718;0.005575721079824588;2;axe_out_channels1_0,axe_yy1_0,axe_xx1_0,axe_out_channels1_1;7;[V f, U (2, f), ULambda y, T (32, c), Hoist_vars [c], T (3, h), T (28, x),  T (3, w), T (2, c), T (2, f), T (1, x),  Lambda_apply y [((Iter 2), (Arg 9)), ((Iter 1), (Arg 10))], T (2, f)];198.5142297744751
173;ResNet18_4;0.2582607;0.007694723101580715;1;axe_out_channels_0,axe_yy_0,axe_xx_0,axe_out_channels_1;11;[V f, U (4, f), U (4, y), U (3, w), T (64, c), Hoist_vars [c], T (28, x),  T (3, h), T (1, c), T (1, f), T (1, x), T (7, y), T (2, f)];199.44835877418518
174;ResNet18_4;0.0987509;0.0012929482162870984;1;axe_out_channels_0,axe_yy_0,axe_xx_0,axe_out_channels_1;21;[V f, U (2, f), U (14, y), T (32, c), Hoist_vars [c], T (3, h), T (2, x),  T (3, w), T (2, c), T (1, f), T (14, x), T (2, y), T (4, f)];200.42055225372314
175;ResNet18_4;0.1463015;0.0029230240932979013;1;axe_out_channels_0,axe_yy_0,axe_xx_0,axe_out_channels_1;14;[V f, U (2, f), U (14, y), T (16, c), Hoist_vars [c], T (3, h), T (4, x),  T (3, w), T (4, c), T (1, f), T (7, x), T (2, y), T (4, f)];201.40709400177002
176;ResNet18_4;0.6867932;0.00534219181235568;2;axe_out_channels1_0,axe_yy1_0,axe_xx1_0,axe_out_channels1_1;8;[V f, U (2, f), ULambda y, T (16, c), Hoist_vars [c], T (3, h), T (14, x),  T (3, w), T (4, c), T (1, f), T (2, x),  Lambda_apply y [((Iter 1), (Arg 13)), ((Iter 1), (Arg 15))], T (4, f)];202.58467388153076
177;ResNet18_4;0.45605450000000003;0.0034144377062702317;2;axe_out_channels1_0,axe_yy1_0,axe_xx1_0,axe_out_channels1_1;10;[V f, U (2, f), ULambda y, T (32, c), Hoist_vars [c], T (3, h), T (7, x),  T (3, w), T (2, c), T (4, f), T (4, x),  Lambda_apply y [((Iter 1), (Arg 13)), ((Iter 1), (Arg 15))], T (1, f)];203.7662534713745
178;ResNet18_4;0.1125264;0.004161340990594258;2;axe_out_channels1_0,axe_yy1_0,axe_xx1_0,axe_out_channels1_1;21;[V f, U (2, f), ULambda y, T (64, c), Hoist_vars [c], T (3, h), T (2, x),  T (3, w), T (1, c), T (1, f), T (14, x),  Lambda_apply y [((Iter 2), (Arg 8)), ((Iter 1), (Arg 12))], T (4, f)];204.94321250915527
179;ResNet18_4;0.11380939999999999;0.003502910624038243;2;axe_out_channels1_0,axe_yy1_0,axe_xx1_0,axe_out_channels1_1;21;[V f, U (2, f), ULambda y, T (64, c), Hoist_vars [c], T (3, h), T (2, x),  T (3, w), T (1, c), T (1, f), T (14, x),  Lambda_apply y [((Iter 2), (Arg 9)), ((Iter 1), (Arg 10))], T (4, f)];206.13163232803345
180;ResNet18_4;0.39853229999999995;0.00646466659697157;1;axe_out_channels_0,axe_yy_0,axe_xx_0,axe_out_channels_1;8;[V f, U (2, f), U (14, y), T (16, c), Hoist_vars [c], T (3, h), T (28, x),  T (3, w), T (4, c), T (1, f), T (1, x), T (2, y), T (4, f)];207.1121790409088
181;ResNet18_4;0.1554619;0.0012260529719388164;1;axe_out_channels_0,axe_yy_0,axe_xx_0,axe_out_channels_1;9;[V f, U (4, f), U (7, y), U (3, w), T (16, c), Hoist_vars [c], T (14, x),  T (3, h), T (4, c), T (1, f), T (2, x), T (4, y), T (2, f)];208.2647566795349
182;ResNet18_4;0.3934651;0.0029493673372437074;2;axe_out_channels1_1,axe_yy1_0,axe_xx1_0;32;[V f, U (1, f), ULambda y, U (3, h), T (16, c), Hoist_vars [c], T (3, w),  T (28, x), Lambda_apply y [((Iter 2), (Arg 9)), ((Iter 1), (Arg 10))],  T (2, f), T (4, c), T (4, f)];209.38387846946716
183;ResNet18_4;0.7262028;0.005281604279004647;2;axe_out_channels1_0,axe_yy1_0,axe_xx1_0,axe_out_channels1_1;9;[V f, U (2, f), ULambda y, T (16, c), Hoist_vars [c], T (3, h), T (14, x),  T (3, w), T (4, c), T (4, f), T (2, x),  Lambda_apply y [((Iter 2), (Arg 8)), ((Iter 1), (Arg 12))], T (1, f)];210.53554320335388
184;ResNet18_4;0.17271330000000001;0.0009957642341438054;1;axe_out_channels_1,axe_yy_0,axe_xx_0;31;[V f, U (1, f), U (14, y), U (3, h), T (64, c), Hoist_vars [c], T (3, w),  T (28, x), T (2, y), T (1, f), T (1, c), T (8, f)];211.47465085983276
185;ResNet18_4;0.1679675;0.009249782162299823;2;axe_out_channels1_0,axe_yy1_0,axe_xx1_0,axe_out_channels1_1;14;[V f, U (2, f), ULambda y, T (16, c), Hoist_vars [c], T (3, h), T (4, x),  T (3, w), T (4, c), T (1, f), T (7, x),  Lambda_apply y [((Iter 2), (Arg 9)), ((Iter 1), (Arg 10))], T (4, f)];212.65635180473328
186;ResNet18_4;0.20566089999999998;0.0025804127363660283;1;axe_out_channels_0,axe_yy_0,axe_xx_0,axe_out_channels_1;9;[V f, U (4, f), U (7, y), T (32, c), Hoist_vars [c], T (3, h), T (14, x),  T (3, w), T (2, c), T (2, f), T (2, x), T (4, y), T (1, f)];213.6908655166626
187;ResNet18_4;0.695884;0.0077177342011758845;2;axe_out_channels1_0,axe_yy1_0,axe_xx1_0,axe_out_channels1_1;7;[V f, U (2, f), ULambda y, T (32, c), Hoist_vars [c], T (3, h), T (28, x),  T (3, w), T (2, c), T (4, f), T (1, x),  Lambda_apply y [((Iter 1), (Arg 8)), ((Iter 2), (Arg 10))], T (1, f)];214.90609312057495
188;ResNet18_4;0.1760754;0.0011022958042195459;1;axe_out_channels_0,axe_yy_0,axe_xx_0,axe_out_channels_1;9;[V f, U (4, f), U (7, y), U (3, h), T (16, c), Hoist_vars [c], T (14, x),  T (3, w), T (4, c), T (1, f), T (2, x), T (4, y), T (2, f)];216.0534052848816
189;ResNet18_4;0.4878372000000001;0.0044238492469793785;1;axe_out_channels_0,axe_yy_0,axe_xx_0,axe_out_channels_1;8;[V f, U (2, f), U (14, y), T (16, c), Hoist_vars [c], T (3, h), T (14, x),  T (3, w), T (4, c), T (2, f), T (2, x), T (2, y), T (2, f)];216.97907376289368
