IdRun;NameConv;Time(ms);std;NbMicroKernel;AxeFuse;SizeAxeFuse;Schema;Time_search(3.5053865909576416)
0;Yolo9000_13;3.0570700000000004;0.02552693135102615;1;axe_yy_0,axe_xx_0;2;[V f, U (2, f), ULambda y, T (256, c), Hoist_vars [c], T (1, x), T (2, c),  T (34, x), Lambda_apply y [((Iter 1), (Arg 10)), ((Iter 2), (Arg 12))],  T (8, f), T (1, x), T (1, y)];4.772164344787598
1;Yolo9000_13;0.5075539;0.007123335938308702;2;axe_yy1_0,axe_xx1_0,axe_out_channels1_0,axe_yy1_1,axe_xx1_1;13;[V f, U (2, f), ULambda y, T (64, c), Hoist_vars [c], T (17, x), T (8, c),  T (1, x), T (1, y), T (8, f), T (2, x),  Lambda_apply y [((Iter 1), (Arg 10)), ((Iter 2), (Arg 12))]];6.339151859283447
2;Yolo9000_13;0.1744461;0.0019501432998628525;2;axe_yy1_0,axe_xx1_0,axe_out_channels1_0,axe_yy1_1,axe_xx1_1;46;[V f, U (2, f), ULambda y, T (256, c), Hoist_vars [c], T (1, x), T (2, c),  T (34, x), T (1, y), T (8, f), T (1, x),  Lambda_apply y [((Iter 2), (Arg 11)), ((Iter 1), (Arg 12))]];7.990287780761719
3;Yolo9000_13;3.3440326;0.01640269919373029;1;axe_yy_0,axe_xx_0;2;[V f, U (2, f), ULambda y, T (64, c), Hoist_vars [c], T (17, x), T (8, c),  T (2, x), Lambda_apply y [((Iter 1), (Arg 10)), ((Iter 2), (Arg 12))],  T (8, f), T (1, x), T (1, y)];9.283377170562744
4;Yolo9000_13;0.1889436;0.0017783150564509044;2;axe_yy1_0,axe_xx1_0,axe_out_channels1_0,axe_yy1_1,axe_xx1_1;30;[V f, U (2, f), ULambda y, T (64, c), Hoist_vars [c], T (2, x), T (8, c),  T (17, x), T (1, y), T (8, f), T (1, x),  Lambda_apply y [((Iter 3), (Arg 8)), ((Iter 1), (Arg 10))]];10.872710227966309
5;Yolo9000_13;0.1899025;0.0012323734214920387;2;axe_yy1_0,axe_xx1_0,axe_out_channels1_0,axe_yy1_1,axe_xx1_1;29;[V f, U (2, f), ULambda y, T (512, c), Hoist_vars [c], T (2, x), T (1, c),  T (17, x), T (1, y), T (8, f), T (1, x),  Lambda_apply y [((Iter 2), (Arg 10)), ((Iter 1), (Arg 14))]];12.469486236572266
6;Yolo9000_13;0.18752439999999998;0.0018615817575384675;2;axe_yy1_0,axe_xx1_0,axe_out_channels1_0,axe_yy1_1,axe_xx1_1;29;[V f, U (2, f), ULambda y, T (256, c), Hoist_vars [c], T (2, x), T (2, c),  T (17, x), T (1, y), T (8, f), T (1, x),  Lambda_apply y [((Iter 2), (Arg 10)), ((Iter 1), (Arg 14))]];14.13451886177063
7;Yolo9000_13;0.6670296999999998;0.006682442368625428;2;axe_yy1_0,axe_xx1_0,axe_out_channels1_0,axe_yy1_1,axe_xx1_1;13;[V f, U (2, f), ULambda y, T (512, c), Hoist_vars [c], T (34, x), T (1, c),  T (1, x), T (1, y), T (8, f), T (1, x),  Lambda_apply y [((Iter 2), (Arg 11)), ((Iter 1), (Arg 12))]];15.770600318908691
8;Yolo9000_13;3.0953779000000003;0.0326826251284991;1;axe_yy_0,axe_xx_0;2;[V f, U (2, f), ULambda y, T (256, c), Hoist_vars [c], T (1, x), T (2, c),  T (34, x), Lambda_apply y [((Iter 2), (Arg 11)), ((Iter 1), (Arg 12))],  T (8, f), T (1, x), T (1, y)];17.03913974761963
9;Yolo9000_13;2.9604624;0.025836252554114696;1;axe_yy_0,axe_xx_0;2;[V f, U (2, f), ULambda y, T (128, c), Hoist_vars [c], T (2, x), T (4, c),  T (17, x), Lambda_apply y [((Iter 1), (Arg 10)), ((Iter 2), (Arg 12))],  T (8, f), T (1, x), T (1, y)];18.309022665023804
10;Yolo9000_13;0.183165;0.002441651817929823;2;axe_yy1_0,axe_xx1_0,axe_out_channels1_0,axe_yy1_1,axe_xx1_1;28;[V f, U (2, f), ULambda y, T (512, c), Hoist_vars [c], T (2, x), T (1, c),  T (17, x), T (1, y), T (8, f), T (1, x),  Lambda_apply y [((Iter 1), (Arg 8)), ((Iter 2), (Arg 13))]];19.9198796749115
11;Yolo9000_13;0.1714245;0.004300314691973138;2;axe_yy1_0,axe_xx1_0,axe_out_channels1_0,axe_yy1_1,axe_xx1_1;45;[V f, U (2, f), ULambda y, T (64, c), Hoist_vars [c], T (1, x), T (8, c),  T (34, x), T (1, y), T (8, f), T (1, x),  Lambda_apply y [((Iter 1), (Arg 10)), ((Iter 2), (Arg 12))]];21.456807851791382
12;Yolo9000_13;2.9483992999999997;0.039391616199516345;1;axe_yy_0,axe_xx_0;2;[V f, U (2, f), ULambda y, T (256, c), Hoist_vars [c], T (2, x), T (2, c),  T (17, x), Lambda_apply y [((Iter 1), (Arg 8)), ((Iter 2), (Arg 13))],  T (8, f), T (1, x), T (1, y)];22.711119890213013
13;Yolo9000_13;0.6496023000000001;0.008047871657152591;2;axe_yy1_0,axe_xx1_0,axe_out_channels1_0,axe_yy1_1,axe_xx1_1;12;[V f, U (2, f), ULambda y, T (512, c), Hoist_vars [c], T (34, x), T (1, c),  T (1, x), T (1, y), T (8, f), T (1, x),  Lambda_apply y [((Iter 1), (Arg 10)), ((Iter 2), (Arg 12))]];24.334097385406494
14;Yolo9000_13;1.9773153;0.14583100564218163;1;axe_yy_0,axe_xx_0;3;[V f, U (2, f), ULambda y, T (512, c), Hoist_vars [c], T (2, x), T (1, c),  T (17, x), Lambda_apply y [((Iter 1), (Arg 8)), ((Iter 1), (Arg 9))],  T (8, f), T (1, x), T (2, y)];25.575316905975342
15;Yolo9000_13;2.041973;0.024339763560889342;1;axe_yy_0,axe_xx_0;3;[V f, U (2, f), ULambda y, T (64, c), Hoist_vars [c], T (2, x), T (8, c),  T (17, x), Lambda_apply y [((Iter 1), (Arg 8)), ((Iter 1), (Arg 9))],  T (8, f), T (1, x), T (2, y)];26.816241025924683
16;Yolo9000_13;2.9989102;0.07127327337761324;1;axe_yy_0,axe_xx_0;2;[V f, U (2, f), ULambda y, T (512, c), Hoist_vars [c], T (2, x), T (1, c),  T (17, x), Lambda_apply y [((Iter 3), (Arg 8)), ((Iter 1), (Arg 10))],  T (8, f), T (1, x), T (1, y)];28.06273055076599
17;Yolo9000_13;0.18708139999999998;0.0017020834409628705;2;axe_yy1_0,axe_xx1_0,axe_out_channels1_0,axe_yy1_1,axe_xx1_1;29;[V f, U (2, f), ULambda y, T (512, c), Hoist_vars [c], T (1, x), T (1, c),  T (17, x), T (1, y), T (8, f), T (2, x),  Lambda_apply y [((Iter 1), (Arg 8)), ((Iter 2), (Arg 13))]];29.564927577972412
18;Yolo9000_13;2.1800557;0.011150455264696624;1;axe_yy_0,axe_xx_0;3;[V f, U (2, f), ULambda y, T (64, c), Hoist_vars [c], T (1, x), T (8, c),  T (34, x), Lambda_apply y [((Iter 1), (Arg 8)), ((Iter 1), (Arg 9))],  T (8, f), T (1, x), T (2, y)];30.789942741394043
19;Yolo9000_13;2.8742419999999997;0.09738061470436506;1;axe_yy_0,axe_xx_0;2;[V f, U (2, f), ULambda y, T (512, c), Hoist_vars [c], T (34, x), T (1, c),  T (1, x), Lambda_apply y [((Iter 2), (Arg 10)), ((Iter 1), (Arg 14))],  T (8, f), T (1, x), T (1, y)];32.01605796813965
20;Yolo9000_13;2.946536;0.0772820279961648;1;axe_yy_0,axe_xx_0;2;[V f, U (2, f), ULambda y, T (512, c), Hoist_vars [c], T (34, x), T (1, c),  T (1, x), Lambda_apply y [((Iter 1), (Arg 10)), ((Iter 2), (Arg 12))],  T (8, f), T (1, x), T (1, y)];33.26894211769104
21;Yolo9000_13;2.0816552;0.08820879734561633;1;axe_yy_0,axe_xx_0;3;[V f, U (2, f), ULambda y, T (512, c), Hoist_vars [c], T (34, x), T (1, c),  T (1, x), Lambda_apply y [((Iter 1), (Arg 8)), ((Iter 1), (Arg 9))],  T (8, f), T (1, x), T (2, y)];34.46928071975708
22;Yolo9000_13;0.5111731;0.0076495811447425165;2;axe_yy1_0,axe_xx1_0,axe_out_channels1_0,axe_yy1_1,axe_xx1_1;13;[V f, U (2, f), ULambda y, T (64, c), Hoist_vars [c], T (17, x), T (8, c),  T (1, x), T (1, y), T (8, f), T (2, x),  Lambda_apply y [((Iter 1), (Arg 8)), ((Iter 2), (Arg 13))]];36.01295614242554
23;Yolo9000_13;3.0439081;0.03266345680251861;1;axe_yy_0,axe_xx_0;2;[V f, U (2, f), ULambda y, T (64, c), Hoist_vars [c], T (2, x), T (8, c),  T (17, x), Lambda_apply y [((Iter 1), (Arg 8)), ((Iter 2), (Arg 13))],  T (8, f), T (1, x), T (1, y)];37.26842546463013
24;Yolo9000_13;0.1731946;0.0025001942004572336;2;axe_yy1_0,axe_xx1_0,axe_out_channels1_0,axe_yy1_1,axe_xx1_1;46;[V f, U (2, f), ULambda y, T (128, c), Hoist_vars [c], T (1, x), T (4, c),  T (34, x), T (1, y), T (8, f), T (1, x),  Lambda_apply y [((Iter 2), (Arg 10)), ((Iter 1), (Arg 14))]];38.79652667045593
25;Yolo9000_13;2.862457;0.10449932140640913;1;axe_yy_0,axe_xx_0;2;[V f, U (2, f), ULambda y, T (512, c), Hoist_vars [c], T (2, x), T (1, c),  T (17, x), Lambda_apply y [((Iter 2), (Arg 10)), ((Iter 1), (Arg 14))],  T (8, f), T (1, x), T (1, y)];40.08958101272583
26;Yolo9000_13;0.1840484;0.008563816698178446;2;axe_yy1_0,axe_xx1_0,axe_out_channels1_0,axe_yy1_1,axe_xx1_1;47;[V f, U (2, f), ULambda y, T (128, c), Hoist_vars [c], T (1, x), T (4, c),  T (34, x), T (1, y), T (8, f), T (1, x),  Lambda_apply y [((Iter 3), (Arg 8)), ((Iter 1), (Arg 10))]];41.59219193458557
27;Yolo9000_13;1.8896476999999998;0.0849754977861854;1;axe_yy_0,axe_xx_0;3;[V f, U (2, f), ULambda y, T (128, c), Hoist_vars [c], T (1, x), T (4, c),  T (17, x), Lambda_apply y [((Iter 1), (Arg 10)), ((Iter 2), (Arg 12))],  T (8, f), T (2, x), T (1, y)];42.813942670822144
28;Yolo9000_13;3.0616301999999997;0.10756526594658702;1;axe_yy_0,axe_xx_0;2;[V f, U (2, f), ULambda y, T (64, c), Hoist_vars [c], T (1, x), T (8, c),  T (34, x), Lambda_apply y [((Iter 3), (Arg 8)), ((Iter 1), (Arg 10))],  T (8, f), T (1, x), T (1, y)];44.02136158943176
29;Yolo9000_13;0.4360684;0.003294418376587889;2;axe_yy1_0,axe_xx1_0,axe_out_channels1_0,axe_yy1_1,axe_xx1_1;13;[V f, U (2, f), ULambda y, T (512, c), Hoist_vars [c], T (17, x), T (1, c),  T (1, x), T (1, y), T (8, f), T (2, x),  Lambda_apply y [((Iter 1), (Arg 10)), ((Iter 2), (Arg 12))]];45.54356384277344
30;Yolo9000_13;0.4722677999999999;0.007892598416237845;2;axe_yy1_0,axe_xx1_0,axe_xx1_1,axe_out_channels1_0;8;[V f, U (4, f), ULambda y, T (128, c), Hoist_vars [c], T (17, x), T (4, c),  T (4, f), T (1, x), T (2, x),  Lambda_apply y [((Iter 1), (Arg 6)), ((Iter 4), (Arg 7))]];47.24480152130127
31;Yolo9000_13;1.908174;0.08555680753277328;1;axe_yy_0,axe_xx_0;3;[V f, U (2, f), ULambda y, T (64, c), Hoist_vars [c], T (1, x), T (8, c),  T (17, x), Lambda_apply y [((Iter 1), (Arg 10)), ((Iter 2), (Arg 12))],  T (8, f), T (2, x), T (1, y)];48.493196964263916
32;Yolo9000_13;0.1705071;0.007368837105676849;2;axe_yy1_0,axe_xx1_0,axe_out_channels1_0,axe_yy1_1,axe_xx1_1;46;[V f, U (2, f), ULambda y, T (512, c), Hoist_vars [c], T (1, x), T (1, c),  T (34, x), T (2, y), T (8, f), T (1, x),  Lambda_apply y [((Iter 1), (Arg 8)), ((Iter 1), (Arg 9))]];49.973862648010254
33;Yolo9000_13;0.18099110000000002;0.008363854547396195;2;axe_yy1_0,axe_xx1_0,axe_out_channels1_0,axe_yy1_1,axe_xx1_1;47;[V f, U (2, f), ULambda y, T (256, c), Hoist_vars [c], T (1, x), T (2, c),  T (34, x), T (1, y), T (8, f), T (1, x),  Lambda_apply y [((Iter 3), (Arg 8)), ((Iter 1), (Arg 10))]];51.49148631095886
34;Yolo9000_13;0.1838603;0.0035913805159019344;2;axe_yy1_0,axe_xx1_0,axe_out_channels1_0,axe_yy1_1,axe_xx1_1;29;[V f, U (2, f), ULambda y, T (64, c), Hoist_vars [c], T (1, x), T (8, c),  T (17, x), T (1, y), T (8, f), T (2, x),  Lambda_apply y [((Iter 1), (Arg 8)), ((Iter 2), (Arg 13))]];53.00699710845947
35;Yolo9000_13;2.7666222;0.1373778649636105;1;axe_yy_0,axe_xx_0;2;[V f, U (2, f), ULambda y, T (512, c), Hoist_vars [c], T (1, x), T (1, c),  T (34, x), Lambda_apply y [((Iter 1), (Arg 10)), ((Iter 2), (Arg 12))],  T (8, f), T (1, x), T (1, y)];54.22701096534729
36;Yolo9000_13;0.1699523;0.005286906884937545;2;axe_yy1_0,axe_xx1_0,axe_out_channels1_0,axe_yy1_1,axe_xx1_1;45;[V f, U (2, f), ULambda y, T (128, c), Hoist_vars [c], T (1, x), T (4, c),  T (34, x), T (1, y), T (8, f), T (1, x),  Lambda_apply y [((Iter 1), (Arg 8)), ((Iter 2), (Arg 13))]];55.7773916721344
37;Yolo9000_13;0.18393289999999998;0.008400572854871271;2;axe_yy1_0,axe_xx1_0,axe_out_channels1_0,axe_yy1_1,axe_xx1_1;30;[V f, U (2, f), ULambda y, T (512, c), Hoist_vars [c], T (2, x), T (1, c),  T (17, x), T (1, y), T (8, f), T (1, x),  Lambda_apply y [((Iter 3), (Arg 8)), ((Iter 1), (Arg 10))]];57.328736782073975
38;Yolo9000_13;0.32278280000000004;0.005055502424091983;2;axe_yy1_0,axe_xx1_0,axe_out_channels1_0,axe_yy1_1,axe_xx1_1;13;[V f, U (2, f), ULambda y, T (512, c), Hoist_vars [c], T (17, x), T (1, c),  T (2, x), T (1, y), T (8, f), T (1, x),  Lambda_apply y [((Iter 1), (Arg 10)), ((Iter 2), (Arg 12))]];58.902687072753906
39;Yolo9000_13;2.8605207;0.1046877727387969;1;axe_yy_0,axe_xx_0;2;[V f, U (2, f), ULambda y, T (512, c), Hoist_vars [c], T (2, x), T (1, c),  T (17, x), Lambda_apply y [((Iter 1), (Arg 8)), ((Iter 2), (Arg 13))],  T (8, f), T (1, x), T (1, y)];60.140122413635254
40;Yolo9000_13;0.17436369999999998;0.006606555003176769;2;axe_yy1_0,axe_xx1_0,axe_out_channels1_0,axe_yy1_1,axe_xx1_1;46;[V f, U (2, f), ULambda y, T (128, c), Hoist_vars [c], T (1, x), T (4, c),  T (34, x), T (2, y), T (8, f), T (1, x),  Lambda_apply y [((Iter 1), (Arg 8)), ((Iter 1), (Arg 9))]];61.6521635055542
41;Yolo9000_13;2.7909284999999997;0.12745925433427746;1;axe_yy_0,axe_xx_0;2;[V f, U (2, f), ULambda y, T (512, c), Hoist_vars [c], T (34, x), T (1, c),  T (1, x), Lambda_apply y [((Iter 1), (Arg 8)), ((Iter 2), (Arg 13))],  T (8, f), T (1, x), T (1, y)];62.86387228965759
42;Yolo9000_13;0.1779073;0.003711509613351415;2;axe_yy1_0,axe_xx1_0,axe_out_channels1_0,axe_yy1_1,axe_xx1_1;29;[V f, U (2, f), ULambda y, T (512, c), Hoist_vars [c], T (1, x), T (1, c),  T (17, x), T (1, y), T (8, f), T (2, x),  Lambda_apply y [((Iter 1), (Arg 10)), ((Iter 2), (Arg 12))]];64.37391829490662
43;Yolo9000_13;0.18642790000000004;0.006525396807091506;2;axe_yy1_0,axe_xx1_0,axe_out_channels1_0,axe_yy1_1,axe_xx1_1;29;[V f, U (2, f), ULambda y, T (256, c), Hoist_vars [c], T (2, x), T (2, c),  T (17, x), T (2, y), T (8, f), T (1, x),  Lambda_apply y [((Iter 1), (Arg 8)), ((Iter 1), (Arg 9))]];65.92919588088989
44;Yolo9000_13;0.1874625;0.006455307788943919;2;axe_yy1_0,axe_xx1_0,axe_out_channels1_0,axe_yy1_1,axe_xx1_1;47;[V f, U (2, f), ULambda y, T (512, c), Hoist_vars [c], T (1, x), T (1, c),  T (34, x), T (1, y), T (8, f), T (1, x),  Lambda_apply y [((Iter 3), (Arg 8)), ((Iter 1), (Arg 10))]];67.42093276977539
45;Yolo9000_13;3.0928870999999996;0.0658181235230085;1;axe_yy_0,axe_xx_0;2;[V f, U (2, f), ULambda y, T (128, c), Hoist_vars [c], T (2, x), T (4, c),  T (17, x), Lambda_apply y [((Iter 2), (Arg 10)), ((Iter 1), (Arg 14))],  T (8, f), T (1, x), T (1, y)];68.6894268989563
46;Yolo9000_13;3.1615333999999997;0.12377421735822051;1;axe_yy_0,axe_xx_0;2;[V f, U (2, f), ULambda y, T (64, c), Hoist_vars [c], T (1, x), T (8, c),  T (34, x), Lambda_apply y [((Iter 1), (Arg 10)), ((Iter 2), (Arg 12))],  T (8, f), T (1, x), T (1, y)];69.91991996765137
47;Yolo9000_13;0.18097670000000002;0.004162782436063651;2;axe_yy1_0,axe_xx1_0,axe_out_channels1_0,axe_yy1_1,axe_xx1_1;28;[V f, U (2, f), ULambda y, T (512, c), Hoist_vars [c], T (2, x), T (1, c),  T (17, x), T (1, y), T (8, f), T (1, x),  Lambda_apply y [((Iter 1), (Arg 10)), ((Iter 2), (Arg 12))]];71.48273754119873
48;Yolo9000_13;0.1828754;0.0032655886513766504;2;axe_yy1_0,axe_xx1_0,axe_out_channels1_0,axe_yy1_1,axe_xx1_1;29;[V f, U (2, f), ULambda y, T (64, c), Hoist_vars [c], T (1, x), T (8, c),  T (17, x), T (1, y), T (8, f), T (2, x),  Lambda_apply y [((Iter 1), (Arg 10)), ((Iter 2), (Arg 12))]];73.00549340248108
49;Yolo9000_13;3.3127103999999994;0.006586451141548011;1;axe_yy_0,axe_xx_0;2;[V f, U (2, f), ULambda y, T (64, c), Hoist_vars [c], T (17, x), T (8, c),  T (2, x), Lambda_apply y [((Iter 2), (Arg 10)), ((Iter 1), (Arg 14))],  T (8, f), T (1, x), T (1, y)];74.27916169166565
50;Yolo9000_13;1.9610094;0.07295417934457214;1;axe_yy_0,axe_xx_0;3;[V f, U (2, f), ULambda y, T (128, c), Hoist_vars [c], T (2, x), T (4, c),  T (17, x), Lambda_apply y [((Iter 1), (Arg 8)), ((Iter 1), (Arg 9))],  T (8, f), T (1, x), T (2, y)];75.50353145599365
51;Yolo9000_13;0.17882669999999998;0.003654951711035313;2;axe_yy1_0,axe_xx1_0,axe_out_channels1_0,axe_yy1_1,axe_xx1_1;28;[V f, U (2, f), ULambda y, T (256, c), Hoist_vars [c], T (2, x), T (2, c),  T (17, x), T (1, y), T (8, f), T (1, x),  Lambda_apply y [((Iter 1), (Arg 8)), ((Iter 2), (Arg 13))]];77.1158857345581
52;Yolo9000_13;2.0271915;0.00948039960391966;1;axe_yy_0,axe_xx_0;3;[V f, U (2, f), ULambda y, T (64, c), Hoist_vars [c], T (17, x), T (8, c),  T (1, x), Lambda_apply y [((Iter 1), (Arg 8)), ((Iter 2), (Arg 13))],  T (8, f), T (2, x), T (1, y)];78.34311962127686
53;Yolo9000_13;2.8447591;0.08629331568256024;1;axe_yy_0,axe_xx_0;2;[V f, U (2, f), ULambda y, T (256, c), Hoist_vars [c], T (2, x), T (2, c),  T (17, x), Lambda_apply y [((Iter 2), (Arg 11)), ((Iter 1), (Arg 12))],  T (8, f), T (1, x), T (1, y)];79.5941526889801
54;Yolo9000_13;0.1830007;0.006571233446621721;2;axe_yy1_0,axe_xx1_0,axe_out_channels1_0,axe_yy1_1,axe_xx1_1;30;[V f, U (2, f), ULambda y, T (256, c), Hoist_vars [c], T (2, x), T (2, c),  T (17, x), T (1, y), T (8, f), T (1, x),  Lambda_apply y [((Iter 3), (Arg 8)), ((Iter 1), (Arg 10))]];81.12722730636597
55;Yolo9000_13;0.1823204;0.003717251005783702;2;axe_yy1_0,axe_xx1_0,axe_out_channels1_0,axe_yy1_1,axe_xx1_1;29;[V f, U (2, f), ULambda y, T (256, c), Hoist_vars [c], T (2, x), T (2, c),  T (17, x), T (1, y), T (8, f), T (1, x),  Lambda_apply y [((Iter 2), (Arg 11)), ((Iter 1), (Arg 12))]];82.69034504890442
56;Yolo9000_13;0.1807593;0.004336113675862292;2;axe_yy1_0,axe_xx1_0,axe_out_channels1_0,axe_yy1_1,axe_xx1_1;29;[V f, U (2, f), ULambda y, T (256, c), Hoist_vars [c], T (1, x), T (2, c),  T (17, x), T (1, y), T (8, f), T (2, x),  Lambda_apply y [((Iter 1), (Arg 10)), ((Iter 2), (Arg 12))]];84.22438716888428
57;Yolo9000_13;0.356252;0.005396186505301695;2;axe_yy1_0,axe_xx1_0,axe_out_channels1_0,axe_yy1_1,axe_xx1_1;14;[V f, U (2, f), ULambda y, T (64, c), Hoist_vars [c], T (17, x), T (8, c),  T (2, x), T (1, y), T (8, f), T (1, x),  Lambda_apply y [((Iter 2), (Arg 10)), ((Iter 1), (Arg 14))]];85.7852475643158
58;Yolo9000_13;0.6071535000000001;0.005403422161001316;2;axe_yy1_0,axe_xx1_0,axe_out_channels1_0,axe_yy1_1,axe_xx1_1;12;[V f, U (2, f), ULambda y, T (512, c), Hoist_vars [c], T (34, x), T (1, c),  T (1, x), T (1, y), T (8, f), T (1, x),  Lambda_apply y [((Iter 1), (Arg 8)), ((Iter 2), (Arg 13))]];87.3762629032135
59;Yolo9000_13;0.3263704;0.009160218602195036;2;axe_yy1_0,axe_xx1_0,axe_out_channels1_0,axe_yy1_1,axe_xx1_1;13;[V f, U (2, f), ULambda y, T (512, c), Hoist_vars [c], T (17, x), T (1, c),  T (2, x), T (1, y), T (8, f), T (1, x),  Lambda_apply y [((Iter 1), (Arg 8)), ((Iter 2), (Arg 13))]];88.91644263267517
60;Yolo9000_13;3.1044381000000003;0.12597619056984538;1;axe_yy_0,axe_xx_0;2;[V f, U (2, f), ULambda y, T (128, c), Hoist_vars [c], T (1, x), T (4, c),  T (34, x), Lambda_apply y [((Iter 1), (Arg 10)), ((Iter 2), (Arg 12))],  T (8, f), T (1, x), T (1, y)];90.15992379188538
61;Yolo9000_13;0.1684577;0.004051095951714794;2;axe_yy1_0,axe_xx1_0,axe_out_channels1_0,axe_yy1_1,axe_xx1_1;46;[V f, U (2, f), ULambda y, T (128, c), Hoist_vars [c], T (1, x), T (4, c),  T (34, x), T (1, y), T (8, f), T (1, x),  Lambda_apply y [((Iter 2), (Arg 11)), ((Iter 1), (Arg 12))]];91.68075656890869
62;Yolo9000_13;1.9608352000000004;0.0820644479988747;1;axe_yy_0,axe_xx_0;3;[V f, U (2, f), ULambda y, T (64, c), Hoist_vars [c], T (1, x), T (8, c),  T (17, x), Lambda_apply y [((Iter 1), (Arg 8)), ((Iter 2), (Arg 13))],  T (8, f), T (2, x), T (1, y)];92.91476011276245
63;Yolo9000_13;0.7612449;0.004024769023186304;2;axe_yy1_0,axe_xx1_0,axe_xx1_1,axe_out_channels1_0;7;[V f, U (4, f), ULambda y, T (256, c), Hoist_vars [c], T (34, x), T (2, c),  T (4, f), T (1, x), T (1, x),  Lambda_apply y [((Iter 1), (Arg 6)), ((Iter 4), (Arg 7))]];94.53987288475037
64;Yolo9000_13;0.18809559999999997;0.004034303017870616;2;axe_yy1_0,axe_xx1_0,axe_out_channels1_0,axe_yy1_1,axe_xx1_1;28;[V f, U (2, f), ULambda y, T (64, c), Hoist_vars [c], T (2, x), T (8, c),  T (17, x), T (1, y), T (8, f), T (1, x),  Lambda_apply y [((Iter 1), (Arg 8)), ((Iter 2), (Arg 13))]];96.08993744850159
65;Yolo9000_13;0.16857970000000003;0.007107753077450007;2;axe_yy1_0,axe_xx1_0,axe_out_channels1_0,axe_yy1_1,axe_xx1_1;46;[V f, U (2, f), ULambda y, T (256, c), Hoist_vars [c], T (1, x), T (2, c),  T (34, x), T (2, y), T (8, f), T (1, x),  Lambda_apply y [((Iter 1), (Arg 8)), ((Iter 1), (Arg 9))]];97.59380722045898
66;Yolo9000_13;2.8082495;0.05781686196301213;1;axe_yy_0,axe_xx_0;2;[V f, U (2, f), ULambda y, T (256, c), Hoist_vars [c], T (2, x), T (2, c),  T (17, x), Lambda_apply y [((Iter 2), (Arg 10)), ((Iter 1), (Arg 14))],  T (8, f), T (1, x), T (1, y)];98.85021424293518
67;Yolo9000_13;2.9493219;0.07341197310854679;1;axe_yy_0,axe_xx_0;2;[V f, U (2, f), ULambda y, T (64, c), Hoist_vars [c], T (2, x), T (8, c),  T (17, x), Lambda_apply y [((Iter 1), (Arg 10)), ((Iter 2), (Arg 12))],  T (8, f), T (1, x), T (1, y)];100.1019868850708
68;Yolo9000_13;0.1813922;0.0046028737067184515;2;axe_yy1_0,axe_xx1_0,axe_out_channels1_0,axe_yy1_1,axe_xx1_1;29;[V f, U (2, f), ULambda y, T (256, c), Hoist_vars [c], T (1, x), T (2, c),  T (17, x), T (1, y), T (8, f), T (2, x),  Lambda_apply y [((Iter 1), (Arg 8)), ((Iter 2), (Arg 13))]];101.6223566532135
69;Yolo9000_13;0.18027410000000002;0.0035821930280206782;2;axe_yy1_0,axe_xx1_0,axe_out_channels1_0,axe_yy1_1,axe_xx1_1;29;[V f, U (2, f), ULambda y, T (512, c), Hoist_vars [c], T (2, x), T (1, c),  T (17, x), T (1, y), T (8, f), T (1, x),  Lambda_apply y [((Iter 2), (Arg 11)), ((Iter 1), (Arg 12))]];103.17278790473938
70;Yolo9000_13;2.9485171;0.058363408991336366;1;axe_yy_0,axe_xx_0;2;[V f, U (2, f), ULambda y, T (128, c), Hoist_vars [c], T (2, x), T (4, c),  T (17, x), Lambda_apply y [((Iter 3), (Arg 8)), ((Iter 1), (Arg 10))],  T (8, f), T (1, x), T (1, y)];104.42058491706848
71;Yolo9000_13;2.93702;0.16500246860516968;1;axe_yy_0,axe_xx_0;2;[V f, U (2, f), ULambda y, T (512, c), Hoist_vars [c], T (17, x), T (1, c),  T (2, x), Lambda_apply y [((Iter 1), (Arg 10)), ((Iter 2), (Arg 12))],  T (8, f), T (1, x), T (1, y)];105.64387941360474
72;Yolo9000_13;0.1743199;0.008143475086841002;2;axe_yy1_0,axe_xx1_0,axe_out_channels1_0,axe_yy1_1,axe_xx1_1;46;[V f, U (2, f), ULambda y, T (64, c), Hoist_vars [c], T (1, x), T (8, c),  T (34, x), T (2, y), T (8, f), T (1, x),  Lambda_apply y [((Iter 1), (Arg 8)), ((Iter 1), (Arg 9))]];107.1158938407898
73;Yolo9000_13;0.1833693;0.005895855426483921;2;axe_yy1_0,axe_xx1_0,axe_out_channels1_0,axe_yy1_1,axe_xx1_1;29;[V f, U (2, f), ULambda y, T (128, c), Hoist_vars [c], T (1, x), T (4, c),  T (17, x), T (1, y), T (8, f), T (2, x),  Lambda_apply y [((Iter 1), (Arg 8)), ((Iter 2), (Arg 13))]];108.64747667312622
74;Yolo9000_13;0.1637882;0.003841308339615551;2;axe_yy1_0,axe_xx1_0,axe_out_channels1_0,axe_yy1_1,axe_xx1_1;46;[V f, U (2, f), ULambda y, T (64, c), Hoist_vars [c], T (1, x), T (8, c),  T (34, x), T (1, y), T (8, f), T (1, x),  Lambda_apply y [((Iter 2), (Arg 11)), ((Iter 1), (Arg 12))]];110.20854544639587
75;Yolo9000_13;2.895788;0.03795303063524702;1;axe_yy_0,axe_xx_0;2;[V f, U (2, f), ULambda y, T (128, c), Hoist_vars [c], T (2, x), T (4, c),  T (17, x), Lambda_apply y [((Iter 1), (Arg 8)), ((Iter 2), (Arg 13))],  T (8, f), T (1, x), T (1, y)];111.43961811065674
76;Yolo9000_13;2.7251303;0.09825518997187875;1;axe_yy_0,axe_xx_0;2;[V f, U (2, f), ULambda y, T (512, c), Hoist_vars [c], T (17, x), T (1, c),  T (2, x), Lambda_apply y [((Iter 2), (Arg 10)), ((Iter 1), (Arg 14))],  T (8, f), T (1, x), T (1, y)];112.66601300239563
77;Yolo9000_13;1.6222197;0.07647267947188721;1;axe_yy_0,axe_xx_0;3;[V f, U (2, f), ULambda y, T (512, c), Hoist_vars [c], T (1, x), T (1, c),  T (17, x), Lambda_apply y [((Iter 1), (Arg 8)), ((Iter 2), (Arg 13))],  T (8, f), T (2, x), T (1, y)];113.8551676273346
78;Yolo9000_13;0.18522729999999998;0.0032869779752836806;2;axe_yy1_0,axe_xx1_0,axe_out_channels1_0,axe_yy1_1,axe_xx1_1;29;[V f, U (2, f), ULambda y, T (128, c), Hoist_vars [c], T (2, x), T (4, c),  T (17, x), T (1, y), T (8, f), T (1, x),  Lambda_apply y [((Iter 2), (Arg 10)), ((Iter 1), (Arg 14))]];115.43788146972656
79;Yolo9000_13;0.16191070000000002;0.00473905005354449;2;axe_yy1_0,axe_xx1_0,axe_out_channels1_0,axe_yy1_1,axe_xx1_1;45;[V f, U (2, f), ULambda y, T (512, c), Hoist_vars [c], T (1, x), T (1, c),  T (34, x), T (1, y), T (8, f), T (1, x),  Lambda_apply y [((Iter 1), (Arg 10)), ((Iter 2), (Arg 12))]];116.94876027107239
80;Yolo9000_13;0.17547110000000002;0.004024511509487823;2;axe_yy1_0,axe_xx1_0,axe_out_channels1_0,axe_yy1_1,axe_xx1_1;29;[V f, U (2, f), ULambda y, T (64, c), Hoist_vars [c], T (2, x), T (8, c),  T (17, x), T (2, y), T (8, f), T (1, x),  Lambda_apply y [((Iter 1), (Arg 8)), ((Iter 1), (Arg 9))]];118.47401881217957
81;Yolo9000_13;0.46347879999999997;0.0068099570453858185;2;axe_yy1_0,axe_xx1_0,axe_xx1_1,axe_out_channels1_0;8;[V f, U (4, f), ULambda y, T (128, c), Hoist_vars [c], T (17, x), T (4, c),  T (4, f), T (2, x), T (1, x),  Lambda_apply y [((Iter 1), (Arg 6)), ((Iter 4), (Arg 7))]];120.20971131324768
82;Yolo9000_13;0.41276;0.005352288501192746;2;axe_yy1_0,axe_xx1_0,axe_xx1_1,axe_out_channels1_0;8;[V f, U (4, f), ULambda y, T (256, c), Hoist_vars [c], T (17, x), T (2, c),  T (4, f), T (1, x), T (2, x),  Lambda_apply y [((Iter 1), (Arg 6)), ((Iter 4), (Arg 7))]];121.91013669967651
83;Yolo9000_13;2.8583017999999996;0.1036062618646188;1;axe_yy_0,axe_xx_0;2;[V f, U (2, f), ULambda y, T (512, c), Hoist_vars [c], T (17, x), T (1, c),  T (2, x), Lambda_apply y [((Iter 1), (Arg 8)), ((Iter 2), (Arg 13))],  T (8, f), T (1, x), T (1, y)];123.13596367835999
84;Yolo9000_13;3.1733537;0.12414154999358601;1;axe_yy_0,axe_xx_0;2;[V f, U (2, f), ULambda y, T (128, c), Hoist_vars [c], T (1, x), T (4, c),  T (34, x), Lambda_apply y [((Iter 3), (Arg 8)), ((Iter 1), (Arg 10))],  T (8, f), T (1, x), T (1, y)];124.35420036315918
85;Yolo9000_13;3.0969644;0.09352803851701373;1;axe_yy_0,axe_xx_0;2;[V f, U (2, f), ULambda y, T (64, c), Hoist_vars [c], T (1, x), T (8, c),  T (34, x), Lambda_apply y [((Iter 1), (Arg 8)), ((Iter 2), (Arg 13))],  T (8, f), T (1, x), T (1, y)];125.57328391075134
86;Yolo9000_13;0.6436602;0.008976103161171919;2;axe_yy1_0,axe_xx1_0,axe_out_channels1_0,axe_yy1_1,axe_xx1_1;13;[V f, U (2, f), ULambda y, T (512, c), Hoist_vars [c], T (34, x), T (1, c),  T (1, x), T (1, y), T (8, f), T (1, x),  Lambda_apply y [((Iter 2), (Arg 10)), ((Iter 1), (Arg 14))]];127.18574142456055
87;Yolo9000_13;1.5960939;0.07753522936762362;1;axe_yy_0,axe_xx_0;3;[V f, U (2, f), ULambda y, T (512, c), Hoist_vars [c], T (1, x), T (1, c),  T (17, x), Lambda_apply y [((Iter 1), (Arg 10)), ((Iter 2), (Arg 12))],  T (8, f), T (2, x), T (1, y)];128.38500094413757
88;Yolo9000_13;0.4164739;0.00432109841244097;2;axe_yy1_0,axe_xx1_0,axe_xx1_1,axe_out_channels1_0;8;[V f, U (4, f), ULambda y, T (256, c), Hoist_vars [c], T (17, x), T (2, c),  T (4, f), T (2, x), T (1, x),  Lambda_apply y [((Iter 1), (Arg 6)), ((Iter 4), (Arg 7))]];130.081538438797
89;Yolo9000_13;2.9028371999999996;0.1554173181159679;1;axe_yy_0,axe_xx_0;2;[V f, U (2, f), ULambda y, T (512, c), Hoist_vars [c], T (2, x), T (1, c),  T (17, x), Lambda_apply y [((Iter 2), (Arg 11)), ((Iter 1), (Arg 12))],  T (8, f), T (1, x), T (1, y)];131.33026552200317
90;Yolo9000_13;0.43417669999999997;0.011881322881312493;2;axe_yy1_0,axe_xx1_0,axe_out_channels1_0,axe_yy1_1,axe_xx1_1;13;[V f, U (2, f), ULambda y, T (512, c), Hoist_vars [c], T (34, x), T (1, c),  T (1, x), T (2, y), T (8, f), T (1, x),  Lambda_apply y [((Iter 1), (Arg 8)), ((Iter 1), (Arg 9))]];132.89400029182434
91;Yolo9000_13;0.8339791999999999;0.004076907450507046;2;axe_yy1_0,axe_xx1_0,axe_xx1_1,axe_out_channels1_0;7;[V f, U (4, f), ULambda y, T (128, c), Hoist_vars [c], T (34, x), T (4, c),  T (4, f), T (1, x), T (1, x),  Lambda_apply y [((Iter 1), (Arg 6)), ((Iter 4), (Arg 7))]];134.5198619365692
92;Yolo9000_13;2.9170211;0.11417028889816302;1;axe_yy_0,axe_xx_0;2;[V f, U (2, f), ULambda y, T (512, c), Hoist_vars [c], T (1, x), T (1, c),  T (34, x), Lambda_apply y [((Iter 1), (Arg 8)), ((Iter 2), (Arg 13))],  T (8, f), T (1, x), T (1, y)];135.7280044555664
93;Yolo9000_13;0.3438377000000001;0.006035921902244926;2;axe_yy1_0,axe_xx1_0,axe_out_channels1_0,axe_yy1_1,axe_xx1_1;13;[V f, U (2, f), ULambda y, T (64, c), Hoist_vars [c], T (17, x), T (8, c),  T (2, x), T (1, y), T (8, f), T (1, x),  Lambda_apply y [((Iter 1), (Arg 8)), ((Iter 2), (Arg 13))]];137.28015756607056
94;Yolo9000_13;0.18023649999999997;0.0040775764922316325;2;axe_yy1_0,axe_xx1_0,axe_out_channels1_0,axe_yy1_1,axe_xx1_1;29;[V f, U (2, f), ULambda y, T (128, c), Hoist_vars [c], T (2, x), T (4, c),  T (17, x), T (1, y), T (8, f), T (1, x),  Lambda_apply y [((Iter 2), (Arg 11)), ((Iter 1), (Arg 12))]];138.88152813911438
95;Yolo9000_13;0.16212600000000002;0.0036746498608711;2;axe_yy1_0,axe_xx1_0,axe_out_channels1_0,axe_yy1_1,axe_xx1_1;46;[V f, U (2, f), ULambda y, T (256, c), Hoist_vars [c], T (1, x), T (2, c),  T (34, x), T (1, y), T (8, f), T (1, x),  Lambda_apply y [((Iter 2), (Arg 10)), ((Iter 1), (Arg 14))]];140.43922352790833
96;Yolo9000_13;0.1685454;0.003522732666553052;2;axe_yy1_0,axe_xx1_0,axe_out_channels1_0,axe_yy1_1,axe_xx1_1;45;[V f, U (2, f), ULambda y, T (64, c), Hoist_vars [c], T (1, x), T (8, c),  T (34, x), T (1, y), T (8, f), T (1, x),  Lambda_apply y [((Iter 1), (Arg 8)), ((Iter 2), (Arg 13))]];141.94386053085327
97;Yolo9000_13;0.17834049999999999;0.0017744212154953483;2;axe_yy1_0,axe_xx1_0,axe_out_channels1_0,axe_yy1_1,axe_xx1_1;28;[V f, U (2, f), ULambda y, T (128, c), Hoist_vars [c], T (2, x), T (4, c),  T (17, x), T (1, y), T (8, f), T (1, x),  Lambda_apply y [((Iter 1), (Arg 10)), ((Iter 2), (Arg 12))]];143.52328062057495
98;Yolo9000_13;0.1718205;0.0032847747030808703;2;axe_yy1_0,axe_xx1_0,axe_out_channels1_0,axe_yy1_1,axe_xx1_1;28;[V f, U (2, f), ULambda y, T (256, c), Hoist_vars [c], T (2, x), T (2, c),  T (17, x), T (1, y), T (8, f), T (1, x),  Lambda_apply y [((Iter 1), (Arg 10)), ((Iter 2), (Arg 12))]];145.09226775169373
99;Yolo9000_13;0.3505535;0.006460664087382978;2;axe_yy1_0,axe_xx1_0,axe_out_channels1_0,axe_yy1_1,axe_xx1_1;13;[V f, U (2, f), ULambda y, T (64, c), Hoist_vars [c], T (17, x), T (8, c),  T (2, x), T (1, y), T (8, f), T (1, x),  Lambda_apply y [((Iter 1), (Arg 10)), ((Iter 2), (Arg 12))]];146.6523561477661
100;Yolo9000_13;1.6370628999999997;0.09967287927259845;1;axe_yy_0,axe_xx_0;3;[V f, U (2, f), ULambda y, T (512, c), Hoist_vars [c], T (17, x), T (1, c),  T (1, x), Lambda_apply y [((Iter 1), (Arg 10)), ((Iter 2), (Arg 12))],  T (8, f), T (2, x), T (1, y)];147.86133337020874
101;Yolo9000_13;2.851562;0.11107181534664858;1;axe_yy_0,axe_xx_0;2;[V f, U (2, f), ULambda y, T (256, c), Hoist_vars [c], T (1, x), T (2, c),  T (34, x), Lambda_apply y [((Iter 2), (Arg 10)), ((Iter 1), (Arg 14))],  T (8, f), T (1, x), T (1, y)];149.10977578163147
102;Yolo9000_13;2.909429;0.1400768217957561;1;axe_yy_0,axe_xx_0;2;[V f, U (2, f), ULambda y, T (512, c), Hoist_vars [c], T (1, x), T (1, c),  T (34, x), Lambda_apply y [((Iter 3), (Arg 8)), ((Iter 1), (Arg 10))],  T (8, f), T (1, x), T (1, y)];150.29582047462463
103;Yolo9000_13;3.0877928999999993;0.07071000636465812;1;axe_yy_0,axe_xx_0;2;[V f, U (2, f), ULambda y, T (64, c), Hoist_vars [c], T (2, x), T (8, c),  T (17, x), Lambda_apply y [((Iter 2), (Arg 11)), ((Iter 1), (Arg 12))],  T (8, f), T (1, x), T (1, y)];151.54942774772644
104;Yolo9000_13;2.9089962;0.0936826876309599;1;axe_yy_0,axe_xx_0;2;[V f, U (2, f), ULambda y, T (512, c), Hoist_vars [c], T (2, x), T (1, c),  T (17, x), Lambda_apply y [((Iter 1), (Arg 10)), ((Iter 2), (Arg 12))],  T (8, f), T (1, x), T (1, y)];152.78743863105774
105;Yolo9000_13;0.1717614;0.001828867146623834;2;axe_yy1_0,axe_xx1_0,axe_out_channels1_0,axe_yy1_1,axe_xx1_1;29;[V f, U (2, f), ULambda y, T (128, c), Hoist_vars [c], T (2, x), T (4, c),  T (17, x), T (2, y), T (8, f), T (1, x),  Lambda_apply y [((Iter 1), (Arg 8)), ((Iter 1), (Arg 9))]];154.3291208744049
106;Yolo9000_13;0.17661449999999998;0.004734260222041032;2;axe_yy1_0,axe_xx1_0,axe_out_channels1_0,axe_yy1_1,axe_xx1_1;29;[V f, U (2, f), ULambda y, T (128, c), Hoist_vars [c], T (1, x), T (4, c),  T (17, x), T (1, y), T (8, f), T (2, x),  Lambda_apply y [((Iter 1), (Arg 10)), ((Iter 2), (Arg 12))]];155.85249257087708
107;Yolo9000_13;2.9145274;0.14143981378254142;1;axe_yy_0,axe_xx_0;2;[V f, U (2, f), ULambda y, T (512, c), Hoist_vars [c], T (34, x), T (1, c),  T (1, x), Lambda_apply y [((Iter 3), (Arg 8)), ((Iter 1), (Arg 10))],  T (8, f), T (1, x), T (1, y)];157.04367542266846
108;Yolo9000_13;2.9628465999999998;0.046289600266582485;1;axe_yy_0,axe_xx_0;2;[V f, U (2, f), ULambda y, T (64, c), Hoist_vars [c], T (2, x), T (8, c),  T (17, x), Lambda_apply y [((Iter 2), (Arg 10)), ((Iter 1), (Arg 14))],  T (8, f), T (1, x), T (1, y)];158.2968716621399
109;Yolo9000_13;0.1645239;0.004848538696349655;2;axe_yy1_0,axe_xx1_0,axe_out_channels1_0,axe_yy1_1,axe_xx1_1;45;[V f, U (2, f), ULambda y, T (256, c), Hoist_vars [c], T (1, x), T (2, c),  T (34, x), T (1, y), T (8, f), T (1, x),  Lambda_apply y [((Iter 1), (Arg 10)), ((Iter 2), (Arg 12))]];159.8122010231018
110;Yolo9000_13;0.30950730000000004;0.0029597823247664583;2;axe_yy1_0,axe_xx1_0,axe_out_channels1_0,axe_yy1_1,axe_xx1_1;14;[V f, U (2, f), ULambda y, T (512, c), Hoist_vars [c], T (17, x), T (1, c),  T (2, x), T (1, y), T (8, f), T (1, x),  Lambda_apply y [((Iter 2), (Arg 10)), ((Iter 1), (Arg 14))]];161.38286590576172
111;Yolo9000_13;3.0016969999999996;0.02248736331364796;1;axe_yy_0,axe_xx_0;2;[V f, U (2, f), ULambda y, T (128, c), Hoist_vars [c], T (1, x), T (4, c),  T (34, x), Lambda_apply y [((Iter 1), (Arg 8)), ((Iter 2), (Arg 13))],  T (8, f), T (1, x), T (1, y)];162.61750054359436
112;Yolo9000_13;3.0378347000000003;0.09081937625094108;1;axe_yy_0,axe_xx_0;2;[V f, U (2, f), ULambda y, T (256, c), Hoist_vars [c], T (1, x), T (2, c),  T (34, x), Lambda_apply y [((Iter 3), (Arg 8)), ((Iter 1), (Arg 10))],  T (8, f), T (1, x), T (1, y)];163.8341405391693
113;Yolo9000_13;1.7437032000000001;0.06780662613609377;1;axe_yy_0,axe_xx_0;3;[V f, U (2, f), ULambda y, T (128, c), Hoist_vars [c], T (1, x), T (4, c),  T (17, x), Lambda_apply y [((Iter 1), (Arg 8)), ((Iter 2), (Arg 13))],  T (8, f), T (2, x), T (1, y)];165.04375791549683
114;Yolo9000_13;2.9201003;0.08665771709438237;1;axe_yy_0,axe_xx_0;2;[V f, U (2, f), ULambda y, T (512, c), Hoist_vars [c], T (34, x), T (1, c),  T (1, x), Lambda_apply y [((Iter 2), (Arg 11)), ((Iter 1), (Arg 12))],  T (8, f), T (1, x), T (1, y)];166.2585551738739
115;Yolo9000_13;1.7147304;0.018219411391150905;1;axe_yy_0,axe_xx_0;3;[V f, U (2, f), ULambda y, T (128, c), Hoist_vars [c], T (1, x), T (4, c),  T (34, x), Lambda_apply y [((Iter 1), (Arg 8)), ((Iter 1), (Arg 9))],  T (8, f), T (1, x), T (2, y)];167.44268536567688
116;Yolo9000_13;2.9055859999999996;0.12632922134407384;1;axe_yy_0,axe_xx_0;2;[V f, U (2, f), ULambda y, T (128, c), Hoist_vars [c], T (1, x), T (4, c),  T (34, x), Lambda_apply y [((Iter 2), (Arg 11)), ((Iter 1), (Arg 12))],  T (8, f), T (1, x), T (1, y)];168.67618584632874
117;Yolo9000_13;1.65364;0.09878593602431474;1;axe_yy_0,axe_xx_0;3;[V f, U (2, f), ULambda y, T (256, c), Hoist_vars [c], T (1, x), T (2, c),  T (17, x), Lambda_apply y [((Iter 1), (Arg 10)), ((Iter 2), (Arg 12))],  T (8, f), T (2, x), T (1, y)];169.89946579933167
118;Yolo9000_13;0.1644566;0.004290738379346852;2;axe_yy1_0,axe_xx1_0,axe_out_channels1_0,axe_yy1_1,axe_xx1_1;45;[V f, U (2, f), ULambda y, T (128, c), Hoist_vars [c], T (1, x), T (4, c),  T (34, x), T (1, y), T (8, f), T (1, x),  Lambda_apply y [((Iter 1), (Arg 10)), ((Iter 2), (Arg 12))]];171.4236867427826
119;Yolo9000_13;0.17137929999999998;0.0024845762636715335;2;axe_yy1_0,axe_xx1_0,axe_out_channels1_0,axe_yy1_1,axe_xx1_1;30;[V f, U (2, f), ULambda y, T (128, c), Hoist_vars [c], T (2, x), T (4, c),  T (17, x), T (1, y), T (8, f), T (1, x),  Lambda_apply y [((Iter 3), (Arg 8)), ((Iter 1), (Arg 10))]];172.97506856918335
120;Yolo9000_13;1.8904603999999998;0.009074805818308183;1;axe_yy_0,axe_xx_0;3;[V f, U (2, f), ULambda y, T (64, c), Hoist_vars [c], T (17, x), T (8, c),  T (1, x), Lambda_apply y [((Iter 1), (Arg 10)), ((Iter 2), (Arg 12))],  T (8, f), T (2, x), T (1, y)];174.1729965209961
121;Yolo9000_13;0.1596696;0.0033589294484999226;2;axe_yy1_0,axe_xx1_0,axe_out_channels1_0,axe_yy1_1,axe_xx1_1;46;[V f, U (2, f), ULambda y, T (512, c), Hoist_vars [c], T (1, x), T (1, c),  T (34, x), T (1, y), T (8, f), T (1, x),  Lambda_apply y [((Iter 2), (Arg 10)), ((Iter 1), (Arg 14))]];175.7408435344696
122;Yolo9000_13;0.1620995;0.004396369007487886;2;axe_yy1_0,axe_xx1_0,axe_out_channels1_0,axe_yy1_1,axe_xx1_1;46;[V f, U (2, f), ULambda y, T (512, c), Hoist_vars [c], T (1, x), T (1, c),  T (34, x), T (1, y), T (8, f), T (1, x),  Lambda_apply y [((Iter 2), (Arg 11)), ((Iter 1), (Arg 12))]];177.25450897216797
123;Yolo9000_13;0.1803149;0.0027896473415111056;2;axe_yy1_0,axe_xx1_0,axe_out_channels1_0,axe_yy1_1,axe_xx1_1;29;[V f, U (2, f), ULambda y, T (64, c), Hoist_vars [c], T (2, x), T (8, c),  T (17, x), T (1, y), T (8, f), T (1, x),  Lambda_apply y [((Iter 2), (Arg 10)), ((Iter 1), (Arg 14))]];178.84976506233215
124;Yolo9000_13;0.1679061;0.002893113770663024;2;axe_yy1_0,axe_xx1_0,axe_out_channels1_0,axe_yy1_1,axe_xx1_1;47;[V f, U (2, f), ULambda y, T (64, c), Hoist_vars [c], T (1, x), T (8, c),  T (34, x), T (1, y), T (8, f), T (1, x),  Lambda_apply y [((Iter 3), (Arg 8)), ((Iter 1), (Arg 10))]];180.34850120544434
125;Yolo9000_13;0.4388845;0.0023045179647813675;2;axe_yy1_0,axe_xx1_0,axe_out_channels1_0,axe_yy1_1,axe_xx1_1;13;[V f, U (2, f), ULambda y, T (512, c), Hoist_vars [c], T (17, x), T (1, c),  T (1, x), T (1, y), T (8, f), T (2, x),  Lambda_apply y [((Iter 1), (Arg 8)), ((Iter 2), (Arg 13))]];181.88978552818298
126;Yolo9000_13;1.6253746999999996;0.007750138218767434;1;axe_yy_0,axe_xx_0;3;[V f, U (2, f), ULambda y, T (512, c), Hoist_vars [c], T (1, x), T (1, c),  T (34, x), Lambda_apply y [((Iter 1), (Arg 8)), ((Iter 1), (Arg 9))],  T (8, f), T (1, x), T (2, y)];183.05409216880798
127;Yolo9000_13;2.8830976999999995;0.011437669439619288;1;axe_yy_0,axe_xx_0;2;[V f, U (2, f), ULambda y, T (64, c), Hoist_vars [c], T (1, x), T (8, c),  T (34, x), Lambda_apply y [((Iter 2), (Arg 11)), ((Iter 1), (Arg 12))],  T (8, f), T (1, x), T (1, y)];184.27202200889587
128;Yolo9000_13;0.1635894;0.0034136242382547;2;axe_yy1_0,axe_xx1_0,axe_out_channels1_0,axe_yy1_1,axe_xx1_1;45;[V f, U (2, f), ULambda y, T (256, c), Hoist_vars [c], T (1, x), T (2, c),  T (34, x), T (1, y), T (8, f), T (1, x),  Lambda_apply y [((Iter 1), (Arg 8)), ((Iter 2), (Arg 13))]];185.78806281089783
129;Yolo9000_13;1.5665166000000001;0.009987381821078;1;axe_yy_0,axe_xx_0;3;[V f, U (2, f), ULambda y, T (512, c), Hoist_vars [c], T (17, x), T (1, c),  T (1, x), Lambda_apply y [((Iter 1), (Arg 8)), ((Iter 2), (Arg 13))],  T (8, f), T (2, x), T (1, y)];186.98597478866577
130;Yolo9000_13;1.5809079;0.016118205076558607;1;axe_yy_0,axe_xx_0;3;[V f, U (2, f), ULambda y, T (256, c), Hoist_vars [c], T (1, x), T (2, c),  T (17, x), Lambda_apply y [((Iter 1), (Arg 8)), ((Iter 2), (Arg 13))],  T (8, f), T (2, x), T (1, y)];188.20440125465393
131;Yolo9000_13;3.0438035;0.03451886598151789;1;axe_yy_0,axe_xx_0;2;[V f, U (2, f), ULambda y, T (64, c), Hoist_vars [c], T (1, x), T (8, c),  T (34, x), Lambda_apply y [((Iter 2), (Arg 10)), ((Iter 1), (Arg 14))],  T (8, f), T (1, x), T (1, y)];189.43746852874756
132;Yolo9000_13;0.1596922;0.004909313186179917;2;axe_yy1_0,axe_xx1_0,axe_out_channels1_0,axe_yy1_1,axe_xx1_1;46;[V f, U (2, f), ULambda y, T (64, c), Hoist_vars [c], T (1, x), T (8, c),  T (34, x), T (1, y), T (8, f), T (1, x),  Lambda_apply y [((Iter 2), (Arg 10)), ((Iter 1), (Arg 14))]];190.94460320472717
133;Yolo9000_13;3.3024310999999997;0.008776420824573064;1;axe_yy_0,axe_xx_0;2;[V f, U (2, f), ULambda y, T (64, c), Hoist_vars [c], T (17, x), T (8, c),  T (2, x), Lambda_apply y [((Iter 1), (Arg 8)), ((Iter 2), (Arg 13))],  T (8, f), T (1, x), T (1, y)];192.19945287704468
134;Yolo9000_13;0.1809038;0.005621887579808046;2;axe_yy1_0,axe_xx1_0,axe_out_channels1_0,axe_yy1_1,axe_xx1_1;28;[V f, U (2, f), ULambda y, T (64, c), Hoist_vars [c], T (2, x), T (8, c),  T (17, x), T (1, y), T (8, f), T (1, x),  Lambda_apply y [((Iter 1), (Arg 10)), ((Iter 2), (Arg 12))]];193.7626121044159
135;Yolo9000_13;2.8961401;0.09124201545938143;1;axe_yy_0,axe_xx_0;2;[V f, U (2, f), ULambda y, T (256, c), Hoist_vars [c], T (1, x), T (2, c),  T (34, x), Lambda_apply y [((Iter 1), (Arg 8)), ((Iter 2), (Arg 13))],  T (8, f), T (1, x), T (1, y)];194.99279880523682
136;Yolo9000_13;2.8388179;0.014136165664351764;1;axe_yy_0,axe_xx_0;2;[V f, U (2, f), ULambda y, T (128, c), Hoist_vars [c], T (1, x), T (4, c),  T (34, x), Lambda_apply y [((Iter 2), (Arg 10)), ((Iter 1), (Arg 14))],  T (8, f), T (1, x), T (1, y)];196.2148106098175
137;Yolo9000_13;0.4685320999999999;0.0032414297293015646;2;axe_yy1_0,axe_xx1_0,axe_out_channels1_0,axe_yy1_1,axe_xx1_1;13;[V f, U (2, f), ULambda y, T (64, c), Hoist_vars [c], T (34, x), T (8, c),  T (1, x), T (2, y), T (8, f), T (1, x),  Lambda_apply y [((Iter 1), (Arg 8)), ((Iter 1), (Arg 9))]];197.7905969619751
138;Yolo9000_13;3.0155693;0.007198682268998999;1;axe_yy_0,axe_xx_0;2;[V f, U (2, f), ULambda y, T (256, c), Hoist_vars [c], T (2, x), T (2, c),  T (17, x), Lambda_apply y [((Iter 3), (Arg 8)), ((Iter 1), (Arg 10))],  T (8, f), T (1, x), T (1, y)];199.03934788703918
139;Yolo9000_13;2.8390926999999997;0.042094142031997836;1;axe_yy_0,axe_xx_0;2;[V f, U (2, f), ULambda y, T (128, c), Hoist_vars [c], T (2, x), T (4, c),  T (17, x), Lambda_apply y [((Iter 2), (Arg 11)), ((Iter 1), (Arg 12))],  T (8, f), T (1, x), T (1, y)];200.2816424369812
140;Yolo9000_13;1.704834;0.07598497569651516;1;axe_yy_0,axe_xx_0;3;[V f, U (2, f), ULambda y, T (256, c), Hoist_vars [c], T (1, x), T (2, c),  T (34, x), Lambda_apply y [((Iter 1), (Arg 8)), ((Iter 1), (Arg 9))],  T (8, f), T (1, x), T (2, y)];201.5127353668213
141;Yolo9000_13;0.5268986000000001;0.0044634820980933845;2;axe_yy1_0,axe_xx1_0,axe_out_channels1_0,axe_yy1_1,axe_xx1_1;14;[V f, U (2, f), ULambda y, T (512, c), Hoist_vars [c], T (34, x), T (1, c),  T (1, x), T (1, y), T (8, f), T (1, x),  Lambda_apply y [((Iter 3), (Arg 8)), ((Iter 1), (Arg 10))]];203.0809257030487
142;Yolo9000_13;0.1599253;0.003757588696225278;2;axe_yy1_0,axe_xx1_0,axe_out_channels1_0,axe_yy1_1,axe_xx1_1;45;[V f, U (2, f), ULambda y, T (512, c), Hoist_vars [c], T (1, x), T (1, c),  T (34, x), T (1, y), T (8, f), T (1, x),  Lambda_apply y [((Iter 1), (Arg 8)), ((Iter 2), (Arg 13))]];204.58311986923218
143;Yolo9000_13;0.1830873;0.006620736681820234;2;axe_yy1_0,axe_xx1_0,axe_out_channels1_0,axe_yy1_1,axe_xx1_1;29;[V f, U (2, f), ULambda y, T (64, c), Hoist_vars [c], T (2, x), T (8, c),  T (17, x), T (1, y), T (8, f), T (1, x),  Lambda_apply y [((Iter 2), (Arg 11)), ((Iter 1), (Arg 12))]];206.17152976989746
144;Yolo9000_13;1.687769;0.016978756803723852;1;axe_yy_0,axe_xx_0;3;[V f, U (2, f), ULambda y, T (256, c), Hoist_vars [c], T (2, x), T (2, c),  T (17, x), Lambda_apply y [((Iter 1), (Arg 8)), ((Iter 1), (Arg 9))],  T (8, f), T (1, x), T (2, y)];207.38699746131897
145;Yolo9000_13;2.7904744;0.05986769258823987;1;axe_yy_0,axe_xx_0;2;[V f, U (2, f), ULambda y, T (256, c), Hoist_vars [c], T (2, x), T (2, c),  T (17, x), Lambda_apply y [((Iter 1), (Arg 10)), ((Iter 2), (Arg 12))],  T (8, f), T (1, x), T (1, y)];208.64035749435425
146;Yolo9000_13;3.0089254;0.1712162268841361;1;axe_yy_0,axe_xx_0;2;[V f, U (2, f), ULambda y, T (512, c), Hoist_vars [c], T (1, x), T (1, c),  T (34, x), Lambda_apply y [((Iter 2), (Arg 10)), ((Iter 1), (Arg 14))],  T (8, f), T (1, x), T (1, y)];209.85139894485474
147;Yolo9000_13;2.9900846999999997;0.0520064484425728;1;axe_yy_0,axe_xx_0;2;[V f, U (2, f), ULambda y, T (64, c), Hoist_vars [c], T (2, x), T (8, c),  T (17, x), Lambda_apply y [((Iter 3), (Arg 8)), ((Iter 1), (Arg 10))],  T (8, f), T (1, x), T (1, y)];211.0886447429657
148;Yolo9000_13;0.1677174;0.0057610485885817705;2;axe_yy1_0,axe_xx1_0,axe_out_channels1_0,axe_yy1_1,axe_xx1_1;29;[V f, U (2, f), ULambda y, T (512, c), Hoist_vars [c], T (2, x), T (1, c),  T (17, x), T (2, y), T (8, f), T (1, x),  Lambda_apply y [((Iter 1), (Arg 8)), ((Iter 1), (Arg 9))]];212.61212587356567
149;Yolo9000_13;1.9668022;0.008780328100931144;1;axe_yy_0,axe_xx_0;3;[V f, U (2, f), ULambda y, T (64, c), Hoist_vars [c], T (34, x), T (8, c),  T (1, x), Lambda_apply y [((Iter 1), (Arg 8)), ((Iter 1), (Arg 9))],  T (8, f), T (1, x), T (2, y)];213.8210232257843
150;Yolo9000_13;0.174612;0.0026531398003120806;2;axe_yy1_0,axe_xx1_0,axe_out_channels1_0,axe_yy1_1,axe_xx1_1;28;[V f, U (2, f), ULambda y, T (128, c), Hoist_vars [c], T (2, x), T (4, c),  T (17, x), T (1, y), T (8, f), T (1, x),  Lambda_apply y [((Iter 1), (Arg 8)), ((Iter 2), (Arg 13))]];215.43101835250854
151;Yolo9000_13;0.5306164;0.007143109199781298;2;axe_yy1_0,axe_xx1_0,axe_xx1_1,axe_out_channels1_0;8;[V f, U (4, f), ULambda y, T (64, c), Hoist_vars [c], T (17, x), T (8, c),  T (4, f), T (2, x), T (1, x),  Lambda_apply y [((Iter 1), (Arg 6)), ((Iter 4), (Arg 7))]];217.12502264976501
152;Yolo9000_13;0.5297621000000001;0.007420948112606633;2;axe_yy1_0,axe_xx1_0,axe_xx1_1,axe_out_channels1_0;8;[V f, U (4, f), ULambda y, T (64, c), Hoist_vars [c], T (17, x), T (8, c),  T (4, f), T (1, x), T (2, x),  Lambda_apply y [((Iter 1), (Arg 6)), ((Iter 4), (Arg 7))]];218.8100574016571
153;Yolo9000_13;2.8978186;0.1390166993718381;1;axe_yy_0,axe_xx_0;2;[V f, U (2, f), ULambda y, T (512, c), Hoist_vars [c], T (1, x), T (1, c),  T (34, x), Lambda_apply y [((Iter 2), (Arg 11)), ((Iter 1), (Arg 12))],  T (8, f), T (1, x), T (1, y)];220.02761697769165
