perf,CACHE_MISS_L1,CACHE_MISS_L2,scheme
57.96,465775,30101,"[V f; U (1, f); U (14, y); U (3, h); T (64, c); Hoist_vars [c]; T (14, x);  T (3, w); T (8, f); T (1, c); T (2, x); T (2, y); T (1, f)]"
57.15,544208,69956,"[V f; U (2, f); U (14, y); T (16, c); Hoist_vars [c]; T (28, x); T (3, w);  T (3, h); T (1, f); T (4, c); T (1, x); T (2, y); T (4, f)]"
71.06,516159,72330,"[V f; U (2, f); U (14, y); T (64, c); Hoist_vars [c]; T (7, x); T (3, w);  T (3, h); T (1, f); T (1, c); T (4, x); T (2, y); T (4, f)]"
65.45,445121,71112,"[V f; U (2, f); U (14, y); T (32, c); Hoist_vars [c]; T (7, x); T (3, w);  T (3, h); T (1, f); T (2, c); T (4, x); T (2, y); T (4, f)]"
56.17,539619,72766,"[V f; U (2, f); U (14, y); T (16, c); Hoist_vars [c]; T (7, x); T (3, w);  T (3, h); T (1, f); T (4, c); T (4, x); T (2, y); T (4, f)]"
65.60,509140,76740,"[V f; U (2, f); U (14, y); T (64, c); Hoist_vars [c]; T (4, x); T (3, w);  T (3, h); T (1, f); T (1, c); T (7, x); T (2, y); T (4, f)]"
64.06,442774,76152,"[V f; U (2, f); U (14, y); T (32, c); Hoist_vars [c]; T (4, x); T (3, w);  T (3, h); T (1, f); T (2, c); T (7, x); T (2, y); T (4, f)]"
57.48,481691,77288,"[V f; U (2, f); U (14, y); T (16, c); Hoist_vars [c]; T (4, x); T (3, w);  T (3, h); T (1, f); T (4, c); T (7, x); T (2, y); T (4, f)]"
67.91,466078,74939,"[V f; U (2, f); U (14, y); T (64, c); Hoist_vars [c]; T (2, x); T (3, w);  T (3, h); T (1, f); T (1, c); T (14, x); T (2, y); T (4, f)]"
67.72,350482,74438,"[V f; U (2, f); U (14, y); T (32, c); Hoist_vars [c]; T (2, x); T (3, w);  T (3, h); T (1, f); T (2, c); T (14, x); T (2, y); T (4, f)]"
62.22,306639,68677,"[V f; U (2, f); U (14, y); T (16, c); Hoist_vars [c]; T (2, x); T (3, w);  T (3, h); T (1, f); T (4, c); T (14, x); T (2, y); T (4, f)]"
72.17,399858,74258,"[V f; U (2, f); U (14, y); T (64, c); Hoist_vars [c]; T (1, x); T (3, w);  T (3, h); T (1, f); T (1, c); T (28, x); T (2, y); T (4, f)]"
69.99,369994,66242,"[V f; U (2, f); U (14, y); T (32, c); Hoist_vars [c]; T (1, x); T (3, w);  T (3, h); T (1, f); T (2, c); T (28, x); T (2, y); T (4, f)]"
65.71,388899,64454,"[V f; U (2, f); U (14, y); T (16, c); Hoist_vars [c]; T (1, x); T (3, w);  T (3, h); T (1, f); T (4, c); T (28, x); T (2, y); T (4, f)]"
45.80,749529,85600,"[V f; U (1, f); U (14, y); U (3, h); T (16, c); Hoist_vars [c]; T (28, x);  T (3, w); T (2, f); T (4, c); T (1, x); T (2, y); T (4, f)]"
55.82,462794,70349,"[V f; U (1, f); U (14, y); U (3, h); T (64, c); Hoist_vars [c]; T (7, x);  T (3, w); T (2, f); T (1, c); T (4, x); T (2, y); T (4, f)]"
49.16,597521,72068,"[V f; U (1, f); U (14, y); U (3, h); T (32, c); Hoist_vars [c]; T (7, x);  T (3, w); T (2, f); T (2, c); T (4, x); T (2, y); T (4, f)]"
44.29,741169,72181,"[V f; U (1, f); U (14, y); U (3, h); T (16, c); Hoist_vars [c]; T (7, x);  T (3, w); T (2, f); T (4, c); T (4, x); T (2, y); T (4, f)]"
54.78,456882,66871,"[V f; U (1, f); U (14, y); U (3, h); T (64, c); Hoist_vars [c]; T (4, x);  T (3, w); T (2, f); T (1, c); T (7, x); T (2, y); T (4, f)]"
48.15,577181,70964,"[V f; U (1, f); U (14, y); U (3, h); T (32, c); Hoist_vars [c]; T (4, x);  T (3, w); T (2, f); T (2, c); T (7, x); T (2, y); T (4, f)]"
45.45,704611,71677,"[V f; U (1, f); U (14, y); U (3, h); T (16, c); Hoist_vars [c]; T (4, x);  T (3, w); T (2, f); T (4, c); T (7, x); T (2, y); T (4, f)]"
55.24,406496,72263,"[V f; U (1, f); U (14, y); U (3, h); T (64, c); Hoist_vars [c]; T (2, x);  T (3, w); T (2, f); T (1, c); T (14, x); T (2, y); T (4, f)]"
48.61,492671,71498,"[V f; U (1, f); U (14, y); U (3, h); T (32, c); Hoist_vars [c]; T (2, x);  T (3, w); T (2, f); T (2, c); T (14, x); T (2, y); T (4, f)]"
46.49,561256,71911,"[V f; U (1, f); U (14, y); U (3, h); T (16, c); Hoist_vars [c]; T (2, x);  T (3, w); T (2, f); T (4, c); T (14, x); T (2, y); T (4, f)]"
55.83,372512,63901,"[V f; U (1, f); U (14, y); U (3, h); T (64, c); Hoist_vars [c]; T (1, x);  T (3, w); T (2, f); T (1, c); T (28, x); T (2, y); T (4, f)]"
51.96,418119,64263,"[V f; U (1, f); U (14, y); U (3, h); T (32, c); Hoist_vars [c]; T (1, x);  T (3, w); T (2, f); T (2, c); T (28, x); T (2, y); T (4, f)]"
49.30,456342,67847,"[V f; U (1, f); U (14, y); U (3, h); T (16, c); Hoist_vars [c]; T (1, x);  T (3, w); T (2, f); T (4, c); T (28, x); T (2, y); T (4, f)]"
51.06,606525,44711,"[V f; U (1, f); U (14, y); U (3, h); T (32, c); Hoist_vars [c]; T (28, x);  T (3, w); T (8, f); T (2, c); T (1, x); T (2, y); T (1, f)]"
54.68,575262,55729,"[V f; U (2, f); U (14, y); T (16, c); Hoist_vars [c]; T (14, x); T (3, w);  T (3, h); T (2, f); T (4, c); T (2, x); T (2, y); T (2, f)]"
56.93,464614,51227,"[V f; U (1, f); U (14, y); U (3, h); T (64, c); Hoist_vars [c]; T (14, x);  T (3, w); T (4, f); T (1, c); T (2, x); T (2, y); T (2, f)]"
47.21,756470,51624,"[V f; U (1, f); U (14, y); U (3, h); T (16, c); Hoist_vars [c]; T (14, x);  T (3, w); T (4, f); T (4, c); T (2, x); T (2, y); T (2, f)]"
74.22,683633,35999,"[V f; U (4, f); U (7, y); T (64, c); Hoist_vars [c]; T (28, x); T (3, w);  T (3, h); T (2, f); T (1, c); T (1, x); T (4, y); T (1, f)]"
66.83,685021,52549,"[V f; U (4, f); U (7, y); T (64, c); Hoist_vars [c]; T (28, x); T (3, w);  T (3, h); T (1, f); T (1, c); T (1, x); T (4, y); T (2, f)]"
62.64,381289,49069,"[V f; U (4, f); U (7, y); T (16, c); Hoist_vars [c]; T (28, x); T (3, w);  T (3, h); T (1, f); T (4, c); T (1, x); T (4, y); T (2, f)]"
62.81,455814,53059,"[V f; U (4, f); U (7, y); U (3, h); T (16, c); Hoist_vars [c]; T (28, x);  T (3, w); T (1, f); T (4, c); T (1, x); T (4, y); T (2, f)]"
77.30,629453,32889,"[V f; U (4, f); U (7, y); U (3, w); T (64, c); Hoist_vars [c]; T (28, x);  T (3, h); T (2, f); T (1, c); T (1, x); T (4, y); T (1, f)]"
76.02,629545,51756,"[V f; U (4, f); U (7, y); U (3, w); T (64, c); Hoist_vars [c]; T (28, x);  T (3, h); T (1, f); T (1, c); T (1, x); T (4, y); T (2, f)]"
69.61,436968,51937,"[V f; U (4, f); U (7, y); U (3, w); T (16, c); Hoist_vars [c]; T (28, x);  T (3, h); T (1, f); T (4, c); T (1, x); T (4, y); T (2, f)]"
49.82,607087,60401,"[V f; U (1, f); U (14, y); U (3, h); T (32, c); Hoist_vars [c]; T (28, x);  T (3, w); T (4, f); T (2, c); T (1, x); T (2, y); T (2, f)]"
75.09,516525,38086,"[V f; U (2, f); U (14, y); T (64, c); Hoist_vars [c]; T (14, x); T (3, w);  T (3, h); T (4, f); T (1, c); T (2, x); T (2, y); T (1, f)]"
72.28,517029,55918,"[V f; U (2, f); U (14, y); T (64, c); Hoist_vars [c]; T (14, x); T (3, w);  T (3, h); T (2, f); T (1, c); T (2, x); T (2, y); T (2, f)]"
68.19,516508,82023,"[V f; U (2, f); U (14, y); T (64, c); Hoist_vars [c]; T (14, x); T (3, w);  T (3, h); T (1, f); T (1, c); T (2, x); T (2, y); T (4, f)]"
63.26,434665,72960,"[V f; U (2, f); U (14, y); T (32, c); Hoist_vars [c]; T (14, x); T (3, w);  T (3, h); T (1, f); T (2, c); T (2, x); T (2, y); T (4, f)]"
56.32,552536,75125,"[V f; U (2, f); U (14, y); T (16, c); Hoist_vars [c]; T (14, x); T (3, w);  T (3, h); T (1, f); T (4, c); T (2, x); T (2, y); T (4, f)]"
55.90,463858,74999,"[V f; U (1, f); U (14, y); U (3, h); T (64, c); Hoist_vars [c]; T (14, x);  T (3, w); T (2, f); T (1, c); T (2, x); T (2, y); T (4, f)]"
47.87,605844,75241,"[V f; U (1, f); U (14, y); U (3, h); T (32, c); Hoist_vars [c]; T (14, x);  T (3, w); T (2, f); T (2, c); T (2, x); T (2, y); T (4, f)]"
44.79,753930,76612,"[V f; U (1, f); U (14, y); U (3, h); T (16, c); Hoist_vars [c]; T (14, x);  T (3, w); T (2, f); T (4, c); T (2, x); T (2, y); T (4, f)]"
70.99,436193,33587,"[V f; U (2, f); U (14, y); T (32, c); Hoist_vars [c]; T (14, x); T (3, w);  T (3, h); T (4, f); T (2, c); T (2, x); T (2, y); T (1, f)]"
53.38,606204,33626,"[V f; U (1, f); U (14, y); U (3, h); T (32, c); Hoist_vars [c]; T (14, x);  T (3, w); T (8, f); T (2, c); T (2, x); T (2, y); T (1, f)]"
70.55,429268,39630,"[V f; U (2, f); U (14, y); T (32, c); Hoist_vars [c]; T (28, x); T (3, w);  T (3, h); T (4, f); T (2, c); T (1, x); T (2, y); T (1, f)]"
