perf,CACHE_MISS_L1,CACHE_MISS_L2,scheme
60.65,1126061,70455,"[V f; U (2, f); U (14, y); T (16, c); Hoist_vars [c]; T (28, x); T (3, w);  T (3, h); T (1, f); T (8, c); T (1, x); T (2, y); T (4, f)]"
72.70,1071192,71872,"[V f; U (1, f); U (14, y); U (3, h); T (16, c); Hoist_vars [c]; T (28, x);  T (3, w); T (2, f); T (8, c); T (1, x); T (2, y); T (4, f)]"
60.71,1110700,63559,"[V f; U (2, f); U (14, y); T (16, c); Hoist_vars [c]; T (14, x); T (3, w);  T (3, h); T (2, f); T (8, c); T (2, x); T (2, y); T (2, f)]"
72.12,1050720,66090,"[V f; U (1, f); U (14, y); U (3, h); T (16, c); Hoist_vars [c]; T (14, x);  T (3, w); T (4, f); T (8, c); T (2, x); T (2, y); T (2, f)]"
65.77,788362,63990,"[V f; U (4, f); U (7, y); T (16, c); Hoist_vars [c]; T (28, x); T (3, w);  T (3, h); T (1, f); T (8, c); T (1, x); T (4, y); T (2, f)]"
84.13,828442,44211,"[V f; U (1, f); U (14, y); U (3, h); T (64, c); Hoist_vars [c]; T (14, x);  T (3, w); T (8, f); T (2, c); T (2, x); T (2, y); T (1, f)]"
80.70,970349,39765,"[V f; U (1, f); U (14, y); U (3, h); T (32, c); Hoist_vars [c]; T (28, x);  T (3, w); T (8, f); T (4, c); T (1, x); T (2, y); T (1, f)]"
81.19,828769,60821,"[V f; U (1, f); U (14, y); U (3, h); T (64, c); Hoist_vars [c]; T (14, x);  T (3, w); T (4, f); T (2, c); T (2, x); T (2, y); T (2, f)]"
80.65,1365254,39772,"[V f; U (4, f); U (7, y); T (64, c); Hoist_vars [c]; T (28, x); T (3, w);  T (3, h); T (2, f); T (2, c); T (1, x); T (4, y); T (1, f)]"
77.36,1362764,63619,"[V f; U (4, f); U (7, y); T (64, c); Hoist_vars [c]; T (28, x); T (3, w);  T (3, h); T (1, f); T (2, c); T (1, x); T (4, y); T (2, f)]"
81.97,1244937,42674,"[V f; U (4, f); U (7, y); U (3, w); T (64, c); Hoist_vars [c]; T (28, x);  T (3, h); T (2, f); T (2, c); T (1, x); T (4, y); T (1, f)]"
82.30,1245283,54456,"[V f; U (4, f); U (7, y); U (3, w); T (64, c); Hoist_vars [c]; T (28, x);  T (3, h); T (1, f); T (2, c); T (1, x); T (4, y); T (2, f)]"
69.92,864526,84565,"[V f; U (2, f); U (14, y); T (32, c); Hoist_vars [c]; T (14, x); T (3, w);  T (3, h); T (1, f); T (4, c); T (2, x); T (2, y); T (4, f)]"
60.92,1110724,86865,"[V f; U (2, f); U (14, y); T (16, c); Hoist_vars [c]; T (14, x); T (3, w);  T (3, h); T (1, f); T (8, c); T (2, x); T (2, y); T (4, f)]"
76.35,968399,87880,"[V f; U (1, f); U (14, y); U (3, h); T (32, c); Hoist_vars [c]; T (14, x);  T (3, w); T (2, f); T (4, c); T (2, x); T (2, y); T (4, f)]"
71.85,1052052,87605,"[V f; U (1, f); U (14, y); U (3, h); T (16, c); Hoist_vars [c]; T (14, x);  T (3, w); T (2, f); T (8, c); T (2, x); T (2, y); T (4, f)]"
80.35,971517,55631,"[V f; U (1, f); U (14, y); U (3, h); T (32, c); Hoist_vars [c]; T (28, x);  T (3, w); T (4, f); T (4, c); T (1, x); T (2, y); T (2, f)]"
82.65,1188978,46791,"[V f; U (4, f); U (7, y); U (3, w); T (128, c); Hoist_vars [c]; T (28, x);  T (3, h); T (2, f); T (1, c); T (1, x); T (4, y); T (1, f)]"
80.25,1183529,60970,"[V f; U (4, f); U (7, y); U (3, w); T (128, c); Hoist_vars [c]; T (28, x);  T (3, h); T (1, f); T (1, c); T (1, x); T (4, y); T (2, f)]"
79.30,968422,78386,"[V f; U (1, f); U (14, y); U (3, h); T (32, c); Hoist_vars [c]; T (28, x);  T (3, w); T (1, f); T (4, c); T (1, x); T (2, y); T (8, f)]"
72.28,1043432,84309,"[V f; U (1, f); U (14, y); U (3, h); T (16, c); Hoist_vars [c]; T (28, x);  T (3, w); T (1, f); T (8, c); T (1, x); T (2, y); T (8, f)]"
86.05,649962,71820,"[V f; U (1, f); U (14, y); U (3, h); T (128, c); Hoist_vars [c]; T (4, x);  T (3, w); T (1, f); T (1, c); T (7, x); T (2, y); T (8, f)]"
77.90,723618,121433,"[V f; U (1, f); U (14, y); U (3, h); T (64, c); Hoist_vars [c]; T (4, x);  T (3, w); T (1, f); T (2, c); T (7, x); T (2, y); T (8, f)]"
73.05,844241,145892,"[V f; U (1, f); U (14, y); U (3, h); T (32, c); Hoist_vars [c]; T (4, x);  T (3, w); T (1, f); T (4, c); T (7, x); T (2, y); T (8, f)]"
81.22,648047,89448,"[V f; U (1, f); U (14, y); U (3, h); T (128, c); Hoist_vars [c]; T (2, x);  T (3, w); T (1, f); T (1, c); T (14, x); T (2, y); T (8, f)]"
79.67,697125,98945,"[V f; U (1, f); U (14, y); U (3, h); T (64, c); Hoist_vars [c]; T (2, x);  T (3, w); T (1, f); T (2, c); T (14, x); T (2, y); T (8, f)]"
72.73,783785,125829,"[V f; U (1, f); U (14, y); U (3, h); T (32, c); Hoist_vars [c]; T (2, x);  T (3, w); T (1, f); T (4, c); T (14, x); T (2, y); T (8, f)]"
80.19,635471,93173,"[V f; U (1, f); U (14, y); U (3, h); T (128, c); Hoist_vars [c]; T (1, x);  T (3, w); T (1, f); T (1, c); T (28, x); T (2, y); T (8, f)]"
72.65,662305,139666,"[V f; U (1, f); U (14, y); U (3, h); T (64, c); Hoist_vars [c]; T (1, x);  T (3, w); T (1, f); T (2, c); T (28, x); T (2, y); T (8, f)]"
79.77,711359,75915,"[V f; U (1, f); U (14, y); U (3, h); T (32, c); Hoist_vars [c]; T (1, x);  T (3, w); T (1, f); T (4, c); T (28, x); T (2, y); T (8, f)]"
78.81,1030384,46433,"[V f; U (2, f); U (14, y); T (64, c); Hoist_vars [c]; T (14, x); T (3, w);  T (3, h); T (4, f); T (2, c); T (2, x); T (2, y); T (1, f)]"
74.16,1030961,87546,"[V f; U (2, f); U (14, y); T (64, c); Hoist_vars [c]; T (14, x); T (3, w);  T (3, h); T (2, f); T (2, c); T (2, x); T (2, y); T (2, f)]"
75.81,1028560,96260,"[V f; U (2, f); U (14, y); T (64, c); Hoist_vars [c]; T (14, x); T (3, w);  T (3, h); T (1, f); T (2, c); T (2, x); T (2, y); T (4, f)]"
80.19,827863,85030,"[V f; U (1, f); U (14, y); U (3, h); T (64, c); Hoist_vars [c]; T (14, x);  T (3, w); T (2, f); T (2, c); T (2, x); T (2, y); T (4, f)]"
72.89,870363,41138,"[V f; U (2, f); U (14, y); T (32, c); Hoist_vars [c]; T (14, x); T (3, w);  T (3, h); T (4, f); T (4, c); T (2, x); T (2, y); T (1, f)]"
80.44,971184,41376,"[V f; U (1, f); U (14, y); U (3, h); T (32, c); Hoist_vars [c]; T (14, x);  T (3, w); T (8, f); T (4, c); T (2, x); T (2, y); T (1, f)]"
79.61,1949376,52758,"[V f; U (4, f); U (4, y); U (3, w); T (128, c); Hoist_vars [c]; T (28, x);  T (3, h); T (2, f); T (1, c); T (1, x); T (7, y); T (1, f)]"
80.78,1949320,49462,"[V f; U (4, f); U (4, y); U (3, w); T (128, c); Hoist_vars [c]; T (28, x);  T (3, h); T (1, f); T (1, c); T (1, x); T (7, y); T (2, f)]"
76.73,2069708,63710,"[V f; U (4, f); U (4, y); U (3, w); T (32, c); Hoist_vars [c]; T (28, x);  T (3, h); T (1, f); T (4, c); T (1, x); T (7, y); T (2, f)]"
72.80,860597,39141,"[V f; U (2, f); U (14, y); T (32, c); Hoist_vars [c]; T (28, x); T (3, w);  T (3, h); T (4, f); T (4, c); T (1, x); T (2, y); T (1, f)]"
71.92,858049,61244,"[V f; U (2, f); U (14, y); T (32, c); Hoist_vars [c]; T (28, x); T (3, w);  T (3, h); T (2, f); T (4, c); T (1, x); T (2, y); T (2, f)]"
72.28,859867,70863,"[V f; U (2, f); U (14, y); T (32, c); Hoist_vars [c]; T (28, x); T (3, w);  T (3, h); T (1, f); T (4, c); T (1, x); T (2, y); T (4, f)]"
78.58,969498,63508,"[V f; U (1, f); U (14, y); U (3, h); T (32, c); Hoist_vars [c]; T (28, x);  T (3, w); T (2, f); T (4, c); T (1, x); T (2, y); T (4, f)]"
71.63,867612,63222,"[V f; U (2, f); U (14, y); T (32, c); Hoist_vars [c]; T (14, x); T (3, w);  T (3, h); T (2, f); T (4, c); T (2, x); T (2, y); T (2, f)]"
79.89,969054,57900,"[V f; U (1, f); U (14, y); U (3, h); T (32, c); Hoist_vars [c]; T (14, x);  T (3, w); T (4, f); T (4, c); T (2, x); T (2, y); T (2, f)]"
75.46,537490,43038,"[V f; U (4, f); U (7, y); T (32, c); Hoist_vars [c]; T (28, x); T (3, w);  T (3, h); T (2, f); T (4, c); T (1, x); T (4, y); T (1, f)]"
75.19,536601,61025,"[V f; U (4, f); U (7, y); T (32, c); Hoist_vars [c]; T (28, x); T (3, w);  T (3, h); T (1, f); T (4, c); T (1, x); T (4, y); T (2, f)]"
79.91,1329627,42973,"[V f; U (4, f); U (7, y); U (3, w); T (32, c); Hoist_vars [c]; T (28, x);  T (3, h); T (2, f); T (4, c); T (1, x); T (4, y); T (1, f)]"
75.36,1326012,61305,"[V f; U (4, f); U (7, y); U (3, w); T (32, c); Hoist_vars [c]; T (28, x);  T (3, h); T (1, f); T (4, c); T (1, x); T (4, y); T (2, f)]"
72.24,855338,59189,"[V f; U (2, f); U (14, y); T (32, c); Hoist_vars [c]; T (7, x); T (3, w);  T (3, h); T (2, f); T (4, c); T (4, x); T (2, y); T (2, f)]"
