perf,CACHE_MISS_L1,CACHE_MISS_L2,scheme
75.92,24731557,1485802,"[V f; U (4, f); U (4, y); U (3, w); T (32, c); Hoist_vars [c]; T (17, x);  T (3, h); T (1, f); T (1, x); T (17, y); T (4, f); T (4, c); T (4, x);  T (1, f)]"
74.16,24679822,1566842,"[V f; U (4, f); U (4, y); U (3, w); T (32, c); Hoist_vars [c]; T (17, x);  T (3, h); T (1, f); T (1, x); T (17, y); T (1, f); T (4, c); T (4, x);  T (4, f)]"
75.03,23977904,1388112,"[V f; U (4, f); U (4, y); U (3, w); T (32, c); Hoist_vars [c]; T (1, x);  T (3, h); T (1, f); T (17, x); T (17, y); T (4, f); T (4, c); T (4, x);  T (1, f)]"
73.27,23992397,1412346,"[V f; U (4, f); U (4, y); U (3, w); T (32, c); Hoist_vars [c]; T (1, x);  T (3, h); T (1, f); T (17, x); T (17, y); T (1, f); T (4, c); T (4, x);  T (4, f)]"
75.06,24693172,1528476,"[V f; U (4, f); U (4, y); U (3, w); T (32, c); Hoist_vars [c]; T (17, x);  T (3, h); T (1, f); T (1, x); T (17, y); T (2, f); T (4, c); T (4, x);  T (2, f)]"
74.71,23968503,1414143,"[V f; U (4, f); U (4, y); U (3, w); T (32, c); Hoist_vars [c]; T (1, x);  T (3, h); T (1, f); T (17, x); T (17, y); T (2, f); T (4, c); T (4, x);  T (2, f)]"
80.47,22863053,1018345,"[V f; U (4, f); U (4, y); U (3, w); T (128, c); Hoist_vars [c]; T (68, x);  T (3, h); T (4, f); T (1, x); T (17, y); T (1, f); T (1, c); T (1, x);  T (1, f)]"
78.90,22873428,1197137,"[V f; U (4, f); U (4, y); U (3, w); T (128, c); Hoist_vars [c]; T (68, x);  T (3, h); T (1, f); T (1, x); T (17, y); T (4, f); T (1, c); T (1, x);  T (1, f)]"
78.68,22864255,1198444,"[V f; U (4, f); U (4, y); U (3, w); T (128, c); Hoist_vars [c]; T (68, x);  T (3, h); T (1, f); T (1, x); T (17, y); T (1, f); T (1, c); T (1, x);  T (4, f)]"
62.50,7717573,2311784,"[V f; U (1, f); ULambda y; U (3, h); T (128, c); Hoist_vars [c]; T (4, x);  T (3, w); T (1, c); T (17, x);  Lambda_apply y [((Iter 1), (Arg 12)); ((Iter 4), (Arg 14))]; T (16, f);  T (1, x)]"
62.33,8627008,2990535,"[V f; U (1, f); ULambda y; U (3, h); T (64, c); Hoist_vars [c]; T (4, x);  T (3, w); T (2, c); T (17, x);  Lambda_apply y [((Iter 1), (Arg 12)); ((Iter 4), (Arg 14))]; T (16, f);  T (1, x)]"
59.80,10046792,4883936,"[V f; U (1, f); ULambda y; U (3, h); T (32, c); Hoist_vars [c]; T (4, x);  T (3, w); T (4, c); T (17, x);  Lambda_apply y [((Iter 1), (Arg 12)); ((Iter 4), (Arg 14))]; T (16, f);  T (1, x)]"
52.78,7692469,2963353,"[V f; U (1, f); ULambda y; U (3, h); T (128, c); Hoist_vars [c]; T (2, x);  T (3, w); T (1, c); T (34, x);  Lambda_apply y [((Iter 1), (Arg 12)); ((Iter 4), (Arg 14))]; T (16, f);  T (1, x)]"
53.01,8262832,2835294,"[V f; U (1, f); ULambda y; U (3, h); T (64, c); Hoist_vars [c]; T (2, x);  T (3, w); T (2, c); T (34, x);  Lambda_apply y [((Iter 1), (Arg 12)); ((Iter 4), (Arg 14))]; T (16, f);  T (1, x)]"
51.73,9315254,2841256,"[V f; U (1, f); ULambda y; U (3, h); T (32, c); Hoist_vars [c]; T (2, x);  T (3, w); T (4, c); T (34, x);  Lambda_apply y [((Iter 1), (Arg 12)); ((Iter 4), (Arg 14))]; T (16, f);  T (1, x)]"
41.16,7546657,4168731,"[V f; U (1, f); ULambda y; U (3, h); T (128, c); Hoist_vars [c]; T (1, x);  T (3, w); T (1, c); T (68, x);  Lambda_apply y [((Iter 1), (Arg 12)); ((Iter 4), (Arg 14))]; T (16, f);  T (1, x)]"
41.79,7858128,4365742,"[V f; U (1, f); ULambda y; U (3, h); T (64, c); Hoist_vars [c]; T (1, x);  T (3, w); T (2, c); T (68, x);  Lambda_apply y [((Iter 1), (Arg 12)); ((Iter 4), (Arg 14))]; T (16, f);  T (1, x)]"
40.85,8440862,4034025,"[V f; U (1, f); ULambda y; U (3, h); T (32, c); Hoist_vars [c]; T (1, x);  T (3, w); T (4, c); T (68, x);  Lambda_apply y [((Iter 1), (Arg 12)); ((Iter 4), (Arg 14))]; T (16, f);  T (1, x)]"
61.23,7708302,2335451,"[V f; U (1, f); ULambda y; U (3, h); T (128, c); Hoist_vars [c]; T (4, x);  T (3, w); T (1, c); T (17, x);  Lambda_apply y [((Iter 2), (Arg 13)); ((Iter 3), (Arg 14))]; T (16, f);  T (1, x)]"
63.27,8605559,3073314,"[V f; U (1, f); ULambda y; U (3, h); T (64, c); Hoist_vars [c]; T (4, x);  T (3, w); T (2, c); T (17, x);  Lambda_apply y [((Iter 2), (Arg 13)); ((Iter 3), (Arg 14))]; T (16, f);  T (1, x)]"
60.93,9960730,4950746,"[V f; U (1, f); ULambda y; U (3, h); T (32, c); Hoist_vars [c]; T (4, x);  T (3, w); T (4, c); T (17, x);  Lambda_apply y [((Iter 2), (Arg 13)); ((Iter 3), (Arg 14))]; T (16, f);  T (1, x)]"
50.35,7697405,2920873,"[V f; U (1, f); ULambda y; U (3, h); T (128, c); Hoist_vars [c]; T (2, x);  T (3, w); T (1, c); T (34, x);  Lambda_apply y [((Iter 2), (Arg 13)); ((Iter 3), (Arg 14))]; T (16, f);  T (1, x)]"
52.51,8270065,2861893,"[V f; U (1, f); ULambda y; U (3, h); T (64, c); Hoist_vars [c]; T (2, x);  T (3, w); T (2, c); T (34, x);  Lambda_apply y [((Iter 2), (Arg 13)); ((Iter 3), (Arg 14))]; T (16, f);  T (1, x)]"
50.40,9313454,2925262,"[V f; U (1, f); ULambda y; U (3, h); T (32, c); Hoist_vars [c]; T (2, x);  T (3, w); T (4, c); T (34, x);  Lambda_apply y [((Iter 2), (Arg 13)); ((Iter 3), (Arg 14))]; T (16, f);  T (1, x)]"
43.29,7547533,4194876,"[V f; U (1, f); ULambda y; U (3, h); T (128, c); Hoist_vars [c]; T (1, x);  T (3, w); T (1, c); T (68, x);  Lambda_apply y [((Iter 2), (Arg 13)); ((Iter 3), (Arg 14))]; T (16, f);  T (1, x)]"
41.19,7861753,4348955,"[V f; U (1, f); ULambda y; U (3, h); T (64, c); Hoist_vars [c]; T (1, x);  T (3, w); T (2, c); T (68, x);  Lambda_apply y [((Iter 2), (Arg 13)); ((Iter 3), (Arg 14))]; T (16, f);  T (1, x)]"
41.44,8441821,4211187,"[V f; U (1, f); ULambda y; U (3, h); T (32, c); Hoist_vars [c]; T (1, x);  T (3, w); T (4, c); T (68, x);  Lambda_apply y [((Iter 2), (Arg 13)); ((Iter 3), (Arg 14))]; T (16, f);  T (1, x)]"
80.93,22867166,1037139,"[V f; U (4, f); U (4, y); U (3, w); T (128, c); Hoist_vars [c]; T (68, x);  T (3, h); T (2, f); T (1, x); T (17, y); T (2, f); T (1, c); T (1, x);  T (1, f)]"
80.15,22878126,1094038,"[V f; U (4, f); U (4, y); U (3, w); T (128, c); Hoist_vars [c]; T (68, x);  T (3, h); T (2, f); T (1, x); T (17, y); T (1, f); T (1, c); T (1, x);  T (2, f)]"
79.05,22861216,1194364,"[V f; U (4, f); U (4, y); U (3, w); T (128, c); Hoist_vars [c]; T (68, x);  T (3, h); T (1, f); T (1, x); T (17, y); T (2, f); T (1, c); T (1, x);  T (2, f)]"
63.82,26885441,1983969,"[V f; U (4, f); U (4, y); U (3, w); T (16, c); Hoist_vars [c]; T (2, x);  T (3, h); T (1, f); T (1, x); T (17, y); T (1, f); T (8, c); T (34, x);  T (4, f)]"
62.46,25692761,1955883,"[V f; U (4, f); U (4, y); U (3, w); T (16, c); Hoist_vars [c]; T (1, x);  T (3, h); T (1, f); T (2, x); T (17, y); T (1, f); T (8, c); T (34, x);  T (4, f)]"
66.11,18306427,1813409,"[V f; U (2, f); ULambda y; T (32, c); Hoist_vars [c]; T (17, x); T (3, w);  T (3, h); Lambda_apply y [((Iter 2), (Arg 9)); ((Iter 5), (Arg 10))];  T (1, f); T (4, c); T (8, f); T (4, x); T (1, f)]"
64.70,18372922,1894527,"[V f; U (2, f); ULambda y; T (32, c); Hoist_vars [c]; T (17, x); T (3, w);  T (3, h); Lambda_apply y [((Iter 2), (Arg 9)); ((Iter 5), (Arg 10))];  T (1, f); T (4, c); T (2, f); T (4, x); T (4, f)]"
65.04,18361614,2009770,"[V f; U (2, f); ULambda y; T (32, c); Hoist_vars [c]; T (17, x); T (3, w);  T (3, h); Lambda_apply y [((Iter 2), (Arg 9)); ((Iter 5), (Arg 10))];  T (1, f); T (4, c); T (1, f); T (4, x); T (8, f)]"
76.72,12762936,1672661,"[V f; U (2, f); ULambda y; U (3, h); T (32, c); Hoist_vars [c]; T (17, x);  T (3, w); Lambda_apply y [((Iter 2), (Arg 9)); ((Iter 5), (Arg 10))];  T (1, f); T (4, c); T (8, f); T (4, x); T (1, f)]"
77.03,12721012,1760504,"[V f; U (2, f); ULambda y; U (3, h); T (32, c); Hoist_vars [c]; T (17, x);  T (3, w); Lambda_apply y [((Iter 2), (Arg 9)); ((Iter 5), (Arg 10))];  T (1, f); T (4, c); T (2, f); T (4, x); T (4, f)]"
76.40,12770768,1865723,"[V f; U (2, f); ULambda y; U (3, h); T (32, c); Hoist_vars [c]; T (17, x);  T (3, w); Lambda_apply y [((Iter 2), (Arg 9)); ((Iter 5), (Arg 10))];  T (1, f); T (4, c); T (1, f); T (4, x); T (8, f)]"
59.80,8965681,2547278,"[V f; U (1, f); ULambda y; U (3, h); T (128, c); Hoist_vars [c]; T (4, x);  T (3, w); T (1, c); T (17, x);  Lambda_apply y [((Iter 5), (Arg 11)); ((Iter 1), (Arg 13))]; T (16, f);  T (1, x)]"
61.03,9789583,3186230,"[V f; U (1, f); ULambda y; U (3, h); T (64, c); Hoist_vars [c]; T (4, x);  T (3, w); T (2, c); T (17, x);  Lambda_apply y [((Iter 5), (Arg 11)); ((Iter 1), (Arg 13))]; T (16, f);  T (1, x)]"
58.08,11055397,5492673,"[V f; U (1, f); ULambda y; U (3, h); T (32, c); Hoist_vars [c]; T (4, x);  T (3, w); T (4, c); T (17, x);  Lambda_apply y [((Iter 5), (Arg 11)); ((Iter 1), (Arg 13))]; T (16, f);  T (1, x)]"
50.14,8966667,3249857,"[V f; U (1, f); ULambda y; U (3, h); T (128, c); Hoist_vars [c]; T (2, x);  T (3, w); T (1, c); T (34, x);  Lambda_apply y [((Iter 5), (Arg 11)); ((Iter 1), (Arg 13))]; T (16, f);  T (1, x)]"
49.59,9496639,3301196,"[V f; U (1, f); ULambda y; U (3, h); T (64, c); Hoist_vars [c]; T (2, x);  T (3, w); T (2, c); T (34, x);  Lambda_apply y [((Iter 5), (Arg 11)); ((Iter 1), (Arg 13))]; T (16, f);  T (1, x)]"
47.58,10545770,3394660,"[V f; U (1, f); ULambda y; U (3, h); T (32, c); Hoist_vars [c]; T (2, x);  T (3, w); T (4, c); T (34, x);  Lambda_apply y [((Iter 5), (Arg 11)); ((Iter 1), (Arg 13))]; T (16, f);  T (1, x)]"
40.06,8833311,4709246,"[V f; U (1, f); ULambda y; U (3, h); T (128, c); Hoist_vars [c]; T (1, x);  T (3, w); T (1, c); T (68, x);  Lambda_apply y [((Iter 5), (Arg 11)); ((Iter 1), (Arg 13))]; T (16, f);  T (1, x)]"
40.13,9149742,5188284,"[V f; U (1, f); ULambda y; U (3, h); T (64, c); Hoist_vars [c]; T (1, x);  T (3, w); T (2, c); T (68, x);  Lambda_apply y [((Iter 5), (Arg 11)); ((Iter 1), (Arg 13))]; T (16, f);  T (1, x)]"
37.38,9756121,4911218,"[V f; U (1, f); ULambda y; U (3, h); T (32, c); Hoist_vars [c]; T (1, x);  T (3, w); T (4, c); T (68, x);  Lambda_apply y [((Iter 5), (Arg 11)); ((Iter 1), (Arg 13))]; T (16, f);  T (1, x)]"
77.84,22876334,1225386,"[V f; U (4, f); U (4, y); U (3, w); T (128, c); Hoist_vars [c]; T (34, x);  T (3, h); T (4, f); T (2, x); T (17, y); T (1, f); T (1, c); T (1, x);  T (1, f)]"
75.68,22884281,1607867,"[V f; U (4, f); U (4, y); U (3, w); T (128, c); Hoist_vars [c]; T (34, x);  T (3, h); T (1, f); T (2, x); T (17, y); T (4, f); T (1, c); T (1, x);  T (1, f)]"
75.70,22869241,1545458,"[V f; U (4, f); U (4, y); U (3, w); T (128, c); Hoist_vars [c]; T (34, x);  T (3, h); T (1, f); T (2, x); T (17, y); T (1, f); T (1, c); T (1, x);  T (4, f)]"
