perf,CACHE_MISS_L1,CACHE_MISS_L2,scheme
76.44,830069,86589,"[V f; U (1, f); U (14, y); U (3, h); T (64, c); Hoist_vars [c]; T (14, x);  T (3, w); T (16, f); T (4, c); T (1, x); T (1, y); T (1, f)]"
78.80,830570,97996,"[V f; U (1, f); U (14, y); U (3, h); T (64, c); Hoist_vars [c]; T (14, x);  T (3, w); T (8, f); T (4, c); T (1, x); T (1, y); T (2, f)]"
64.98,1314130,158954,"[V f; U (2, f); U (14, y); T (32, c); Hoist_vars [c]; T (14, x); T (3, w);  T (3, h); T (1, f); T (8, c); T (1, x); T (1, y); T (8, f)]"
74.34,963543,133604,"[V f; U (1, f); U (14, y); U (3, h); T (32, c); Hoist_vars [c]; T (14, x);  T (3, w); T (2, f); T (8, c); T (1, x); T (1, y); T (8, f)]"
77.82,836683,111996,"[V f; U (1, f); U (14, y); U (3, h); T (64, c); Hoist_vars [c]; T (14, x);  T (3, w); T (4, f); T (4, c); T (1, x); T (1, y); T (4, f)]"
62.20,1174923,308196,"[V f; U (4, f); U (7, y); U (3, w); T (256, c); Hoist_vars [c]; T (14, x);  T (3, h); T (4, f); T (1, c); T (1, x); T (2, y); T (1, f)]"
54.18,1175376,491368,"[V f; U (4, f); U (7, y); U (3, w); T (256, c); Hoist_vars [c]; T (14, x);  T (3, h); T (2, f); T (1, c); T (1, x); T (2, y); T (2, f)]"
58.59,1177432,355806,"[V f; U (4, f); U (7, y); U (3, w); T (256, c); Hoist_vars [c]; T (14, x);  T (3, h); T (1, f); T (1, c); T (1, x); T (2, y); T (4, f)]"
69.75,1318268,60062,"[V f; U (2, f); U (14, y); T (32, c); Hoist_vars [c]; T (14, x); T (3, w);  T (3, h); T (8, f); T (8, c); T (1, x); T (1, y); T (1, f)]"
77.14,965518,63833,"[V f; U (1, f); U (14, y); U (3, h); T (32, c); Hoist_vars [c]; T (14, x);  T (3, w); T (16, f); T (8, c); T (1, x); T (1, y); T (1, f)]"
74.85,1036608,101039,"[V f; U (2, f); U (14, y); T (64, c); Hoist_vars [c]; T (14, x); T (3, w);  T (3, h); T (8, f); T (4, c); T (1, x); T (1, y); T (1, f)]"
74.15,1038799,110876,"[V f; U (2, f); U (14, y); T (64, c); Hoist_vars [c]; T (14, x); T (3, w);  T (3, h); T (4, f); T (4, c); T (1, x); T (1, y); T (2, f)]"
74.34,1037983,124426,"[V f; U (2, f); U (14, y); T (64, c); Hoist_vars [c]; T (14, x); T (3, w);  T (3, h); T (2, f); T (4, c); T (1, x); T (1, y); T (4, f)]"
72.35,1037511,156286,"[V f; U (2, f); U (14, y); T (64, c); Hoist_vars [c]; T (14, x); T (3, w);  T (3, h); T (1, f); T (4, c); T (1, x); T (1, y); T (8, f)]"
76.12,834933,131147,"[V f; U (1, f); U (14, y); U (3, h); T (64, c); Hoist_vars [c]; T (14, x);  T (3, w); T (2, f); T (4, c); T (1, x); T (1, y); T (8, f)]"
68.67,1314638,89499,"[V f; U (2, f); U (14, y); T (32, c); Hoist_vars [c]; T (14, x); T (3, w);  T (3, h); T (4, f); T (8, c); T (1, x); T (1, y); T (2, f)]"
75.43,967759,78580,"[V f; U (1, f); U (14, y); U (3, h); T (32, c); Hoist_vars [c]; T (14, x);  T (3, w); T (8, f); T (8, c); T (1, x); T (1, y); T (2, f)]"
64.45,1305425,185144,"[V f; U (2, f); U (14, y); T (32, c); Hoist_vars [c]; T (7, x); T (3, w);  T (3, h); T (2, f); T (8, c); T (2, x); T (1, y); T (4, f)]"
63.04,1645833,250888,"[V f; U (4, f); U (7, y); T (32, c); Hoist_vars [c]; T (14, x); T (3, w);  T (3, h); T (1, f); T (8, c); T (1, x); T (2, y); T (4, f)]"
70.85,966386,176140,"[V f; U (1, f); U (14, y); U (3, h); T (32, c); Hoist_vars [c]; T (7, x);  T (3, w); T (4, f); T (8, c); T (2, x); T (1, y); T (4, f)]"
63.65,1266705,247930,"[V f; U (4, f); U (7, y); U (3, h); T (32, c); Hoist_vars [c]; T (14, x);  T (3, w); T (1, f); T (8, c); T (1, x); T (2, y); T (4, f)]"
66.81,1315003,114618,"[V f; U (2, f); U (14, y); T (32, c); Hoist_vars [c]; T (14, x); T (3, w);  T (3, h); T (2, f); T (8, c); T (1, x); T (1, y); T (4, f)]"
72.26,1036559,133215,"[V f; U (2, f); U (14, y); T (64, c); Hoist_vars [c]; T (7, x); T (3, w);  T (3, h); T (8, f); T (4, c); T (2, x); T (1, y); T (1, f)]"
75.88,966586,101230,"[V f; U (1, f); U (14, y); U (3, h); T (32, c); Hoist_vars [c]; T (14, x);  T (3, w); T (4, f); T (8, c); T (1, x); T (1, y); T (4, f)]"
75.27,828879,125988,"[V f; U (1, f); U (14, y); U (3, h); T (64, c); Hoist_vars [c]; T (7, x);  T (3, w); T (16, f); T (4, c); T (2, x); T (1, y); T (1, f)]"
72.32,1293533,199948,"[V f; U (4, f); U (7, y); T (128, c); Hoist_vars [c]; T (14, x); T (3, w);  T (3, h); T (4, f); T (2, c); T (1, x); T (2, y); T (1, f)]"
72.34,1290470,223513,"[V f; U (4, f); U (7, y); T (128, c); Hoist_vars [c]; T (14, x); T (3, w);  T (3, h); T (2, f); T (2, c); T (1, x); T (2, y); T (2, f)]"
72.39,1291772,241495,"[V f; U (4, f); U (7, y); T (128, c); Hoist_vars [c]; T (14, x); T (3, w);  T (3, h); T (1, f); T (2, c); T (1, x); T (2, y); T (4, f)]"
71.73,1207840,153973,"[V f; U (4, f); U (7, y); U (3, w); T (128, c); Hoist_vars [c]; T (14, x);  T (3, h); T (4, f); T (2, c); T (1, x); T (2, y); T (1, f)]"
72.16,1203749,171919,"[V f; U (4, f); U (7, y); U (3, w); T (128, c); Hoist_vars [c]; T (14, x);  T (3, h); T (2, f); T (2, c); T (1, x); T (2, y); T (2, f)]"
69.62,1205362,190321,"[V f; U (4, f); U (7, y); U (3, w); T (128, c); Hoist_vars [c]; T (14, x);  T (3, h); T (1, f); T (2, c); T (1, x); T (2, y); T (4, f)]"
70.41,1035940,175895,"[V f; U (2, f); U (14, y); T (64, c); Hoist_vars [c]; T (7, x); T (3, w);  T (3, h); T (4, f); T (4, c); T (2, x); T (1, y); T (2, f)]"
71.70,833184,156771,"[V f; U (1, f); U (14, y); U (3, h); T (64, c); Hoist_vars [c]; T (7, x);  T (3, w); T (8, f); T (4, c); T (2, x); T (1, y); T (2, f)]"
75.12,833518,152736,"[V f; U (1, f); U (14, y); U (3, h); T (64, c); Hoist_vars [c]; T (14, x);  T (3, w); T (1, f); T (4, c); T (1, x); T (1, y); T (16, f)]"
71.69,968450,205900,"[V f; U (1, f); U (14, y); U (3, h); T (32, c); Hoist_vars [c]; T (14, x);  T (3, w); T (1, f); T (8, c); T (1, x); T (1, y); T (16, f)]"
65.61,1035027,290003,"[V f; U (2, f); U (14, y); T (64, c); Hoist_vars [c]; T (7, x); T (3, w);  T (3, h); T (1, f); T (4, c); T (2, x); T (1, y); T (8, f)]"
60.86,1307204,293193,"[V f; U (2, f); U (14, y); T (32, c); Hoist_vars [c]; T (7, x); T (3, w);  T (3, h); T (1, f); T (8, c); T (2, x); T (1, y); T (8, f)]"
69.77,828362,223591,"[V f; U (1, f); U (14, y); U (3, h); T (64, c); Hoist_vars [c]; T (7, x);  T (3, w); T (2, f); T (4, c); T (2, x); T (1, y); T (8, f)]"
69.69,959446,234755,"[V f; U (1, f); U (14, y); U (3, h); T (32, c); Hoist_vars [c]; T (7, x);  T (3, w); T (2, f); T (8, c); T (2, x); T (1, y); T (8, f)]"
68.90,1036046,216272,"[V f; U (2, f); U (14, y); T (64, c); Hoist_vars [c]; T (7, x); T (3, w);  T (3, h); T (2, f); T (4, c); T (2, x); T (1, y); T (4, f)]"
73.94,1417947,134917,"[V f; U (4, f); U (7, y); T (64, c); Hoist_vars [c]; T (14, x); T (3, w);  T (3, h); T (4, f); T (4, c); T (1, x); T (2, y); T (1, f)]"
70.97,1417717,187141,"[V f; U (4, f); U (7, y); T (64, c); Hoist_vars [c]; T (14, x); T (3, w);  T (3, h); T (2, f); T (4, c); T (1, x); T (2, y); T (2, f)]"
68.80,1417025,247615,"[V f; U (4, f); U (7, y); T (64, c); Hoist_vars [c]; T (14, x); T (3, w);  T (3, h); T (1, f); T (4, c); T (1, x); T (2, y); T (4, f)]"
72.37,829879,186819,"[V f; U (1, f); U (14, y); U (3, h); T (64, c); Hoist_vars [c]; T (7, x);  T (3, w); T (4, f); T (4, c); T (2, x); T (1, y); T (4, f)]"
75.38,1244372,122396,"[V f; U (4, f); U (7, y); U (3, w); T (64, c); Hoist_vars [c]; T (14, x);  T (3, h); T (4, f); T (4, c); T (1, x); T (2, y); T (1, f)]"
71.48,1246106,168639,"[V f; U (4, f); U (7, y); U (3, w); T (64, c); Hoist_vars [c]; T (14, x);  T (3, h); T (2, f); T (4, c); T (1, x); T (2, y); T (2, f)]"
71.50,1245613,193696,"[V f; U (4, f); U (7, y); U (3, w); T (64, c); Hoist_vars [c]; T (14, x);  T (3, h); T (1, f); T (4, c); T (1, x); T (2, y); T (4, f)]"
68.40,899940,233661,"[V f; U (2, f); U (14, y); T (128, c); Hoist_vars [c]; T (7, x); T (3, w);  T (3, h); T (8, f); T (2, c); T (2, x); T (1, y); T (1, f)]"
71.83,900824,252129,"[V f; U (2, f); U (14, y); T (128, c); Hoist_vars [c]; T (7, x); T (3, w);  T (3, h); T (4, f); T (2, c); T (2, x); T (1, y); T (2, f)]"
70.45,898992,267909,"[V f; U (2, f); U (14, y); T (128, c); Hoist_vars [c]; T (7, x); T (3, w);  T (3, h); T (2, f); T (2, c); T (2, x); T (1, y); T (4, f)]"
