perf,CACHE_MISS_L1,CACHE_MISS_L2,scheme
58.30,2371338,1996980,"[V f; U (2, f); U (4, y); T (128, c); Hoist_vars [c]; T (136, x); T (17, y);  T (4, f); T (2, y); T (1, x); T (1, y); T (1, x)]"
64.69,2438269,1973057,"[V f; U (2, f); U (4, y); T (128, c); Hoist_vars [c]; T (136, x); T (1, y);  T (4, f); T (34, y); T (1, x); T (1, y); T (1, x)]"
56.69,2428406,2048164,"[V f; U (2, f); U (4, y); T (128, c); Hoist_vars [c]; T (136, x); T (17, y);  T (4, f); T (1, y); T (1, x); T (2, y); T (1, x)]"
63.60,2430177,2087147,"[V f; U (2, f); U (4, y); T (128, c); Hoist_vars [c]; T (136, x); T (1, y);  T (4, f); T (1, y); T (1, x); T (34, y); T (1, x)]"
47.63,2287483,1818460,"[V f; U (2, f); U (4, y); T (128, c); Hoist_vars [c]; T (68, x); T (17, y);  T (4, f); T (2, y); T (2, x); T (1, y); T (1, x)]"
57.81,2399714,1924344,"[V f; U (2, f); U (4, y); T (128, c); Hoist_vars [c]; T (34, x); T (17, y);  T (4, f); T (1, y); T (4, x); T (2, y); T (1, x)]"
57.20,2389024,1471053,"[V f; U (2, f); U (4, y); T (128, c); Hoist_vars [c]; T (17, x); T (34, y);  T (4, f); T (1, y); T (8, x); T (1, y); T (1, x)]"
75.91,2451608,487967,"[V f; U (2, f); U (4, y); T (128, c); Hoist_vars [c]; T (17, x); T (1, y);  T (4, f); T (17, y); T (8, x); T (2, y); T (1, x)]"
74.65,2381618,596813,"[V f; U (2, f); U (4, y); T (128, c); Hoist_vars [c]; T (17, x); T (1, y);  T (4, f); T (2, y); T (8, x); T (17, y); T (1, x)]"
73.72,2479102,729758,"[V f; U (2, f); U (4, y); T (128, c); Hoist_vars [c]; T (17, x); T (1, y);  T (4, f); T (1, y); T (8, x); T (34, y); T (1, x)]"
71.38,2212453,533872,"[V f; U (2, f); U (4, y); T (128, c); Hoist_vars [c]; T (8, x); T (1, y);  T (4, f); T (34, y); T (17, x); T (1, y); T (1, x)]"
67.63,2427737,1541208,"[V f; U (2, f); U (4, y); T (128, c); Hoist_vars [c]; T (8, x); T (17, y);  T (4, f); T (1, y); T (17, x); T (2, y); T (1, x)]"
75.25,2339485,598277,"[V f; U (2, f); U (4, y); T (128, c); Hoist_vars [c]; T (8, x); T (1, y);  T (4, f); T (2, y); T (17, x); T (17, y); T (1, x)]"
74.91,2319388,767038,"[V f; U (2, f); U (4, y); T (128, c); Hoist_vars [c]; T (8, x); T (1, y);  T (4, f); T (1, y); T (17, x); T (34, y); T (1, x)]"
69.66,2302204,540866,"[V f; U (2, f); U (4, y); T (128, c); Hoist_vars [c]; T (4, x); T (1, y);  T (4, f); T (34, y); T (34, x); T (1, y); T (1, x)]"
66.20,2297996,434232,"[V f; U (2, f); U (4, y); T (128, c); Hoist_vars [c]; T (1, x); T (17, y);  T (4, f); T (2, y); T (136, x); T (1, y); T (1, x)]"
57.45,2386731,1899766,"[V f; U (2, f); U (4, y); T (128, c); Hoist_vars [c]; T (68, x); T (34, y);  T (4, f); T (1, y); T (1, x); T (1, y); T (2, x)]"
64.21,2357146,1746799,"[V f; U (2, f); U (4, y); T (128, c); Hoist_vars [c]; T (68, x); T (2, y);  T (4, f); T (17, y); T (1, x); T (1, y); T (2, x)]"
60.34,2410114,1928986,"[V f; U (2, f); U (4, y); T (128, c); Hoist_vars [c]; T (68, x); T (17, y);  T (4, f); T (1, y); T (1, x); T (2, y); T (2, x)]"
47.53,2317485,1559140,"[V f; U (2, f); U (4, y); T (128, c); Hoist_vars [c]; T (34, x); T (34, y);  T (4, f); T (1, y); T (2, x); T (1, y); T (2, x)]"
71.29,2427075,613167,"[V f; U (2, f); U (4, y); T (128, c); Hoist_vars [c]; T (34, x); T (1, y);  T (4, f); T (34, y); T (2, x); T (1, y); T (2, x)]"
57.26,2384360,1438360,"[V f; U (2, f); U (4, y); T (128, c); Hoist_vars [c]; T (17, x); T (34, y);  T (4, f); T (1, y); T (4, x); T (1, y); T (2, x)]"
78.04,2323594,536095,"[V f; U (2, f); U (4, y); T (128, c); Hoist_vars [c]; T (4, x); T (1, y);  T (4, f); T (17, y); T (17, x); T (2, y); T (2, x)]"
60.24,2370355,775137,"[V f; U (2, f); U (4, y); T (128, c); Hoist_vars [c]; T (2, x); T (34, y);  T (4, f); T (1, y); T (34, x); T (1, y); T (2, x)]"
77.69,2106504,468805,"[V f; U (2, f); U (4, y); T (128, c); Hoist_vars [c]; T (2, x); T (1, y);  T (4, f); T (34, y); T (34, x); T (1, y); T (2, x)]"
77.85,2111740,462688,"[V f; U (2, f); U (4, y); T (128, c); Hoist_vars [c]; T (2, x); T (1, y);  T (4, f); T (17, y); T (34, x); T (2, y); T (2, x)]"
63.83,2156814,637726,"[V f; U (2, f); U (4, y); T (128, c); Hoist_vars [c]; T (2, x); T (1, y);  T (4, f); T (1, y); T (34, x); T (34, y); T (2, x)]"
75.95,2548246,435702,"[V f; U (2, f); U (4, y); T (128, c); Hoist_vars [c]; T (1, x); T (34, y);  T (4, f); T (1, y); T (68, x); T (1, y); T (2, x)]"
72.47,2153296,624364,"[V f; U (2, f); U (4, y); T (128, c); Hoist_vars [c]; T (1, x); T (2, y);  T (4, f); T (17, y); T (68, x); T (1, y); T (2, x)]"
79.08,1913718,433375,"[V f; U (2, f); U (4, y); T (128, c); Hoist_vars [c]; T (1, x); T (1, y);  T (4, f); T (34, y); T (68, x); T (1, y); T (2, x)]"
74.84,2493894,498283,"[V f; U (2, f); U (4, y); T (128, c); Hoist_vars [c]; T (1, x); T (17, y);  T (4, f); T (1, y); T (68, x); T (2, y); T (2, x)]"
71.21,2143346,508849,"[V f; U (2, f); U (4, y); T (128, c); Hoist_vars [c]; T (1, x); T (2, y);  T (4, f); T (1, y); T (68, x); T (17, y); T (2, x)]"
73.41,1928832,506034,"[V f; U (2, f); U (4, y); T (128, c); Hoist_vars [c]; T (1, x); T (1, y);  T (4, f); T (2, y); T (68, x); T (17, y); T (2, x)]"
67.04,2386225,809107,"[V f; U (2, f); U (4, y); T (128, c); Hoist_vars [c]; T (34, x); T (2, y);  T (4, f); T (17, y); T (1, x); T (1, y); T (4, x)]"
56.22,2387234,1562567,"[V f; U (2, f); U (4, y); T (128, c); Hoist_vars [c]; T (17, x); T (34, y);  T (4, f); T (1, y); T (2, x); T (1, y); T (4, x)]"
66.47,2303806,547375,"[V f; U (2, f); U (4, y); T (128, c); Hoist_vars [c]; T (17, x); T (1, y);  T (4, f); T (2, y); T (2, x); T (17, y); T (4, x)]"
73.57,2477911,534494,"[V f; U (2, f); U (4, y); T (128, c); Hoist_vars [c]; T (2, x); T (17, y);  T (4, f); T (2, y); T (17, x); T (1, y); T (4, x)]"
65.79,2379594,444394,"[V f; U (2, f); U (4, y); T (128, c); Hoist_vars [c]; T (1, x); T (34, y);  T (4, f); T (1, y); T (34, x); T (1, y); T (4, x)]"
76.55,2139035,417170,"[V f; U (2, f); U (4, y); T (128, c); Hoist_vars [c]; T (1, x); T (2, y);  T (4, f); T (17, y); T (34, x); T (1, y); T (4, x)]"
78.15,1907773,428021,"[V f; U (2, f); U (4, y); T (128, c); Hoist_vars [c]; T (1, x); T (1, y);  T (4, f); T (34, y); T (34, x); T (1, y); T (4, x)]"
65.95,2313406,453970,"[V f; U (2, f); U (4, y); T (128, c); Hoist_vars [c]; T (1, x); T (17, y);  T (4, f); T (1, y); T (34, x); T (2, y); T (4, x)]"
44.01,2345575,1471395,"[V f; U (2, f); U (4, y); T (128, c); Hoist_vars [c]; T (17, x); T (34, y);  T (4, f); T (1, y); T (1, x); T (1, y); T (8, x)]"
66.34,2329294,477634,"[V f; U (2, f); U (4, y); T (128, c); Hoist_vars [c]; T (17, x); T (1, y);  T (4, f); T (2, y); T (1, x); T (17, y); T (8, x)]"
77.71,1907704,451346,"[V f; U (2, f); U (4, y); T (128, c); Hoist_vars [c]; T (1, x); T (1, y);  T (4, f); T (17, y); T (17, x); T (2, y); T (8, x)]"
62.88,2329630,499230,"[V f; U (2, f); U (4, y); T (128, c); Hoist_vars [c]; T (1, x); T (2, y);  T (4, f); T (1, y); T (17, x); T (17, y); T (8, x)]"
68.33,2383308,1491522,"[V f; U (2, f); U (4, y); T (128, c); Hoist_vars [c]; T (8, x); T (17, y);  T (4, f); T (2, y); T (1, x); T (1, y); T (17, x)]"
70.71,2262862,519390,"[V f; U (2, f); U (4, y); T (128, c); Hoist_vars [c]; T (8, x); T (1, y);  T (4, f); T (17, y); T (1, x); T (2, y); T (17, x)]"
68.04,2205867,471399,"[V f; U (2, f); U (4, y); T (128, c); Hoist_vars [c]; T (8, x); T (2, y);  T (4, f); T (1, y); T (1, x); T (17, y); T (17, x)]"
79.77,2382002,541086,"[V f; U (2, f); U (4, y); T (128, c); Hoist_vars [c]; T (8, x); T (1, y);  T (4, f); T (2, y); T (1, x); T (17, y); T (17, x)]"
78.91,2429175,574687,"[V f; U (2, f); U (4, y); T (128, c); Hoist_vars [c]; T (8, x); T (1, y);  T (4, f); T (1, y); T (1, x); T (34, y); T (17, x)]"
69.71,2414707,1123103,"[V f; U (2, f); U (4, y); T (128, c); Hoist_vars [c]; T (4, x); T (17, y);  T (4, f); T (1, y); T (2, x); T (2, y); T (17, x)]"
78.85,2295254,520193,"[V f; U (2, f); U (4, y); T (128, c); Hoist_vars [c]; T (4, x); T (1, y);  T (4, f); T (17, y); T (2, x); T (2, y); T (17, x)]"
77.40,2329062,491986,"[V f; U (2, f); U (4, y); T (128, c); Hoist_vars [c]; T (4, x); T (2, y);  T (4, f); T (1, y); T (2, x); T (17, y); T (17, x)]"
70.52,2484868,742598,"[V f; U (2, f); U (4, y); T (128, c); Hoist_vars [c]; T (2, x); T (34, y);  T (4, f); T (1, y); T (4, x); T (1, y); T (17, x)]"
72.83,2499645,523142,"[V f; U (2, f); U (4, y); T (128, c); Hoist_vars [c]; T (2, x); T (17, y);  T (4, f); T (1, y); T (4, x); T (2, y); T (17, x)]"
65.42,2285149,457418,"[V f; U (2, f); U (4, y); T (128, c); Hoist_vars [c]; T (2, x); T (2, y);  T (4, f); T (1, y); T (4, x); T (17, y); T (17, x)]"
69.71,2202736,474469,"[V f; U (2, f); U (4, y); T (128, c); Hoist_vars [c]; T (2, x); T (1, y);  T (4, f); T (1, y); T (4, x); T (34, y); T (17, x)]"
77.34,2129077,423287,"[V f; U (2, f); U (4, y); T (128, c); Hoist_vars [c]; T (1, x); T (2, y);  T (4, f); T (17, y); T (8, x); T (1, y); T (17, x)]"
68.09,2254834,437235,"[V f; U (2, f); U (4, y); T (128, c); Hoist_vars [c]; T (1, x); T (1, y);  T (4, f); T (34, y); T (8, x); T (1, y); T (17, x)]"
77.92,1913191,438806,"[V f; U (2, f); U (4, y); T (128, c); Hoist_vars [c]; T (1, x); T (1, y);  T (4, f); T (17, y); T (8, x); T (2, y); T (17, x)]"
67.21,2077040,450524,"[V f; U (2, f); U (4, y); T (128, c); Hoist_vars [c]; T (1, x); T (1, y);  T (4, f); T (1, y); T (8, x); T (34, y); T (17, x)]"
67.87,2563849,1334407,"[V f; U (2, f); U (4, y); T (128, c); Hoist_vars [c]; T (4, x); T (17, y);  T (4, f); T (1, y); T (1, x); T (2, y); T (34, x)]"
78.13,2098508,450457,"[V f; U (2, f); U (4, y); T (128, c); Hoist_vars [c]; T (2, x); T (1, y);  T (4, f); T (17, y); T (2, x); T (2, y); T (34, x)]"
75.93,2323350,462413,"[V f; U (2, f); U (4, y); T (128, c); Hoist_vars [c]; T (2, x); T (2, y);  T (4, f); T (1, y); T (2, x); T (17, y); T (34, x)]"
66.45,2297096,412382,"[V f; U (2, f); U (4, y); T (128, c); Hoist_vars [c]; T (1, x); T (17, y);  T (4, f); T (2, y); T (4, x); T (1, y); T (34, x)]"
74.32,2143870,454020,"[V f; U (2, f); U (4, y); T (128, c); Hoist_vars [c]; T (1, x); T (2, y);  T (4, f); T (1, y); T (4, x); T (17, y); T (34, x)]"
77.34,1927435,457844,"[V f; U (2, f); U (4, y); T (128, c); Hoist_vars [c]; T (1, x); T (1, y);  T (4, f); T (2, y); T (4, x); T (17, y); T (34, x)]"
76.75,1858704,469070,"[V f; U (2, f); U (4, y); T (128, c); Hoist_vars [c]; T (1, x); T (1, y);  T (4, f); T (1, y); T (4, x); T (34, y); T (34, x)]"
64.42,2372046,538790,"[V f; U (2, f); U (4, y); T (128, c); Hoist_vars [c]; T (2, x); T (17, y);  T (4, f); T (2, y); T (1, x); T (1, y); T (68, x)]"
76.11,2284461,469082,"[V f; U (2, f); U (4, y); T (128, c); Hoist_vars [c]; T (2, x); T (2, y);  T (4, f); T (17, y); T (1, x); T (1, y); T (68, x)]"
78.30,2130509,450840,"[V f; U (2, f); U (4, y); T (128, c); Hoist_vars [c]; T (2, x); T (1, y);  T (4, f); T (34, y); T (1, x); T (1, y); T (68, x)]"
68.59,2364027,530969,"[V f; U (2, f); U (4, y); T (128, c); Hoist_vars [c]; T (2, x); T (1, y);  T (4, f); T (1, y); T (1, x); T (34, y); T (68, x)]"
76.21,2514058,441092,"[V f; U (2, f); U (4, y); T (128, c); Hoist_vars [c]; T (1, x); T (34, y);  T (4, f); T (1, y); T (2, x); T (1, y); T (68, x)]"
77.23,2503576,408878,"[V f; U (2, f); U (4, y); T (128, c); Hoist_vars [c]; T (1, x); T (17, y);  T (4, f); T (2, y); T (2, x); T (1, y); T (68, x)]"
74.73,2137696,435403,"[V f; U (2, f); U (4, y); T (128, c); Hoist_vars [c]; T (1, x); T (2, y);  T (4, f); T (1, y); T (2, x); T (17, y); T (68, x)]"
69.23,2119492,443632,"[V f; U (2, f); U (4, y); T (128, c); Hoist_vars [c]; T (1, x); T (1, y);  T (4, f); T (1, y); T (2, x); T (34, y); T (68, x)]"
65.21,2264145,433361,"[V f; U (2, f); U (4, y); T (128, c); Hoist_vars [c]; T (1, x); T (1, y);  T (4, f); T (34, y); T (1, x); T (1, y); T (136, x)]"
66.33,2296122,414422,"[V f; U (2, f); U (4, y); T (128, c); Hoist_vars [c]; T (1, x); T (17, y);  T (4, f); T (1, y); T (1, x); T (2, y); T (136, x)]"
79.45,1896858,430090,"[V f; U (2, f); U (4, y); T (128, c); Hoist_vars [c]; T (1, x); T (1, y);  T (4, f); T (1, y); T (1, x); T (34, y); T (136, x)]"
50.00,2270740,1922618,"[V f; U (2, f); ULambda y; T (128, c); Hoist_vars [c]; T (136, x); T (8, y);  T (4, f); Lambda_apply y [((Iter 3), (Arg 4)); ((Iter 1), (Arg 5))];  T (1, x); T (1, y); T (1, x)]"
64.84,2376286,2059315,"[V f; U (2, f); ULambda y; T (128, c); Hoist_vars [c]; T (136, x);  Lambda_apply y [((Iter 3), (Arg 4)); ((Iter 1), (Arg 5))]; T (4, f);  T (4, y); T (1, x); T (2, y); T (1, x)]"
52.42,2272207,1858675,"[V f; U (2, f); ULambda y; T (128, c); Hoist_vars [c]; T (136, x); T (4, y);  T (4, f); Lambda_apply y [((Iter 3), (Arg 4)); ((Iter 1), (Arg 5))];  T (1, x); T (2, y); T (1, x)]"
65.29,2377108,2067752,"[V f; U (2, f); ULambda y; T (128, c); Hoist_vars [c]; T (136, x);  Lambda_apply y [((Iter 3), (Arg 4)); ((Iter 1), (Arg 5))]; T (4, f);  T (2, y); T (1, x); T (4, y); T (1, x)]"
65.29,2346247,2093490,"[V f; U (2, f); ULambda y; T (128, c); Hoist_vars [c]; T (136, x); T (1, y);  T (4, f); Lambda_apply y [((Iter 3), (Arg 4)); ((Iter 1), (Arg 5))];  T (1, x); T (8, y); T (1, x)]"
65.08,2325915,1895614,"[V f; U (2, f); ULambda y; T (128, c); Hoist_vars [c]; T (68, x); T (4, y);  T (4, f); T (2, y); T (2, x);  Lambda_apply y [((Iter 3), (Arg 4)); ((Iter 1), (Arg 5))]; T (1, x)]"
64.91,2329316,2049870,"[V f; U (2, f); ULambda y; T (128, c); Hoist_vars [c]; T (68, x);  Lambda_apply y [((Iter 3), (Arg 4)); ((Iter 1), (Arg 5))]; T (4, f);  T (2, y); T (2, x); T (4, y); T (1, x)]"
55.93,2283472,1657386,"[V f; U (2, f); ULambda y; T (128, c); Hoist_vars [c]; T (68, x); T (2, y);  T (4, f); T (4, y); T (2, x);  Lambda_apply y [((Iter 3), (Arg 4)); ((Iter 1), (Arg 5))]; T (1, x)]"
65.03,2366435,1602203,"[V f; U (2, f); ULambda y; T (128, c); Hoist_vars [c]; T (34, x); T (4, y);  T (4, f); Lambda_apply y [((Iter 3), (Arg 4)); ((Iter 1), (Arg 5))];  T (4, x); T (2, y); T (1, x)]"
69.64,2353269,1061005,"[V f; U (2, f); ULambda y; T (128, c); Hoist_vars [c]; T (34, x); T (2, y);  T (4, f); Lambda_apply y [((Iter 3), (Arg 4)); ((Iter 1), (Arg 5))];  T (4, x); T (4, y); T (1, x)]"
65.48,2349783,1707094,"[V f; U (2, f); ULambda y; T (128, c); Hoist_vars [c]; T (34, x);  Lambda_apply y [((Iter 3), (Arg 4)); ((Iter 1), (Arg 5))]; T (4, f);  T (1, y); T (4, x); T (8, y); T (1, x)]"
59.58,2277879,883136,"[V f; U (2, f); ULambda y; T (128, c); Hoist_vars [c]; T (17, x);  Lambda_apply y [((Iter 3), (Arg 4)); ((Iter 1), (Arg 5))]; T (4, f);  T (4, y); T (8, x); T (2, y); T (1, x)]"
67.70,2471057,883690,"[V f; U (2, f); ULambda y; T (128, c); Hoist_vars [c]; T (17, x);  Lambda_apply y [((Iter 3), (Arg 4)); ((Iter 1), (Arg 5))]; T (4, f);  T (2, y); T (8, x); T (4, y); T (1, x)]"
63.44,2287842,658249,"[V f; U (2, f); ULambda y; T (128, c); Hoist_vars [c]; T (17, x); T (2, y);  T (4, f); Lambda_apply y [((Iter 3), (Arg 4)); ((Iter 1), (Arg 5))];  T (8, x); T (4, y); T (1, x)]"
72.86,2388551,764124,"[V f; U (2, f); ULambda y; T (128, c); Hoist_vars [c]; T (17, x); T (1, y);  T (4, f); Lambda_apply y [((Iter 3), (Arg 4)); ((Iter 1), (Arg 5))];  T (8, x); T (8, y); T (1, x)]"
74.22,2395555,561269,"[V f; U (2, f); ULambda y; T (128, c); Hoist_vars [c]; T (8, x);  Lambda_apply y [((Iter 3), (Arg 4)); ((Iter 1), (Arg 5))]; T (4, f);  T (4, y); T (17, x); T (2, y); T (1, x)]"
63.67,2306985,764741,"[V f; U (2, f); ULambda y; T (128, c); Hoist_vars [c]; T (8, x);  Lambda_apply y [((Iter 3), (Arg 4)); ((Iter 1), (Arg 5))]; T (4, f);  T (2, y); T (17, x); T (4, y); T (1, x)]"
72.85,2425688,663134,"[V f; U (2, f); ULambda y; T (128, c); Hoist_vars [c]; T (8, x);  Lambda_apply y [((Iter 3), (Arg 4)); ((Iter 1), (Arg 5))]; T (4, f);  T (1, y); T (17, x); T (8, y); T (1, x)]"
77.39,2267594,552351,"[V f; U (2, f); ULambda y; T (128, c); Hoist_vars [c]; T (8, x); T (1, y);  T (4, f); Lambda_apply y [((Iter 3), (Arg 4)); ((Iter 1), (Arg 5))];  T (17, x); T (8, y); T (1, x)]"
62.28,2345248,757541,"[V f; U (2, f); ULambda y; T (128, c); Hoist_vars [c]; T (4, x); T (8, y);  T (4, f); T (1, y); T (34, x);  Lambda_apply y [((Iter 3), (Arg 4)); ((Iter 1), (Arg 5))]; T (1, x)]"
75.29,2370033,559322,"[V f; U (2, f); ULambda y; T (128, c); Hoist_vars [c]; T (4, x);  Lambda_apply y [((Iter 3), (Arg 4)); ((Iter 1), (Arg 5))]; T (4, f);  T (2, y); T (34, x); T (4, y); T (1, x)]"
77.54,2295667,472400,"[V f; U (2, f); ULambda y; T (128, c); Hoist_vars [c]; T (4, x); T (2, y);  T (4, f); T (4, y); T (34, x);  Lambda_apply y [((Iter 3), (Arg 4)); ((Iter 1), (Arg 5))]; T (1, x)]"
78.90,2183456,508961,"[V f; U (2, f); ULambda y; T (128, c); Hoist_vars [c]; T (4, x); T (1, y);  T (4, f); T (8, y); T (34, x);  Lambda_apply y [((Iter 3), (Arg 4)); ((Iter 1), (Arg 5))]; T (1, x)]"
75.05,2370674,468427,"[V f; U (2, f); ULambda y; T (128, c); Hoist_vars [c]; T (2, x); T (4, y);  T (4, f); Lambda_apply y [((Iter 3), (Arg 4)); ((Iter 1), (Arg 5))];  T (68, x); T (2, y); T (1, x)]"
69.90,2272590,521482,"[V f; U (2, f); ULambda y; T (128, c); Hoist_vars [c]; T (2, x); T (1, y);  T (4, f); Lambda_apply y [((Iter 3), (Arg 4)); ((Iter 1), (Arg 5))];  T (68, x); T (8, y); T (1, x)]"
78.09,2195796,431470,"[V f; U (2, f); ULambda y; T (128, c); Hoist_vars [c]; T (1, x);  Lambda_apply y [((Iter 3), (Arg 4)); ((Iter 1), (Arg 5))]; T (4, f);  T (4, y); T (136, x); T (2, y); T (1, x)]"
77.16,2204205,431997,"[V f; U (2, f); ULambda y; T (128, c); Hoist_vars [c]; T (1, x); T (4, y);  T (4, f); Lambda_apply y [((Iter 3), (Arg 4)); ((Iter 1), (Arg 5))];  T (136, x); T (2, y); T (1, x)]"
68.69,2223175,459138,"[V f; U (2, f); ULambda y; T (128, c); Hoist_vars [c]; T (1, x);  Lambda_apply y [((Iter 3), (Arg 4)); ((Iter 1), (Arg 5))]; T (4, f);  T (2, y); T (136, x); T (4, y); T (1, x)]"
75.77,2068965,450102,"[V f; U (2, f); ULambda y; T (128, c); Hoist_vars [c]; T (1, x); T (2, y);  T (4, f); Lambda_apply y [((Iter 3), (Arg 4)); ((Iter 1), (Arg 5))];  T (136, x); T (4, y); T (1, x)]"
78.32,1859929,494919,"[V f; U (2, f); ULambda y; T (128, c); Hoist_vars [c]; T (1, x); T (1, y);  T (4, f); Lambda_apply y [((Iter 3), (Arg 4)); ((Iter 1), (Arg 5))];  T (136, x); T (8, y); T (1, x)]"
64.20,2339190,2043735,"[V f; U (2, f); ULambda y; T (128, c); Hoist_vars [c]; T (68, x);  Lambda_apply y [((Iter 3), (Arg 4)); ((Iter 1), (Arg 5))]; T (4, f);  T (8, y); T (1, x); T (1, y); T (2, x)]"
50.11,2271102,1845024,"[V f; U (2, f); ULambda y; T (128, c); Hoist_vars [c]; T (68, x); T (8, y);  T (4, f); Lambda_apply y [((Iter 3), (Arg 4)); ((Iter 1), (Arg 5))];  T (1, x); T (1, y); T (2, x)]"
60.58,2385395,1964487,"[V f; U (2, f); ULambda y; T (128, c); Hoist_vars [c]; T (68, x); T (8, y);  T (4, f); T (1, y); T (1, x);  Lambda_apply y [((Iter 3), (Arg 4)); ((Iter 1), (Arg 5))]; T (2, x)]"
64.40,2336124,1909559,"[V f; U (2, f); ULambda y; T (128, c); Hoist_vars [c]; T (68, x); T (4, y);  T (4, f); Lambda_apply y [((Iter 3), (Arg 4)); ((Iter 1), (Arg 5))];  T (1, x); T (2, y); T (2, x)]"
63.36,2371935,1962920,"[V f; U (2, f); ULambda y; T (128, c); Hoist_vars [c]; T (68, x); T (4, y);  T (4, f); T (2, y); T (1, x);  Lambda_apply y [((Iter 3), (Arg 4)); ((Iter 1), (Arg 5))]; T (2, x)]"
65.11,2336409,1941651,"[V f; U (2, f); ULambda y; T (128, c); Hoist_vars [c]; T (68, x); T (2, y);  T (4, f); Lambda_apply y [((Iter 3), (Arg 4)); ((Iter 1), (Arg 5))];  T (1, x); T (4, y); T (2, x)]"
65.59,2335178,1777732,"[V f; U (2, f); ULambda y; T (128, c); Hoist_vars [c]; T (68, x); T (2, y);  T (4, f); T (4, y); T (1, x);  Lambda_apply y [((Iter 3), (Arg 4)); ((Iter 1), (Arg 5))]; T (2, x)]"
66.29,2402736,1684078,"[V f; U (2, f); ULambda y; T (128, c); Hoist_vars [c]; T (68, x); T (1, y);  T (4, f); T (8, y); T (1, x);  Lambda_apply y [((Iter 3), (Arg 4)); ((Iter 1), (Arg 5))]; T (2, x)]"
65.11,2380087,1719608,"[V f; U (2, f); ULambda y; T (128, c); Hoist_vars [c]; T (34, x);  Lambda_apply y [((Iter 3), (Arg 4)); ((Iter 1), (Arg 5))]; T (4, f);  T (8, y); T (2, x); T (1, y); T (2, x)]"
63.83,2384001,1629657,"[V f; U (2, f); ULambda y; T (128, c); Hoist_vars [c]; T (34, x); T (8, y);  T (4, f); T (1, y); T (2, x);  Lambda_apply y [((Iter 3), (Arg 4)); ((Iter 1), (Arg 5))]; T (2, x)]"
54.85,2317961,1529675,"[V f; U (2, f); ULambda y; T (128, c); Hoist_vars [c]; T (34, x); T (4, y);  T (4, f); Lambda_apply y [((Iter 3), (Arg 4)); ((Iter 1), (Arg 5))];  T (2, x); T (2, y); T (2, x)]"
53.47,2323819,1607573,"[V f; U (2, f); ULambda y; T (128, c); Hoist_vars [c]; T (34, x); T (4, y);  T (4, f); T (2, y); T (2, x);  Lambda_apply y [((Iter 3), (Arg 4)); ((Iter 1), (Arg 5))]; T (2, x)]"
65.31,2350896,1689952,"[V f; U (2, f); ULambda y; T (128, c); Hoist_vars [c]; T (34, x);  Lambda_apply y [((Iter 3), (Arg 4)); ((Iter 1), (Arg 5))]; T (4, f);  T (2, y); T (2, x); T (4, y); T (2, x)]"
59.25,2264951,1049511,"[V f; U (2, f); ULambda y; T (128, c); Hoist_vars [c]; T (34, x); T (2, y);  T (4, f); T (4, y); T (2, x);  Lambda_apply y [((Iter 3), (Arg 4)); ((Iter 1), (Arg 5))]; T (2, x)]"
53.33,2315836,1458713,"[V f; U (2, f); ULambda y; T (128, c); Hoist_vars [c]; T (17, x); T (8, y);  T (4, f); T (1, y); T (4, x);  Lambda_apply y [((Iter 3), (Arg 4)); ((Iter 1), (Arg 5))]; T (2, x)]"
69.53,2364449,927500,"[V f; U (2, f); ULambda y; T (128, c); Hoist_vars [c]; T (17, x);  Lambda_apply y [((Iter 3), (Arg 4)); ((Iter 1), (Arg 5))]; T (4, f);  T (4, y); T (4, x); T (2, y); T (2, x)]"
67.44,2368713,916994,"[V f; U (2, f); ULambda y; T (128, c); Hoist_vars [c]; T (17, x); T (4, y);  T (4, f); Lambda_apply y [((Iter 3), (Arg 4)); ((Iter 1), (Arg 5))];  T (4, x); T (2, y); T (2, x)]"
68.11,2366899,792814,"[V f; U (2, f); ULambda y; T (128, c); Hoist_vars [c]; T (17, x); T (4, y);  T (4, f); T (2, y); T (4, x);  Lambda_apply y [((Iter 3), (Arg 4)); ((Iter 1), (Arg 5))]; T (2, x)]"
74.19,2364300,521439,"[V f; U (2, f); ULambda y; T (128, c); Hoist_vars [c]; T (17, x); T (1, y);  T (4, f); Lambda_apply y [((Iter 3), (Arg 4)); ((Iter 1), (Arg 5))];  T (4, x); T (8, y); T (2, x)]"
67.92,2320428,487745,"[V f; U (2, f); ULambda y; T (128, c); Hoist_vars [c]; T (17, x); T (1, y);  T (4, f); T (8, y); T (4, x);  Lambda_apply y [((Iter 3), (Arg 4)); ((Iter 1), (Arg 5))]; T (2, x)]"
71.63,2444282,801024,"[V f; U (2, f); ULambda y; T (128, c); Hoist_vars [c]; T (4, x); T (8, y);  T (4, f); T (1, y); T (17, x);  Lambda_apply y [((Iter 3), (Arg 4)); ((Iter 1), (Arg 5))]; T (2, x)]"
74.53,2352311,715120,"[V f; U (2, f); ULambda y; T (128, c); Hoist_vars [c]; T (4, x);  Lambda_apply y [((Iter 3), (Arg 4)); ((Iter 1), (Arg 5))]; T (4, f);  T (2, y); T (17, x); T (4, y); T (2, x)]"
77.26,2167527,592722,"[V f; U (2, f); ULambda y; T (128, c); Hoist_vars [c]; T (4, x); T (1, y);  T (4, f); Lambda_apply y [((Iter 3), (Arg 4)); ((Iter 1), (Arg 5))];  T (17, x); T (8, y); T (2, x)]"
70.62,2201103,507848,"[V f; U (2, f); ULambda y; T (128, c); Hoist_vars [c]; T (4, x); T (1, y);  T (4, f); T (8, y); T (17, x);  Lambda_apply y [((Iter 3), (Arg 4)); ((Iter 1), (Arg 5))]; T (2, x)]"
76.23,2281454,457321,"[V f; U (2, f); ULambda y; T (128, c); Hoist_vars [c]; T (2, x);  Lambda_apply y [((Iter 3), (Arg 4)); ((Iter 1), (Arg 5))]; T (4, f);  T (4, y); T (34, x); T (2, y); T (2, x)]"
65.36,2185292,459724,"[V f; U (2, f); ULambda y; T (128, c); Hoist_vars [c]; T (2, x); T (4, y);  T (4, f); T (2, y); T (34, x);  Lambda_apply y [((Iter 3), (Arg 4)); ((Iter 1), (Arg 5))]; T (2, x)]"
76.14,2318560,430292,"[V f; U (2, f); ULambda y; T (128, c); Hoist_vars [c]; T (1, x); T (8, y);  T (4, f); T (1, y); T (68, x);  Lambda_apply y [((Iter 3), (Arg 4)); ((Iter 1), (Arg 5))]; T (2, x)]"
76.31,2196528,442621,"[V f; U (2, f); ULambda y; T (128, c); Hoist_vars [c]; T (1, x); T (4, y);  T (4, f); T (2, y); T (68, x);  Lambda_apply y [((Iter 3), (Arg 4)); ((Iter 1), (Arg 5))]; T (2, x)]"
76.01,1902727,452412,"[V f; U (2, f); ULambda y; T (128, c); Hoist_vars [c]; T (1, x); T (1, y);  T (4, f); T (8, y); T (68, x);  Lambda_apply y [((Iter 3), (Arg 4)); ((Iter 1), (Arg 5))]; T (2, x)]"
54.76,2283203,1632405,"[V f; U (2, f); ULambda y; T (128, c); Hoist_vars [c]; T (34, x);  Lambda_apply y [((Iter 3), (Arg 4)); ((Iter 1), (Arg 5))]; T (4, f);  T (8, y); T (1, x); T (1, y); T (4, x)]"
62.11,2419120,1639709,"[V f; U (2, f); ULambda y; T (128, c); Hoist_vars [c]; T (34, x); T (8, y);  T (4, f); T (1, y); T (1, x);  Lambda_apply y [((Iter 3), (Arg 4)); ((Iter 1), (Arg 5))]; T (4, x)]"
65.06,2355637,1693187,"[V f; U (2, f); ULambda y; T (128, c); Hoist_vars [c]; T (34, x);  Lambda_apply y [((Iter 3), (Arg 4)); ((Iter 1), (Arg 5))]; T (4, f);  T (4, y); T (1, x); T (2, y); T (4, x)]"
63.66,2367609,1608680,"[V f; U (2, f); ULambda y; T (128, c); Hoist_vars [c]; T (34, x); T (4, y);  T (4, f); Lambda_apply y [((Iter 3), (Arg 4)); ((Iter 1), (Arg 5))];  T (1, x); T (2, y); T (4, x)]"
55.17,2284804,1606816,"[V f; U (2, f); ULambda y; T (128, c); Hoist_vars [c]; T (34, x);  Lambda_apply y [((Iter 3), (Arg 4)); ((Iter 1), (Arg 5))]; T (4, f);  T (1, y); T (1, x); T (8, y); T (4, x)]"
69.70,2415912,774631,"[V f; U (2, f); ULambda y; T (128, c); Hoist_vars [c]; T (34, x); T (1, y);  T (4, f); T (8, y); T (1, x);  Lambda_apply y [((Iter 3), (Arg 4)); ((Iter 1), (Arg 5))]; T (4, x)]"
68.45,2397355,815998,"[V f; U (2, f); ULambda y; T (128, c); Hoist_vars [c]; T (17, x); T (4, y);  T (4, f); Lambda_apply y [((Iter 3), (Arg 4)); ((Iter 1), (Arg 5))];  T (2, x); T (2, y); T (4, x)]"
58.18,2320844,803761,"[V f; U (2, f); ULambda y; T (128, c); Hoist_vars [c]; T (17, x); T (4, y);  T (4, f); T (2, y); T (2, x);  Lambda_apply y [((Iter 3), (Arg 4)); ((Iter 1), (Arg 5))]; T (4, x)]"
71.79,2417408,606507,"[V f; U (2, f); ULambda y; T (128, c); Hoist_vars [c]; T (17, x); T (2, y);  T (4, f); Lambda_apply y [((Iter 3), (Arg 4)); ((Iter 1), (Arg 5))];  T (2, x); T (4, y); T (4, x)]"
68.36,2404032,896795,"[V f; U (2, f); ULambda y; T (128, c); Hoist_vars [c]; T (17, x);  Lambda_apply y [((Iter 3), (Arg 4)); ((Iter 1), (Arg 5))]; T (4, f);  T (1, y); T (2, x); T (8, y); T (4, x)]"
67.57,2167899,425174,"[V f; U (2, f); ULambda y; T (128, c); Hoist_vars [c]; T (1, x); T (8, y);  T (4, f); T (1, y); T (34, x);  Lambda_apply y [((Iter 3), (Arg 4)); ((Iter 1), (Arg 5))]; T (4, x)]"
77.61,2191989,422403,"[V f; U (2, f); ULambda y; T (128, c); Hoist_vars [c]; T (1, x);  Lambda_apply y [((Iter 3), (Arg 4)); ((Iter 1), (Arg 5))]; T (4, f);  T (4, y); T (34, x); T (2, y); T (4, x)]"
68.37,2219254,432511,"[V f; U (2, f); ULambda y; T (128, c); Hoist_vars [c]; T (1, x); T (4, y);  T (4, f); Lambda_apply y [((Iter 3), (Arg 4)); ((Iter 1), (Arg 5))];  T (34, x); T (2, y); T (4, x)]"
68.73,2227322,444986,"[V f; U (2, f); ULambda y; T (128, c); Hoist_vars [c]; T (1, x);  Lambda_apply y [((Iter 3), (Arg 4)); ((Iter 1), (Arg 5))]; T (4, f);  T (2, y); T (34, x); T (4, y); T (4, x)]"
75.59,2076053,494437,"[V f; U (2, f); ULambda y; T (128, c); Hoist_vars [c]; T (1, x); T (2, y);  T (4, f); Lambda_apply y [((Iter 3), (Arg 4)); ((Iter 1), (Arg 5))];  T (34, x); T (4, y); T (4, x)]"
75.52,2193254,485600,"[V f; U (2, f); ULambda y; T (128, c); Hoist_vars [c]; T (1, x);  Lambda_apply y [((Iter 3), (Arg 4)); ((Iter 1), (Arg 5))]; T (4, f);  T (1, y); T (34, x); T (8, y); T (4, x)]"
75.63,1900137,464920,"[V f; U (2, f); ULambda y; T (128, c); Hoist_vars [c]; T (1, x); T (1, y);  T (4, f); T (8, y); T (34, x);  Lambda_apply y [((Iter 3), (Arg 4)); ((Iter 1), (Arg 5))]; T (4, x)]"
67.67,2367062,850316,"[V f; U (2, f); ULambda y; T (128, c); Hoist_vars [c]; T (17, x);  Lambda_apply y [((Iter 3), (Arg 4)); ((Iter 1), (Arg 5))]; T (4, f);  T (8, y); T (1, x); T (1, y); T (8, x)]"
59.77,2279171,850354,"[V f; U (2, f); ULambda y; T (128, c); Hoist_vars [c]; T (17, x);  Lambda_apply y [((Iter 3), (Arg 4)); ((Iter 1), (Arg 5))]; T (4, f);  T (4, y); T (1, x); T (2, y); T (8, x)]"
67.96,2370685,863543,"[V f; U (2, f); ULambda y; T (128, c); Hoist_vars [c]; T (17, x); T (4, y);  T (4, f); Lambda_apply y [((Iter 3), (Arg 4)); ((Iter 1), (Arg 5))];  T (1, x); T (2, y); T (8, x)]"
72.85,2379248,621369,"[V f; U (2, f); ULambda y; T (128, c); Hoist_vars [c]; T (17, x); T (2, y);  T (4, f); Lambda_apply y [((Iter 3), (Arg 4)); ((Iter 1), (Arg 5))];  T (1, x); T (4, y); T (8, x)]"
73.09,2380259,547160,"[V f; U (2, f); ULambda y; T (128, c); Hoist_vars [c]; T (17, x); T (2, y);  T (4, f); T (4, y); T (1, x);  Lambda_apply y [((Iter 3), (Arg 4)); ((Iter 1), (Arg 5))]; T (8, x)]"
68.60,2369073,869569,"[V f; U (2, f); ULambda y; T (128, c); Hoist_vars [c]; T (17, x);  Lambda_apply y [((Iter 3), (Arg 4)); ((Iter 1), (Arg 5))]; T (4, f);  T (1, y); T (1, x); T (8, y); T (8, x)]"
68.13,2288525,468946,"[V f; U (2, f); ULambda y; T (128, c); Hoist_vars [c]; T (17, x); T (1, y);  T (4, f); Lambda_apply y [((Iter 3), (Arg 4)); ((Iter 1), (Arg 5))];  T (1, x); T (8, y); T (8, x)]"
68.44,2178247,401928,"[V f; U (2, f); ULambda y; T (128, c); Hoist_vars [c]; T (1, x); T (8, y);  T (4, f); Lambda_apply y [((Iter 3), (Arg 4)); ((Iter 1), (Arg 5))];  T (17, x); T (1, y); T (8, x)]"
67.08,2219759,422887,"[V f; U (2, f); ULambda y; T (128, c); Hoist_vars [c]; T (1, x); T (4, y);  T (4, f); T (2, y); T (17, x);  Lambda_apply y [((Iter 3), (Arg 4)); ((Iter 1), (Arg 5))]; T (8, x)]"
76.18,2061465,454970,"[V f; U (2, f); ULambda y; T (128, c); Hoist_vars [c]; T (1, x); T (2, y);  T (4, f); Lambda_apply y [((Iter 3), (Arg 4)); ((Iter 1), (Arg 5))];  T (17, x); T (4, y); T (8, x)]"
75.67,2066499,450518,"[V f; U (2, f); ULambda y; T (128, c); Hoist_vars [c]; T (1, x); T (2, y);  T (4, f); T (4, y); T (17, x);  Lambda_apply y [((Iter 3), (Arg 4)); ((Iter 1), (Arg 5))]; T (8, x)]"
78.20,1863449,492773,"[V f; U (2, f); ULambda y; T (128, c); Hoist_vars [c]; T (1, x); T (1, y);  T (4, f); Lambda_apply y [((Iter 3), (Arg 4)); ((Iter 1), (Arg 5))];  T (17, x); T (8, y); T (8, x)]"
74.88,2396760,572679,"[V f; U (2, f); ULambda y; T (128, c); Hoist_vars [c]; T (8, x);  Lambda_apply y [((Iter 3), (Arg 4)); ((Iter 1), (Arg 5))]; T (4, f);  T (8, y); T (1, x); T (1, y); T (17, x)]"
70.00,2388980,1123656,"[V f; U (2, f); ULambda y; T (128, c); Hoist_vars [c]; T (8, x); T (8, y);  T (4, f); Lambda_apply y [((Iter 3), (Arg 4)); ((Iter 1), (Arg 5))];  T (1, x); T (1, y); T (17, x)]"
58.60,2363903,1220154,"[V f; U (2, f); ULambda y; T (128, c); Hoist_vars [c]; T (8, x); T (8, y);  T (4, f); T (1, y); T (1, x);  Lambda_apply y [((Iter 3), (Arg 4)); ((Iter 1), (Arg 5))]; T (17, x)]"
73.45,2411458,580435,"[V f; U (2, f); ULambda y; T (128, c); Hoist_vars [c]; T (8, x);  Lambda_apply y [((Iter 3), (Arg 4)); ((Iter 1), (Arg 5))]; T (4, f);  T (4, y); T (1, x); T (2, y); T (17, x)]"
64.04,2308848,698887,"[V f; U (2, f); ULambda y; T (128, c); Hoist_vars [c]; T (8, x);  Lambda_apply y [((Iter 3), (Arg 4)); ((Iter 1), (Arg 5))]; T (4, f);  T (1, y); T (1, x); T (8, y); T (17, x)]"
79.79,2364097,519538,"[V f; U (2, f); ULambda y; T (128, c); Hoist_vars [c]; T (8, x); T (1, y);  T (4, f); T (8, y); T (1, x);  Lambda_apply y [((Iter 3), (Arg 4)); ((Iter 1), (Arg 5))]; T (17, x)]"
71.28,2434212,883138,"[V f; U (2, f); ULambda y; T (128, c); Hoist_vars [c]; T (4, x); T (8, y);  T (4, f); Lambda_apply y [((Iter 3), (Arg 4)); ((Iter 1), (Arg 5))];  T (2, x); T (1, y); T (17, x)]"
77.60,2265785,474585,"[V f; U (2, f); ULambda y; T (128, c); Hoist_vars [c]; T (4, x); T (2, y);  T (4, f); T (4, y); T (2, x);  Lambda_apply y [((Iter 3), (Arg 4)); ((Iter 1), (Arg 5))]; T (17, x)]"
74.23,2361884,551370,"[V f; U (2, f); ULambda y; T (128, c); Hoist_vars [c]; T (4, x);  Lambda_apply y [((Iter 3), (Arg 4)); ((Iter 1), (Arg 5))]; T (4, f);  T (1, y); T (2, x); T (8, y); T (17, x)]"
76.21,2281750,446271,"[V f; U (2, f); ULambda y; T (128, c); Hoist_vars [c]; T (2, x); T (4, y);  T (4, f); Lambda_apply y [((Iter 3), (Arg 4)); ((Iter 1), (Arg 5))];  T (4, x); T (2, y); T (17, x)]"
75.37,2213609,453084,"[V f; U (2, f); ULambda y; T (128, c); Hoist_vars [c]; T (2, x); T (2, y);  T (4, f); T (4, y); T (4, x);  Lambda_apply y [((Iter 3), (Arg 4)); ((Iter 1), (Arg 5))]; T (17, x)]"
78.33,2195433,444560,"[V f; U (2, f); ULambda y; T (128, c); Hoist_vars [c]; T (1, x);  Lambda_apply y [((Iter 3), (Arg 4)); ((Iter 1), (Arg 5))]; T (4, f);  T (2, y); T (8, x); T (4, y); T (17, x)]"
76.40,2180015,453742,"[V f; U (2, f); ULambda y; T (128, c); Hoist_vars [c]; T (1, x);  Lambda_apply y [((Iter 3), (Arg 4)); ((Iter 1), (Arg 5))]; T (4, f);  T (1, y); T (8, x); T (8, y); T (17, x)]"
61.38,2406397,841800,"[V f; U (2, f); ULambda y; T (128, c); Hoist_vars [c]; T (4, x); T (8, y);  T (4, f); T (1, y); T (1, x);  Lambda_apply y [((Iter 3), (Arg 4)); ((Iter 1), (Arg 5))]; T (34, x)]"
68.96,2132528,445255,"[V f; U (2, f); ULambda y; T (128, c); Hoist_vars [c]; T (4, x); T (2, y);  T (4, f); T (4, y); T (1, x);  Lambda_apply y [((Iter 3), (Arg 4)); ((Iter 1), (Arg 5))]; T (34, x)]"
79.13,2259904,524961,"[V f; U (2, f); ULambda y; T (128, c); Hoist_vars [c]; T (4, x); T (1, y);  T (4, f); T (8, y); T (1, x);  Lambda_apply y [((Iter 3), (Arg 4)); ((Iter 1), (Arg 5))]; T (34, x)]"
75.35,2276999,448743,"[V f; U (2, f); ULambda y; T (128, c); Hoist_vars [c]; T (2, x); T (4, y);  T (4, f); T (2, y); T (2, x);  Lambda_apply y [((Iter 3), (Arg 4)); ((Iter 1), (Arg 5))]; T (34, x)]"
78.72,2074687,486072,"[V f; U (2, f); ULambda y; T (128, c); Hoist_vars [c]; T (2, x); T (1, y);  T (4, f); T (8, y); T (2, x);  Lambda_apply y [((Iter 3), (Arg 4)); ((Iter 1), (Arg 5))]; T (34, x)]"
77.16,2053139,449818,"[V f; U (2, f); ULambda y; T (128, c); Hoist_vars [c]; T (1, x); T (2, y);  T (4, f); Lambda_apply y [((Iter 3), (Arg 4)); ((Iter 1), (Arg 5))];  T (4, x); T (4, y); T (34, x)]"
71.81,2172035,459964,"[V f; U (2, f); ULambda y; T (128, c); Hoist_vars [c]; T (1, x); T (1, y);  T (4, f); Lambda_apply y [((Iter 3), (Arg 4)); ((Iter 1), (Arg 5))];  T (4, x); T (8, y); T (34, x)]"
75.75,2477530,486680,"[V f; U (2, f); ULambda y; T (128, c); Hoist_vars [c]; T (2, x); T (8, y);  T (4, f); T (1, y); T (1, x);  Lambda_apply y [((Iter 3), (Arg 4)); ((Iter 1), (Arg 5))]; T (68, x)]"
75.41,2361376,499302,"[V f; U (2, f); ULambda y; T (128, c); Hoist_vars [c]; T (2, x); T (4, y);  T (4, f); Lambda_apply y [((Iter 3), (Arg 4)); ((Iter 1), (Arg 5))];  T (1, x); T (2, y); T (68, x)]"
66.91,2176896,471441,"[V f; U (2, f); ULambda y; T (128, c); Hoist_vars [c]; T (2, x); T (4, y);  T (4, f); T (2, y); T (1, x);  Lambda_apply y [((Iter 3), (Arg 4)); ((Iter 1), (Arg 5))]; T (68, x)]"
67.75,2198203,485121,"[V f; U (2, f); ULambda y; T (128, c); Hoist_vars [c]; T (2, x);  Lambda_apply y [((Iter 3), (Arg 4)); ((Iter 1), (Arg 5))]; T (4, f);  T (2, y); T (1, x); T (4, y); T (68, x)]"
75.48,2245806,468296,"[V f; U (2, f); ULambda y; T (128, c); Hoist_vars [c]; T (2, x); T (2, y);  T (4, f); Lambda_apply y [((Iter 3), (Arg 4)); ((Iter 1), (Arg 5))];  T (1, x); T (4, y); T (68, x)]"
77.53,2213840,440217,"[V f; U (2, f); ULambda y; T (128, c); Hoist_vars [c]; T (2, x); T (2, y);  T (4, f); T (4, y); T (1, x);  Lambda_apply y [((Iter 3), (Arg 4)); ((Iter 1), (Arg 5))]; T (68, x)]"
78.87,2186351,410692,"[V f; U (2, f); ULambda y; T (128, c); Hoist_vars [c]; T (1, x);  Lambda_apply y [((Iter 3), (Arg 4)); ((Iter 1), (Arg 5))]; T (4, f);  T (8, y); T (2, x); T (1, y); T (68, x)]"
77.97,2185836,421421,"[V f; U (2, f); ULambda y; T (128, c); Hoist_vars [c]; T (1, x);  Lambda_apply y [((Iter 3), (Arg 4)); ((Iter 1), (Arg 5))]; T (4, f);  T (4, y); T (2, x); T (2, y); T (68, x)]"
78.30,2196439,402697,"[V f; U (2, f); ULambda y; T (128, c); Hoist_vars [c]; T (1, x); T (4, y);  T (4, f); Lambda_apply y [((Iter 3), (Arg 4)); ((Iter 1), (Arg 5))];  T (2, x); T (2, y); T (68, x)]"
70.48,2216305,423099,"[V f; U (2, f); ULambda y; T (128, c); Hoist_vars [c]; T (1, x);  Lambda_apply y [((Iter 3), (Arg 4)); ((Iter 1), (Arg 5))]; T (4, f);  T (1, y); T (2, x); T (8, y); T (68, x)]"
78.01,2185494,470177,"[V f; U (2, f); ULambda y; T (128, c); Hoist_vars [c]; T (1, x);  Lambda_apply y [((Iter 3), (Arg 4)); ((Iter 1), (Arg 5))]; T (4, f);  T (8, y); T (1, x); T (1, y); T (136, x)]"
70.09,2238255,433470,"[V f; U (2, f); ULambda y; T (128, c); Hoist_vars [c]; T (1, x); T (2, y);  T (4, f); Lambda_apply y [((Iter 3), (Arg 4)); ((Iter 1), (Arg 5))];  T (1, x); T (4, y); T (136, x)]"
77.18,2067202,426587,"[V f; U (2, f); ULambda y; T (128, c); Hoist_vars [c]; T (1, x); T (2, y);  T (4, f); T (4, y); T (1, x);  Lambda_apply y [((Iter 3), (Arg 4)); ((Iter 1), (Arg 5))]; T (136, x)]"
