perf,CACHE_MISS_L1,CACHE_MISS_L2,scheme
30.04,6644381,21566851,"[V f; U (2, f); U (7, y); U (3, h); T (512, c); Hoist_vars [c]; T (14, x);  T (3, w); T (4, f); T (2, y); T (8, f); T (1, c); T (1, f)]"
31.60,6566733,20804132,"[V f; U (2, f); U (7, y); U (3, h); T (512, c); Hoist_vars [c]; T (14, x);  T (3, w); T (8, f); T (2, y); T (1, f); T (1, c); T (4, f)]"
40.12,6003335,20015635,"[V f; U (2, f); U (7, y); U (3, h); T (256, c); Hoist_vars [c]; T (14, x);  T (3, w); T (4, f); T (2, y); T (8, f); T (2, c); T (1, f)]"
38.31,6701425,21986275,"[V f; U (2, f); U (7, y); U (3, h); T (256, c); Hoist_vars [c]; T (14, x);  T (3, w); T (8, f); T (2, y); T (2, f); T (2, c); T (2, f)]"
41.94,5110314,18008432,"[V f; U (2, f); U (7, y); U (3, h); T (128, c); Hoist_vars [c]; T (14, x);  T (3, w); T (4, f); T (2, y); T (8, f); T (4, c); T (1, f)]"
38.79,6871676,20577019,"[V f; U (2, f); U (7, y); U (3, h); T (128, c); Hoist_vars [c]; T (14, x);  T (3, w); T (2, f); T (2, y); T (8, f); T (4, c); T (2, f)]"
40.30,5110199,18575691,"[V f; U (2, f); U (7, y); U (3, h); T (128, c); Hoist_vars [c]; T (14, x);  T (3, w); T (2, f); T (2, y); T (4, f); T (4, c); T (4, f)]"
42.37,5267726,11853426,"[V f; U (2, f); U (7, y); U (3, h); T (64, c); Hoist_vars [c]; T (14, x);  T (3, w); T (4, f); T (2, y); T (4, f); T (8, c); T (2, f)]"
40.81,7391206,14293540,"[V f; U (2, f); U (7, y); U (3, h); T (64, c); Hoist_vars [c]; T (14, x);  T (3, w); T (2, f); T (2, y); T (8, f); T (8, c); T (2, f)]"
41.09,5531709,11507052,"[V f; U (2, f); U (7, y); U (3, h); T (64, c); Hoist_vars [c]; T (14, x);  T (3, w); T (4, f); T (2, y); T (2, f); T (8, c); T (4, f)]"
40.86,7318826,13736256,"[V f; U (2, f); U (7, y); U (3, h); T (64, c); Hoist_vars [c]; T (14, x);  T (3, w); T (1, f); T (2, y); T (8, f); T (8, c); T (4, f)]"
38.60,5261557,11482190,"[V f; U (2, f); U (7, y); U (3, h); T (64, c); Hoist_vars [c]; T (14, x);  T (3, w); T (1, f); T (2, y); T (4, f); T (8, c); T (8, f)]"
39.61,5264455,11323709,"[V f; U (2, f); U (7, y); U (3, h); T (64, c); Hoist_vars [c]; T (14, x);  T (3, w); T (2, f); T (2, y); T (1, f); T (8, c); T (16, f)]"
53.78,7723991,6637545,"[V f; U (2, f); U (7, y); U (3, h); T (32, c); Hoist_vars [c]; T (14, x);  T (3, w); T (32, f); T (2, y); T (1, f); T (16, c); T (1, f)]"
53.99,5586708,5450846,"[V f; U (2, f); U (7, y); U (3, h); T (32, c); Hoist_vars [c]; T (14, x);  T (3, w); T (16, f); T (2, y); T (2, f); T (16, c); T (1, f)]"
54.26,7720599,6463781,"[V f; U (2, f); U (7, y); U (3, h); T (32, c); Hoist_vars [c]; T (14, x);  T (3, w); T (16, f); T (2, y); T (1, f); T (16, c); T (2, f)]"
52.52,7773870,7043570,"[V f; U (2, f); U (7, y); U (3, h); T (32, c); Hoist_vars [c]; T (14, x);  T (3, w); T (4, f); T (2, y); T (1, f); T (16, c); T (8, f)]"
51.99,7712983,6786626,"[V f; U (2, f); U (7, y); U (3, h); T (32, c); Hoist_vars [c]; T (14, x);  T (3, w); T (2, f); T (2, y); T (2, f); T (16, c); T (8, f)]"
52.81,8701328,8336401,"[V f; U (2, f); U (7, y); U (3, h); T (16, c); Hoist_vars [c]; T (14, x);  T (3, w); T (16, f); T (2, y); T (2, f); T (32, c); T (1, f)]"
51.43,8992476,9131143,"[V f; U (2, f); U (7, y); U (3, h); T (16, c); Hoist_vars [c]; T (14, x);  T (3, w); T (1, f); T (2, y); T (32, f); T (32, c); T (1, f)]"
52.40,8612624,7483088,"[V f; U (2, f); U (7, y); U (3, h); T (16, c); Hoist_vars [c]; T (14, x);  T (3, w); T (4, f); T (2, y); T (4, f); T (32, c); T (2, f)]"
51.83,6187321,5282612,"[V f; U (2, f); U (7, y); U (3, h); T (16, c); Hoist_vars [c]; T (14, x);  T (3, w); T (2, f); T (2, y); T (4, f); T (32, c); T (4, f)]"
42.78,8494326,9512421,"[V f; U (2, f); U (7, y); U (3, h); T (8, c); Hoist_vars [c]; T (14, x);  T (3, w); T (16, f); T (2, y); T (1, f); T (64, c); T (2, f)]"
42.58,11981112,14595887,"[V f; U (2, f); U (7, y); U (3, h); T (8, c); Hoist_vars [c]; T (14, x);  T (3, w); T (4, f); T (2, y); T (4, f); T (64, c); T (2, f)]"
43.10,8226310,7431639,"[V f; U (2, f); U (7, y); U (3, h); T (8, c); Hoist_vars [c]; T (14, x);  T (3, w); T (2, f); T (2, y); T (4, f); T (64, c); T (4, f)]"
40.22,11502852,12501287,"[V f; U (2, f); U (7, y); U (3, h); T (8, c); Hoist_vars [c]; T (14, x);  T (3, w); T (1, f); T (2, y); T (1, f); T (64, c); T (32, f)]"
33.64,16815263,22340558,"[V f; U (2, f); U (7, y); U (3, h); T (4, c); Hoist_vars [c]; T (14, x);  T (3, w); T (8, f); T (2, y); T (2, f); T (128, c); T (2, f)]"
35.22,11864445,13071359,"[V f; U (2, f); U (7, y); U (3, h); T (4, c); Hoist_vars [c]; T (14, x);  T (3, w); T (1, f); T (2, y); T (16, f); T (128, c); T (2, f)]"
33.91,17061011,20957699,"[V f; U (2, f); U (7, y); U (3, h); T (4, c); Hoist_vars [c]; T (14, x);  T (3, w); T (4, f); T (2, y); T (2, f); T (128, c); T (4, f)]"
29.82,17704733,26282573,"[V f; U (2, f); U (7, y); U (3, h); T (2, c); Hoist_vars [c]; T (14, x);  T (3, w); T (4, f); T (2, y); T (1, f); T (256, c); T (8, f)]"
17.84,34710983,32305443,"[V f; U (2, f); U (7, y); U (3, h); T (1, c); Hoist_vars [c]; T (14, x);  T (3, w); T (4, f); T (2, y); T (8, f); T (512, c); T (1, f)]"
17.11,34274575,38476557,"[V f; U (2, f); U (7, y); U (3, h); T (1, c); Hoist_vars [c]; T (14, x);  T (3, w); T (1, f); T (2, y); T (32, f); T (512, c); T (1, f)]"
17.92,34661845,31777680,"[V f; U (2, f); U (7, y); U (3, h); T (1, c); Hoist_vars [c]; T (14, x);  T (3, w); T (4, f); T (2, y); T (4, f); T (512, c); T (2, f)]"
17.67,34841610,35253427,"[V f; U (2, f); U (7, y); U (3, h); T (1, c); Hoist_vars [c]; T (14, x);  T (3, w); T (1, f); T (2, y); T (16, f); T (512, c); T (2, f)]"
17.31,34240935,36642684,"[V f; U (2, f); U (7, y); U (3, h); T (1, c); Hoist_vars [c]; T (14, x);  T (3, w); T (1, f); T (2, y); T (4, f); T (512, c); T (8, f)]"
33.37,16911881,21456614,"[V f; U (2, f); U (7, y); U (3, w); T (512, c); Hoist_vars [c]; T (14, x);  T (3, h); T (2, f); T (2, y); T (8, f); T (1, c); T (2, f)]"
33.02,16965359,21692785,"[V f; U (2, f); U (7, y); U (3, w); T (512, c); Hoist_vars [c]; T (14, x);  T (3, h); T (1, f); T (2, y); T (1, f); T (1, c); T (32, f)]"
39.58,17189517,23145268,"[V f; U (2, f); U (7, y); U (3, w); T (256, c); Hoist_vars [c]; T (14, x);  T (3, h); T (2, f); T (2, y); T (16, f); T (2, c); T (1, f)]"
41.77,16668240,21022793,"[V f; U (2, f); U (7, y); U (3, w); T (128, c); Hoist_vars [c]; T (14, x);  T (3, h); T (32, f); T (2, y); T (1, f); T (4, c); T (1, f)]"
41.65,17224263,15090501,"[V f; U (2, f); U (7, y); U (3, w); T (64, c); Hoist_vars [c]; T (14, x);  T (3, h); T (1, f); T (2, y); T (4, f); T (8, c); T (8, f)]"
45.81,15984536,12027746,"[V f; U (2, f); U (7, y); U (3, w); T (32, c); Hoist_vars [c]; T (14, x);  T (3, h); T (4, f); T (2, y); T (8, f); T (16, c); T (1, f)]"
46.69,17078377,10671198,"[V f; U (2, f); U (7, y); U (3, w); T (32, c); Hoist_vars [c]; T (14, x);  T (3, h); T (4, f); T (2, y); T (4, f); T (16, c); T (2, f)]"
46.23,14473046,6962908,"[V f; U (2, f); U (7, y); U (3, w); T (16, c); Hoist_vars [c]; T (14, x);  T (3, h); T (8, f); T (2, y); T (1, f); T (32, c); T (4, f)]"
39.52,19233374,17937502,"[V f; U (2, f); U (7, y); U (3, w); T (8, c); Hoist_vars [c]; T (14, x);  T (3, h); T (2, f); T (2, y); T (16, f); T (64, c); T (1, f)]"
31.97,24131698,20733222,"[V f; U (2, f); U (7, y); U (3, w); T (4, c); Hoist_vars [c]; T (14, x);  T (3, h); T (16, f); T (2, y); T (1, f); T (128, c); T (2, f)]"
32.93,23824872,20006988,"[V f; U (2, f); U (7, y); U (3, w); T (4, c); Hoist_vars [c]; T (14, x);  T (3, h); T (8, f); T (2, y); T (2, f); T (128, c); T (2, f)]"
31.93,17908332,14383080,"[V f; U (2, f); U (7, y); U (3, w); T (4, c); Hoist_vars [c]; T (14, x);  T (3, h); T (1, f); T (2, y); T (16, f); T (128, c); T (2, f)]"
22.30,22351783,34452301,"[V f; U (2, f); U (7, y); U (3, w); T (2, c); Hoist_vars [c]; T (14, x);  T (3, h); T (1, f); T (2, y); T (4, f); T (256, c); T (8, f)]"
18.35,29152008,25568778,"[V f; U (2, f); U (7, y); U (3, w); T (1, c); Hoist_vars [c]; T (14, x);  T (3, h); T (8, f); T (2, y); T (4, f); T (512, c); T (1, f)]"
19.09,24697416,23372314,"[V f; U (2, f); U (7, y); U (3, w); T (1, c); Hoist_vars [c]; T (14, x);  T (3, h); T (8, f); T (2, y); T (1, f); T (512, c); T (4, f)]"
17.89,27725766,29527228,"[V f; U (2, f); U (7, y); U (3, w); T (1, c); Hoist_vars [c]; T (14, x);  T (3, h); T (2, f); T (2, y); T (1, f); T (512, c); T (16, f)]"
35.25,11114894,27161851,"[V f; U (2, f); ULambda y; T (512, c); Hoist_vars [c]; T (14, x); T (3, w);  T (3, h); T (2, f);  Lambda_apply y [((Iter 1), (Arg 4)); ((Iter 2), (Arg 5))]; T (4, f);  T (1, c); T (4, f)]"
38.97,8156465,21014141,"[V f; U (2, f); ULambda y; T (512, c); Hoist_vars [c]; T (14, x); T (3, w);  T (3, h); T (1, f);  Lambda_apply y [((Iter 1), (Arg 4)); ((Iter 2), (Arg 5))]; T (2, f);  T (1, c); T (16, f)]"
46.18,11570291,24715799,"[V f; U (2, f); ULambda y; T (256, c); Hoist_vars [c]; T (14, x); T (3, w);  T (3, h); T (2, f);  Lambda_apply y [((Iter 1), (Arg 4)); ((Iter 2), (Arg 5))]; T (4, f);  T (2, c); T (4, f)]"
50.12,12450057,14431387,"[V f; U (2, f); ULambda y; T (128, c); Hoist_vars [c]; T (14, x); T (3, w);  T (3, h); T (1, f);  Lambda_apply y [((Iter 1), (Arg 4)); ((Iter 2), (Arg 5))]; T (32, f);  T (4, c); T (1, f)]"
52.81,12645429,11171448,"[V f; U (2, f); ULambda y; T (128, c); Hoist_vars [c]; T (14, x); T (3, w);  T (3, h); T (16, f);  Lambda_apply y [((Iter 1), (Arg 4)); ((Iter 2), (Arg 5))]; T (1, f);  T (4, c); T (2, f)]"
53.28,12084145,13726850,"[V f; U (2, f); ULambda y; T (128, c); Hoist_vars [c]; T (14, x); T (3, w);  T (3, h); T (4, f);  Lambda_apply y [((Iter 1), (Arg 4)); ((Iter 2), (Arg 5))]; T (4, f);  T (4, c); T (2, f)]"
50.24,12491051,14411842,"[V f; U (2, f); ULambda y; T (128, c); Hoist_vars [c]; T (14, x); T (3, w);  T (3, h); T (4, f);  Lambda_apply y [((Iter 1), (Arg 4)); ((Iter 2), (Arg 5))]; T (2, f);  T (4, c); T (4, f)]"
60.63,8995446,7833696,"[V f; U (2, f); ULambda y; T (64, c); Hoist_vars [c]; T (14, x); T (3, w);  T (3, h); T (4, f);  Lambda_apply y [((Iter 1), (Arg 4)); ((Iter 2), (Arg 5))]; T (4, f);  T (8, c); T (2, f)]"
60.95,13544130,12816657,"[V f; U (2, f); ULambda y; T (64, c); Hoist_vars [c]; T (14, x); T (3, w);  T (3, h); T (2, f);  Lambda_apply y [((Iter 1), (Arg 4)); ((Iter 2), (Arg 5))]; T (8, f);  T (8, c); T (2, f)]"
60.42,9939978,8918699,"[V f; U (2, f); ULambda y; T (32, c); Hoist_vars [c]; T (14, x); T (3, w);  T (3, h); T (8, f);  Lambda_apply y [((Iter 1), (Arg 4)); ((Iter 2), (Arg 5))]; T (4, f);  T (16, c); T (1, f)]"
57.71,12455258,9666943,"[V f; U (2, f); ULambda y; T (32, c); Hoist_vars [c]; T (14, x); T (3, w);  T (3, h); T (4, f);  Lambda_apply y [((Iter 1), (Arg 4)); ((Iter 2), (Arg 5))]; T (1, f);  T (16, c); T (8, f)]"
53.17,9930458,10757575,"[V f; U (2, f); ULambda y; T (32, c); Hoist_vars [c]; T (14, x); T (3, w);  T (3, h); T (2, f);  Lambda_apply y [((Iter 1), (Arg 4)); ((Iter 2), (Arg 5))]; T (2, f);  T (16, c); T (8, f)]"
55.92,14689171,11509303,"[V f; U (2, f); ULambda y; T (32, c); Hoist_vars [c]; T (14, x); T (3, w);  T (3, h); T (1, f);  Lambda_apply y [((Iter 1), (Arg 4)); ((Iter 2), (Arg 5))]; T (2, f);  T (16, c); T (16, f)]"
49.93,15538882,13043840,"[V f; U (2, f); ULambda y; T (16, c); Hoist_vars [c]; T (14, x); T (3, w);  T (3, h); T (2, f);  Lambda_apply y [((Iter 1), (Arg 4)); ((Iter 2), (Arg 5))]; T (16, f);  T (32, c); T (1, f)]"
38.41,12212410,15938242,"[V f; U (2, f); ULambda y; T (8, c); Hoist_vars [c]; T (14, x); T (3, w);  T (3, h); T (4, f);  Lambda_apply y [((Iter 1), (Arg 4)); ((Iter 2), (Arg 5))]; T (1, f);  T (64, c); T (8, f)]"
27.94,24735624,15953826,"[V f; U (2, f); ULambda y; T (4, c); Hoist_vars [c]; T (14, x); T (3, w);  T (3, h); T (4, f);  Lambda_apply y [((Iter 1), (Arg 4)); ((Iter 2), (Arg 5))]; T (8, f);  T (128, c); T (1, f)]"
26.16,25862020,32331463,"[V f; U (2, f); ULambda y; T (4, c); Hoist_vars [c]; T (14, x); T (3, w);  T (3, h); T (16, f);  Lambda_apply y [((Iter 1), (Arg 4)); ((Iter 2), (Arg 5))]; T (1, f);  T (128, c); T (2, f)]"
28.05,24756328,15232573,"[V f; U (2, f); ULambda y; T (4, c); Hoist_vars [c]; T (14, x); T (3, w);  T (3, h); T (8, f);  Lambda_apply y [((Iter 1), (Arg 4)); ((Iter 2), (Arg 5))]; T (2, f);  T (128, c); T (2, f)]"
27.68,24741293,16970437,"[V f; U (2, f); ULambda y; T (4, c); Hoist_vars [c]; T (14, x); T (3, w);  T (3, h); T (1, f);  Lambda_apply y [((Iter 1), (Arg 4)); ((Iter 2), (Arg 5))]; T (4, f);  T (128, c); T (8, f)]"
26.51,20489154,26386641,"[V f; U (2, f); ULambda y; T (4, c); Hoist_vars [c]; T (14, x); T (3, w);  T (3, h); T (1, f);  Lambda_apply y [((Iter 1), (Arg 4)); ((Iter 2), (Arg 5))]; T (2, f);  T (128, c); T (16, f)]"
14.48,52243381,25469490,"[V f; U (2, f); ULambda y; T (2, c); Hoist_vars [c]; T (14, x); T (3, w);  T (3, h); T (32, f);  Lambda_apply y [((Iter 1), (Arg 4)); ((Iter 2), (Arg 5))]; T (1, f);  T (256, c); T (1, f)]"
13.85,51852498,37109854,"[V f; U (2, f); ULambda y; T (2, c); Hoist_vars [c]; T (14, x); T (3, w);  T (3, h); T (1, f);  Lambda_apply y [((Iter 1), (Arg 4)); ((Iter 2), (Arg 5))]; T (32, f);  T (256, c); T (1, f)]"
14.51,52479735,29182811,"[V f; U (2, f); ULambda y; T (2, c); Hoist_vars [c]; T (14, x); T (3, w);  T (3, h); T (8, f);  Lambda_apply y [((Iter 1), (Arg 4)); ((Iter 2), (Arg 5))]; T (2, f);  T (256, c); T (2, f)]"
14.24,51800209,31909212,"[V f; U (2, f); ULambda y; T (2, c); Hoist_vars [c]; T (14, x); T (3, w);  T (3, h); T (4, f);  Lambda_apply y [((Iter 1), (Arg 4)); ((Iter 2), (Arg 5))]; T (2, f);  T (256, c); T (4, f)]"
12.96,53230801,51207462,"[V f; U (2, f); ULambda y; T (2, c); Hoist_vars [c]; T (14, x); T (3, w);  T (3, h); T (2, f);  Lambda_apply y [((Iter 1), (Arg 4)); ((Iter 2), (Arg 5))]; T (2, f);  T (256, c); T (8, f)]"
7.08,99870008,104200918,"[V f; U (2, f); ULambda y; T (1, c); Hoist_vars [c]; T (14, x); T (3, w);  T (3, h); T (32, f);  Lambda_apply y [((Iter 1), (Arg 4)); ((Iter 2), (Arg 5))]; T (1, f);  T (512, c); T (1, f)]"
7.08,100420397,104363116,"[V f; U (2, f); ULambda y; T (1, c); Hoist_vars [c]; T (14, x); T (3, w);  T (3, h); T (16, f);  Lambda_apply y [((Iter 1), (Arg 4)); ((Iter 2), (Arg 5))]; T (2, f);  T (512, c); T (1, f)]"
6.81,98219007,112634792,"[V f; U (2, f); ULambda y; T (1, c); Hoist_vars [c]; T (14, x); T (3, w);  T (3, h); T (2, f);  Lambda_apply y [((Iter 1), (Arg 4)); ((Iter 2), (Arg 5))]; T (4, f);  T (512, c); T (4, f)]"
6.58,96925026,117161054,"[V f; U (2, f); ULambda y; T (1, c); Hoist_vars [c]; T (14, x); T (3, w);  T (3, h); T (2, f);  Lambda_apply y [((Iter 1), (Arg 4)); ((Iter 2), (Arg 5))]; T (1, f);  T (512, c); T (16, f)]"
32.54,9303437,26230066,"[V f; U (2, f); ULambda y; U (3, h); T (512, c); Hoist_vars [c]; T (14, x);  T (3, w); T (1, f);  Lambda_apply y [((Iter 1), (Arg 4)); ((Iter 2), (Arg 5))]; T (4, f);  T (1, c); T (8, f)]"
33.11,9297333,26174461,"[V f; U (2, f); ULambda y; U (3, h); T (512, c); Hoist_vars [c]; T (14, x);  T (3, w); T (2, f);  Lambda_apply y [((Iter 1), (Arg 4)); ((Iter 2), (Arg 5))]; T (1, f);  T (1, c); T (16, f)]"
41.56,9390745,26465800,"[V f; U (2, f); ULambda y; U (3, h); T (256, c); Hoist_vars [c]; T (14, x);  T (3, w); T (8, f);  Lambda_apply y [((Iter 1), (Arg 4)); ((Iter 2), (Arg 5))]; T (1, f);  T (2, c); T (4, f)]"
45.82,9393832,25644148,"[V f; U (2, f); ULambda y; U (3, h); T (256, c); Hoist_vars [c]; T (14, x);  T (3, w); T (2, f);  Lambda_apply y [((Iter 1), (Arg 4)); ((Iter 2), (Arg 5))]; T (4, f);  T (2, c); T (4, f)]"
43.26,7247623,23353340,"[V f; U (2, f); ULambda y; U (3, h); T (128, c); Hoist_vars [c]; T (14, x);  T (3, w); T (4, f);  Lambda_apply y [((Iter 1), (Arg 4)); ((Iter 2), (Arg 5))]; T (8, f);  T (4, c); T (1, f)]"
48.04,7254288,22037161,"[V f; U (2, f); ULambda y; U (3, h); T (128, c); Hoist_vars [c]; T (14, x);  T (3, w); T (4, f);  Lambda_apply y [((Iter 1), (Arg 4)); ((Iter 2), (Arg 5))]; T (4, f);  T (4, c); T (2, f)]"
46.66,9578372,23774156,"[V f; U (2, f); ULambda y; U (3, h); T (128, c); Hoist_vars [c]; T (14, x);  T (3, w); T (4, f);  Lambda_apply y [((Iter 1), (Arg 4)); ((Iter 2), (Arg 5))]; T (2, f);  T (4, c); T (4, f)]"
46.82,9597296,23701488,"[V f; U (2, f); ULambda y; U (3, h); T (128, c); Hoist_vars [c]; T (14, x);  T (3, w); T (1, f);  Lambda_apply y [((Iter 1), (Arg 4)); ((Iter 2), (Arg 5))]; T (8, f);  T (4, c); T (4, f)]"
41.94,9611899,24521972,"[V f; U (2, f); ULambda y; U (3, h); T (128, c); Hoist_vars [c]; T (14, x);  T (3, w); T (2, f);  Lambda_apply y [((Iter 1), (Arg 4)); ((Iter 2), (Arg 5))]; T (2, f);  T (4, c); T (8, f)]"
64.02,10852246,6977068,"[V f; U (2, f); ULambda y; U (3, h); T (32, c); Hoist_vars [c]; T (14, x);  T (3, w); T (32, f);  Lambda_apply y [((Iter 1), (Arg 4)); ((Iter 2), (Arg 5))]; T (1, f);  T (16, c); T (1, f)]"
62.25,10873354,7379892,"[V f; U (2, f); ULambda y; U (3, h); T (32, c); Hoist_vars [c]; T (14, x);  T (3, w); T (8, f);  Lambda_apply y [((Iter 1), (Arg 4)); ((Iter 2), (Arg 5))]; T (2, f);  T (16, c); T (2, f)]"
62.97,10851058,7652692,"[V f; U (2, f); ULambda y; U (3, h); T (32, c); Hoist_vars [c]; T (14, x);  T (3, w); T (1, f);  Lambda_apply y [((Iter 1), (Arg 4)); ((Iter 2), (Arg 5))]; T (4, f);  T (16, c); T (8, f)]"
59.63,11306840,9199057,"[V f; U (2, f); ULambda y; U (3, h); T (16, c); Hoist_vars [c]; T (14, x);  T (3, w); T (2, f);  Lambda_apply y [((Iter 1), (Arg 4)); ((Iter 2), (Arg 5))]; T (16, f);  T (32, c); T (1, f)]"
56.75,11352655,10709169,"[V f; U (2, f); ULambda y; U (3, h); T (16, c); Hoist_vars [c]; T (14, x);  T (3, w); T (2, f);  Lambda_apply y [((Iter 1), (Arg 4)); ((Iter 2), (Arg 5))]; T (4, f);  T (32, c); T (4, f)]"
60.64,11299771,8838456,"[V f; U (2, f); ULambda y; U (3, h); T (16, c); Hoist_vars [c]; T (14, x);  T (3, w); T (2, f);  Lambda_apply y [((Iter 1), (Arg 4)); ((Iter 2), (Arg 5))]; T (2, f);  T (32, c); T (8, f)]"
54.48,13956824,10798486,"[V f; U (2, f); ULambda y; U (3, h); T (8, c); Hoist_vars [c]; T (14, x);  T (3, w); T (32, f);  Lambda_apply y [((Iter 1), (Arg 4)); ((Iter 2), (Arg 5))]; T (1, f);  T (64, c); T (1, f)]"
53.05,13863641,12101725,"[V f; U (2, f); ULambda y; U (3, h); T (8, c); Hoist_vars [c]; T (14, x);  T (3, w); T (2, f);  Lambda_apply y [((Iter 1), (Arg 4)); ((Iter 2), (Arg 5))]; T (16, f);  T (64, c); T (1, f)]"
52.61,13916103,11227281,"[V f; U (2, f); ULambda y; U (3, h); T (8, c); Hoist_vars [c]; T (14, x);  T (3, w); T (8, f);  Lambda_apply y [((Iter 1), (Arg 4)); ((Iter 2), (Arg 5))]; T (2, f);  T (64, c); T (2, f)]"
52.25,13868790,11803607,"[V f; U (2, f); ULambda y; U (3, h); T (8, c); Hoist_vars [c]; T (14, x);  T (3, w); T (2, f);  Lambda_apply y [((Iter 1), (Arg 4)); ((Iter 2), (Arg 5))]; T (2, f);  T (64, c); T (8, f)]"
43.17,17346177,14728789,"[V f; U (2, f); ULambda y; U (3, h); T (4, c); Hoist_vars [c]; T (14, x);  T (3, w); T (8, f);  Lambda_apply y [((Iter 1), (Arg 4)); ((Iter 2), (Arg 5))]; T (4, f);  T (128, c); T (1, f)]"
43.67,17422313,13397725,"[V f; U (2, f); ULambda y; U (3, h); T (4, c); Hoist_vars [c]; T (14, x);  T (3, w); T (16, f);  Lambda_apply y [((Iter 1), (Arg 4)); ((Iter 2), (Arg 5))]; T (1, f);  T (128, c); T (2, f)]"
36.95,13957929,23739233,"[V f; U (2, f); ULambda y; U (3, h); T (2, c); Hoist_vars [c]; T (14, x);  T (3, w); T (8, f);  Lambda_apply y [((Iter 1), (Arg 4)); ((Iter 2), (Arg 5))]; T (1, f);  T (256, c); T (4, f)]"
37.89,16292056,15482435,"[V f; U (2, f); ULambda y; U (3, h); T (2, c); Hoist_vars [c]; T (14, x);  T (3, w); T (4, f);  Lambda_apply y [((Iter 1), (Arg 4)); ((Iter 2), (Arg 5))]; T (2, f);  T (256, c); T (4, f)]"
33.86,17442860,29005986,"[V f; U (2, f); ULambda y; U (3, h); T (2, c); Hoist_vars [c]; T (14, x);  T (3, w); T (1, f);  Lambda_apply y [((Iter 1), (Arg 4)); ((Iter 2), (Arg 5))]; T (4, f);  T (256, c); T (8, f)]"
18.82,35767752,35192788,"[V f; U (2, f); ULambda y; U (3, h); T (1, c); Hoist_vars [c]; T (14, x);  T (3, w); T (4, f);  Lambda_apply y [((Iter 1), (Arg 4)); ((Iter 2), (Arg 5))]; T (2, f);  T (512, c); T (4, f)]"
19.74,34558488,21536737,"[V f; U (2, f); ULambda y; U (3, h); T (1, c); Hoist_vars [c]; T (14, x);  T (3, w); T (4, f);  Lambda_apply y [((Iter 1), (Arg 4)); ((Iter 2), (Arg 5))]; T (1, f);  T (512, c); T (8, f)]"
18.47,35705838,30554609,"[V f; U (2, f); ULambda y; U (3, h); T (1, c); Hoist_vars [c]; T (14, x);  T (3, w); T (1, f);  Lambda_apply y [((Iter 1), (Arg 4)); ((Iter 2), (Arg 5))]; T (1, f);  T (512, c); T (32, f)]"
34.19,9205887,24586639,"[V f; U (2, f); ULambda y; U (3, h); T (512, c); Hoist_vars [c]; T (14, x);  T (3, w); T (8, f);  Lambda_apply y [((Iter 2), (Arg 4)); ((Iter 1), (Arg 6))]; T (4, f);  T (1, c); T (1, f)]"
31.10,9300736,26507483,"[V f; U (2, f); ULambda y; U (3, h); T (512, c); Hoist_vars [c]; T (14, x);  T (3, w); T (4, f);  Lambda_apply y [((Iter 2), (Arg 4)); ((Iter 1), (Arg 6))]; T (8, f);  T (1, c); T (1, f)]"
31.54,9253881,26087521,"[V f; U (2, f); ULambda y; U (3, h); T (512, c); Hoist_vars [c]; T (14, x);  T (3, w); T (4, f);  Lambda_apply y [((Iter 2), (Arg 4)); ((Iter 1), (Arg 6))]; T (4, f);  T (1, c); T (2, f)]"
31.72,7125886,20957004,"[V f; U (2, f); ULambda y; U (3, h); T (512, c); Hoist_vars [c]; T (14, x);  T (3, w); T (1, f);  Lambda_apply y [((Iter 2), (Arg 4)); ((Iter 1), (Arg 6))]; T (4, f);  T (1, c); T (8, f)]"
45.99,9369567,25119478,"[V f; U (2, f); ULambda y; U (3, h); T (256, c); Hoist_vars [c]; T (14, x);  T (3, w); T (32, f);  Lambda_apply y [((Iter 2), (Arg 4)); ((Iter 1), (Arg 6))]; T (1, f);  T (2, c); T (1, f)]"
40.66,9362275,26301083,"[V f; U (2, f); ULambda y; U (3, h); T (256, c); Hoist_vars [c]; T (14, x);  T (3, w); T (4, f);  Lambda_apply y [((Iter 2), (Arg 4)); ((Iter 1), (Arg 6))]; T (8, f);  T (2, c); T (1, f)]"
40.53,9415237,26314594,"[V f; U (2, f); ULambda y; U (3, h); T (256, c); Hoist_vars [c]; T (14, x);  T (3, w); T (4, f);  Lambda_apply y [((Iter 2), (Arg 4)); ((Iter 1), (Arg 6))]; T (4, f);  T (2, c); T (2, f)]"
40.38,9396015,26603665,"[V f; U (2, f); ULambda y; U (3, h); T (256, c); Hoist_vars [c]; T (14, x);  T (3, w); T (1, f);  Lambda_apply y [((Iter 2), (Arg 4)); ((Iter 1), (Arg 6))]; T (16, f);  T (2, c); T (2, f)]"
42.09,9392710,25630798,"[V f; U (2, f); ULambda y; U (3, h); T (256, c); Hoist_vars [c]; T (14, x);  T (3, w); T (1, f);  Lambda_apply y [((Iter 2), (Arg 4)); ((Iter 1), (Arg 6))]; T (1, f);  T (2, c); T (32, f)]"
41.84,9567024,24747640,"[V f; U (2, f); ULambda y; U (3, h); T (128, c); Hoist_vars [c]; T (14, x);  T (3, w); T (1, f);  Lambda_apply y [((Iter 2), (Arg 4)); ((Iter 1), (Arg 6))]; T (32, f);  T (4, c); T (1, f)]"
39.23,9637983,25042133,"[V f; U (2, f); ULambda y; U (3, h); T (128, c); Hoist_vars [c]; T (14, x);  T (3, w); T (1, f);  Lambda_apply y [((Iter 2), (Arg 4)); ((Iter 1), (Arg 6))]; T (1, f);  T (4, c); T (32, f)]"
46.50,10040438,15626074,"[V f; U (2, f); ULambda y; U (3, h); T (64, c); Hoist_vars [c]; T (14, x);  T (3, w); T (8, f);  Lambda_apply y [((Iter 2), (Arg 4)); ((Iter 1), (Arg 6))]; T (4, f);  T (8, c); T (1, f)]"
46.13,10035858,15713094,"[V f; U (2, f); ULambda y; U (3, h); T (64, c); Hoist_vars [c]; T (14, x);  T (3, w); T (16, f);  Lambda_apply y [((Iter 2), (Arg 4)); ((Iter 1), (Arg 6))]; T (1, f);  T (8, c); T (2, f)]"
48.84,7427192,14314101,"[V f; U (2, f); ULambda y; U (3, h); T (64, c); Hoist_vars [c]; T (14, x);  T (3, w); T (1, f);  Lambda_apply y [((Iter 2), (Arg 4)); ((Iter 1), (Arg 6))]; T (4, f);  T (8, c); T (8, f)]"
46.41,7424884,13482477,"[V f; U (2, f); ULambda y; U (3, h); T (64, c); Hoist_vars [c]; T (14, x);  T (3, w); T (1, f);  Lambda_apply y [((Iter 2), (Arg 4)); ((Iter 1), (Arg 6))]; T (1, f);  T (8, c); T (32, f)]"
61.14,10921142,8238451,"[V f; U (2, f); ULambda y; U (3, h); T (32, c); Hoist_vars [c]; T (14, x);  T (3, w); T (2, f);  Lambda_apply y [((Iter 2), (Arg 4)); ((Iter 1), (Arg 6))]; T (16, f);  T (16, c); T (1, f)]"
62.97,10888738,8298416,"[V f; U (2, f); ULambda y; U (3, h); T (32, c); Hoist_vars [c]; T (14, x);  T (3, w); T (1, f);  Lambda_apply y [((Iter 2), (Arg 4)); ((Iter 1), (Arg 6))]; T (32, f);  T (16, c); T (1, f)]"
54.39,10983807,10130701,"[V f; U (2, f); ULambda y; U (3, h); T (32, c); Hoist_vars [c]; T (14, x);  T (3, w); T (1, f);  Lambda_apply y [((Iter 2), (Arg 4)); ((Iter 1), (Arg 6))]; T (1, f);  T (16, c); T (32, f)]"
59.29,11829826,9088786,"[V f; U (2, f); ULambda y; U (3, h); T (16, c); Hoist_vars [c]; T (14, x);  T (3, w); T (32, f);  Lambda_apply y [((Iter 2), (Arg 4)); ((Iter 1), (Arg 6))]; T (1, f);  T (32, c); T (1, f)]"
61.22,8510602,6961758,"[V f; U (2, f); ULambda y; U (3, h); T (16, c); Hoist_vars [c]; T (14, x);  T (3, w); T (16, f);  Lambda_apply y [((Iter 2), (Arg 4)); ((Iter 1), (Arg 6))]; T (2, f);  T (32, c); T (1, f)]"
60.78,8524960,6882362,"[V f; U (2, f); ULambda y; U (3, h); T (16, c); Hoist_vars [c]; T (14, x);  T (3, w); T (2, f);  Lambda_apply y [((Iter 2), (Arg 4)); ((Iter 1), (Arg 6))]; T (16, f);  T (32, c); T (1, f)]"
56.74,11703730,10008573,"[V f; U (2, f); ULambda y; U (3, h); T (16, c); Hoist_vars [c]; T (14, x);  T (3, w); T (1, f);  Lambda_apply y [((Iter 2), (Arg 4)); ((Iter 1), (Arg 6))]; T (2, f);  T (32, c); T (16, f)]"
50.67,13999173,15397420,"[V f; U (2, f); ULambda y; U (3, h); T (8, c); Hoist_vars [c]; T (14, x);  T (3, w); T (16, f);  Lambda_apply y [((Iter 2), (Arg 4)); ((Iter 1), (Arg 6))]; T (2, f);  T (64, c); T (1, f)]"
52.42,14169489,12111907,"[V f; U (2, f); ULambda y; U (3, h); T (8, c); Hoist_vars [c]; T (14, x);  T (3, w); T (4, f);  Lambda_apply y [((Iter 2), (Arg 4)); ((Iter 1), (Arg 6))]; T (4, f);  T (64, c); T (2, f)]"
49.29,13902127,15727337,"[V f; U (2, f); ULambda y; U (3, h); T (8, c); Hoist_vars [c]; T (14, x);  T (3, w); T (8, f);  Lambda_apply y [((Iter 2), (Arg 4)); ((Iter 1), (Arg 6))]; T (1, f);  T (64, c); T (4, f)]"
48.58,13896517,16613569,"[V f; U (2, f); ULambda y; U (3, h); T (8, c); Hoist_vars [c]; T (14, x);  T (3, w); T (1, f);  Lambda_apply y [((Iter 2), (Arg 4)); ((Iter 1), (Arg 6))]; T (8, f);  T (64, c); T (4, f)]"
41.56,17978244,14511348,"[V f; U (2, f); ULambda y; U (3, h); T (4, c); Hoist_vars [c]; T (14, x);  T (3, w); T (16, f);  Lambda_apply y [((Iter 2), (Arg 4)); ((Iter 1), (Arg 6))]; T (2, f);  T (128, c); T (1, f)]"
41.53,12905857,17651952,"[V f; U (2, f); ULambda y; U (3, h); T (4, c); Hoist_vars [c]; T (14, x);  T (3, w); T (2, f);  Lambda_apply y [((Iter 2), (Arg 4)); ((Iter 1), (Arg 6))]; T (16, f);  T (128, c); T (1, f)]"
41.13,17859686,15814537,"[V f; U (2, f); ULambda y; U (3, h); T (4, c); Hoist_vars [c]; T (14, x);  T (3, w); T (8, f);  Lambda_apply y [((Iter 2), (Arg 4)); ((Iter 1), (Arg 6))]; T (2, f);  T (128, c); T (2, f)]"
35.97,16755924,19911694,"[V f; U (2, f); ULambda y; U (3, h); T (2, c); Hoist_vars [c]; T (14, x);  T (3, w); T (1, f);  Lambda_apply y [((Iter 2), (Arg 4)); ((Iter 1), (Arg 6))]; T (32, f);  T (256, c); T (1, f)]"
36.97,17740847,24124062,"[V f; U (2, f); ULambda y; U (3, h); T (2, c); Hoist_vars [c]; T (14, x);  T (3, w); T (4, f);  Lambda_apply y [((Iter 2), (Arg 4)); ((Iter 1), (Arg 6))]; T (4, f);  T (256, c); T (2, f)]"
34.40,17666833,28558425,"[V f; U (2, f); ULambda y; U (3, h); T (2, c); Hoist_vars [c]; T (14, x);  T (3, w); T (2, f);  Lambda_apply y [((Iter 2), (Arg 4)); ((Iter 1), (Arg 6))]; T (4, f);  T (256, c); T (4, f)]"
17.03,36542019,26600911,"[V f; U (2, f); ULambda y; U (3, h); T (1, c); Hoist_vars [c]; T (14, x);  T (3, w); T (4, f);  Lambda_apply y [((Iter 2), (Arg 4)); ((Iter 1), (Arg 6))]; T (1, f);  T (512, c); T (8, f)]"
34.72,11277561,26011339,"[V f; U (2, f); ULambda y; U (3, w); T (512, c); Hoist_vars [c]; T (14, x);  T (3, h); T (32, f);  Lambda_apply y [((Iter 1), (Arg 4)); ((Iter 2), (Arg 5))]; T (1, f);  T (1, c); T (1, f)]"
34.86,11171817,25609160,"[V f; U (2, f); ULambda y; U (3, w); T (512, c); Hoist_vars [c]; T (14, x);  T (3, h); T (16, f);  Lambda_apply y [((Iter 1), (Arg 4)); ((Iter 2), (Arg 5))]; T (2, f);  T (1, c); T (1, f)]"
34.77,11223738,25946179,"[V f; U (2, f); ULambda y; U (3, w); T (512, c); Hoist_vars [c]; T (14, x);  T (3, h); T (8, f);  Lambda_apply y [((Iter 1), (Arg 4)); ((Iter 2), (Arg 5))]; T (2, f);  T (1, c); T (2, f)]"
36.59,8608019,20056174,"[V f; U (2, f); ULambda y; U (3, w); T (512, c); Hoist_vars [c]; T (14, x);  T (3, h); T (1, f);  Lambda_apply y [((Iter 1), (Arg 4)); ((Iter 2), (Arg 5))]; T (2, f);  T (1, c); T (16, f)]"
40.37,11689748,26548468,"[V f; U (2, f); ULambda y; U (3, w); T (256, c); Hoist_vars [c]; T (14, x);  T (3, h); T (32, f);  Lambda_apply y [((Iter 1), (Arg 4)); ((Iter 2), (Arg 5))]; T (1, f);  T (2, c); T (1, f)]"
41.12,11327464,26407690,"[V f; U (2, f); ULambda y; U (3, w); T (256, c); Hoist_vars [c]; T (14, x);  T (3, h); T (2, f);  Lambda_apply y [((Iter 1), (Arg 4)); ((Iter 2), (Arg 5))]; T (16, f);  T (2, c); T (1, f)]"
46.40,11420183,24166976,"[V f; U (2, f); ULambda y; U (3, w); T (128, c); Hoist_vars [c]; T (14, x);  T (3, h); T (32, f);  Lambda_apply y [((Iter 1), (Arg 4)); ((Iter 2), (Arg 5))]; T (1, f);  T (4, c); T (1, f)]"
43.84,8773270,22710615,"[V f; U (2, f); ULambda y; U (3, w); T (128, c); Hoist_vars [c]; T (14, x);  T (3, h); T (4, f);  Lambda_apply y [((Iter 1), (Arg 4)); ((Iter 2), (Arg 5))]; T (8, f);  T (4, c); T (1, f)]"
43.55,8777884,22781083,"[V f; U (2, f); ULambda y; U (3, w); T (128, c); Hoist_vars [c]; T (14, x);  T (3, h); T (8, f);  Lambda_apply y [((Iter 1), (Arg 4)); ((Iter 2), (Arg 5))]; T (2, f);  T (4, c); T (2, f)]"
40.92,11479516,24793545,"[V f; U (2, f); ULambda y; U (3, w); T (128, c); Hoist_vars [c]; T (14, x);  T (3, h); T (1, f);  Lambda_apply y [((Iter 1), (Arg 4)); ((Iter 2), (Arg 5))]; T (2, f);  T (4, c); T (16, f)]"
48.93,11874822,15598648,"[V f; U (2, f); ULambda y; U (3, w); T (64, c); Hoist_vars [c]; T (14, x);  T (3, h); T (32, f);  Lambda_apply y [((Iter 1), (Arg 4)); ((Iter 2), (Arg 5))]; T (1, f);  T (8, c); T (1, f)]"
49.79,9162183,14306343,"[V f; U (2, f); ULambda y; U (3, w); T (64, c); Hoist_vars [c]; T (14, x);  T (3, h); T (2, f);  Lambda_apply y [((Iter 1), (Arg 4)); ((Iter 2), (Arg 5))]; T (16, f);  T (8, c); T (1, f)]"
48.04,12076990,17967175,"[V f; U (2, f); ULambda y; U (3, w); T (64, c); Hoist_vars [c]; T (14, x);  T (3, h); T (16, f);  Lambda_apply y [((Iter 1), (Arg 4)); ((Iter 2), (Arg 5))]; T (1, f);  T (8, c); T (2, f)]"
47.37,8867919,13647104,"[V f; U (2, f); ULambda y; U (3, w); T (64, c); Hoist_vars [c]; T (14, x);  T (3, h); T (2, f);  Lambda_apply y [((Iter 1), (Arg 4)); ((Iter 2), (Arg 5))]; T (2, f);  T (8, c); T (8, f)]"
46.63,11815007,15685511,"[V f; U (2, f); ULambda y; U (3, w); T (64, c); Hoist_vars [c]; T (14, x);  T (3, h); T (2, f);  Lambda_apply y [((Iter 1), (Arg 4)); ((Iter 2), (Arg 5))]; T (1, f);  T (8, c); T (16, f)]"
43.38,11892281,16700851,"[V f; U (2, f); ULambda y; U (3, w); T (64, c); Hoist_vars [c]; T (14, x);  T (3, h); T (1, f);  Lambda_apply y [((Iter 1), (Arg 4)); ((Iter 2), (Arg 5))]; T (1, f);  T (8, c); T (32, f)]"
57.02,9106112,6864661,"[V f; U (2, f); ULambda y; U (3, w); T (32, c); Hoist_vars [c]; T (14, x);  T (3, h); T (16, f);  Lambda_apply y [((Iter 1), (Arg 4)); ((Iter 2), (Arg 5))]; T (2, f);  T (16, c); T (1, f)]"
58.11,12507665,11696212,"[V f; U (2, f); ULambda y; U (3, w); T (32, c); Hoist_vars [c]; T (14, x);  T (3, h); T (2, f);  Lambda_apply y [((Iter 1), (Arg 4)); ((Iter 2), (Arg 5))]; T (16, f);  T (16, c); T (1, f)]"
59.69,10619567,9596751,"[V f; U (2, f); ULambda y; U (3, w); T (32, c); Hoist_vars [c]; T (14, x);  T (3, h); T (2, f);  Lambda_apply y [((Iter 1), (Arg 4)); ((Iter 2), (Arg 5))]; T (8, f);  T (16, c); T (2, f)]"
61.65,9069951,5510164,"[V f; U (2, f); ULambda y; U (3, w); T (32, c); Hoist_vars [c]; T (14, x);  T (3, h); T (8, f);  Lambda_apply y [((Iter 1), (Arg 4)); ((Iter 2), (Arg 5))]; T (1, f);  T (16, c); T (4, f)]"
60.19,12471130,10675111,"[V f; U (2, f); ULambda y; U (3, w); T (32, c); Hoist_vars [c]; T (14, x);  T (3, h); T (4, f);  Lambda_apply y [((Iter 1), (Arg 4)); ((Iter 2), (Arg 5))]; T (2, f);  T (16, c); T (4, f)]"
57.83,12640989,11629777,"[V f; U (2, f); ULambda y; U (3, w); T (32, c); Hoist_vars [c]; T (14, x);  T (3, h); T (4, f);  Lambda_apply y [((Iter 1), (Arg 4)); ((Iter 2), (Arg 5))]; T (1, f);  T (16, c); T (8, f)]"
55.61,13063833,11071854,"[V f; U (2, f); ULambda y; U (3, w); T (16, c); Hoist_vars [c]; T (14, x);  T (3, h); T (4, f);  Lambda_apply y [((Iter 1), (Arg 4)); ((Iter 2), (Arg 5))]; T (1, f);  T (32, c); T (8, f)]"
50.34,11479077,10725504,"[V f; U (2, f); ULambda y; U (3, w); T (8, c); Hoist_vars [c]; T (14, x);  T (3, h); T (2, f);  Lambda_apply y [((Iter 1), (Arg 4)); ((Iter 2), (Arg 5))]; T (16, f);  T (64, c); T (1, f)]"
48.06,14987235,18824634,"[V f; U (2, f); ULambda y; U (3, w); T (8, c); Hoist_vars [c]; T (14, x);  T (3, h); T (1, f);  Lambda_apply y [((Iter 1), (Arg 4)); ((Iter 2), (Arg 5))]; T (32, f);  T (64, c); T (1, f)]"
49.45,15669306,12102026,"[V f; U (2, f); ULambda y; U (3, w); T (8, c); Hoist_vars [c]; T (14, x);  T (3, h); T (4, f);  Lambda_apply y [((Iter 1), (Arg 4)); ((Iter 2), (Arg 5))]; T (4, f);  T (64, c); T (2, f)]"
47.34,15274139,13362877,"[V f; U (2, f); ULambda y; U (3, w); T (8, c); Hoist_vars [c]; T (14, x);  T (3, h); T (4, f);  Lambda_apply y [((Iter 1), (Arg 4)); ((Iter 2), (Arg 5))]; T (1, f);  T (64, c); T (8, f)]"
46.43,15258689,13808673,"[V f; U (2, f); ULambda y; U (3, w); T (8, c); Hoist_vars [c]; T (14, x);  T (3, h); T (2, f);  Lambda_apply y [((Iter 1), (Arg 4)); ((Iter 2), (Arg 5))]; T (1, f);  T (64, c); T (16, f)]"
43.87,15129006,15742587,"[V f; U (2, f); ULambda y; U (3, w); T (8, c); Hoist_vars [c]; T (14, x);  T (3, h); T (1, f);  Lambda_apply y [((Iter 1), (Arg 4)); ((Iter 2), (Arg 5))]; T (1, f);  T (64, c); T (32, f)]"
36.02,18528538,24496690,"[V f; U (2, f); ULambda y; U (3, w); T (4, c); Hoist_vars [c]; T (14, x);  T (3, h); T (8, f);  Lambda_apply y [((Iter 1), (Arg 4)); ((Iter 2), (Arg 5))]; T (4, f);  T (128, c); T (1, f)]"
38.51,18666228,17338881,"[V f; U (2, f); ULambda y; U (3, w); T (4, c); Hoist_vars [c]; T (14, x);  T (3, h); T (8, f);  Lambda_apply y [((Iter 1), (Arg 4)); ((Iter 2), (Arg 5))]; T (2, f);  T (128, c); T (2, f)]"
36.55,17952641,11172898,"[V f; U (2, f); ULambda y; U (3, w); T (2, c); Hoist_vars [c]; T (14, x);  T (3, h); T (32, f);  Lambda_apply y [((Iter 1), (Arg 4)); ((Iter 2), (Arg 5))]; T (1, f);  T (256, c); T (1, f)]"
35.77,16783563,15070181,"[V f; U (2, f); ULambda y; U (3, w); T (2, c); Hoist_vars [c]; T (14, x);  T (3, h); T (16, f);  Lambda_apply y [((Iter 1), (Arg 4)); ((Iter 2), (Arg 5))]; T (2, f);  T (256, c); T (1, f)]"
34.90,17949658,12913299,"[V f; U (2, f); ULambda y; U (3, w); T (2, c); Hoist_vars [c]; T (14, x);  T (3, h); T (16, f);  Lambda_apply y [((Iter 1), (Arg 4)); ((Iter 2), (Arg 5))]; T (1, f);  T (256, c); T (2, f)]"
18.29,33613791,24555967,"[V f; U (2, f); ULambda y; U (3, w); T (1, c); Hoist_vars [c]; T (14, x);  T (3, h); T (4, f);  Lambda_apply y [((Iter 1), (Arg 4)); ((Iter 2), (Arg 5))]; T (4, f);  T (512, c); T (2, f)]"
18.21,33496612,20066243,"[V f; U (2, f); ULambda y; U (3, w); T (1, c); Hoist_vars [c]; T (14, x);  T (3, h); T (8, f);  Lambda_apply y [((Iter 1), (Arg 4)); ((Iter 2), (Arg 5))]; T (1, f);  T (512, c); T (4, f)]"
36.23,11191155,24676640,"[V f; U (2, f); ULambda y; U (3, w); T (512, c); Hoist_vars [c]; T (14, x);  T (3, h); T (2, f);  Lambda_apply y [((Iter 2), (Arg 4)); ((Iter 1), (Arg 6))]; T (8, f);  T (1, c); T (2, f)]"
34.85,11235796,25292615,"[V f; U (2, f); ULambda y; U (3, w); T (512, c); Hoist_vars [c]; T (14, x);  T (3, h); T (4, f);  Lambda_apply y [((Iter 2), (Arg 4)); ((Iter 1), (Arg 6))]; T (2, f);  T (1, c); T (4, f)]"
44.24,8762614,21062879,"[V f; U (2, f); ULambda y; U (3, w); T (256, c); Hoist_vars [c]; T (14, x);  T (3, h); T (1, f);  Lambda_apply y [((Iter 2), (Arg 4)); ((Iter 1), (Arg 6))]; T (32, f);  T (2, c); T (1, f)]"
44.04,9199381,21882758,"[V f; U (2, f); ULambda y; U (3, w); T (256, c); Hoist_vars [c]; T (14, x);  T (3, h); T (1, f);  Lambda_apply y [((Iter 2), (Arg 4)); ((Iter 1), (Arg 6))]; T (16, f);  T (2, c); T (2, f)]"
40.46,11142732,25618474,"[V f; U (2, f); ULambda y; U (3, w); T (256, c); Hoist_vars [c]; T (14, x);  T (3, h); T (4, f);  Lambda_apply y [((Iter 2), (Arg 4)); ((Iter 1), (Arg 6))]; T (1, f);  T (2, c); T (8, f)]"
41.96,9050770,21714305,"[V f; U (2, f); ULambda y; U (3, w); T (256, c); Hoist_vars [c]; T (14, x);  T (3, h); T (1, f);  Lambda_apply y [((Iter 2), (Arg 4)); ((Iter 1), (Arg 6))]; T (1, f);  T (2, c); T (32, f)]"
42.63,11572061,24697592,"[V f; U (2, f); ULambda y; U (3, w); T (128, c); Hoist_vars [c]; T (14, x);  T (3, h); T (8, f);  Lambda_apply y [((Iter 2), (Arg 4)); ((Iter 1), (Arg 6))]; T (4, f);  T (4, c); T (1, f)]"
42.49,11572496,24675854,"[V f; U (2, f); ULambda y; U (3, w); T (128, c); Hoist_vars [c]; T (14, x);  T (3, h); T (4, f);  Lambda_apply y [((Iter 2), (Arg 4)); ((Iter 1), (Arg 6))]; T (4, f);  T (4, c); T (2, f)]"
48.17,8844649,21739147,"[V f; U (2, f); ULambda y; U (3, w); T (128, c); Hoist_vars [c]; T (14, x);  T (3, h); T (1, f);  Lambda_apply y [((Iter 2), (Arg 4)); ((Iter 1), (Arg 6))]; T (16, f);  T (4, c); T (2, f)]"
46.41,11508516,23916388,"[V f; U (2, f); ULambda y; U (3, w); T (128, c); Hoist_vars [c]; T (14, x);  T (3, h); T (2, f);  Lambda_apply y [((Iter 2), (Arg 4)); ((Iter 1), (Arg 6))]; T (4, f);  T (4, c); T (4, f)]"
42.04,11566684,24327586,"[V f; U (2, f); ULambda y; U (3, w); T (128, c); Hoist_vars [c]; T (14, x);  T (3, h); T (2, f);  Lambda_apply y [((Iter 2), (Arg 4)); ((Iter 1), (Arg 6))]; T (2, f);  T (4, c); T (8, f)]"
46.88,11978959,15684080,"[V f; U (2, f); ULambda y; U (3, w); T (64, c); Hoist_vars [c]; T (14, x);  T (3, h); T (8, f);  Lambda_apply y [((Iter 2), (Arg 4)); ((Iter 1), (Arg 6))]; T (2, f);  T (8, c); T (2, f)]"
46.10,11996249,16433561,"[V f; U (2, f); ULambda y; U (3, w); T (64, c); Hoist_vars [c]; T (14, x);  T (3, h); T (1, f);  Lambda_apply y [((Iter 2), (Arg 4)); ((Iter 1), (Arg 6))]; T (4, f);  T (8, c); T (8, f)]"
44.34,11984640,16473965,"[V f; U (2, f); ULambda y; U (3, w); T (64, c); Hoist_vars [c]; T (14, x);  T (3, h); T (1, f);  Lambda_apply y [((Iter 2), (Arg 4)); ((Iter 1), (Arg 6))]; T (1, f);  T (8, c); T (32, f)]"
59.65,12569404,10837814,"[V f; U (2, f); ULambda y; U (3, w); T (32, c); Hoist_vars [c]; T (14, x);  T (3, h); T (2, f);  Lambda_apply y [((Iter 2), (Arg 4)); ((Iter 1), (Arg 6))]; T (16, f);  T (16, c); T (1, f)]"
61.11,12593649,11137180,"[V f; U (2, f); ULambda y; U (3, w); T (32, c); Hoist_vars [c]; T (14, x);  T (3, h); T (2, f);  Lambda_apply y [((Iter 2), (Arg 4)); ((Iter 1), (Arg 6))]; T (8, f);  T (16, c); T (2, f)]"
58.19,12542330,10315006,"[V f; U (2, f); ULambda y; U (3, w); T (32, c); Hoist_vars [c]; T (14, x);  T (3, h); T (2, f);  Lambda_apply y [((Iter 2), (Arg 4)); ((Iter 1), (Arg 6))]; T (1, f);  T (16, c); T (16, f)]"
48.92,15162305,14860180,"[V f; U (2, f); ULambda y; U (3, w); T (8, c); Hoist_vars [c]; T (14, x);  T (3, h); T (1, f);  Lambda_apply y [((Iter 2), (Arg 4)); ((Iter 1), (Arg 6))]; T (32, f);  T (64, c); T (1, f)]"
48.32,13698325,14251050,"[V f; U (2, f); ULambda y; U (3, w); T (8, c); Hoist_vars [c]; T (14, x);  T (3, h); T (8, f);  Lambda_apply y [((Iter 2), (Arg 4)); ((Iter 1), (Arg 6))]; T (2, f);  T (64, c); T (2, f)]"
48.62,15360476,13862446,"[V f; U (2, f); ULambda y; U (3, w); T (8, c); Hoist_vars [c]; T (14, x);  T (3, h); T (2, f);  Lambda_apply y [((Iter 2), (Arg 4)); ((Iter 1), (Arg 6))]; T (2, f);  T (64, c); T (8, f)]"
39.48,18633060,15925035,"[V f; U (2, f); ULambda y; U (3, w); T (4, c); Hoist_vars [c]; T (14, x);  T (3, h); T (8, f);  Lambda_apply y [((Iter 2), (Arg 4)); ((Iter 1), (Arg 6))]; T (4, f);  T (128, c); T (1, f)]"
37.45,16692570,22092454,"[V f; U (2, f); ULambda y; U (3, w); T (4, c); Hoist_vars [c]; T (14, x);  T (3, h); T (4, f);  Lambda_apply y [((Iter 2), (Arg 4)); ((Iter 1), (Arg 6))]; T (4, f);  T (128, c); T (2, f)]"
18.89,35433928,44459971,"[V f; U (2, f); ULambda y; U (3, w); T (1, c); Hoist_vars [c]; T (14, x);  T (3, h); T (2, f);  Lambda_apply y [((Iter 2), (Arg 4)); ((Iter 1), (Arg 6))]; T (16, f);  T (512, c); T (1, f)]"
19.05,34171824,33742142,"[V f; U (2, f); ULambda y; U (3, w); T (1, c); Hoist_vars [c]; T (14, x);  T (3, h); T (1, f);  Lambda_apply y [((Iter 2), (Arg 4)); ((Iter 1), (Arg 6))]; T (32, f);  T (512, c); T (1, f)]"
