perf,CACHE_MISS_L1,CACHE_MISS_L2,scheme
63.50,4051933,4065986,"[V f; U (2, f); U (4, y); T (128, c); Hoist_vars [c]; T (14, x); T (3, w);  T (3, h); T (1, c); T (1, x); T (7, y); T (16, f); T (1, c); T (2, x)]"
43.82,4457718,9339069,"[V f; U (2, f); U (4, y); T (1, c); Hoist_vars [c]; T (1, x); T (3, w);  T (3, h); T (32, c); T (14, x); T (7, y); T (16, f); T (4, c); T (2, x)]"
60.27,5349452,5047003,"[V f; U (2, f); U (4, y); T (32, c); Hoist_vars [c]; T (7, x); T (3, w);  T (3, h); T (1, c); T (1, x); T (7, y); T (16, f); T (4, c); T (4, x)]"
63.95,4350634,1972086,"[V f; U (2, f); U (4, y); T (8, c); Hoist_vars [c]; T (1, x); T (3, w);  T (3, h); T (1, c); T (7, x); T (7, y); T (16, f); T (16, c); T (4, x)]"
39.63,2215197,4087472,"[V f; U (2, f); U (4, y); T (4, c); Hoist_vars [c]; T (2, x); T (3, w);  T (3, h); T (8, c); T (2, x); T (7, y); T (16, f); T (4, c); T (7, x)]"
52.75,6468126,1545538,"[V f; U (2, f); U (4, y); T (1, c); Hoist_vars [c]; T (1, x); T (3, w);  T (3, h); T (2, c); T (2, x); T (7, y); T (16, f); T (64, c); T (14, x)]"
36.11,5062544,15960296,"[V f; U (2, f); U (4, y); U (3, h); T (64, c); Hoist_vars [c]; T (1, x);  T (3, w); T (2, f); T (28, x); T (7, y); T (4, f); T (2, c); T (1, x);  T (2, f)]"
38.59,4523323,14635852,"[V f; U (2, f); U (4, y); U (3, h); T (64, c); Hoist_vars [c]; T (1, x);  T (3, w); T (2, f); T (28, x); T (7, y); T (2, f); T (2, c); T (1, x);  T (4, f)]"
43.36,5427812,11152113,"[V f; U (2, f); U (4, y); U (3, h); T (32, c); Hoist_vars [c]; T (1, x);  T (3, w); T (1, f); T (28, x); T (7, y); T (8, f); T (4, c); T (1, x);  T (2, f)]"
47.41,4868909,5069555,"[V f; U (2, f); U (4, y); U (3, h); T (4, c); Hoist_vars [c]; T (2, x);  T (3, w); T (1, f); T (7, x); T (7, y); T (16, f); T (32, c); T (2, x);  T (1, f)]"
46.76,3860036,13335791,"[V f; U (2, f); U (4, y); U (3, h); T (64, c); Hoist_vars [c]; T (1, x);  T (3, w); T (2, f); T (14, x); T (7, y); T (8, f); T (2, c); T (2, x);  T (1, f)]"
45.28,3910426,13573948,"[V f; U (2, f); U (4, y); U (3, h); T (64, c); Hoist_vars [c]; T (1, x);  T (3, w); T (1, f); T (14, x); T (7, y); T (1, f); T (2, c); T (2, x);  T (16, f)]"
42.46,4318289,3466618,"[V f; U (2, f); U (4, y); U (3, h); T (2, c); Hoist_vars [c]; T (1, x);  T (3, w); T (4, f); T (14, x); T (7, y); T (1, f); T (64, c); T (2, x);  T (4, f)]"
55.09,5009563,3214277,"[V f; U (2, f); U (4, y); U (3, h); T (4, c); Hoist_vars [c]; T (1, x);  T (3, w); T (2, f); T (7, x); T (7, y); T (1, f); T (32, c); T (4, x);  T (8, f)]"
58.72,2361423,1551180,"[V f; U (2, f); U (4, y); U (3, h); T (2, c); Hoist_vars [c]; T (4, x);  T (3, w); T (8, f); T (1, x); T (7, y); T (1, f); T (64, c); T (7, x);  T (2, f)]"
44.78,4488449,2541356,"[V f; U (2, f); U (4, y); U (3, h); T (1, c); Hoist_vars [c]; T (4, x);  T (3, w); T (2, f); T (1, x); T (7, y); T (4, f); T (128, c); T (7, x);  T (2, f)]"
64.38,2593775,1321884,"[V f; U (2, f); U (4, y); U (3, h); T (8, c); Hoist_vars [c]; T (2, x);  T (3, w); T (8, f); T (2, x); T (7, y); T (1, f); T (16, c); T (7, x);  T (2, f)]"
48.08,3979687,8553587,"[V f; U (2, f); U (4, y); U (3, h); T (32, c); Hoist_vars [c]; T (1, x);  T (3, w); T (2, f); T (4, x); T (7, y); T (4, f); T (4, c); T (7, x);  T (2, f)]"
34.58,4985164,17152754,"[V f; U (2, f); U (4, y); U (3, h); T (128, c); Hoist_vars [c]; T (1, x);  T (3, w); T (2, f); T (2, x); T (7, y); T (2, f); T (1, c); T (14, x);  T (4, f)]"
42.77,5157163,16641416,"[V f; U (2, f); U (4, y); U (3, h); T (128, c); Hoist_vars [c]; T (1, x);  T (3, w); T (1, f); T (1, x); T (7, y); T (2, f); T (1, c); T (28, x);  T (8, f)]"
55.21,7193275,7370063,"[V f; U (2, f); U (4, y); U (3, h); T (8, c); Hoist_vars [c]; T (1, x);  T (3, w); T (1, f); T (1, x); T (7, y); T (1, f); T (16, c); T (28, x);  T (16, f)]"
55.16,7648383,1980703,"[V f; U (2, f); U (4, y); U (3, h); T (4, c); Hoist_vars [c]; T (1, x);  T (3, w); T (1, f); T (1, x); T (7, y); T (16, f); T (32, c); T (28, x);  T (1, f)]"
43.99,4637844,2494238,"[V f; U (2, f); U (4, y); U (3, h); T (2, c); Hoist_vars [c]; T (1, x);  T (3, w); T (4, f); T (1, x); T (7, y); T (2, f); T (64, c); T (28, x);  T (2, f)]"
35.11,6693579,7359252,"[V f; U (2, f); U (7, y); U (3, h); T (2, c); Hoist_vars [c]; T (28, x);  T (3, w); T (8, f); T (1, x); T (4, y); T (2, f); T (64, c); T (1, x);  T (1, f)]"
32.45,6188613,9170222,"[V f; U (2, f); U (7, y); U (3, h); T (2, c); Hoist_vars [c]; T (28, x);  T (3, w); T (2, f); T (1, x); T (4, y); T (8, f); T (64, c); T (1, x);  T (1, f)]"
45.00,3516265,3963722,"[V f; U (2, f); U (7, y); U (3, h); T (4, c); Hoist_vars [c]; T (14, x);  T (3, w); T (2, f); T (2, x); T (4, y); T (2, f); T (32, c); T (1, x);  T (4, f)]"
46.39,3586381,2737627,"[V f; U (2, f); U (7, y); U (3, h); T (4, c); Hoist_vars [c]; T (4, x);  T (3, w); T (8, f); T (7, x); T (4, y); T (2, f); T (32, c); T (1, x);  T (1, f)]"
51.17,2584302,1767225,"[V f; U (2, f); U (7, y); U (3, h); T (8, c); Hoist_vars [c]; T (2, x);  T (3, w); T (4, f); T (14, x); T (4, y); T (4, f); T (16, c); T (1, x);  T (1, f)]"
32.02,3187030,9059697,"[V f; U (2, f); U (7, y); U (3, h); T (2, c); Hoist_vars [c]; T (2, x);  T (3, w); T (2, f); T (14, x); T (4, y); T (1, f); T (64, c); T (1, x);  T (8, f)]"
39.80,2795327,11840042,"[V f; U (2, f); U (7, y); U (3, h); T (128, c); Hoist_vars [c]; T (1, x);  T (3, w); T (16, f); T (28, x); T (4, y); T (1, f); T (1, c); T (1, x);  T (1, f)]"
54.63,3689190,1530024,"[V f; U (2, f); U (7, y); U (3, h); T (8, c); Hoist_vars [c]; T (1, x);  T (3, w); T (8, f); T (28, x); T (4, y); T (2, f); T (16, c); T (1, x);  T (1, f)]"
57.27,3645292,3021907,"[V f; U (2, f); U (7, y); U (3, h); T (16, c); Hoist_vars [c]; T (7, x);  T (3, w); T (2, f); T (2, x); T (4, y); T (4, f); T (8, c); T (2, x);  T (2, f)]"
46.65,4488306,4915895,"[V f; U (2, f); U (7, y); U (3, h); T (4, c); Hoist_vars [c]; T (1, x);  T (3, w); T (1, f); T (14, x); T (4, y); T (2, f); T (32, c); T (2, x);  T (8, f)]"
31.01,5178756,8551067,"[V f; U (2, f); U (7, y); U (3, h); T (1, c); Hoist_vars [c]; T (1, x);  T (3, w); T (2, f); T (14, x); T (4, y); T (2, f); T (128, c); T (2, x);  T (4, f)]"
40.37,2326767,8847630,"[V f; U (2, f); U (7, y); U (3, h); T (128, c); Hoist_vars [c]; T (4, x);  T (3, w); T (1, f); T (1, x); T (4, y); T (1, f); T (1, c); T (7, x);  T (16, f)]"
55.97,2737424,1825455,"[V f; U (2, f); U (7, y); U (3, h); T (16, c); Hoist_vars [c]; T (2, x);  T (3, w); T (4, f); T (2, x); T (4, y); T (4, f); T (8, c); T (7, x);  T (1, f)]"
31.17,3442827,1794375,"[V f; U (2, f); U (7, y); U (3, h); T (1, c); Hoist_vars [c]; T (2, x);  T (3, w); T (8, f); T (2, x); T (4, y); T (2, f); T (128, c); T (7, x);  T (1, f)]"
28.97,6381417,4008643,"[V f; U (2, f); U (7, y); U (3, h); T (1, c); Hoist_vars [c]; T (2, x);  T (3, w); T (1, f); T (2, x); T (4, y); T (8, f); T (128, c); T (7, x);  T (2, f)]"
42.24,3018490,11323030,"[V f; U (2, f); U (7, y); U (3, h); T (64, c); Hoist_vars [c]; T (1, x);  T (3, w); T (4, f); T (4, x); T (4, y); T (4, f); T (2, c); T (7, x);  T (1, f)]"
44.46,3147892,6839061,"[V f; U (2, f); U (7, y); U (3, h); T (32, c); Hoist_vars [c]; T (1, x);  T (3, w); T (2, f); T (4, x); T (4, y); T (4, f); T (4, c); T (7, x);  T (2, f)]"
51.57,2582642,2519305,"[V f; U (2, f); U (7, y); U (3, h); T (16, c); Hoist_vars [c]; T (1, x);  T (3, w); T (2, f); T (4, x); T (4, y); T (1, f); T (8, c); T (7, x);  T (8, f)]"
47.91,4179229,3696494,"[V f; U (2, f); U (7, y); U (3, h); T (4, c); Hoist_vars [c]; T (1, x);  T (3, w); T (2, f); T (2, x); T (4, y); T (1, f); T (32, c); T (14, x);  T (8, f)]"
41.10,2822257,11608773,"[V f; U (2, f); U (7, y); U (3, h); T (128, c); Hoist_vars [c]; T (1, x);  T (3, w); T (1, f); T (1, x); T (4, y); T (8, f); T (1, c); T (28, x);  T (2, f)]"
39.87,5225436,13398529,"[V f; U (2, f); U (4, y); U (3, w); T (128, c); Hoist_vars [c]; T (28, x);  T (3, h); T (8, f); T (1, x); T (7, y); T (2, f); T (1, c); T (1, x);  T (1, f)]"
64.82,6043360,2658825,"[V f; U (2, f); U (4, y); U (3, w); T (16, c); Hoist_vars [c]; T (28, x);  T (3, h); T (8, f); T (1, x); T (7, y); T (2, f); T (8, c); T (1, x);  T (1, f)]"
64.95,5698973,3363570,"[V f; U (2, f); U (4, y); U (3, w); T (16, c); Hoist_vars [c]; T (28, x);  T (3, h); T (2, f); T (1, x); T (7, y); T (2, f); T (8, c); T (1, x);  T (4, f)]"
45.72,5157681,13086958,"[V f; U (2, f); U (4, y); U (3, w); T (128, c); Hoist_vars [c]; T (14, x);  T (3, h); T (4, f); T (2, x); T (7, y); T (1, f); T (1, c); T (1, x);  T (4, f)]"
42.79,2527371,5217209,"[V f; U (2, f); U (4, y); U (3, w); T (4, c); Hoist_vars [c]; T (14, x);  T (3, h); T (1, f); T (2, x); T (7, y); T (8, f); T (32, c); T (1, x);  T (2, f)]"
65.53,4512961,4467512,"[V f; U (2, f); U (4, y); U (3, w); T (64, c); Hoist_vars [c]; T (7, x);  T (3, h); T (8, f); T (4, x); T (7, y); T (2, f); T (2, c); T (1, x);  T (1, f)]"
63.89,5568851,2870652,"[V f; U (2, f); U (4, y); U (3, w); T (16, c); Hoist_vars [c]; T (7, x);  T (3, h); T (4, f); T (4, x); T (7, y); T (1, f); T (8, c); T (1, x);  T (4, f)]"
52.96,3913891,7009118,"[V f; U (2, f); U (4, y); U (3, w); T (8, c); Hoist_vars [c]; T (7, x);  T (3, h); T (1, f); T (4, x); T (7, y); T (16, f); T (16, c); T (1, x);  T (1, f)]"
54.04,3492521,1849543,"[V f; U (2, f); U (4, y); U (3, w); T (4, c); Hoist_vars [c]; T (7, x);  T (3, h); T (16, f); T (4, x); T (7, y); T (1, f); T (32, c); T (1, x);  T (1, f)]"
50.65,3907191,9555134,"[V f; U (2, f); U (4, y); U (3, w); T (64, c); Hoist_vars [c]; T (2, x);  T (3, h); T (4, f); T (14, x); T (7, y); T (2, f); T (2, c); T (1, x);  T (2, f)]"
47.45,5358903,10137028,"[V f; U (2, f); U (4, y); U (3, w); T (32, c); Hoist_vars [c]; T (1, x);  T (3, h); T (2, f); T (28, x); T (7, y); T (8, f); T (4, c); T (1, x);  T (1, f)]"
55.17,6008285,3173504,"[V f; U (2, f); U (4, y); U (3, w); T (8, c); Hoist_vars [c]; T (1, x);  T (3, h); T (2, f); T (28, x); T (7, y); T (8, f); T (16, c); T (1, x);  T (1, f)]"
44.47,6109941,7024630,"[V f; U (2, f); U (4, y); U (3, w); T (4, c); Hoist_vars [c]; T (1, x);  T (3, h); T (1, f); T (28, x); T (7, y); T (1, f); T (32, c); T (1, x);  T (16, f)]"
44.53,4066487,2687766,"[V f; U (2, f); U (4, y); U (3, w); T (2, c); Hoist_vars [c]; T (1, x);  T (3, h); T (8, f); T (28, x); T (7, y); T (2, f); T (64, c); T (1, x);  T (1, f)]"
34.07,6059240,7949513,"[V f; U (2, f); U (4, y); U (3, w); T (1, c); Hoist_vars [c]; T (2, x);  T (3, h); T (1, f); T (7, x); T (7, y); T (1, f); T (128, c); T (2, x);  T (16, f)]"
55.23,4009880,5966830,"[V f; U (2, f); U (4, y); U (3, w); T (64, c); Hoist_vars [c]; T (7, x);  T (3, h); T (1, f); T (1, x); T (7, y); T (8, f); T (2, c); T (4, x);  T (2, f)]"
51.01,3269550,3183816,"[V f; U (2, f); U (4, y); U (3, w); T (2, c); Hoist_vars [c]; T (7, x);  T (3, h); T (1, f); T (1, x); T (7, y); T (8, f); T (64, c); T (4, x);  T (2, f)]"
49.26,5220690,8753025,"[V f; U (2, f); U (4, y); U (3, w); T (32, c); Hoist_vars [c]; T (1, x);  T (3, h); T (8, f); T (7, x); T (7, y); T (1, f); T (4, c); T (4, x);  T (2, f)]"
38.79,5005008,14143602,"[V f; U (2, f); U (4, y); U (3, w); T (128, c); Hoist_vars [c]; T (4, x);  T (3, h); T (1, f); T (1, x); T (7, y); T (16, f); T (1, c); T (7, x);  T (1, f)]"
35.24,8617593,7256453,"[V f; U (2, f); U (4, y); U (3, w); T (1, c); Hoist_vars [c]; T (1, x);  T (3, h); T (1, f); T (4, x); T (7, y); T (1, f); T (128, c); T (7, x);  T (16, f)]"
47.13,3948621,7776509,"[V f; U (2, f); U (4, y); U (3, w); T (8, c); Hoist_vars [c]; T (2, x);  T (3, h); T (4, f); T (1, x); T (7, y); T (1, f); T (16, c); T (14, x);  T (4, f)]"
50.06,5753368,1878430,"[V f; U (2, f); U (4, y); U (3, w); T (4, c); Hoist_vars [c]; T (2, x);  T (3, h); T (1, f); T (1, x); T (7, y); T (16, f); T (32, c); T (14, x);  T (1, f)]"
41.97,5173904,16813801,"[V f; U (2, f); U (4, y); U (3, w); T (128, c); Hoist_vars [c]; T (1, x);  T (3, h); T (1, f); T (2, x); T (7, y); T (4, f); T (1, c); T (14, x);  T (4, f)]"
51.02,5947454,5370116,"[V f; U (2, f); U (4, y); U (3, w); T (16, c); Hoist_vars [c]; T (1, x);  T (3, h); T (2, f); T (2, x); T (7, y); T (4, f); T (8, c); T (14, x);  T (2, f)]"
53.97,6136583,3080623,"[V f; U (2, f); U (4, y); U (3, w); T (8, c); Hoist_vars [c]; T (1, x);  T (3, h); T (2, f); T (2, x); T (7, y); T (2, f); T (16, c); T (14, x);  T (4, f)]"
46.58,4410570,1128598,"[V f; U (2, f); U (4, y); U (3, w); T (2, c); Hoist_vars [c]; T (1, x);  T (3, h); T (8, f); T (2, x); T (7, y); T (2, f); T (64, c); T (14, x);  T (1, f)]"
41.76,5124957,16802189,"[V f; U (2, f); U (4, y); U (3, w); T (128, c); Hoist_vars [c]; T (1, x);  T (3, h); T (4, f); T (1, x); T (7, y); T (1, f); T (1, c); T (28, x);  T (4, f)]"
54.43,3402569,4737458,"[V f; U (2, f); U (7, y); U (3, w); T (64, c); Hoist_vars [c]; T (14, x);  T (3, h); T (8, f); T (2, x); T (4, y); T (1, f); T (2, c); T (1, x);  T (2, f)]"
57.86,4093812,2997511,"[V f; U (2, f); U (7, y); U (3, w); T (16, c); Hoist_vars [c]; T (14, x);  T (3, h); T (8, f); T (2, x); T (4, y); T (1, f); T (8, c); T (1, x);  T (2, f)]"
44.08,2421847,8698119,"[V f; U (2, f); U (7, y); U (3, w); T (128, c); Hoist_vars [c]; T (7, x);  T (3, h); T (1, f); T (4, x); T (4, y); T (4, f); T (1, c); T (1, x);  T (4, f)]"
55.73,3812080,2901488,"[V f; U (2, f); U (7, y); U (3, w); T (16, c); Hoist_vars [c]; T (7, x);  T (3, h); T (4, f); T (4, x); T (4, y); T (1, f); T (8, c); T (1, x);  T (4, f)]"
41.78,2931019,4529442,"[V f; U (2, f); U (7, y); U (3, w); T (4, c); Hoist_vars [c]; T (7, x);  T (3, h); T (2, f); T (4, x); T (4, y); T (8, f); T (32, c); T (1, x);  T (1, f)]"
27.26,6604651,13498629,"[V f; U (2, f); U (7, y); U (3, w); T (2, c); Hoist_vars [c]; T (7, x);  T (3, h); T (1, f); T (4, x); T (4, y); T (16, f); T (64, c); T (1, x);  T (1, f)]"
46.70,3077570,9794406,"[V f; U (2, f); U (7, y); U (3, w); T (128, c); Hoist_vars [c]; T (4, x);  T (3, h); T (4, f); T (7, x); T (4, y); T (2, f); T (1, c); T (1, x);  T (2, f)]"
51.65,2316837,4414554,"[V f; U (2, f); U (7, y); U (3, w); T (64, c); Hoist_vars [c]; T (4, x);  T (3, h); T (16, f); T (7, x); T (4, y); T (1, f); T (2, c); T (1, x);  T (1, f)]"
23.72,4119645,9427802,"[V f; U (2, f); U (7, y); U (3, w); T (1, c); Hoist_vars [c]; T (2, x);  T (3, h); T (2, f); T (14, x); T (4, y); T (1, f); T (128, c); T (1, x);  T (8, f)]"
43.40,2906287,11827241,"[V f; U (2, f); U (7, y); U (3, w); T (128, c); Hoist_vars [c]; T (1, x);  T (3, h); T (8, f); T (28, x); T (4, y); T (2, f); T (1, c); T (1, x);  T (1, f)]"
45.94,3295684,6675658,"[V f; U (2, f); U (7, y); U (3, w); T (32, c); Hoist_vars [c]; T (1, x);  T (3, h); T (2, f); T (28, x); T (4, y); T (1, f); T (4, c); T (1, x);  T (8, f)]"
45.31,3287107,9267526,"[V f; U (2, f); U (7, y); U (3, w); T (128, c); Hoist_vars [c]; T (14, x);  T (3, h); T (2, f); T (1, x); T (4, y); T (8, f); T (1, c); T (2, x);  T (1, f)]"
43.58,2533785,8760600,"[V f; U (2, f); U (7, y); U (3, w); T (128, c); Hoist_vars [c]; T (14, x);  T (3, h); T (1, f); T (1, x); T (4, y); T (2, f); T (1, c); T (2, x);  T (8, f)]"
55.32,3436250,3562061,"[V f; U (2, f); U (7, y); U (3, w); T (32, c); Hoist_vars [c]; T (14, x);  T (3, h); T (1, f); T (1, x); T (4, y); T (1, f); T (4, c); T (2, x);  T (16, f)]"
54.46,2639605,2872283,"[V f; U (2, f); U (7, y); U (3, w); T (32, c); Hoist_vars [c]; T (7, x);  T (3, h); T (2, f); T (2, x); T (4, y); T (8, f); T (4, c); T (2, x);  T (1, f)]"
46.54,2364537,7003991,"[V f; U (2, f); U (7, y); U (3, w); T (64, c); Hoist_vars [c]; T (2, x);  T (3, h); T (2, f); T (7, x); T (4, y); T (4, f); T (2, c); T (2, x);  T (2, f)]"
50.57,3180446,5496613,"[V f; U (2, f); U (7, y); U (3, w); T (32, c); Hoist_vars [c]; T (2, x);  T (3, h); T (2, f); T (7, x); T (4, y); T (4, f); T (4, c); T (2, x);  T (2, f)]"
29.75,4165797,6747286,"[V f; U (2, f); U (7, y); U (3, w); T (2, c); Hoist_vars [c]; T (2, x);  T (3, h); T (1, f); T (7, x); T (4, y); T (8, f); T (64, c); T (2, x);  T (2, f)]"
22.08,6172136,11321499,"[V f; U (2, f); U (7, y); U (3, w); T (1, c); Hoist_vars [c]; T (2, x);  T (3, h); T (1, f); T (7, x); T (4, y); T (8, f); T (128, c); T (2, x);  T (2, f)]"
50.36,3004577,2130074,"[V f; U (2, f); U (7, y); U (3, w); T (8, c); Hoist_vars [c]; T (7, x);  T (3, h); T (2, f); T (1, x); T (4, y); T (4, f); T (16, c); T (4, x);  T (2, f)]"
42.88,3030358,3333292,"[V f; U (2, f); U (7, y); U (3, w); T (4, c); Hoist_vars [c]; T (7, x);  T (3, h); T (1, f); T (1, x); T (4, y); T (1, f); T (32, c); T (4, x);  T (16, f)]"
43.17,2798221,11591441,"[V f; U (2, f); U (7, y); U (3, w); T (128, c); Hoist_vars [c]; T (1, x);  T (3, h); T (8, f); T (7, x); T (4, y); T (2, f); T (1, c); T (4, x);  T (1, f)]"
42.84,3047951,10848531,"[V f; U (2, f); U (7, y); U (3, w); T (128, c); Hoist_vars [c]; T (2, x);  T (3, h); T (4, f); T (2, x); T (4, y); T (1, f); T (1, c); T (7, x);  T (4, f)]"
47.12,3299133,8154022,"[V f; U (2, f); U (7, y); U (3, w); T (64, c); Hoist_vars [c]; T (2, x);  T (3, h); T (1, f); T (2, x); T (4, y); T (2, f); T (2, c); T (7, x);  T (8, f)]"
50.24,2582660,1989361,"[V f; U (2, f); U (7, y); U (3, w); T (16, c); Hoist_vars [c]; T (1, x);  T (3, h); T (2, f); T (4, x); T (4, y); T (8, f); T (8, c); T (7, x);  T (1, f)]"
38.02,3523152,1828325,"[V f; U (2, f); U (7, y); U (3, w); T (2, c); Hoist_vars [c]; T (1, x);  T (3, h); T (4, f); T (4, x); T (4, y); T (2, f); T (64, c); T (7, x);  T (2, f)]"
36.59,3610912,2335347,"[V f; U (2, f); U (7, y); U (3, w); T (2, c); Hoist_vars [c]; T (1, x);  T (3, h); T (2, f); T (4, x); T (4, y); T (2, f); T (64, c); T (7, x);  T (4, f)]"
42.59,3058511,12061518,"[V f; U (2, f); U (7, y); U (3, w); T (128, c); Hoist_vars [c]; T (1, x);  T (3, h); T (4, f); T (1, x); T (4, y); T (1, f); T (1, c); T (28, x);  T (4, f)]"
44.36,3674912,8944431,"[V f; U (2, f); U (7, y); U (3, w); T (32, c); Hoist_vars [c]; T (1, x);  T (3, h); T (1, f); T (1, x); T (4, y); T (1, f); T (4, c); T (28, x);  T (16, f)]"
43.06,3914495,9894769,"[V f; U (2, f); U (7, y); U (3, w); T (16, c); Hoist_vars [c]; T (1, x);  T (3, h); T (1, f); T (1, x); T (4, y); T (1, f); T (8, c); T (28, x);  T (16, f)]"
48.84,2543703,1536604,"[V f; U (2, f); U (7, y); U (3, w); T (4, c); Hoist_vars [c]; T (1, x);  T (3, h); T (16, f); T (1, x); T (4, y); T (1, f); T (32, c); T (28, x);  T (1, f)]"
26.66,8756154,10739510,"[V f; U (2, f); U (7, y); U (3, w); T (1, c); Hoist_vars [c]; T (1, x);  T (3, h); T (1, f); T (1, x); T (4, y); T (1, f); T (128, c); T (28, x);  T (16, f)]"
29.06,8776869,11932781,"[V f; U (4, f); U (4, y); U (3, w); T (1, c); Hoist_vars [c]; T (28, x);  T (3, h); T (1, f); T (1, x); T (7, y); T (8, f); T (128, c); T (1, x);  T (1, f)]"
31.74,8161635,10177342,"[V f; U (4, f); U (4, y); U (3, w); T (1, c); Hoist_vars [c]; T (14, x);  T (3, h); T (2, f); T (2, x); T (7, y); T (4, f); T (128, c); T (1, x);  T (1, f)]"
36.43,4241580,5203350,"[V f; U (4, f); U (4, y); U (3, w); T (4, c); Hoist_vars [c]; T (2, x);  T (3, h); T (1, f); T (14, x); T (7, y); T (4, f); T (32, c); T (1, x);  T (2, f)]"
48.48,4446144,3072122,"[V f; U (4, f); U (4, y); U (3, w); T (32, c); Hoist_vars [c]; T (14, x);  T (3, h); T (1, f); T (1, x); T (7, y); T (2, f); T (4, c); T (2, x);  T (4, f)]"
46.70,4954056,1982239,"[V f; U (4, f); U (4, y); U (3, w); T (16, c); Hoist_vars [c]; T (14, x);  T (3, h); T (4, f); T (1, x); T (7, y); T (1, f); T (8, c); T (2, x);  T (2, f)]"
47.28,4518451,4128272,"[V f; U (4, f); U (4, y); U (3, w); T (32, c); Hoist_vars [c]; T (7, x);  T (3, h); T (1, f); T (2, x); T (7, y); T (2, f); T (4, c); T (2, x);  T (4, f)]"
28.37,5242030,9067617,"[V f; U (4, f); U (4, y); U (3, w); T (1, c); Hoist_vars [c]; T (2, x);  T (3, h); T (1, f); T (7, x); T (7, y); T (4, f); T (128, c); T (2, x);  T (2, f)]"
35.44,4131441,4206160,"[V f; U (4, f); U (4, y); U (3, w); T (1, c); Hoist_vars [c]; T (7, x);  T (3, h); T (4, f); T (1, x); T (7, y); T (2, f); T (128, c); T (4, x);  T (1, f)]"
43.59,4658191,10809379,"[V f; U (4, f); U (4, y); U (3, w); T (64, c); Hoist_vars [c]; T (2, x);  T (3, h); T (2, f); T (2, x); T (7, y); T (1, f); T (2, c); T (7, x);  T (4, f)]"
33.55,3947757,8624657,"[V f; U (4, f); U (4, y); U (3, w); T (32, c); Hoist_vars [c]; T (1, x);  T (3, h); T (2, f); T (4, x); T (7, y); T (4, f); T (4, c); T (7, x);  T (1, f)]"
30.86,4046866,15914013,"[V f; U (4, f); U (4, y); U (3, w); T (8, c); Hoist_vars [c]; T (1, x);  T (3, h); T (2, f); T (2, x); T (7, y); T (4, f); T (16, c); T (14, x);  T (1, f)]"
30.53,3737716,13312275,"[V f; U (4, f); U (4, y); U (3, w); T (4, c); Hoist_vars [c]; T (1, x);  T (3, h); T (2, f); T (2, x); T (7, y); T (4, f); T (32, c); T (14, x);  T (1, f)]"
31.61,6038446,2531147,"[V f; U (4, f); U (4, y); U (3, w); T (2, c); Hoist_vars [c]; T (1, x);  T (3, h); T (1, f); T (2, x); T (7, y); T (2, f); T (64, c); T (14, x);  T (4, f)]"
58.75,5005027,4402513,"[V f; U (1, f); ULambda y; U (3, h); T (16, c); Hoist_vars [c]; T (14, x);  T (3, w); T (1, c); T (2, x);  Lambda_apply y [((Iter 1), (Arg 8)); ((Iter 2), (Arg 10))]; T (1, x);  T (32, f); T (8, c); T (1, x)]"
11.77,30827963,15233036,"[V f; U (1, f); ULambda y; U (3, h); T (1, c); Hoist_vars [c]; T (14, x);  T (3, w); T (8, c); T (2, x);  Lambda_apply y [((Iter 1), (Arg 8)); ((Iter 2), (Arg 10))]; T (1, x);  T (32, f); T (16, c); T (1, x)]"
25.91,12584317,5792170,"[V f; U (1, f); ULambda y; U (3, h); T (2, c); Hoist_vars [c]; T (7, x);  T (3, w); T (8, c); T (4, x);  Lambda_apply y [((Iter 1), (Arg 8)); ((Iter 2), (Arg 10))]; T (1, x);  T (32, f); T (8, c); T (1, x)]"
14.06,11504083,16298887,"[V f; U (1, f); ULambda y; U (3, h); T (1, c); Hoist_vars [c]; T (4, x);  T (3, w); T (4, c); T (7, x);  Lambda_apply y [((Iter 1), (Arg 8)); ((Iter 2), (Arg 10))]; T (1, x);  T (32, f); T (32, c); T (1, x)]"
30.07,4612933,16023753,"[V f; U (1, f); ULambda y; U (3, h); T (2, c); Hoist_vars [c]; T (1, x);  T (3, w); T (32, c); T (28, x);  Lambda_apply y [((Iter 1), (Arg 8)); ((Iter 2), (Arg 10))]; T (1, x);  T (32, f); T (2, c); T (1, x)]"
10.93,30781372,27244545,"[V f; U (1, f); ULambda y; U (3, h); T (1, c); Hoist_vars [c]; T (14, x);  T (3, w); T (2, c); T (1, x);  Lambda_apply y [((Iter 1), (Arg 8)); ((Iter 2), (Arg 10))]; T (2, x);  T (32, f); T (64, c); T (1, x)]"
48.72,4892167,5953933,"[V f; U (1, f); ULambda y; U (3, h); T (8, c); Hoist_vars [c]; T (1, x);  T (3, w); T (2, c); T (7, x);  Lambda_apply y [((Iter 1), (Arg 8)); ((Iter 2), (Arg 10))]; T (4, x);  T (32, f); T (8, c); T (1, x)]"
45.21,4156702,8771060,"[V f; U (1, f); ULambda y; U (3, h); T (16, c); Hoist_vars [c]; T (1, x);  T (3, w); T (2, c); T (4, x);  Lambda_apply y [((Iter 1), (Arg 8)); ((Iter 2), (Arg 10))]; T (7, x);  T (32, f); T (4, c); T (1, x)]"
39.49,3859726,13605890,"[V f; U (1, f); ULambda y; U (3, h); T (64, c); Hoist_vars [c]; T (1, x);  T (3, w); T (1, c); T (1, x);  Lambda_apply y [((Iter 1), (Arg 8)); ((Iter 2), (Arg 10))]; T (28, x);  T (32, f); T (2, c); T (1, x)]"
30.51,3915615,16030670,"[V f; U (1, f); ULambda y; U (3, h); T (2, c); Hoist_vars [c]; T (1, x);  T (3, w); T (64, c); T (14, x);  Lambda_apply y [((Iter 1), (Arg 8)); ((Iter 2), (Arg 10))]; T (1, x);  T (32, f); T (1, c); T (2, x)]"
48.99,5685029,4882162,"[V f; U (1, f); ULambda y; U (3, h); T (8, c); Hoist_vars [c]; T (7, x);  T (3, w); T (2, c); T (1, x);  Lambda_apply y [((Iter 1), (Arg 8)); ((Iter 2), (Arg 10))]; T (2, x);  T (32, f); T (8, c); T (2, x)]"
31.26,4565098,5631896,"[V f; U (1, f); ULambda y; U (3, h); T (2, c); Hoist_vars [c]; T (2, x);  T (3, w); T (2, c); T (2, x);  Lambda_apply y [((Iter 1), (Arg 8)); ((Iter 2), (Arg 10))]; T (1, x);  T (32, f); T (32, c); T (7, x)]"
30.02,7155863,6877100,"[V f; U (1, f); ULambda y; U (3, h); T (2, c); Hoist_vars [c]; T (2, x);  T (3, w); T (1, c); T (1, x);  Lambda_apply y [((Iter 1), (Arg 8)); ((Iter 2), (Arg 10))]; T (1, x);  T (32, f); T (64, c); T (14, x)]"
41.21,2997847,8413891,"[V f; U (1, f); ULambda y; U (3, h); T (4, c); Hoist_vars [c]; T (2, x);  T (3, w); T (8, c); T (14, x);  Lambda_apply y [((Iter 2), (Arg 8)); ((Iter 1), (Arg 12))]; T (1, x);  T (32, f); T (4, c); T (1, x)]"
41.67,7197903,6487176,"[V f; U (1, f); ULambda y; U (3, h); T (4, c); Hoist_vars [c]; T (7, x);  T (3, w); T (8, c); T (1, x);  Lambda_apply y [((Iter 2), (Arg 8)); ((Iter 1), (Arg 12))]; T (4, x);  T (32, f); T (4, c); T (1, x)]"
42.66,6871678,6823384,"[V f; U (1, f); ULambda y; U (3, h); T (4, c); Hoist_vars [c]; T (4, x);  T (3, w); T (8, c); T (1, x);  Lambda_apply y [((Iter 2), (Arg 8)); ((Iter 1), (Arg 12))]; T (7, x);  T (32, f); T (4, c); T (1, x)]"
48.50,6284979,6796731,"[V f; U (1, f); ULambda y; U (3, h); T (8, c); Hoist_vars [c]; T (4, x);  T (3, w); T (2, c); T (1, x);  Lambda_apply y [((Iter 2), (Arg 8)); ((Iter 1), (Arg 12))]; T (7, x);  T (32, f); T (8, c); T (1, x)]"
49.76,5358784,7999253,"[V f; U (1, f); ULambda y; U (3, h); T (16, c); Hoist_vars [c]; T (2, x);  T (3, w); T (2, c); T (2, x);  Lambda_apply y [((Iter 2), (Arg 8)); ((Iter 1), (Arg 12))]; T (7, x);  T (32, f); T (4, c); T (1, x)]"
14.04,25607022,5119730,"[V f; U (1, f); ULambda y; U (3, h); T (1, c); Hoist_vars [c]; T (7, x);  T (3, w); T (128, c); T (2, x);  Lambda_apply y [((Iter 2), (Arg 8)); ((Iter 1), (Arg 12))]; T (1, x);  T (32, f); T (1, c); T (2, x)]"
29.66,4047669,8735315,"[V f; U (1, f); ULambda y; U (3, h); T (1, c); Hoist_vars [c]; T (1, x);  T (3, w); T (32, c); T (7, x);  Lambda_apply y [((Iter 2), (Arg 8)); ((Iter 1), (Arg 12))]; T (2, x);  T (32, f); T (4, c); T (2, x)]"
35.59,7544272,7316480,"[V f; U (1, f); ULambda y; U (3, h); T (1, c); Hoist_vars [c]; T (1, x);  T (3, w); T (4, c); T (1, x);  Lambda_apply y [((Iter 2), (Arg 8)); ((Iter 1), (Arg 12))]; T (14, x);  T (32, f); T (32, c); T (2, x)]"
36.06,4709876,8547165,"[V f; U (1, f); ULambda y; U (3, h); T (2, c); Hoist_vars [c]; T (1, x);  T (3, w); T (16, c); T (1, x);  Lambda_apply y [((Iter 2), (Arg 8)); ((Iter 1), (Arg 12))]; T (7, x);  T (32, f); T (4, c); T (4, x)]"
38.39,4849143,4215055,"[V f; U (1, f); ULambda y; U (3, h); T (1, c); Hoist_vars [c]; T (1, x);  T (3, w); T (16, c); T (1, x);  Lambda_apply y [((Iter 2), (Arg 8)); ((Iter 1), (Arg 12))]; T (7, x);  T (32, f); T (8, c); T (4, x)]"
19.65,11775792,4886142,"[V f; U (1, f); ULambda y; U (3, h); T (1, c); Hoist_vars [c]; T (4, x);  T (3, w); T (128, c); T (1, x);  Lambda_apply y [((Iter 2), (Arg 8)); ((Iter 1), (Arg 12))]; T (1, x);  T (32, f); T (1, c); T (7, x)]"
53.64,4179573,3876383,"[V f; U (1, f); ULambda y; U (3, h); T (8, c); Hoist_vars [c]; T (1, x);  T (3, w); T (2, c); T (4, x);  Lambda_apply y [((Iter 2), (Arg 8)); ((Iter 1), (Arg 12))]; T (1, x);  T (32, f); T (8, c); T (7, x)]"
33.42,3232924,5036383,"[V f; U (1, f); ULambda y; U (3, h); T (2, c); Hoist_vars [c]; T (2, x);  T (3, w); T (16, c); T (1, x);  Lambda_apply y [((Iter 2), (Arg 8)); ((Iter 1), (Arg 12))]; T (2, x);  T (32, f); T (4, c); T (7, x)]"
34.92,4447384,8757182,"[V f; U (1, f); ULambda y; U (3, h); T (1, c); Hoist_vars [c]; T (1, x);  T (3, w); T (32, c); T (1, x);  Lambda_apply y [((Iter 2), (Arg 8)); ((Iter 1), (Arg 12))]; T (2, x);  T (32, f); T (4, c); T (14, x)]"
47.20,4471894,10356645,"[V f; U (1, f); ULambda y; U (3, h); T (32, c); Hoist_vars [c]; T (2, x);  T (3, w); T (1, c); T (14, x);  Lambda_apply y [((Iter 2), (Arg 9)); ((Iter 1), (Arg 10))]; T (1, x);  T (32, f); T (4, c); T (1, x)]"
47.46,7236916,6928933,"[V f; U (1, f); ULambda y; U (3, h); T (8, c); Hoist_vars [c]; T (7, x);  T (3, w); T (2, c); T (1, x);  Lambda_apply y [((Iter 2), (Arg 9)); ((Iter 1), (Arg 10))]; T (4, x);  T (32, f); T (8, c); T (1, x)]"
50.06,4059207,7211843,"[V f; U (1, f); ULambda y; U (3, h); T (32, c); Hoist_vars [c]; T (2, x);  T (3, w); T (1, c); T (2, x);  Lambda_apply y [((Iter 2), (Arg 9)); ((Iter 1), (Arg 10))]; T (7, x);  T (32, f); T (4, c); T (1, x)]"
38.02,6237669,13141543,"[V f; U (1, f); ULambda y; U (3, h); T (8, c); Hoist_vars [c]; T (2, x);  T (3, w); T (1, c); T (2, x);  Lambda_apply y [((Iter 2), (Arg 9)); ((Iter 1), (Arg 10))]; T (7, x);  T (32, f); T (16, c); T (1, x)]"
33.59,4410078,12652940,"[V f; U (1, f); ULambda y; U (3, h); T (2, c); Hoist_vars [c]; T (1, x);  T (3, w); T (8, c); T (4, x);  Lambda_apply y [((Iter 2), (Arg 9)); ((Iter 1), (Arg 10))]; T (7, x);  T (32, f); T (8, c); T (1, x)]"
27.78,4026576,15324396,"[V f; U (1, f); ULambda y; U (3, h); T (1, c); Hoist_vars [c]; T (1, x);  T (3, w); T (64, c); T (2, x);  Lambda_apply y [((Iter 2), (Arg 9)); ((Iter 1), (Arg 10))]; T (14, x);  T (32, f); T (2, c); T (1, x)]"
42.95,4136105,9720459,"[V f; U (1, f); ULambda y; U (3, h); T (8, c); Hoist_vars [c]; T (2, x);  T (3, w); T (16, c); T (7, x);  Lambda_apply y [((Iter 2), (Arg 9)); ((Iter 1), (Arg 10))]; T (1, x);  T (32, f); T (1, c); T (2, x)]"
32.36,4044919,15070302,"[V f; U (1, f); ULambda y; U (3, h); T (2, c); Hoist_vars [c]; T (1, x);  T (3, w); T (32, c); T (14, x);  Lambda_apply y [((Iter 2), (Arg 9)); ((Iter 1), (Arg 10))]; T (1, x);  T (32, f); T (2, c); T (2, x)]"
25.15,13941304,4018473,"[V f; U (1, f); ULambda y; U (3, h); T (2, c); Hoist_vars [c]; T (7, x);  T (3, w); T (16, c); T (1, x);  Lambda_apply y [((Iter 2), (Arg 9)); ((Iter 1), (Arg 10))]; T (2, x);  T (32, f); T (4, c); T (2, x)]"
38.02,4191165,14910720,"[V f; U (1, f); ULambda y; U (3, h); T (128, c); Hoist_vars [c]; T (1, x);  T (3, w); T (1, c); T (1, x);  Lambda_apply y [((Iter 2), (Arg 9)); ((Iter 1), (Arg 10))]; T (14, x);  T (32, f); T (1, c); T (2, x)]"
44.96,8866968,4606465,"[V f; U (1, f); ULambda y; U (3, h); T (4, c); Hoist_vars [c]; T (1, x);  T (3, w); T (1, c); T (1, x);  Lambda_apply y [((Iter 2), (Arg 9)); ((Iter 1), (Arg 10))]; T (7, x);  T (32, f); T (32, c); T (4, x)]"
45.67,4663587,6327957,"[V f; U (1, f); ULambda y; U (3, h); T (8, c); Hoist_vars [c]; T (2, x);  T (3, w); T (4, c); T (1, x);  Lambda_apply y [((Iter 2), (Arg 9)); ((Iter 1), (Arg 10))]; T (2, x);  T (32, f); T (4, c); T (7, x)]"
55.84,6508451,2650331,"[V f; U (1, f); ULambda y; U (3, h); T (8, c); Hoist_vars [c]; T (1, x);  T (3, w); T (1, c); T (2, x);  Lambda_apply y [((Iter 2), (Arg 9)); ((Iter 1), (Arg 10))]; T (2, x);  T (32, f); T (16, c); T (7, x)]"
65.34,3618755,2408369,"[V f; U (2, f); ULambda y; U (3, h); T (16, c); Hoist_vars [c]; T (28, x);  T (3, w); T (2, f); T (1, x);  Lambda_apply y [((Iter 2), (Arg 5)); ((Iter 3), (Arg 6))]; T (8, f);  T (8, c); T (1, x); T (1, f)]"
58.20,3971882,5277686,"[V f; U (2, f); ULambda y; U (3, h); T (64, c); Hoist_vars [c]; T (14, x);  T (3, w); T (8, f); T (2, x);  Lambda_apply y [((Iter 2), (Arg 5)); ((Iter 3), (Arg 6))]; T (2, f);  T (2, c); T (1, x); T (1, f)]"
55.18,3146419,4841976,"[V f; U (2, f); ULambda y; U (3, h); T (64, c); Hoist_vars [c]; T (14, x);  T (3, w); T (1, f); T (2, x);  Lambda_apply y [((Iter 2), (Arg 5)); ((Iter 3), (Arg 6))]; T (4, f);  T (2, c); T (1, x); T (4, f)]"
48.69,3721619,8789598,"[V f; U (2, f); ULambda y; U (3, h); T (64, c); Hoist_vars [c]; T (2, x);  T (3, w); T (1, f); T (14, x);  Lambda_apply y [((Iter 2), (Arg 5)); ((Iter 3), (Arg 6))]; T (16, f);  T (2, c); T (1, x); T (1, f)]"
54.13,2859927,7348741,"[V f; U (2, f); ULambda y; U (3, h); T (64, c); Hoist_vars [c]; T (2, x);  T (3, w); T (2, f); T (14, x);  Lambda_apply y [((Iter 2), (Arg 5)); ((Iter 3), (Arg 6))]; T (4, f);  T (2, c); T (1, x); T (2, f)]"
33.77,4062862,8196713,"[V f; U (2, f); ULambda y; U (3, h); T (1, c); Hoist_vars [c]; T (2, x);  T (3, w); T (4, f); T (14, x);  Lambda_apply y [((Iter 2), (Arg 5)); ((Iter 3), (Arg 6))]; T (4, f);  T (128, c); T (1, x); T (1, f)]"
59.00,3041328,2661067,"[V f; U (2, f); ULambda y; U (3, h); T (8, c); Hoist_vars [c]; T (14, x);  T (3, w); T (2, f); T (1, x);  Lambda_apply y [((Iter 2), (Arg 5)); ((Iter 3), (Arg 6))]; T (8, f);  T (16, c); T (2, x); T (1, f)]"
44.20,6764937,7279573,"[V f; U (2, f); ULambda y; U (3, h); T (4, c); Hoist_vars [c]; T (14, x);  T (3, w); T (1, f); T (1, x);  Lambda_apply y [((Iter 2), (Arg 5)); ((Iter 3), (Arg 6))]; T (2, f);  T (32, c); T (2, x); T (8, f)]"
55.91,3685213,5970255,"[V f; U (2, f); ULambda y; U (3, h); T (64, c); Hoist_vars [c]; T (7, x);  T (3, w); T (2, f); T (2, x);  Lambda_apply y [((Iter 2), (Arg 5)); ((Iter 3), (Arg 6))]; T (2, f);  T (2, c); T (2, x); T (4, f)]"
63.48,4026195,3831175,"[V f; U (2, f); ULambda y; U (3, h); T (16, c); Hoist_vars [c]; T (7, x);  T (3, w); T (8, f); T (2, x);  Lambda_apply y [((Iter 2), (Arg 5)); ((Iter 3), (Arg 6))]; T (1, f);  T (8, c); T (2, x); T (2, f)]"
49.28,3571729,8884054,"[V f; U (2, f); ULambda y; U (3, h); T (64, c); Hoist_vars [c]; T (2, x);  T (3, w); T (16, f); T (7, x);  Lambda_apply y [((Iter 2), (Arg 5)); ((Iter 3), (Arg 6))]; T (1, f);  T (2, c); T (2, x); T (1, f)]"
30.96,6589402,11027778,"[V f; U (2, f); ULambda y; U (3, h); T (1, c); Hoist_vars [c]; T (2, x);  T (3, w); T (1, f); T (7, x);  Lambda_apply y [((Iter 2), (Arg 5)); ((Iter 3), (Arg 6))]; T (2, f);  T (128, c); T (2, x); T (8, f)]"
48.58,3813091,7762595,"[V f; U (2, f); ULambda y; U (3, h); T (32, c); Hoist_vars [c]; T (1, x);  T (3, w); T (4, f); T (14, x);  Lambda_apply y [((Iter 2), (Arg 5)); ((Iter 3), (Arg 6))]; T (4, f);  T (4, c); T (2, x); T (1, f)]"
58.49,4352751,3806531,"[V f; U (2, f); ULambda y; U (3, h); T (8, c); Hoist_vars [c]; T (7, x);  T (3, w); T (1, f); T (1, x);  Lambda_apply y [((Iter 2), (Arg 5)); ((Iter 3), (Arg 6))]; T (4, f);  T (16, c); T (4, x); T (4, f)]"
60.38,4540058,1436031,"[V f; U (2, f); ULambda y; U (3, h); T (8, c); Hoist_vars [c]; T (1, x);  T (3, w); T (8, f); T (7, x);  Lambda_apply y [((Iter 2), (Arg 5)); ((Iter 3), (Arg 6))]; T (2, f);  T (16, c); T (4, x); T (1, f)]"
39.61,4134280,2450873,"[V f; U (2, f); ULambda y; U (3, h); T (2, c); Hoist_vars [c]; T (1, x);  T (3, w); T (4, f); T (7, x);  Lambda_apply y [((Iter 2), (Arg 5)); ((Iter 3), (Arg 6))]; T (4, f);  T (64, c); T (4, x); T (1, f)]"
50.63,2655692,2440528,"[V f; U (2, f); ULambda y; U (3, h); T (2, c); Hoist_vars [c]; T (4, x);  T (3, w); T (4, f); T (1, x);  Lambda_apply y [((Iter 2), (Arg 5)); ((Iter 3), (Arg 6))]; T (2, f);  T (64, c); T (7, x); T (2, f)]"
60.62,3269324,2448050,"[V f; U (2, f); ULambda y; U (3, h); T (16, c); Hoist_vars [c]; T (2, x);  T (3, w); T (4, f); T (2, x);  Lambda_apply y [((Iter 2), (Arg 5)); ((Iter 3), (Arg 6))]; T (1, f);  T (8, c); T (7, x); T (4, f)]"
35.14,6858409,4186586,"[V f; U (2, f); ULambda y; U (3, h); T (1, c); Hoist_vars [c]; T (2, x);  T (3, w); T (1, f); T (2, x);  Lambda_apply y [((Iter 2), (Arg 5)); ((Iter 3), (Arg 6))]; T (2, f);  T (128, c); T (7, x); T (8, f)]"
53.84,3956189,6827894,"[V f; U (2, f); ULambda y; U (3, h); T (32, c); Hoist_vars [c]; T (2, x);  T (3, w); T (2, f); T (1, x);  Lambda_apply y [((Iter 2), (Arg 5)); ((Iter 3), (Arg 6))]; T (2, f);  T (4, c); T (14, x); T (4, f)]"
61.60,3260017,1920292,"[V f; U (2, f); ULambda y; U (3, h); T (16, c); Hoist_vars [c]; T (2, x);  T (3, w); T (8, f); T (1, x);  Lambda_apply y [((Iter 2), (Arg 5)); ((Iter 3), (Arg 6))]; T (2, f);  T (8, c); T (14, x); T (1, f)]"
30.45,7704066,10047833,"[V f; U (2, f); ULambda y; U (3, h); T (1, c); Hoist_vars [c]; T (1, x);  T (3, w); T (1, f); T (2, x);  Lambda_apply y [((Iter 2), (Arg 5)); ((Iter 3), (Arg 6))]; T (16, f);  T (128, c); T (14, x); T (1, f)]"
75.13,3143188,2048024,"[V f; U (2, f); ULambda y; U (3, w); T (64, c); Hoist_vars [c]; T (28, x);  T (3, h); T (1, f); T (1, x);  Lambda_apply y [((Iter 2), (Arg 5)); ((Iter 3), (Arg 6))]; T (8, f);  T (2, c); T (1, x); T (2, f)]"
23.77,11924517,14537743,"[V f; U (2, f); ULambda y; U (3, w); T (1, c); Hoist_vars [c]; T (28, x);  T (3, h); T (2, f); T (1, x);  Lambda_apply y [((Iter 2), (Arg 5)); ((Iter 3), (Arg 6))]; T (8, f);  T (128, c); T (1, x); T (1, f)]"
62.96,4004715,5228264,"[V f; U (2, f); ULambda y; U (3, w); T (64, c); Hoist_vars [c]; T (14, x);  T (3, h); T (4, f); T (2, x);  Lambda_apply y [((Iter 2), (Arg 5)); ((Iter 3), (Arg 6))]; T (2, f);  T (2, c); T (1, x); T (2, f)]"
40.40,7678937,6814151,"[V f; U (2, f); ULambda y; U (3, w); T (2, c); Hoist_vars [c]; T (14, x);  T (3, h); T (4, f); T (2, x);  Lambda_apply y [((Iter 2), (Arg 5)); ((Iter 3), (Arg 6))]; T (1, f);  T (64, c); T (1, x); T (4, f)]"
50.37,3670443,11175894,"[V f; U (2, f); ULambda y; U (3, w); T (128, c); Hoist_vars [c]; T (4, x);  T (3, h); T (8, f); T (7, x);  Lambda_apply y [((Iter 2), (Arg 5)); ((Iter 3), (Arg 6))]; T (2, f);  T (1, c); T (1, x); T (1, f)]"
44.13,3714761,11739689,"[V f; U (2, f); ULambda y; U (3, w); T (128, c); Hoist_vars [c]; T (4, x);  T (3, h); T (1, f); T (7, x);  Lambda_apply y [((Iter 2), (Arg 5)); ((Iter 3), (Arg 6))]; T (2, f);  T (1, c); T (1, x); T (8, f)]"
39.17,3858725,7488059,"[V f; U (2, f); ULambda y; U (3, w); T (2, c); Hoist_vars [c]; T (4, x);  T (3, h); T (2, f); T (7, x);  Lambda_apply y [((Iter 2), (Arg 5)); ((Iter 3), (Arg 6))]; T (4, f);  T (64, c); T (1, x); T (2, f)]"
44.38,4488814,7088582,"[V f; U (2, f); ULambda y; U (3, w); T (4, c); Hoist_vars [c]; T (2, x);  T (3, h); T (1, f); T (14, x);  Lambda_apply y [((Iter 2), (Arg 5)); ((Iter 3), (Arg 6))]; T (4, f);  T (32, c); T (1, x); T (4, f)]"
41.72,3380409,13112393,"[V f; U (2, f); ULambda y; U (3, w); T (128, c); Hoist_vars [c]; T (1, x);  T (3, h); T (1, f); T (28, x);  Lambda_apply y [((Iter 2), (Arg 5)); ((Iter 3), (Arg 6))]; T (16, f);  T (1, c); T (1, x); T (1, f)]"
63.70,3096341,2082108,"[V f; U (2, f); ULambda y; U (3, w); T (16, c); Hoist_vars [c]; T (1, x);  T (3, h); T (4, f); T (28, x);  Lambda_apply y [((Iter 2), (Arg 5)); ((Iter 3), (Arg 6))]; T (4, f);  T (8, c); T (1, x); T (1, f)]"
56.21,4533659,5005397,"[V f; U (2, f); ULambda y; U (3, w); T (16, c); Hoist_vars [c]; T (1, x);  T (3, h); T (1, f); T (28, x);  Lambda_apply y [((Iter 2), (Arg 5)); ((Iter 3), (Arg 6))]; T (2, f);  T (8, c); T (1, x); T (8, f)]"
61.75,3892719,2153650,"[V f; U (2, f); ULambda y; U (3, w); T (8, c); Hoist_vars [c]; T (7, x);  T (3, h); T (8, f); T (2, x);  Lambda_apply y [((Iter 2), (Arg 5)); ((Iter 3), (Arg 6))]; T (2, f);  T (16, c); T (2, x); T (1, f)]"
48.82,2270227,2494956,"[V f; U (2, f); ULambda y; U (3, w); T (4, c); Hoist_vars [c]; T (2, x);  T (3, h); T (2, f); T (7, x);  Lambda_apply y [((Iter 2), (Arg 5)); ((Iter 3), (Arg 6))]; T (4, f);  T (32, c); T (2, x); T (2, f)]"
61.43,2390105,1747033,"[V f; U (2, f); ULambda y; U (3, w); T (8, c); Hoist_vars [c]; T (7, x);  T (3, h); T (2, f); T (1, x);  Lambda_apply y [((Iter 2), (Arg 5)); ((Iter 3), (Arg 6))]; T (8, f);  T (16, c); T (4, x); T (1, f)]"
51.76,2451863,2170700,"[V f; U (2, f); ULambda y; U (3, w); T (4, c); Hoist_vars [c]; T (7, x);  T (3, h); T (4, f); T (1, x);  Lambda_apply y [((Iter 2), (Arg 5)); ((Iter 3), (Arg 6))]; T (2, f);  T (32, c); T (4, x); T (2, f)]"
46.97,4912598,5500485,"[V f; U (2, f); ULambda y; U (3, w); T (4, c); Hoist_vars [c]; T (7, x);  T (3, h); T (1, f); T (1, x);  Lambda_apply y [((Iter 2), (Arg 5)); ((Iter 3), (Arg 6))]; T (1, f);  T (32, c); T (4, x); T (16, f)]"
61.93,2526361,1221677,"[V f; U (2, f); ULambda y; U (3, w); T (8, c); Hoist_vars [c]; T (4, x);  T (3, h); T (4, f); T (1, x);  Lambda_apply y [((Iter 2), (Arg 5)); ((Iter 3), (Arg 6))]; T (4, f);  T (16, c); T (7, x); T (1, f)]"
50.16,3964799,7708161,"[V f; U (2, f); ULambda y; U (3, w); T (32, c); Hoist_vars [c]; T (1, x);  T (3, h); T (4, f); T (4, x);  Lambda_apply y [((Iter 2), (Arg 5)); ((Iter 3), (Arg 6))]; T (1, f);  T (4, c); T (7, x); T (4, f)]"
55.98,4998416,5022541,"[V f; U (2, f); ULambda y; U (3, w); T (8, c); Hoist_vars [c]; T (2, x);  T (3, h); T (1, f); T (1, x);  Lambda_apply y [((Iter 2), (Arg 5)); ((Iter 3), (Arg 6))]; T (1, f);  T (16, c); T (14, x); T (16, f)]"
44.36,3093946,1082000,"[V f; U (2, f); ULambda y; U (3, w); T (2, c); Hoist_vars [c]; T (2, x);  T (3, h); T (4, f); T (1, x);  Lambda_apply y [((Iter 2), (Arg 5)); ((Iter 3), (Arg 6))]; T (4, f);  T (64, c); T (14, x); T (1, f)]"
40.95,4737218,5392230,"[V f; U (2, f); ULambda y; U (3, w); T (2, c); Hoist_vars [c]; T (2, x);  T (3, h); T (1, f); T (1, x);  Lambda_apply y [((Iter 2), (Arg 5)); ((Iter 3), (Arg 6))]; T (1, f);  T (64, c); T (14, x); T (16, f)]"
58.93,4509837,3418389,"[V f; U (2, f); ULambda y; U (3, w); T (16, c); Hoist_vars [c]; T (1, x);  T (3, h); T (2, f); T (2, x);  Lambda_apply y [((Iter 2), (Arg 5)); ((Iter 3), (Arg 6))]; T (8, f);  T (8, c); T (14, x); T (1, f)]"
37.33,8424044,4910960,"[V f; U (2, f); ULambda y; U (3, w); T (1, c); Hoist_vars [c]; T (1, x);  T (3, h); T (1, f); T (2, x);  Lambda_apply y [((Iter 2), (Arg 5)); ((Iter 3), (Arg 6))]; T (2, f);  T (128, c); T (14, x); T (8, f)]"
