perf,CACHE_MISS_L1,CACHE_MISS_L2,scheme
76.48,11539400,416988,"[V f; U (2, f); ULambda y; T (16, c); Hoist_vars [c]; T (3, h); T (34, x);  T (3, w); T (4, c); T (4, f); T (4, x);  Lambda_apply y [((Iter 7), (Arg 13)); ((Iter 3), (Arg 15))]; T (1, x)]"
76.66,11535929,443607,"[V f; U (2, f); ULambda y; T (16, c); Hoist_vars [c]; T (3, h); T (34, x);  T (3, w); T (4, c); T (4, f); T (1, x);  Lambda_apply y [((Iter 7), (Arg 13)); ((Iter 3), (Arg 15))]; T (4, x)]"
75.21,11528683,401859,"[V f; U (2, f); ULambda y; T (16, c); Hoist_vars [c]; T (3, h); T (34, x);  T (3, w); T (4, c); T (4, f); T (2, x);  Lambda_apply y [((Iter 7), (Arg 13)); ((Iter 3), (Arg 15))]; T (2, x)]"
76.91,11581333,464333,"[V f; U (2, f); ULambda y; T (16, c); Hoist_vars [c]; T (3, h); T (34, x);  T (3, w); T (4, c); T (4, f); T (4, x);  Lambda_apply y [((Iter 6), (Arg 11)); ((Iter 5), (Arg 14))]; T (1, x)]"
77.08,11575680,420732,"[V f; U (2, f); ULambda y; T (16, c); Hoist_vars [c]; T (3, h); T (34, x);  T (3, w); T (4, c); T (4, f); T (2, x);  Lambda_apply y [((Iter 6), (Arg 11)); ((Iter 5), (Arg 14))]; T (2, x)]"
77.10,11546500,402869,"[V f; U (2, f); ULambda y; T (16, c); Hoist_vars [c]; T (3, h); T (34, x);  T (3, w); T (4, c); T (4, f); T (1, x);  Lambda_apply y [((Iter 6), (Arg 11)); ((Iter 5), (Arg 14))]; T (4, x)]"
77.32,11627548,434950,"[V f; U (2, f); ULambda y; T (16, c); Hoist_vars [c]; T (3, h); T (34, x);  T (3, w); T (4, c); T (4, f); T (4, x);  Lambda_apply y [((Iter 7), (Arg 12)); ((Iter 4), (Arg 13))]; T (1, x)]"
77.53,11625041,370681,"[V f; U (2, f); ULambda y; T (16, c); Hoist_vars [c]; T (3, h); T (34, x);  T (3, w); T (4, c); T (4, f); T (1, x);  Lambda_apply y [((Iter 7), (Arg 12)); ((Iter 4), (Arg 13))]; T (4, x)]"
77.50,11631405,391524,"[V f; U (2, f); ULambda y; T (16, c); Hoist_vars [c]; T (3, h); T (34, x);  T (3, w); T (4, c); T (4, f); T (2, x);  Lambda_apply y [((Iter 7), (Arg 12)); ((Iter 4), (Arg 13))]; T (2, x)]"
76.44,11488593,455913,"[V f; U (2, f); ULambda y; T (16, c); Hoist_vars [c]; T (3, h); T (34, x);  T (3, w); T (4, c); T (4, f); T (4, x);  Lambda_apply y [((Iter 5), (Arg 9)); ((Iter 7), (Arg 13))]; T (1, x)]"
76.51,11476037,403548,"[V f; U (2, f); ULambda y; T (16, c); Hoist_vars [c]; T (3, h); T (34, x);  T (3, w); T (4, c); T (4, f); T (1, x);  Lambda_apply y [((Iter 5), (Arg 9)); ((Iter 7), (Arg 13))]; T (4, x)]"
76.77,11624860,470093,"[V f; U (2, f); ULambda y; T (16, c); Hoist_vars [c]; T (3, h); T (34, x);  T (3, w); T (4, c); T (4, f); T (4, x);  Lambda_apply y [((Iter 11), (Arg 11)); ((Iter 1), (Arg 15))]; T (1, x)]"
76.29,11657116,385547,"[V f; U (2, f); ULambda y; T (16, c); Hoist_vars [c]; T (3, h); T (34, x);  T (3, w); T (4, c); T (4, f); T (1, x);  Lambda_apply y [((Iter 11), (Arg 11)); ((Iter 1), (Arg 15))]; T (4, x)]"
76.96,11483506,408319,"[V f; U (2, f); ULambda y; T (16, c); Hoist_vars [c]; T (3, h); T (34, x);  T (3, w); T (4, c); T (4, f); T (2, x);  Lambda_apply y [((Iter 5), (Arg 9)); ((Iter 7), (Arg 13))]; T (2, x)]"
77.33,11659221,375288,"[V f; U (2, f); ULambda y; T (16, c); Hoist_vars [c]; T (3, h); T (34, x);  T (3, w); T (4, c); T (4, f); T (2, x);  Lambda_apply y [((Iter 11), (Arg 11)); ((Iter 1), (Arg 15))]; T (2, x)]"
77.11,11560477,396164,"[V f; U (2, f); ULambda y; T (16, c); Hoist_vars [c]; T (3, h); T (34, x);  T (3, w); T (4, c); T (4, f); T (4, x);  Lambda_apply y [((Iter 7), (Arg 10)); ((Iter 6), (Arg 11))]; T (1, x)]"
77.67,11596609,404090,"[V f; U (2, f); ULambda y; T (16, c); Hoist_vars [c]; T (3, h); T (34, x);  T (3, w); T (4, c); T (4, f); T (2, x);  Lambda_apply y [((Iter 7), (Arg 10)); ((Iter 6), (Arg 11))]; T (2, x)]"
77.09,11633243,347255,"[V f; U (2, f); ULambda y; T (16, c); Hoist_vars [c]; T (3, h); T (34, x);  T (3, w); T (4, c); T (4, f); T (1, x);  Lambda_apply y [((Iter 7), (Arg 10)); ((Iter 6), (Arg 11))]; T (4, x)]"
75.65,11553914,477578,"[V f; U (2, f); ULambda y; T (16, c); Hoist_vars [c]; T (3, h); T (34, x);  T (3, w); T (4, c); T (4, f); T (4, x);  Lambda_apply y [((Iter 11), (Arg 10)); ((Iter 2), (Arg 13))]; T (1, x)]"
76.49,11559811,438661,"[V f; U (2, f); ULambda y; T (16, c); Hoist_vars [c]; T (3, h); T (34, x);  T (3, w); T (4, c); T (4, f); T (1, x);  Lambda_apply y [((Iter 11), (Arg 10)); ((Iter 2), (Arg 13))]; T (4, x)]"
76.50,11484597,424130,"[V f; U (2, f); ULambda y; T (16, c); Hoist_vars [c]; T (3, h); T (34, x);  T (3, w); T (4, c); T (4, f); T (2, x);  Lambda_apply y [((Iter 11), (Arg 10)); ((Iter 2), (Arg 13))]; T (2, x)]"
76.51,11438390,412901,"[V f; U (2, f); ULambda y; T (16, c); Hoist_vars [c]; T (3, h); T (34, x);  T (3, w); T (4, c); T (4, f); T (4, x);  Lambda_apply y [((Iter 9), (Arg 9)); ((Iter 5), (Arg 11))]; T (1, x)]"
76.18,11427856,343141,"[V f; U (2, f); ULambda y; T (16, c); Hoist_vars [c]; T (3, h); T (34, x);  T (3, w); T (4, c); T (4, f); T (1, x);  Lambda_apply y [((Iter 9), (Arg 9)); ((Iter 5), (Arg 11))]; T (4, x)]"
76.57,11431060,455602,"[V f; U (2, f); ULambda y; T (16, c); Hoist_vars [c]; T (3, h); T (34, x);  T (3, w); T (4, c); T (4, f); T (2, x);  Lambda_apply y [((Iter 9), (Arg 9)); ((Iter 5), (Arg 11))]; T (2, x)]"
80.53,14708623,463318,"[V f; U (2, f); U (8, y); T (32, c); Hoist_vars [c]; T (3, h); T (34, x);  T (3, w); T (2, c); T (4, f); T (4, x); T (17, y); T (1, x)]"
76.84,11202615,373605,"[V f; U (2, f); U (8, y); T (16, c); Hoist_vars [c]; T (3, h); T (34, x);  T (3, w); T (4, c); T (4, f); T (4, x); T (17, y); T (1, x)]"
81.71,14696579,300264,"[V f; U (2, f); U (8, y); T (32, c); Hoist_vars [c]; T (3, h); T (34, x);  T (3, w); T (2, c); T (4, f); T (1, x); T (17, y); T (4, x)]"
77.51,11189750,296441,"[V f; U (2, f); U (8, y); T (16, c); Hoist_vars [c]; T (3, h); T (34, x);  T (3, w); T (4, c); T (4, f); T (1, x); T (17, y); T (4, x)]"
83.08,14698790,328897,"[V f; U (2, f); U (8, y); T (32, c); Hoist_vars [c]; T (3, h); T (34, x);  T (3, w); T (2, c); T (4, f); T (2, x); T (17, y); T (2, x)]"
76.48,11203796,345128,"[V f; U (2, f); U (8, y); T (16, c); Hoist_vars [c]; T (3, h); T (34, x);  T (3, w); T (4, c); T (4, f); T (2, x); T (17, y); T (2, x)]"
79.98,7650148,1237455,"[V f; U (1, f); ULambda y; U (3, h); T (64, c); Hoist_vars [c]; T (3, w);  T (136, x); T (2, y); T (1, c); T (8, f);  Lambda_apply y [((Iter 1), (Arg 12)); ((Iter 4), (Arg 14))]]"
79.42,7655001,1222820,"[V f; U (1, f); ULambda y; U (3, h); T (64, c); Hoist_vars [c]; T (3, w);  T (136, x); T (2, y); T (1, c); T (8, f);  Lambda_apply y [((Iter 2), (Arg 13)); ((Iter 3), (Arg 14))]]"
78.71,7662757,1353967,"[V f; U (1, f); ULambda y; U (3, h); T (64, c); Hoist_vars [c]; T (3, w);  T (136, x); Lambda_apply y [((Iter 1), (Arg 12)); ((Iter 4), (Arg 14))];  T (1, c); T (8, f); T (2, y)]"
78.29,7660538,1307655,"[V f; U (1, f); ULambda y; U (3, h); T (64, c); Hoist_vars [c]; T (3, w);  T (136, x); Lambda_apply y [((Iter 2), (Arg 13)); ((Iter 3), (Arg 14))];  T (1, c); T (8, f); T (2, y)]"
83.85,10033892,333424,"[V f; U (2, f); ULambda y; T (32, c); Hoist_vars [c]; T (3, h); T (17, x);  T (3, w); T (2, c); T (4, f); T (8, x);  Lambda_apply y [((Iter 7), (Arg 13)); ((Iter 3), (Arg 15))]; T (1, x)]"
77.18,11548892,342296,"[V f; U (2, f); ULambda y; T (16, c); Hoist_vars [c]; T (3, h); T (17, x);  T (3, w); T (4, c); T (4, f); T (8, x);  Lambda_apply y [((Iter 7), (Arg 13)); ((Iter 3), (Arg 15))]; T (1, x)]"
83.82,10033774,291830,"[V f; U (2, f); ULambda y; T (32, c); Hoist_vars [c]; T (3, h); T (17, x);  T (3, w); T (2, c); T (4, f); T (2, x);  Lambda_apply y [((Iter 7), (Arg 13)); ((Iter 3), (Arg 15))]; T (4, x)]"
76.04,11546332,310186,"[V f; U (2, f); ULambda y; T (16, c); Hoist_vars [c]; T (3, h); T (17, x);  T (3, w); T (4, c); T (4, f); T (2, x);  Lambda_apply y [((Iter 7), (Arg 13)); ((Iter 3), (Arg 15))]; T (4, x)]"
82.79,10049475,343351,"[V f; U (2, f); ULambda y; T (32, c); Hoist_vars [c]; T (3, h); T (17, x);  T (3, w); T (2, c); T (4, f); T (1, x);  Lambda_apply y [((Iter 7), (Arg 13)); ((Iter 3), (Arg 15))]; T (8, x)]"
76.92,11588708,360021,"[V f; U (2, f); ULambda y; T (16, c); Hoist_vars [c]; T (3, h); T (17, x);  T (3, w); T (4, c); T (4, f); T (1, x);  Lambda_apply y [((Iter 7), (Arg 13)); ((Iter 3), (Arg 15))]; T (8, x)]"
78.97,8306058,1294089,"[V f; U (1, f); ULambda y; U (3, h); T (64, c); Hoist_vars [c]; T (3, w);  T (136, x); Lambda_apply y [((Iter 6), (Arg 11)); ((Iter 5), (Arg 14))];  T (1, c); T (8, f); T (1, y)]"
82.07,8309804,972338,"[V f; U (1, f); ULambda y; U (3, h); T (64, c); Hoist_vars [c]; T (3, w);  T (136, x); T (1, y); T (1, c); T (8, f);  Lambda_apply y [((Iter 6), (Arg 11)); ((Iter 5), (Arg 14))]]"
79.97,8321665,1298492,"[V f; U (1, f); ULambda y; U (3, h); T (64, c); Hoist_vars [c]; T (3, w);  T (136, x); Lambda_apply y [((Iter 7), (Arg 12)); ((Iter 4), (Arg 13))];  T (1, c); T (8, f); T (1, y)]"
82.07,8305896,983658,"[V f; U (1, f); ULambda y; U (3, h); T (64, c); Hoist_vars [c]; T (3, w);  T (136, x); T (1, y); T (1, c); T (8, f);  Lambda_apply y [((Iter 7), (Arg 12)); ((Iter 4), (Arg 13))]]"
84.02,10033150,326999,"[V f; U (2, f); ULambda y; T (32, c); Hoist_vars [c]; T (3, h); T (17, x);  T (3, w); T (2, c); T (4, f); T (4, x);  Lambda_apply y [((Iter 7), (Arg 13)); ((Iter 3), (Arg 15))]; T (2, x)]"
76.83,11558380,337426,"[V f; U (2, f); ULambda y; T (16, c); Hoist_vars [c]; T (3, h); T (17, x);  T (3, w); T (4, c); T (4, f); T (4, x);  Lambda_apply y [((Iter 7), (Arg 13)); ((Iter 3), (Arg 15))]; T (2, x)]"
77.75,8964284,1300198,"[V f; U (1, f); ULambda y; U (3, h); T (64, c); Hoist_vars [c]; T (3, w);  T (136, x); Lambda_apply y [((Iter 5), (Arg 9)); ((Iter 7), (Arg 13))];  T (1, c); T (8, f); T (1, y)]"
81.11,8965811,957330,"[V f; U (1, f); ULambda y; U (3, h); T (64, c); Hoist_vars [c]; T (3, w);  T (136, x); T (1, y); T (1, c); T (8, f);  Lambda_apply y [((Iter 5), (Arg 9)); ((Iter 7), (Arg 13))]]"
76.52,8950133,1342322,"[V f; U (1, f); ULambda y; U (3, h); T (64, c); Hoist_vars [c]; T (3, w);  T (136, x); Lambda_apply y [((Iter 1), (Arg 10)); ((Iter 2), (Arg 12))];  T (1, c); T (8, f); T (4, y)]"
79.21,8887986,1303044,"[V f; U (1, f); ULambda y; U (3, h); T (64, c); Hoist_vars [c]; T (3, w);  T (136, x); Lambda_apply y [((Iter 2), (Arg 10)); ((Iter 1), (Arg 14))];  T (1, c); T (8, f); T (4, y)]"
