x,y,w,h,c,f,res
1,1,1,1,1,1,23.56189600
1,1,1,1,1,2,43.72331341
1,2,1,1,1,1,46.35581711
1,1,1,1,1,3,49.27815207
1,1,1,1,1,4,55.95628415
1,1,1,1,1,5,61.28800575
1,1,1,1,1,13,61.37390503
1,1,1,1,1,6,61.96046793
1,1,1,1,1,10,62.29468305
1,1,1,1,1,9,62.39675017
1,1,1,1,1,7,62.56983240
1,1,1,1,1,12,62.91214417
1,1,1,1,1,8,63.03477993
1,1,1,1,1,11,65.65633015
1,1,1,1,1,15,66.95727986
1,3,1,1,1,1,67.07423581
1,1,1,1,1,14,67.10982118
1,2,1,1,1,2,81.49621966
1,2,1,1,1,15,85.50434202
1,4,1,1,1,1,89.90342406
1,2,1,1,1,14,91.58627739
1,2,1,1,1,3,91.72887429
1,5,1,1,1,1,92.05321827
1,6,1,1,1,1,93.17561419
1,3,1,1,1,2,94.00244798
1,7,1,1,1,1,94.19185283
1,2,1,1,1,13,94.28429775
1,2,1,1,1,4,94.42139235
1,2,1,1,1,5,94.69206584
1,8,1,1,1,1,94.90268767
1,4,1,1,1,2,95.23366659
1,9,1,1,1,1,95.40372671
1,2,1,1,1,6,95.50753925
1,10,1,1,1,1,95.95202399
1,3,1,1,1,3,96.00000000
1,11,1,1,1,1,96.15844289
1,2,1,1,1,7,96.35703724
1,12,1,1,1,1,96.37647059
1,5,1,1,1,2,96.45817634
1,2,1,1,1,8,96.50135469
1,2,1,1,1,12,96.52788688
1,14,1,1,1,1,96.59075596
1,3,1,1,1,4,96.64936291
1,15,1,1,1,2,96.71326029
1,15,1,1,1,1,96.84741488
1,13,1,1,1,1,96.85681024
1,4,1,1,1,3,96.90851735
1,6,1,1,1,2,96.90851735
1,2,1,1,1,9,96.94929518
1,2,1,1,1,11,97.04488671
1,3,1,1,1,5,97.23980755
1,7,1,1,1,2,97.27235717
1,5,1,1,1,3,97.35074154
1,8,1,1,1,2,97.39626679
1,4,1,1,1,4,97.45419938
1,14,1,1,1,2,97.48402013
1,2,1,1,1,10,97.52380952
1,3,1,1,1,6,97.54445385
1,6,1,1,1,4,97.66332856
1,4,1,1,1,5,97.72857416
1,6,1,1,1,3,97.74101177
1,3,1,1,1,7,97.81659389
1,10,1,1,1,2,97.83127926
1,9,1,1,1,2,97.83439490
1,5,1,1,1,4,97.87803479
1,3,1,1,1,8,97.88895085
1,6,1,1,1,5,97.90922998
1,11,1,1,1,2,97.98190675
1,3,1,1,1,9,98.00779865
1,3,1,1,1,10,98.02795328
1,7,1,1,1,4,98.04404322
1,4,1,1,1,6,98.05298436
1,12,1,1,1,2,98.06080919
1,7,1,1,1,3,98.07534434
1,5,1,1,1,6,98.07802822
1,13,1,1,1,2,98.12767212
1,4,1,1,1,7,98.13800657
1,8,1,1,1,3,98.13912627
1,5,1,1,1,5,98.15950920
1,10,1,1,1,3,98.19716149
1,9,1,1,1,3,98.29351536
