benchname,perfXYFXYCWHCF,perfFYXCYXFCHW
yolo9000_0,161.86,195.90
yolo9000_2,504.80,546.00
yolo9000_4,576.22,615.98
yolo9000_5,331.93,296.12
yolo9000_8,616.61,622.77
yolo9000_9,416.15,443.67
yolo9000_12,591.77,608.44
yolo9000_13,553.99,589.14
yolo9000_18,476.99,506.98
yolo9000_19,487.56,556.70
mobilNet_1,561.28,591.16
mobilNet_2,447.66,482.86
mobilNet_3,632.03,644.35
mobilNet_4,484.59,560.80
mobilNet_5,604.70,617.57
mobilNet_6,531.48,574.86
mobilNet_7,402.72,488.77
mobilNet_8,383.13,465.58
mobilNet_9,220.27,259.79
resNet18_1,416.68,475.41
resNet18_2,595.54,605.54
resNet18_3,450.85,304.04
resNet18_4,530.52,590.44
resNet18_5,230.83,314.79
resNet18_6,580.02,582.28
resNet18_7,567.49,584.11
resNet18_8,603.82,609.74
resNet18_9,520.17,532.62
resNet18_10,391.02,451.65
resNet18_11,500.19,507.75
resNet18_12,196.31,274.62
