IdRun;NameConv;Time(ms);std;NbMicroKernel;AxeFuse;SizeAxeFuse;Schema;Time_search(1.8102924823760986)
0;ResNet18_7;0.8898474000000001;0.000706351782046318;1;axe_yy_0,axe_xx_0;16;[V f, U (4, f), U (7, y), U (3, w), T (8, c), Hoist_vars [c], T (3, h),  T (14, x), T (2, y), T (8, c), T (8, f), T (2, c)];2.5036420822143555
1;ResNet18_7;0.8384029;0.00041872913679371433;1;axe_yy_0,axe_xx_0;16;[V f, U (4, f), U (7, y), U (3, h), T (16, c), Hoist_vars [c], T (3, w),  T (14, x), T (2, y), T (1, c), T (8, f), T (8, c)];3.154675006866455
2;ResNet18_7;0.8864103999999999;0.0006004578586378867;1;axe_yy_0,axe_xx_0;16;[V f, U (4, f), U (7, y), U (3, h), T (8, c), Hoist_vars [c], T (3, w),  T (14, x), T (2, y), T (1, c), T (8, f), T (16, c)];3.8165011405944824
3;ResNet18_7;0.9111161000000001;0.0014974389102731362;2;axe_yy1_0,axe_xx1_0;16;[V f, U (4, f), ULambda y, U (3, w), T (16, c), Hoist_vars [c], T (3, h),  T (14, x), Lambda_apply y [((Iter 2), (Arg 4)), ((Iter 1), (Arg 6))],  T (4, c), T (8, f), T (2, c)];4.745845317840576
4;ResNet18_7;0.9502977000000001;0.000734627123103949;2;axe_yy1_0,axe_xx1_0;15;[V f, U (4, f), ULambda y, T (32, c), Hoist_vars [c], T (3, w), T (3, h),  T (14, x), Lambda_apply y [((Iter 1), (Arg 4)), ((Iter 2), (Arg 5))],  T (4, c), T (8, f), T (1, c)];5.668935537338257
5;ResNet18_7;0.9225441999999999;0.0006579946504341953;2;axe_yy1_0,axe_xx1_0;15;[V f, U (4, f), ULambda y, U (3, w), T (16, c), Hoist_vars [c], T (3, h),  T (14, x), Lambda_apply y [((Iter 1), (Arg 4)), ((Iter 2), (Arg 5))],  T (8, c), T (8, f), T (1, c)];6.592201471328735
6;ResNet18_7;0.8241472;0.0013342438907485879;1;axe_yy_0,axe_xx_0;16;[V f, U (4, f), U (7, y), U (3, w), T (64, c), Hoist_vars [c], T (3, h),  T (14, x), T (2, y), T (2, c), T (8, f), T (1, c)];7.250748157501221
7;ResNet18_7;0.9263122000000001;0.0014895969790517099;2;axe_yy1_0,axe_xx1_0;16;[V f, U (4, f), ULambda y, U (3, w), T (32, c), Hoist_vars [c], T (3, h),  T (14, x), Lambda_apply y [((Iter 2), (Arg 4)), ((Iter 1), (Arg 6))],  T (4, c), T (8, f), T (1, c)];8.172571659088135
8;ResNet18_7;0.8893028;0.0004708967615093688;1;axe_yy_0,axe_xx_0;16;[V f, U (4, f), U (7, y), U (3, w), T (8, c), Hoist_vars [c], T (3, h),  T (14, x), T (2, y), T (4, c), T (8, f), T (4, c)];8.848168849945068
9;ResNet18_7;0.8451153000000001;0.0007276911501454101;1;axe_yy_0,axe_xx_0;16;[V f, U (4, f), U (7, y), U (3, w), T (32, c), Hoist_vars [c], T (3, h),  T (14, x), T (2, y), T (1, c), T (8, f), T (4, c)];9.507646322250366
10;ResNet18_7;0.9118549;0.001416052573176568;2;axe_yy1_0,axe_xx1_0;15;[V f, U (4, f), ULambda y, T (16, c), Hoist_vars [c], T (3, w), T (3, h),  T (14, x), Lambda_apply y [((Iter 1), (Arg 4)), ((Iter 2), (Arg 5))],  T (8, c), T (8, f), T (1, c)];10.424155712127686
11;ResNet18_7;0.8149321;0.0004484456377310228;1;axe_yy_0,axe_xx_0;16;[V f, U (4, f), U (7, y), U (3, w), T (16, c), Hoist_vars [c], T (3, h),  T (14, x), T (2, y), T (4, c), T (8, f), T (2, c)];11.083916425704956
12;ResNet18_7;1.0099863;0.00160705787388017;2;axe_yy1_0,axe_xx1_0;16;[V f, U (4, f), ULambda y, U (3, h), T (64, c), Hoist_vars [c], T (3, w),  T (14, x), Lambda_apply y [((Iter 2), (Arg 4)), ((Iter 1), (Arg 6))],  T (1, c), T (8, f), T (2, c)];12.014764785766602
13;ResNet18_7;0.8199501999999999;0.001431692550794358;1;axe_yy_0,axe_xx_0;16;[V f, U (4, f), U (7, y), U (3, w), T (16, c), Hoist_vars [c], T (3, h),  T (14, x), T (2, y), T (1, c), T (8, f), T (8, c)];12.672856330871582
14;ResNet18_7;0.8867497;0.000941078641772313;1;axe_yy_0,axe_xx_0;16;[V f, U (4, f), U (7, y), U (3, h), T (8, c), Hoist_vars [c], T (3, w),  T (14, x), T (2, y), T (2, c), T (8, f), T (8, c)];13.343303442001343
15;ResNet18_7;0.828803;0.0006556373997873892;1;axe_yy_0,axe_xx_0;16;[V f, U (4, f), U (7, y), U (3, h), T (16, c), Hoist_vars [c], T (3, w),  T (14, x), T (2, y), T (4, c), T (8, f), T (2, c)];13.999671220779419
16;ResNet18_7;0.9962821;0.0007790146917741594;2;axe_yy1_0,axe_xx1_0;15;[V f, U (4, f), ULambda y, U (3, w), T (32, c), Hoist_vars [c], T (3, h),  T (14, x), Lambda_apply y [((Iter 1), (Arg 4)), ((Iter 2), (Arg 5))],  T (4, c), T (8, f), T (1, c)];14.918880939483643
17;ResNet18_7;0.9402159000000001;0.0015323272137503878;2;axe_yy1_0,axe_xx1_0;16;[V f, U (4, f), ULambda y, U (3, h), T (16, c), Hoist_vars [c], T (3, w),  T (14, x), Lambda_apply y [((Iter 2), (Arg 4)), ((Iter 1), (Arg 6))],  T (4, c), T (8, f), T (2, c)];15.849863052368164
18;ResNet18_7;1.006468;0.000755735138788742;2;axe_yy1_0,axe_xx1_0;16;[V f, U (4, f), ULambda y, U (3, h), T (8, c), Hoist_vars [c], T (3, w),  T (14, x), Lambda_apply y [((Iter 2), (Arg 4)), ((Iter 1), (Arg 6))],  T (8, c), T (8, f), T (2, c)];16.804025411605835
19;ResNet18_7;0.8825642;0.0007193456470988133;1;axe_yy_0,axe_xx_0;16;[V f, U (4, f), U (7, y), U (3, h), T (8, c), Hoist_vars [c], T (3, w),  T (14, x), T (2, y), T (4, c), T (8, f), T (4, c)];17.480239391326904
20;ResNet18_7;0.8839051;0.0010812959308163378;1;axe_yy_0,axe_xx_0;16;[V f, U (4, f), U (7, y), U (3, w), T (8, c), Hoist_vars [c], T (3, h),  T (14, x), T (2, y), T (16, c), T (8, f), T (1, c)];18.14956831932068
21;ResNet18_7;0.8288399999999999;0.0005624613764517628;1;axe_yy_0,axe_xx_0;16;[V f, U (4, f), U (7, y), U (3, h), T (64, c), Hoist_vars [c], T (3, w),  T (14, x), T (2, y), T (2, c), T (8, f), T (1, c)];18.81024980545044
22;ResNet18_7;0.858977;0.001643344455675672;1;axe_yy_0,axe_xx_0;16;[V f, U (4, f), U (7, y), U (3, h), T (32, c), Hoist_vars [c], T (3, w),  T (14, x), T (2, y), T (2, c), T (8, f), T (2, c)];19.472303867340088
23;ResNet18_7;0.8503111999999999;0.00046874999733332055;1;axe_yy_0,axe_xx_0;16;[V f, U (4, f), U (7, y), U (3, h), T (32, c), Hoist_vars [c], T (3, w),  T (14, x), T (2, y), T (1, c), T (8, f), T (4, c)];20.127843856811523
24;ResNet18_7;1.0106504;0.0024549938981593775;2;axe_yy1_0,axe_xx1_0;16;[V f, U (4, f), ULambda y, U (3, h), T (64, c), Hoist_vars [c], T (3, w),  T (14, x), Lambda_apply y [((Iter 2), (Arg 4)), ((Iter 1), (Arg 6))],  T (2, c), T (8, f), T (1, c)];21.057122707366943
25;ResNet18_7;0.8101269;0.0005862834553353857;1;axe_yy_0,axe_xx_0;16;[V f, U (4, f), U (7, y), U (3, h), T (64, c), Hoist_vars [c], T (3, w),  T (14, x), T (2, y), T (1, c), T (8, f), T (2, c)];21.715263605117798
26;ResNet18_7;0.9664856000000001;0.0010313904401341122;2;axe_yy1_0,axe_xx1_0;16;[V f, U (4, f), ULambda y, U (3, w), T (64, c), Hoist_vars [c], T (3, h),  T (14, x), Lambda_apply y [((Iter 2), (Arg 4)), ((Iter 1), (Arg 6))],  T (1, c), T (8, f), T (2, c)];22.646392822265625
27;ResNet18_7;0.8248583;0.000587037145332403;1;axe_yy_0,axe_xx_0;16;[V f, U (4, f), U (7, y), U (3, w), T (32, c), Hoist_vars [c], T (3, h),  T (14, x), T (2, y), T (4, c), T (8, f), T (1, c)];23.30358386039734
28;ResNet18_7;0.8201240999999999;0.0002412937835916971;1;axe_yy_0,axe_xx_0;16;[V f, U (4, f), U (7, y), U (3, w), T (64, c), Hoist_vars [c], T (3, h),  T (14, x), T (2, y), T (1, c), T (8, f), T (2, c)];23.960500478744507
29;ResNet18_7;0.8789098;0.00039366020880956366;1;axe_yy_0,axe_xx_0;16;[V f, U (4, f), U (7, y), U (3, w), T (8, c), Hoist_vars [c], T (3, h),  T (14, x), T (2, y), T (2, c), T (8, f), T (8, c)];24.634075164794922
30;ResNet18_7;0.8265573999999999;0.0007421731873356824;1;axe_yy_0,axe_xx_0;16;[V f, U (4, f), U (7, y), U (3, w), T (16, c), Hoist_vars [c], T (3, h),  T (14, x), T (2, y), T (8, c), T (8, f), T (1, c)];25.290648460388184
31;ResNet18_7;0.9392536;0.0026950022337652916;2;axe_yy1_0,axe_xx1_0;16;[V f, U (4, f), ULambda y, U (3, h), T (32, c), Hoist_vars [c], T (3, w),  T (14, x), Lambda_apply y [((Iter 2), (Arg 4)), ((Iter 1), (Arg 6))],  T (2, c), T (8, f), T (2, c)];26.227604627609253
32;ResNet18_7;0.9647774;0.0007817713476458471;2;axe_yy1_0,axe_xx1_0;15;[V f, U (4, f), ULambda y, U (3, h), T (32, c), Hoist_vars [c], T (3, w),  T (14, x), Lambda_apply y [((Iter 1), (Arg 4)), ((Iter 2), (Arg 5))],  T (4, c), T (8, f), T (1, c)];27.155157327651978
33;ResNet18_7;0.8351162999999999;0.0014867584908114613;1;axe_yy_0,axe_xx_0;16;[V f, U (4, f), U (7, y), U (3, h), T (16, c), Hoist_vars [c], T (3, w),  T (14, x), T (2, y), T (2, c), T (8, f), T (4, c)];27.819413423538208
34;ResNet18_7;0.8952715;0.0010290744628062565;1;axe_yy_0,axe_xx_0;16;[V f, U (4, f), U (7, y), U (3, h), T (8, c), Hoist_vars [c], T (3, w),  T (14, x), T (2, y), T (16, c), T (8, f), T (1, c)];28.489731073379517
35;ResNet18_7;0.9776048000000002;0.0018009355235543577;2;axe_yy1_0,axe_xx1_0;16;[V f, U (4, f), ULambda y, U (3, w), T (64, c), Hoist_vars [c], T (3, h),  T (14, x), Lambda_apply y [((Iter 2), (Arg 4)), ((Iter 1), (Arg 6))],  T (2, c), T (8, f), T (1, c)];29.422016620635986
36;ResNet18_7;0.9585751;0.0007080802849959984;2;axe_yy1_0,axe_xx1_0;15;[V f, U (4, f), ULambda y, U (3, h), T (16, c), Hoist_vars [c], T (3, w),  T (14, x), Lambda_apply y [((Iter 1), (Arg 4)), ((Iter 2), (Arg 5))],  T (8, c), T (8, f), T (1, c)];30.344984769821167
37;ResNet18_7;0.9479775;0.0005231707656205335;2;axe_yy1_0,axe_xx1_0;16;[V f, U (4, f), ULambda y, U (3, h), T (32, c), Hoist_vars [c], T (3, w),  T (14, x), Lambda_apply y [((Iter 2), (Arg 4)), ((Iter 1), (Arg 6))],  T (4, c), T (8, f), T (1, c)];31.26445245742798
38;ResNet18_7;1.0014736000000002;0.0009963899036020435;2;axe_yy1_0,axe_xx1_0;16;[V f, U (4, f), ULambda y, U (3, w), T (16, c), Hoist_vars [c], T (3, h),  T (14, x), Lambda_apply y [((Iter 2), (Arg 4)), ((Iter 1), (Arg 6))],  T (8, c), T (8, f), T (1, c)];32.197261571884155
39;ResNet18_7;0.8926578000000001;0.0010156209726073892;1;axe_yy_0,axe_xx_0;16;[V f, U (4, f), U (7, y), U (3, h), T (8, c), Hoist_vars [c], T (3, w),  T (14, x), T (2, y), T (8, c), T (8, f), T (2, c)];32.87302780151367
40;ResNet18_7;1.0109644000000002;0.0014008962988030164;2;axe_yy1_0,axe_xx1_0;16;[V f, U (4, f), ULambda y, U (3, h), T (8, c), Hoist_vars [c], T (3, w),  T (14, x), Lambda_apply y [((Iter 2), (Arg 4)), ((Iter 1), (Arg 6))],  T (16, c), T (8, f), T (1, c)];33.82184362411499
41;ResNet18_7;0.8772406;0.0028126903562248054;1;axe_yy_0,axe_xx_0;16;[V f, U (4, f), U (7, y), U (3, w), T (8, c), Hoist_vars [c], T (3, h),  T (14, x), T (2, y), T (1, c), T (8, f), T (16, c)];34.49458026885986
42;ResNet18_7;0.9965371999999999;0.003934337270748404;2;axe_yy1_0,axe_xx1_0;15;[V f, U (4, f), ULambda y, U (3, w), T (8, c), Hoist_vars [c], T (3, h),  T (14, x), Lambda_apply y [((Iter 1), (Arg 4)), ((Iter 2), (Arg 5))],  T (16, c), T (8, f), T (1, c)];35.440632820129395
43;ResNet18_7;0.8428354;0.0005332648872746141;1;axe_yy_0,axe_xx_0;16;[V f, U (4, f), U (7, y), U (3, h), T (32, c), Hoist_vars [c], T (3, w),  T (14, x), T (2, y), T (4, c), T (8, f), T (1, c)];36.09695553779602
44;ResNet18_7;0.8343790999999999;0.0005259025480067881;1;axe_yy_0,axe_xx_0;16;[V f, U (4, f), U (7, y), U (3, h), T (16, c), Hoist_vars [c], T (3, w),  T (14, x), T (2, y), T (8, c), T (8, f), T (1, c)];36.752819776535034
45;ResNet18_7;0.9416095;0.0005752342566294258;2;axe_yy1_0,axe_xx1_0;16;[V f, U (4, f), ULambda y, U (3, h), T (16, c), Hoist_vars [c], T (3, w),  T (14, x), Lambda_apply y [((Iter 2), (Arg 4)), ((Iter 1), (Arg 6))],  T (8, c), T (8, f), T (1, c)];37.67645835876465
46;ResNet18_7;0.9276092;0.001528943609162877;2;axe_yy1_0,axe_xx1_0;16;[V f, U (4, f), ULambda y, U (3, w), T (32, c), Hoist_vars [c], T (3, h),  T (14, x), Lambda_apply y [((Iter 2), (Arg 4)), ((Iter 1), (Arg 6))],  T (2, c), T (8, f), T (2, c)];38.61683225631714
47;ResNet18_7;0.8343914;0.0004537850151779075;1;axe_yy_0,axe_xx_0;16;[V f, U (4, f), U (7, y), U (3, w), T (16, c), Hoist_vars [c], T (3, h),  T (14, x), T (2, y), T (2, c), T (8, f), T (4, c)];39.28270149230957
48;ResNet18_7;1.0303498;0.0010215361765498244;2;axe_yy1_0,axe_xx1_0;15;[V f, U (4, f), ULambda y, U (3, h), T (8, c), Hoist_vars [c], T (3, w),  T (14, x), Lambda_apply y [((Iter 1), (Arg 4)), ((Iter 2), (Arg 5))],  T (16, c), T (8, f), T (1, c)];40.22707796096802
49;ResNet18_7;1.0394290000000002;0.0009584662748370777;2;axe_yy1_0,axe_xx1_0;15;[V f, U (4, f), ULambda y, T (8, c), Hoist_vars [c], T (3, w), T (3, h),  T (14, x), Lambda_apply y [((Iter 1), (Arg 4)), ((Iter 2), (Arg 5))],  T (16, c), T (8, f), T (1, c)];41.195427656173706
50;ResNet18_7;0.8241273000000001;0.0005466289509347268;1;axe_yy_0,axe_xx_0;16;[V f, U (4, f), U (7, y), U (3, w), T (32, c), Hoist_vars [c], T (3, h),  T (14, x), T (2, y), T (2, c), T (8, f), T (2, c)];41.86142301559448
