perf,CACHE_MISS_L1,CACHE_MISS_L2,scheme
31.81,1717294,4975407,"[V f; U (2, f); U (7, y); U (3, h); T (128, c); Hoist_vars [c]; T (7, x);  T (3, w); T (4, c); T (1, y); T (1, c); T (32, f); T (1, c)]"
40.48,1554188,1941452,"[V f; U (2, f); U (7, y); U (3, h); T (16, c); Hoist_vars [c]; T (7, x);  T (3, w); T (32, c); T (1, y); T (1, c); T (32, f); T (1, c)]"
35.69,2074201,2220288,"[V f; U (2, f); U (7, y); U (3, h); T (8, c); Hoist_vars [c]; T (7, x);  T (3, w); T (64, c); T (1, y); T (1, c); T (32, f); T (1, c)]"
18.42,9022960,2313763,"[V f; U (2, f); U (7, y); U (3, h); T (1, c); Hoist_vars [c]; T (7, x);  T (3, w); T (512, c); T (1, y); T (1, c); T (32, f); T (1, c)]"
29.79,1672487,5243831,"[V f; U (2, f); U (7, y); U (3, h); T (256, c); Hoist_vars [c]; T (7, x);  T (3, w); T (1, c); T (1, y); T (2, c); T (32, f); T (1, c)]"
29.39,1281218,4393416,"[V f; U (2, f); U (7, y); U (3, h); T (128, c); Hoist_vars [c]; T (7, x);  T (3, w); T (2, c); T (1, y); T (2, c); T (32, f); T (1, c)]"
40.94,1399455,1386841,"[V f; U (2, f); U (7, y); U (3, h); T (32, c); Hoist_vars [c]; T (7, x);  T (3, w); T (8, c); T (1, y); T (2, c); T (32, f); T (1, c)]"
31.13,4382359,3138546,"[V f; U (2, f); U (7, y); U (3, h); T (4, c); Hoist_vars [c]; T (7, x);  T (3, w); T (64, c); T (1, y); T (2, c); T (32, f); T (1, c)]"
30.67,3880294,1538386,"[V f; U (2, f); U (7, y); U (3, h); T (2, c); Hoist_vars [c]; T (7, x);  T (3, w); T (128, c); T (1, y); T (2, c); T (32, f); T (1, c)]"
17.84,8969773,2782523,"[V f; U (2, f); U (7, y); U (3, h); T (1, c); Hoist_vars [c]; T (7, x);  T (3, w); T (256, c); T (1, y); T (2, c); T (32, f); T (1, c)]"
31.94,1317036,2906194,"[V f; U (2, f); U (7, y); U (3, h); T (64, c); Hoist_vars [c]; T (7, x);  T (3, w); T (2, c); T (1, y); T (4, c); T (32, f); T (1, c)]"
37.49,2056971,2177894,"[V f; U (2, f); U (7, y); U (3, h); T (32, c); Hoist_vars [c]; T (7, x);  T (3, w); T (4, c); T (1, y); T (4, c); T (32, f); T (1, c)]"
30.49,3870112,1456605,"[V f; U (2, f); U (7, y); U (3, h); T (2, c); Hoist_vars [c]; T (7, x);  T (3, w); T (64, c); T (1, y); T (4, c); T (32, f); T (1, c)]"
35.09,2897103,2953702,"[V f; U (2, f); U (7, y); U (3, h); T (8, c); Hoist_vars [c]; T (7, x);  T (3, w); T (4, c); T (1, y); T (16, c); T (32, f); T (1, c)]"
30.26,4397669,3636054,"[V f; U (2, f); U (7, y); U (3, h); T (4, c); Hoist_vars [c]; T (7, x);  T (3, w); T (8, c); T (1, y); T (16, c); T (32, f); T (1, c)]"
30.84,3882014,1394000,"[V f; U (2, f); U (7, y); U (3, h); T (2, c); Hoist_vars [c]; T (7, x);  T (3, w); T (16, c); T (1, y); T (16, c); T (32, f); T (1, c)]"
18.40,9082139,1853584,"[V f; U (2, f); U (7, y); U (3, h); T (1, c); Hoist_vars [c]; T (7, x);  T (3, w); T (32, c); T (1, y); T (16, c); T (32, f); T (1, c)]"
31.18,3018569,2543189,"[V f; U (2, f); U (7, y); U (3, h); T (4, c); Hoist_vars [c]; T (7, x);  T (3, w); T (4, c); T (1, y); T (32, c); T (32, f); T (1, c)]"
17.20,8852377,4297539,"[V f; U (2, f); U (7, y); U (3, h); T (1, c); Hoist_vars [c]; T (7, x);  T (3, w); T (16, c); T (1, y); T (32, c); T (32, f); T (1, c)]"
34.61,2887667,3062832,"[V f; U (2, f); U (7, y); U (3, h); T (8, c); Hoist_vars [c]; T (7, x);  T (3, w); T (1, c); T (1, y); T (64, c); T (32, f); T (1, c)]"
30.56,4255856,1280453,"[V f; U (2, f); U (7, y); U (3, h); T (2, c); Hoist_vars [c]; T (7, x);  T (3, w); T (4, c); T (1, y); T (64, c); T (32, f); T (1, c)]"
18.07,8934759,2951103,"[V f; U (2, f); U (7, y); U (3, h); T (1, c); Hoist_vars [c]; T (7, x);  T (3, w); T (8, c); T (1, y); T (64, c); T (32, f); T (1, c)]"
29.71,4382547,3520396,"[V f; U (2, f); U (7, y); U (3, h); T (4, c); Hoist_vars [c]; T (7, x);  T (3, w); T (1, c); T (1, y); T (128, c); T (32, f); T (1, c)]"
30.15,3939775,1251536,"[V f; U (2, f); U (7, y); U (3, h); T (2, c); Hoist_vars [c]; T (7, x);  T (3, w); T (1, c); T (1, y); T (256, c); T (32, f); T (1, c)]"
17.93,9062015,2105615,"[V f; U (2, f); U (7, y); U (3, h); T (1, c); Hoist_vars [c]; T (7, x);  T (3, w); T (2, c); T (1, y); T (256, c); T (32, f); T (1, c)]"
38.05,1816740,3247069,"[V f; U (2, f); U (7, y); U (3, h); T (64, c); Hoist_vars [c]; T (7, x);  T (3, w); T (1, c); T (1, y); T (4, c); T (32, f); T (2, c)]"
41.98,2987610,3134278,"[V f; U (2, f); U (7, y); U (3, h); T (8, c); Hoist_vars [c]; T (7, x);  T (3, w); T (8, c); T (1, y); T (4, c); T (32, f); T (2, c)]"
18.58,8408587,1910828,"[V f; U (2, f); U (7, y); U (3, h); T (1, c); Hoist_vars [c]; T (7, x);  T (3, w); T (64, c); T (1, y); T (4, c); T (32, f); T (2, c)]"
39.14,2072392,2297031,"[V f; U (2, f); U (7, y); U (3, h); T (8, c); Hoist_vars [c]; T (7, x);  T (3, w); T (4, c); T (1, y); T (8, c); T (32, f); T (2, c)]"
34.90,4367441,3405580,"[V f; U (2, f); U (7, y); U (3, h); T (4, c); Hoist_vars [c]; T (7, x);  T (3, w); T (8, c); T (1, y); T (8, c); T (32, f); T (2, c)]"
18.40,8687546,2964338,"[V f; U (2, f); U (7, y); U (3, h); T (1, c); Hoist_vars [c]; T (7, x);  T (3, w); T (32, c); T (1, y); T (8, c); T (32, f); T (2, c)]"
35.06,4437413,3331304,"[V f; U (2, f); U (7, y); U (3, h); T (4, c); Hoist_vars [c]; T (7, x);  T (3, w); T (4, c); T (1, y); T (16, c); T (32, f); T (2, c)]"
18.68,9131724,2446757,"[V f; U (2, f); U (7, y); U (3, h); T (1, c); Hoist_vars [c]; T (7, x);  T (3, w); T (16, c); T (1, y); T (16, c); T (32, f); T (2, c)]"
35.44,4375624,3242035,"[V f; U (2, f); U (7, y); U (3, h); T (4, c); Hoist_vars [c]; T (7, x);  T (3, w); T (2, c); T (1, y); T (32, c); T (32, f); T (2, c)]"
32.76,4376771,1216937,"[V f; U (2, f); U (7, y); U (3, h); T (2, c); Hoist_vars [c]; T (7, x);  T (3, w); T (4, c); T (1, y); T (32, c); T (32, f); T (2, c)]"
31.58,4279338,1882937,"[V f; U (2, f); U (7, y); U (3, h); T (2, c); Hoist_vars [c]; T (7, x);  T (3, w); T (1, c); T (1, y); T (128, c); T (32, f); T (2, c)]"
38.94,1745305,4983468,"[V f; U (2, f); U (7, y); U (3, h); T (128, c); Hoist_vars [c]; T (7, x);  T (3, w); T (1, c); T (1, y); T (1, c); T (32, f); T (4, c)]"
48.72,2181605,2567481,"[V f; U (2, f); U (7, y); U (3, h); T (16, c); Hoist_vars [c]; T (7, x);  T (3, w); T (8, c); T (1, y); T (1, c); T (32, f); T (4, c)]"
40.28,1812209,3263408,"[V f; U (2, f); U (7, y); U (3, h); T (64, c); Hoist_vars [c]; T (7, x);  T (3, w); T (1, c); T (1, y); T (2, c); T (32, f); T (4, c)]"
45.74,1554513,1959792,"[V f; U (2, f); U (7, y); U (3, h); T (16, c); Hoist_vars [c]; T (7, x);  T (3, w); T (4, c); T (1, y); T (2, c); T (32, f); T (4, c)]"
36.63,4382602,3471780,"[V f; U (2, f); U (7, y); U (3, h); T (4, c); Hoist_vars [c]; T (7, x);  T (3, w); T (16, c); T (1, y); T (2, c); T (32, f); T (4, c)]"
33.49,3914726,1122225,"[V f; U (2, f); U (7, y); U (3, h); T (2, c); Hoist_vars [c]; T (7, x);  T (3, w); T (32, c); T (1, y); T (2, c); T (32, f); T (4, c)]"
42.43,2472931,2729361,"[V f; U (2, f); U (7, y); U (3, h); T (8, c); Hoist_vars [c]; T (7, x);  T (3, w); T (4, c); T (1, y); T (4, c); T (32, f); T (4, c)]"
18.64,9026167,2462543,"[V f; U (2, f); U (7, y); U (3, h); T (1, c); Hoist_vars [c]; T (7, x);  T (3, w); T (32, c); T (1, y); T (4, c); T (32, f); T (4, c)]"
37.40,4404874,3242360,"[V f; U (2, f); U (7, y); U (3, h); T (4, c); Hoist_vars [c]; T (7, x);  T (3, w); T (4, c); T (1, y); T (8, c); T (32, f); T (4, c)]"
19.23,9236155,1464820,"[V f; U (2, f); U (7, y); U (3, h); T (1, c); Hoist_vars [c]; T (7, x);  T (3, w); T (16, c); T (1, y); T (8, c); T (32, f); T (4, c)]"
18.73,9074557,2727172,"[V f; U (2, f); U (7, y); U (3, h); T (1, c); Hoist_vars [c]; T (7, x);  T (3, w); T (2, c); T (1, y); T (64, c); T (32, f); T (4, c)]"
17.63,8915486,4832182,"[V f; U (2, f); U (7, y); U (3, h); T (1, c); Hoist_vars [c]; T (7, x);  T (3, w); T (1, c); T (1, y); T (128, c); T (32, f); T (4, c)]"
42.34,2071000,2197623,"[V f; U (2, f); U (7, y); U (3, h); T (8, c); Hoist_vars [c]; T (7, x);  T (3, w); T (8, c); T (1, y); T (1, c); T (32, f); T (8, c)]"
49.88,1928859,1856583,"[V f; U (2, f); U (7, y); U (3, h); T (32, c); Hoist_vars [c]; T (7, x);  T (3, w); T (1, c); T (1, y); T (2, c); T (32, f); T (8, c)]"
49.52,2294808,2534792,"[V f; U (2, f); U (7, y); U (3, h); T (16, c); Hoist_vars [c]; T (7, x);  T (3, w); T (2, c); T (1, y); T (2, c); T (32, f); T (8, c)]"
36.07,3031801,2474618,"[V f; U (2, f); U (7, y); U (3, h); T (4, c); Hoist_vars [c]; T (7, x);  T (3, w); T (8, c); T (1, y); T (2, c); T (32, f); T (8, c)]"
33.34,4302862,2267225,"[V f; U (2, f); U (7, y); U (3, h); T (2, c); Hoist_vars [c]; T (7, x);  T (3, w); T (16, c); T (1, y); T (2, c); T (32, f); T (8, c)]"
44.47,2969070,2955564,"[V f; U (2, f); U (7, y); U (3, h); T (8, c); Hoist_vars [c]; T (7, x);  T (3, w); T (2, c); T (1, y); T (4, c); T (32, f); T (8, c)]"
19.12,9204370,2603863,"[V f; U (2, f); U (7, y); U (3, h); T (1, c); Hoist_vars [c]; T (7, x);  T (3, w); T (16, c); T (1, y); T (4, c); T (32, f); T (8, c)]"
33.28,3859843,1546891,"[V f; U (2, f); U (7, y); U (3, h); T (2, c); Hoist_vars [c]; T (7, x);  T (3, w); T (2, c); T (1, y); T (16, c); T (32, f); T (8, c)]"
18.86,8183269,1713811,"[V f; U (2, f); U (7, y); U (3, h); T (1, c); Hoist_vars [c]; T (7, x);  T (3, w); T (2, c); T (1, y); T (32, c); T (32, f); T (8, c)]"
19.10,9120349,1996355,"[V f; U (2, f); U (7, y); U (3, h); T (1, c); Hoist_vars [c]; T (7, x);  T (3, w); T (1, c); T (1, y); T (64, c); T (32, f); T (8, c)]"
48.40,2023790,2060898,"[V f; U (2, f); U (7, y); U (3, h); T (32, c); Hoist_vars [c]; T (7, x);  T (3, w); T (1, c); T (1, y); T (1, c); T (32, f); T (16, c)]"
44.14,2917133,2873904,"[V f; U (2, f); U (7, y); U (3, h); T (8, c); Hoist_vars [c]; T (7, x);  T (3, w); T (4, c); T (1, y); T (1, c); T (32, f); T (16, c)]"
38.67,4398579,3010732,"[V f; U (2, f); U (7, y); U (3, h); T (4, c); Hoist_vars [c]; T (7, x);  T (3, w); T (2, c); T (1, y); T (4, c); T (32, f); T (16, c)]"
33.47,3858085,1522511,"[V f; U (2, f); U (7, y); U (3, h); T (2, c); Hoist_vars [c]; T (7, x);  T (3, w); T (2, c); T (1, y); T (8, c); T (32, f); T (16, c)]"
33.76,4417567,2245210,"[V f; U (2, f); U (7, y); U (3, h); T (2, c); Hoist_vars [c]; T (7, x);  T (3, w); T (1, c); T (1, y); T (16, c); T (32, f); T (16, c)]"
19.34,9173924,1506970,"[V f; U (2, f); U (7, y); U (3, h); T (1, c); Hoist_vars [c]; T (7, x);  T (3, w); T (2, c); T (1, y); T (16, c); T (32, f); T (16, c)]"
18.34,8825269,4038787,"[V f; U (2, f); U (7, y); U (3, h); T (1, c); Hoist_vars [c]; T (7, x);  T (3, w); T (1, c); T (1, y); T (32, c); T (32, f); T (16, c)]"
43.19,2063404,2176426,"[V f; U (2, f); U (7, y); U (3, h); T (8, c); Hoist_vars [c]; T (7, x);  T (3, w); T (1, c); T (1, y); T (2, c); T (32, f); T (32, c)]"
34.65,4360563,1108455,"[V f; U (2, f); U (7, y); U (3, h); T (2, c); Hoist_vars [c]; T (7, x);  T (3, w); T (4, c); T (1, y); T (2, c); T (32, f); T (32, c)]"
18.77,8157139,2115559,"[V f; U (2, f); U (7, y); U (3, h); T (1, c); Hoist_vars [c]; T (7, x);  T (3, w); T (8, c); T (1, y); T (2, c); T (32, f); T (32, c)]"
33.42,4257114,1671748,"[V f; U (2, f); U (7, y); U (3, h); T (2, c); Hoist_vars [c]; T (7, x);  T (3, w); T (1, c); T (1, y); T (8, c); T (32, f); T (32, c)]"
18.52,8143999,3459165,"[V f; U (2, f); U (7, y); U (3, h); T (1, c); Hoist_vars [c]; T (7, x);  T (3, w); T (2, c); T (1, y); T (8, c); T (32, f); T (32, c)]"
18.69,8130020,3758479,"[V f; U (2, f); U (7, y); U (3, h); T (1, c); Hoist_vars [c]; T (7, x);  T (3, w); T (1, c); T (1, y); T (16, c); T (32, f); T (32, c)]"
33.71,4148549,1979438,"[V f; U (2, f); U (7, y); U (3, h); T (2, c); Hoist_vars [c]; T (7, x);  T (3, w); T (4, c); T (1, y); T (1, c); T (32, f); T (64, c)]"
19.11,9139624,2926906,"[V f; U (2, f); U (7, y); U (3, h); T (1, c); Hoist_vars [c]; T (7, x);  T (3, w); T (1, c); T (1, y); T (8, c); T (32, f); T (64, c)]"
35.73,3884949,1226602,"[V f; U (2, f); U (7, y); U (3, h); T (2, c); Hoist_vars [c]; T (7, x);  T (3, w); T (2, c); T (1, y); T (1, c); T (32, f); T (128, c)]"
19.65,9197208,1068678,"[V f; U (2, f); U (7, y); U (3, h); T (1, c); Hoist_vars [c]; T (7, x);  T (3, w); T (4, c); T (1, y); T (1, c); T (32, f); T (128, c)]"
34.08,3841320,1397419,"[V f; U (2, f); U (7, y); U (3, h); T (2, c); Hoist_vars [c]; T (7, x);  T (3, w); T (1, c); T (1, y); T (2, c); T (32, f); T (128, c)]"
19.53,9098463,1670075,"[V f; U (2, f); U (7, y); U (3, h); T (1, c); Hoist_vars [c]; T (7, x);  T (3, w); T (2, c); T (1, y); T (2, c); T (32, f); T (128, c)]"
34.32,3744075,2166888,"[V f; U (2, f); U (7, y); U (3, h); T (2, c); Hoist_vars [c]; T (7, x);  T (3, w); T (1, c); T (1, y); T (1, c); T (32, f); T (256, c)]"
19.73,8984922,2903295,"[V f; U (2, f); U (7, y); U (3, h); T (1, c); Hoist_vars [c]; T (7, x);  T (3, w); T (1, c); T (1, y); T (1, c); T (32, f); T (512, c)]"
32.37,4358329,5030070,"[V f; U (2, f); U (7, y); U (3, w); T (128, c); Hoist_vars [c]; T (7, x);  T (3, h); T (4, c); T (1, y); T (1, c); T (32, f); T (1, c)]"
35.37,4483576,2585611,"[V f; U (2, f); U (7, y); U (3, w); T (32, c); Hoist_vars [c]; T (7, x);  T (3, h); T (16, c); T (1, y); T (1, c); T (32, f); T (1, c)]"
28.94,6234998,3791554,"[V f; U (2, f); U (7, y); U (3, w); T (4, c); Hoist_vars [c]; T (7, x);  T (3, h); T (128, c); T (1, y); T (1, c); T (32, f); T (1, c)]"
14.97,8626376,1480791,"[V f; U (2, f); U (7, y); U (3, w); T (1, c); Hoist_vars [c]; T (7, x);  T (3, h); T (512, c); T (1, y); T (1, c); T (32, f); T (1, c)]"
31.35,3773269,4591409,"[V f; U (2, f); U (7, y); U (3, w); T (128, c); Hoist_vars [c]; T (7, x);  T (3, h); T (2, c); T (1, y); T (2, c); T (32, f); T (1, c)]"
36.41,4637474,3109573,"[V f; U (2, f); U (7, y); U (3, w); T (16, c); Hoist_vars [c]; T (7, x);  T (3, h); T (16, c); T (1, y); T (2, c); T (32, f); T (1, c)]"
32.35,5023823,3460831,"[V f; U (2, f); U (7, y); U (3, w); T (8, c); Hoist_vars [c]; T (7, x);  T (3, h); T (32, c); T (1, y); T (2, c); T (32, f); T (1, c)]"
21.48,6880899,4565276,"[V f; U (2, f); U (7, y); U (3, w); T (2, c); Hoist_vars [c]; T (7, x);  T (3, h); T (128, c); T (1, y); T (2, c); T (32, f); T (1, c)]"
21.91,5995466,2012260,"[V f; U (2, f); U (7, y); U (3, w); T (2, c); Hoist_vars [c]; T (7, x);  T (3, h); T (64, c); T (1, y); T (4, c); T (32, f); T (1, c)]"
36.32,3699214,1501886,"[V f; U (2, f); U (7, y); U (3, w); T (32, c); Hoist_vars [c]; T (7, x);  T (3, h); T (2, c); T (1, y); T (8, c); T (32, f); T (1, c)]"
35.44,4450354,3439760,"[V f; U (2, f); U (7, y); U (3, w); T (16, c); Hoist_vars [c]; T (7, x);  T (3, h); T (4, c); T (1, y); T (8, c); T (32, f); T (1, c)]"
28.64,6262879,3869523,"[V f; U (2, f); U (7, y); U (3, w); T (4, c); Hoist_vars [c]; T (7, x);  T (3, h); T (4, c); T (1, y); T (32, c); T (32, f); T (1, c)]"
21.88,5699328,2899310,"[V f; U (2, f); U (7, y); U (3, w); T (2, c); Hoist_vars [c]; T (7, x);  T (3, h); T (8, c); T (1, y); T (32, c); T (32, f); T (1, c)]"
28.06,6262060,3826164,"[V f; U (2, f); U (7, y); U (3, w); T (4, c); Hoist_vars [c]; T (7, x);  T (3, h); T (2, c); T (1, y); T (64, c); T (32, f); T (1, c)]"
14.33,9110028,3573919,"[V f; U (2, f); U (7, y); U (3, w); T (1, c); Hoist_vars [c]; T (7, x);  T (3, h); T (8, c); T (1, y); T (64, c); T (32, f); T (1, c)]"
28.24,6345740,3959614,"[V f; U (2, f); U (7, y); U (3, w); T (4, c); Hoist_vars [c]; T (7, x);  T (3, h); T (1, c); T (1, y); T (128, c); T (32, f); T (1, c)]"
14.98,9339678,1514770,"[V f; U (2, f); U (7, y); U (3, w); T (1, c); Hoist_vars [c]; T (7, x);  T (3, h); T (1, c); T (1, y); T (512, c); T (32, f); T (1, c)]"
37.58,4307550,5377073,"[V f; U (2, f); U (7, y); U (3, w); T (256, c); Hoist_vars [c]; T (7, x);  T (3, h); T (1, c); T (1, y); T (1, c); T (32, f); T (2, c)]"
39.47,3707009,2065189,"[V f; U (2, f); U (7, y); U (3, w); T (16, c); Hoist_vars [c]; T (7, x);  T (3, h); T (16, c); T (1, y); T (1, c); T (32, f); T (2, c)]"
38.06,4319990,5031557,"[V f; U (2, f); U (7, y); U (3, w); T (128, c); Hoist_vars [c]; T (7, x);  T (3, h); T (1, c); T (1, y); T (2, c); T (32, f); T (2, c)]"
40.30,4501490,4011637,"[V f; U (2, f); U (7, y); U (3, w); T (64, c); Hoist_vars [c]; T (7, x);  T (3, h); T (2, c); T (1, y); T (2, c); T (32, f); T (2, c)]"
43.98,4229638,1901593,"[V f; U (2, f); U (7, y); U (3, w); T (32, c); Hoist_vars [c]; T (7, x);  T (3, h); T (4, c); T (1, y); T (2, c); T (32, f); T (2, c)]"
32.69,6253266,3282847,"[V f; U (2, f); U (7, y); U (3, w); T (4, c); Hoist_vars [c]; T (7, x);  T (3, h); T (32, c); T (1, y); T (2, c); T (32, f); T (2, c)]"
15.09,8652410,1104891,"[V f; U (2, f); U (7, y); U (3, w); T (1, c); Hoist_vars [c]; T (7, x);  T (3, h); T (128, c); T (1, y); T (2, c); T (32, f); T (2, c)]"
39.76,4443530,3491470,"[V f; U (2, f); U (7, y); U (3, w); T (64, c); Hoist_vars [c]; T (7, x);  T (3, h); T (1, c); T (1, y); T (4, c); T (32, f); T (2, c)]"
31.86,6304108,3853369,"[V f; U (2, f); U (7, y); U (3, w); T (4, c); Hoist_vars [c]; T (7, x);  T (3, h); T (16, c); T (1, y); T (4, c); T (32, f); T (2, c)]"
14.86,9358537,1478867,"[V f; U (2, f); U (7, y); U (3, w); T (1, c); Hoist_vars [c]; T (7, x);  T (3, h); T (64, c); T (1, y); T (4, c); T (32, f); T (2, c)]"
44.14,4338987,2234902,"[V f; U (2, f); U (7, y); U (3, w); T (32, c); Hoist_vars [c]; T (7, x);  T (3, h); T (1, c); T (1, y); T (8, c); T (32, f); T (2, c)]"
38.91,3692812,2204299,"[V f; U (2, f); U (7, y); U (3, w); T (16, c); Hoist_vars [c]; T (7, x);  T (3, h); T (2, c); T (1, y); T (8, c); T (32, f); T (2, c)]"
35.35,4046096,2514890,"[V f; U (2, f); U (7, y); U (3, w); T (8, c); Hoist_vars [c]; T (7, x);  T (3, h); T (4, c); T (1, y); T (8, c); T (32, f); T (2, c)]"
14.76,8623840,1506573,"[V f; U (2, f); U (7, y); U (3, w); T (1, c); Hoist_vars [c]; T (7, x);  T (3, h); T (32, c); T (1, y); T (8, c); T (32, f); T (2, c)]"
22.52,5721911,3103636,"[V f; U (2, f); U (7, y); U (3, w); T (2, c); Hoist_vars [c]; T (7, x);  T (3, h); T (8, c); T (1, y); T (16, c); T (32, f); T (2, c)]"
14.86,9304084,2276512,"[V f; U (2, f); U (7, y); U (3, w); T (1, c); Hoist_vars [c]; T (7, x);  T (3, h); T (16, c); T (1, y); T (16, c); T (32, f); T (2, c)]"
35.47,4042535,2535466,"[V f; U (2, f); U (7, y); U (3, w); T (8, c); Hoist_vars [c]; T (7, x);  T (3, h); T (1, c); T (1, y); T (32, c); T (32, f); T (2, c)]"
31.80,6219392,4323440,"[V f; U (2, f); U (7, y); U (3, w); T (4, c); Hoist_vars [c]; T (7, x);  T (3, h); T (1, c); T (1, y); T (64, c); T (32, f); T (2, c)]"
14.72,9245575,3716427,"[V f; U (2, f); U (7, y); U (3, w); T (1, c); Hoist_vars [c]; T (7, x);  T (3, h); T (4, c); T (1, y); T (64, c); T (32, f); T (2, c)]"
14.87,9358634,1784159,"[V f; U (2, f); U (7, y); U (3, w); T (1, c); Hoist_vars [c]; T (7, x);  T (3, h); T (1, c); T (1, y); T (256, c); T (32, f); T (2, c)]"
37.70,3724613,4502894,"[V f; U (2, f); U (7, y); U (3, w); T (128, c); Hoist_vars [c]; T (7, x);  T (3, h); T (1, c); T (1, y); T (1, c); T (32, f); T (4, c)]"
41.81,4363723,3463607,"[V f; U (2, f); U (7, y); U (3, w); T (64, c); Hoist_vars [c]; T (7, x);  T (3, h); T (2, c); T (1, y); T (1, c); T (32, f); T (4, c)]"
24.32,6964162,4910006,"[V f; U (2, f); U (7, y); U (3, w); T (2, c); Hoist_vars [c]; T (7, x);  T (3, h); T (64, c); T (1, y); T (1, c); T (32, f); T (4, c)]"
14.87,9257410,2625447,"[V f; U (2, f); U (7, y); U (3, w); T (1, c); Hoist_vars [c]; T (7, x);  T (3, h); T (128, c); T (1, y); T (1, c); T (32, f); T (4, c)]"
40.80,4533672,4107297,"[V f; U (2, f); U (7, y); U (3, w); T (64, c); Hoist_vars [c]; T (7, x);  T (3, h); T (1, c); T (1, y); T (2, c); T (32, f); T (4, c)]"
24.86,7061856,3528703,"[V f; U (2, f); U (7, y); U (3, w); T (2, c); Hoist_vars [c]; T (7, x);  T (3, h); T (16, c); T (1, y); T (4, c); T (32, f); T (4, c)]"
15.21,9344816,1903125,"[V f; U (2, f); U (7, y); U (3, w); T (1, c); Hoist_vars [c]; T (7, x);  T (3, h); T (32, c); T (1, y); T (4, c); T (32, f); T (4, c)]"
36.90,4041871,2541403,"[V f; U (2, f); U (7, y); U (3, w); T (8, c); Hoist_vars [c]; T (7, x);  T (3, h); T (2, c); T (1, y); T (8, c); T (32, f); T (4, c)]"
23.78,5803312,2478598,"[V f; U (2, f); U (7, y); U (3, w); T (2, c); Hoist_vars [c]; T (7, x);  T (3, h); T (8, c); T (1, y); T (8, c); T (32, f); T (4, c)]"
14.87,9085887,2064591,"[V f; U (2, f); U (7, y); U (3, w); T (1, c); Hoist_vars [c]; T (7, x);  T (3, h); T (16, c); T (1, y); T (8, c); T (32, f); T (4, c)]"
33.68,6213073,3382424,"[V f; U (2, f); U (7, y); U (3, w); T (4, c); Hoist_vars [c]; T (7, x);  T (3, h); T (2, c); T (1, y); T (16, c); T (32, f); T (4, c)]"
24.49,6978402,4074236,"[V f; U (2, f); U (7, y); U (3, w); T (2, c); Hoist_vars [c]; T (7, x);  T (3, h); T (2, c); T (1, y); T (32, c); T (32, f); T (4, c)]"
25.12,7152827,3385860,"[V f; U (2, f); U (7, y); U (3, w); T (2, c); Hoist_vars [c]; T (7, x);  T (3, h); T (1, c); T (1, y); T (64, c); T (32, f); T (4, c)]"
14.52,9073281,3646831,"[V f; U (2, f); U (7, y); U (3, w); T (1, c); Hoist_vars [c]; T (7, x);  T (3, h); T (1, c); T (1, y); T (128, c); T (32, f); T (4, c)]"
14.82,8722852,996668,"[V f; U (2, f); U (7, y); U (3, w); T (1, c); Hoist_vars [c]; T (7, x);  T (3, h); T (64, c); T (1, y); T (1, c); T (32, f); T (8, c)]"
41.60,5003835,3277681,"[V f; U (2, f); U (7, y); U (3, w); T (8, c); Hoist_vars [c]; T (7, x);  T (3, h); T (4, c); T (1, y); T (2, c); T (32, f); T (8, c)]"
15.42,9350079,1370635,"[V f; U (2, f); U (7, y); U (3, w); T (1, c); Hoist_vars [c]; T (7, x);  T (3, h); T (32, c); T (1, y); T (2, c); T (32, f); T (8, c)]"
45.40,4583546,3259950,"[V f; U (2, f); U (7, y); U (3, w); T (16, c); Hoist_vars [c]; T (7, x);  T (3, h); T (1, c); T (1, y); T (4, c); T (32, f); T (8, c)]"
15.34,9258926,2498800,"[V f; U (2, f); U (7, y); U (3, w); T (1, c); Hoist_vars [c]; T (7, x);  T (3, h); T (16, c); T (1, y); T (4, c); T (32, f); T (8, c)]"
37.01,4006687,2629595,"[V f; U (2, f); U (7, y); U (3, w); T (8, c); Hoist_vars [c]; T (7, x);  T (3, h); T (1, c); T (1, y); T (8, c); T (32, f); T (8, c)]"
45.47,4459291,2524221,"[V f; U (2, f); U (7, y); U (3, w); T (32, c); Hoist_vars [c]; T (7, x);  T (3, h); T (1, c); T (1, y); T (1, c); T (32, f); T (16, c)]"
46.86,4469383,2709446,"[V f; U (2, f); U (7, y); U (3, w); T (16, c); Hoist_vars [c]; T (7, x);  T (3, h); T (2, c); T (1, y); T (1, c); T (32, f); T (16, c)]"
15.40,9326107,1519062,"[V f; U (2, f); U (7, y); U (3, w); T (1, c); Hoist_vars [c]; T (7, x);  T (3, h); T (32, c); T (1, y); T (1, c); T (32, f); T (16, c)]"
34.22,6207480,3600138,"[V f; U (2, f); U (7, y); U (3, w); T (4, c); Hoist_vars [c]; T (7, x);  T (3, h); T (4, c); T (1, y); T (2, c); T (32, f); T (16, c)]"
40.96,5111147,3434225,"[V f; U (2, f); U (7, y); U (3, w); T (8, c); Hoist_vars [c]; T (7, x);  T (3, h); T (1, c); T (1, y); T (4, c); T (32, f); T (16, c)]"
14.83,9324324,2136119,"[V f; U (2, f); U (7, y); U (3, w); T (1, c); Hoist_vars [c]; T (7, x);  T (3, h); T (8, c); T (1, y); T (4, c); T (32, f); T (16, c)]"
26.04,7063427,3050290,"[V f; U (2, f); U (7, y); U (3, w); T (2, c); Hoist_vars [c]; T (7, x);  T (3, h); T (1, c); T (1, y); T (16, c); T (32, f); T (16, c)]"
24.70,7435597,2941137,"[V f; U (2, f); U (7, y); U (3, w); T (2, c); Hoist_vars [c]; T (7, x);  T (3, h); T (8, c); T (1, y); T (1, c); T (32, f); T (32, c)]"
40.55,4050195,1988070,"[V f; U (2, f); U (7, y); U (3, w); T (8, c); Hoist_vars [c]; T (7, x);  T (3, h); T (1, c); T (1, y); T (2, c); T (32, f); T (32, c)]"
34.88,6088314,3735079,"[V f; U (2, f); U (7, y); U (3, w); T (4, c); Hoist_vars [c]; T (7, x);  T (3, h); T (2, c); T (1, y); T (2, c); T (32, f); T (32, c)]"
25.62,7142492,3413130,"[V f; U (2, f); U (7, y); U (3, w); T (2, c); Hoist_vars [c]; T (7, x);  T (3, h); T (4, c); T (1, y); T (2, c); T (32, f); T (32, c)]"
25.96,6840137,3180862,"[V f; U (2, f); U (7, y); U (3, w); T (2, c); Hoist_vars [c]; T (7, x);  T (3, h); T (1, c); T (1, y); T (8, c); T (32, f); T (32, c)]"
15.34,9141125,2128339,"[V f; U (2, f); U (7, y); U (3, w); T (1, c); Hoist_vars [c]; T (7, x);  T (3, h); T (2, c); T (1, y); T (8, c); T (32, f); T (32, c)]"
41.28,4972469,3041931,"[V f; U (2, f); U (7, y); U (3, w); T (8, c); Hoist_vars [c]; T (7, x);  T (3, h); T (1, c); T (1, y); T (1, c); T (32, f); T (64, c)]"
25.29,5952853,1630199,"[V f; U (2, f); U (7, y); U (3, w); T (2, c); Hoist_vars [c]; T (7, x);  T (3, h); T (4, c); T (1, y); T (1, c); T (32, f); T (64, c)]"
14.82,8644913,1783449,"[V f; U (2, f); U (7, y); U (3, w); T (1, c); Hoist_vars [c]; T (7, x);  T (3, h); T (4, c); T (1, y); T (2, c); T (32, f); T (64, c)]"
15.47,9293316,1540260,"[V f; U (2, f); U (7, y); U (3, w); T (1, c); Hoist_vars [c]; T (7, x);  T (3, h); T (1, c); T (1, y); T (8, c); T (32, f); T (64, c)]"
15.53,9203205,1668084,"[V f; U (2, f); U (7, y); U (3, w); T (1, c); Hoist_vars [c]; T (7, x);  T (3, h); T (4, c); T (1, y); T (1, c); T (32, f); T (128, c)]"
15.29,9195188,3450939,"[V f; U (2, f); U (7, y); U (3, w); T (1, c); Hoist_vars [c]; T (7, x);  T (3, h); T (2, c); T (1, y); T (2, c); T (32, f); T (128, c)]"
26.26,2623220,8044077,"[V f; U (4, f); ULambda y; U (3, w); T (512, c); Hoist_vars [c]; T (7, x);  T (3, h); T (2, f);  Lambda_apply y [((Iter 1), (Arg 3)); ((Iter 1), (Arg 4))]; T (8, f);  T (1, c); T (1, f)]"
26.36,2620824,8050691,"[V f; U (4, f); ULambda y; U (3, w); T (512, c); Hoist_vars [c]; T (7, x);  T (3, h); T (4, f);  Lambda_apply y [((Iter 1), (Arg 3)); ((Iter 1), (Arg 4))]; T (2, f);  T (1, c); T (2, f)]"
26.03,2624508,8035506,"[V f; U (4, f); ULambda y; U (3, w); T (512, c); Hoist_vars [c]; T (7, x);  T (3, h); T (1, f);  Lambda_apply y [((Iter 1), (Arg 3)); ((Iter 1), (Arg 4))]; T (8, f);  T (1, c); T (2, f)]"
24.98,2637501,8365599,"[V f; U (4, f); ULambda y; U (3, w); T (512, c); Hoist_vars [c]; T (7, x);  T (3, h); T (4, f);  Lambda_apply y [((Iter 1), (Arg 3)); ((Iter 1), (Arg 4))]; T (1, f);  T (1, c); T (4, f)]"
25.99,2208773,6880048,"[V f; U (4, f); ULambda y; U (3, w); T (512, c); Hoist_vars [c]; T (7, x);  T (3, h); T (1, f);  Lambda_apply y [((Iter 1), (Arg 3)); ((Iter 1), (Arg 4))]; T (4, f);  T (1, c); T (4, f)]"
24.59,2627572,8320120,"[V f; U (4, f); ULambda y; U (3, w); T (512, c); Hoist_vars [c]; T (7, x);  T (3, h); T (1, f);  Lambda_apply y [((Iter 1), (Arg 3)); ((Iter 1), (Arg 4))]; T (2, f);  T (1, c); T (8, f)]"
26.20,2208480,6890056,"[V f; U (4, f); ULambda y; U (3, w); T (512, c); Hoist_vars [c]; T (7, x);  T (3, h); T (1, f);  Lambda_apply y [((Iter 1), (Arg 3)); ((Iter 1), (Arg 4))]; T (1, f);  T (1, c); T (16, f)]"
32.63,2644845,8435484,"[V f; U (4, f); ULambda y; U (3, w); T (256, c); Hoist_vars [c]; T (7, x);  T (3, h); T (8, f);  Lambda_apply y [((Iter 1), (Arg 3)); ((Iter 1), (Arg 4))]; T (2, f);  T (2, c); T (1, f)]"
34.06,2782008,8455984,"[V f; U (4, f); ULambda y; U (3, w); T (256, c); Hoist_vars [c]; T (7, x);  T (3, h); T (8, f);  Lambda_apply y [((Iter 1), (Arg 3)); ((Iter 1), (Arg 4))]; T (1, f);  T (2, c); T (2, f)]"
31.87,2635864,8059175,"[V f; U (4, f); ULambda y; U (3, w); T (256, c); Hoist_vars [c]; T (7, x);  T (3, h); T (1, f);  Lambda_apply y [((Iter 1), (Arg 3)); ((Iter 1), (Arg 4))]; T (1, f);  T (2, c); T (16, f)]"
32.36,2834242,8664407,"[V f; U (4, f); ULambda y; U (3, w); T (128, c); Hoist_vars [c]; T (7, x);  T (3, h); T (16, f);  Lambda_apply y [((Iter 1), (Arg 3)); ((Iter 1), (Arg 4))]; T (1, f);  T (4, c); T (1, f)]"
34.80,2238124,7300883,"[V f; U (4, f); ULambda y; U (3, w); T (128, c); Hoist_vars [c]; T (7, x);  T (3, h); T (8, f);  Lambda_apply y [((Iter 1), (Arg 3)); ((Iter 1), (Arg 4))]; T (2, f);  T (4, c); T (1, f)]"
35.98,2238065,6992617,"[V f; U (4, f); ULambda y; U (3, w); T (128, c); Hoist_vars [c]; T (7, x);  T (3, h); T (8, f);  Lambda_apply y [((Iter 1), (Arg 3)); ((Iter 1), (Arg 4))]; T (1, f);  T (4, c); T (2, f)]"
33.54,2674035,7983022,"[V f; U (4, f); ULambda y; U (3, w); T (128, c); Hoist_vars [c]; T (7, x);  T (3, h); T (1, f);  Lambda_apply y [((Iter 1), (Arg 3)); ((Iter 1), (Arg 4))]; T (8, f);  T (4, c); T (2, f)]"
31.75,2685439,8019259,"[V f; U (4, f); ULambda y; U (3, w); T (128, c); Hoist_vars [c]; T (7, x);  T (3, h); T (2, f);  Lambda_apply y [((Iter 1), (Arg 3)); ((Iter 1), (Arg 4))]; T (1, f);  T (4, c); T (8, f)]"
31.25,2830544,8532030,"[V f; U (4, f); ULambda y; U (3, w); T (128, c); Hoist_vars [c]; T (7, x);  T (3, h); T (1, f);  Lambda_apply y [((Iter 1), (Arg 3)); ((Iter 1), (Arg 4))]; T (2, f);  T (4, c); T (8, f)]"
30.91,2673509,7990093,"[V f; U (4, f); ULambda y; U (3, w); T (128, c); Hoist_vars [c]; T (7, x);  T (3, h); T (1, f);  Lambda_apply y [((Iter 1), (Arg 3)); ((Iter 1), (Arg 4))]; T (1, f);  T (4, c); T (16, f)]"
35.98,2930524,6193553,"[V f; U (4, f); ULambda y; U (3, w); T (64, c); Hoist_vars [c]; T (7, x);  T (3, h); T (8, f);  Lambda_apply y [((Iter 1), (Arg 3)); ((Iter 1), (Arg 4))]; T (2, f);  T (8, c); T (1, f)]"
37.23,2776135,5367194,"[V f; U (4, f); ULambda y; U (3, w); T (64, c); Hoist_vars [c]; T (7, x);  T (3, h); T (4, f);  Lambda_apply y [((Iter 1), (Arg 3)); ((Iter 1), (Arg 4))]; T (4, f);  T (8, c); T (1, f)]"
38.85,2283002,4728691,"[V f; U (4, f); ULambda y; U (3, w); T (64, c); Hoist_vars [c]; T (7, x);  T (3, h); T (4, f);  Lambda_apply y [((Iter 1), (Arg 3)); ((Iter 1), (Arg 4))]; T (2, f);  T (8, c); T (2, f)]"
37.16,2777558,5384102,"[V f; U (4, f); ULambda y; U (3, w); T (64, c); Hoist_vars [c]; T (7, x);  T (3, h); T (1, f);  Lambda_apply y [((Iter 1), (Arg 3)); ((Iter 1), (Arg 4))]; T (8, f);  T (8, c); T (2, f)]"
36.48,2284393,4737950,"[V f; U (4, f); ULambda y; U (3, w); T (64, c); Hoist_vars [c]; T (7, x);  T (3, h); T (2, f);  Lambda_apply y [((Iter 1), (Arg 3)); ((Iter 1), (Arg 4))]; T (1, f);  T (8, c); T (8, f)]"
33.40,2780559,5374992,"[V f; U (4, f); ULambda y; U (3, w); T (64, c); Hoist_vars [c]; T (7, x);  T (3, h); T (1, f);  Lambda_apply y [((Iter 1), (Arg 3)); ((Iter 1), (Arg 4))]; T (1, f);  T (8, c); T (16, f)]"
44.19,2379785,2412538,"[V f; U (4, f); ULambda y; U (3, w); T (32, c); Hoist_vars [c]; T (7, x);  T (3, h); T (8, f);  Lambda_apply y [((Iter 1), (Arg 3)); ((Iter 1), (Arg 4))]; T (2, f);  T (16, c); T (1, f)]"
44.55,2940015,2649247,"[V f; U (4, f); ULambda y; U (3, w); T (32, c); Hoist_vars [c]; T (7, x);  T (3, h); T (1, f);  Lambda_apply y [((Iter 1), (Arg 3)); ((Iter 1), (Arg 4))]; T (16, f);  T (16, c); T (1, f)]"
45.51,2378827,2259179,"[V f; U (4, f); ULambda y; U (3, w); T (32, c); Hoist_vars [c]; T (7, x);  T (3, h); T (8, f);  Lambda_apply y [((Iter 1), (Arg 3)); ((Iter 1), (Arg 4))]; T (1, f);  T (16, c); T (2, f)]"
45.65,2376688,2251416,"[V f; U (4, f); ULambda y; U (3, w); T (32, c); Hoist_vars [c]; T (7, x);  T (3, h); T (2, f);  Lambda_apply y [((Iter 1), (Arg 3)); ((Iter 1), (Arg 4))]; T (4, f);  T (16, c); T (2, f)]"
42.80,2379640,2540684,"[V f; U (4, f); ULambda y; U (3, w); T (32, c); Hoist_vars [c]; T (7, x);  T (3, h); T (4, f);  Lambda_apply y [((Iter 1), (Arg 3)); ((Iter 1), (Arg 4))]; T (1, f);  T (16, c); T (4, f)]"
43.49,2380136,2483445,"[V f; U (4, f); ULambda y; U (3, w); T (32, c); Hoist_vars [c]; T (7, x);  T (3, h); T (1, f);  Lambda_apply y [((Iter 1), (Arg 3)); ((Iter 1), (Arg 4))]; T (4, f);  T (16, c); T (4, f)]"
40.90,2376498,2407170,"[V f; U (4, f); ULambda y; U (3, w); T (32, c); Hoist_vars [c]; T (7, x);  T (3, h); T (1, f);  Lambda_apply y [((Iter 1), (Arg 3)); ((Iter 1), (Arg 4))]; T (1, f);  T (16, c); T (16, f)]"
42.73,2530397,3105866,"[V f; U (4, f); ULambda y; U (3, w); T (16, c); Hoist_vars [c]; T (7, x);  T (3, h); T (4, f);  Lambda_apply y [((Iter 1), (Arg 3)); ((Iter 1), (Arg 4))]; T (1, f);  T (32, c); T (4, f)]"
42.92,2532561,3104653,"[V f; U (4, f); ULambda y; U (3, w); T (16, c); Hoist_vars [c]; T (7, x);  T (3, h); T (2, f);  Lambda_apply y [((Iter 1), (Arg 3)); ((Iter 1), (Arg 4))]; T (2, f);  T (32, c); T (4, f)]"
41.98,3175502,3510839,"[V f; U (4, f); ULambda y; U (3, w); T (16, c); Hoist_vars [c]; T (7, x);  T (3, h); T (1, f);  Lambda_apply y [((Iter 1), (Arg 3)); ((Iter 1), (Arg 4))]; T (4, f);  T (32, c); T (4, f)]"
40.09,3357864,3382782,"[V f; U (4, f); ULambda y; U (3, w); T (16, c); Hoist_vars [c]; T (7, x);  T (3, h); T (2, f);  Lambda_apply y [((Iter 1), (Arg 3)); ((Iter 1), (Arg 4))]; T (1, f);  T (32, c); T (8, f)]"
41.46,2938410,2366895,"[V f; U (4, f); ULambda y; U (3, w); T (8, c); Hoist_vars [c]; T (7, x);  T (3, h); T (8, f);  Lambda_apply y [((Iter 1), (Arg 3)); ((Iter 1), (Arg 4))]; T (2, f);  T (64, c); T (1, f)]"
40.53,2938157,3146874,"[V f; U (4, f); ULambda y; U (3, w); T (8, c); Hoist_vars [c]; T (7, x);  T (3, h); T (8, f);  Lambda_apply y [((Iter 1), (Arg 3)); ((Iter 1), (Arg 4))]; T (1, f);  T (64, c); T (2, f)]"
40.46,2940135,2529077,"[V f; U (4, f); ULambda y; U (3, w); T (8, c); Hoist_vars [c]; T (7, x);  T (3, h); T (4, f);  Lambda_apply y [((Iter 1), (Arg 3)); ((Iter 1), (Arg 4))]; T (2, f);  T (64, c); T (2, f)]"
36.12,3893675,2870963,"[V f; U (4, f); ULambda y; U (3, w); T (4, c); Hoist_vars [c]; T (7, x);  T (3, h); T (4, f);  Lambda_apply y [((Iter 1), (Arg 3)); ((Iter 1), (Arg 4))]; T (1, f);  T (128, c); T (4, f)]"
35.27,3909991,3088836,"[V f; U (4, f); ULambda y; U (3, w); T (4, c); Hoist_vars [c]; T (7, x);  T (3, h); T (1, f);  Lambda_apply y [((Iter 1), (Arg 3)); ((Iter 1), (Arg 4))]; T (2, f);  T (128, c); T (8, f)]"
33.51,2785940,1873656,"[V f; U (4, f); ULambda y; U (3, w); T (2, c); Hoist_vars [c]; T (7, x);  T (3, h); T (2, f);  Lambda_apply y [((Iter 1), (Arg 3)); ((Iter 1), (Arg 4))]; T (4, f);  T (256, c); T (2, f)]"
29.12,2678903,1832391,"[V f; U (4, f); ULambda y; U (3, w); T (2, c); Hoist_vars [c]; T (7, x);  T (3, h); T (1, f);  Lambda_apply y [((Iter 1), (Arg 3)); ((Iter 1), (Arg 4))]; T (1, f);  T (256, c); T (16, f)]"
30.98,4841817,2611254,"[V f; U (4, f); ULambda y; U (3, w); T (1, c); Hoist_vars [c]; T (7, x);  T (3, h); T (4, f);  Lambda_apply y [((Iter 1), (Arg 3)); ((Iter 1), (Arg 4))]; T (4, f);  T (512, c); T (1, f)]"
30.23,4911711,2520050,"[V f; U (4, f); ULambda y; U (3, w); T (1, c); Hoist_vars [c]; T (7, x);  T (3, h); T (2, f);  Lambda_apply y [((Iter 1), (Arg 3)); ((Iter 1), (Arg 4))]; T (4, f);  T (512, c); T (2, f)]"
30.49,5004137,2696256,"[V f; U (4, f); ULambda y; U (3, w); T (1, c); Hoist_vars [c]; T (7, x);  T (3, h); T (1, f);  Lambda_apply y [((Iter 1), (Arg 3)); ((Iter 1), (Arg 4))]; T (8, f);  T (512, c); T (2, f)]"
29.42,5036191,2132137,"[V f; U (4, f); ULambda y; U (3, w); T (1, c); Hoist_vars [c]; T (7, x);  T (3, h); T (1, f);  Lambda_apply y [((Iter 1), (Arg 3)); ((Iter 1), (Arg 4))]; T (4, f);  T (512, c); T (4, f)]"
