perf,CACHE_MISS_L1,CACHE_MISS_L2,scheme
46.46,2874560,8468674,"[V f; U (2, f); ULambda y; T (1024, c); Hoist_vars [c]; T (17, x); T (1, c);  T (1, x); Lambda_apply y [((Iter 3), (Arg 4)); ((Iter 1), (Arg 5))];  T (32, f); T (1, c); T (1, x)]"
35.49,3865107,10333431,"[V f; U (2, f); ULambda y; T (512, c); Hoist_vars [c]; T (17, x); T (2, c);  T (1, x); Lambda_apply y [((Iter 3), (Arg 4)); ((Iter 1), (Arg 5))];  T (32, f); T (1, c); T (1, x)]"
46.57,2936805,8086454,"[V f; U (2, f); ULambda y; T (256, c); Hoist_vars [c]; T (17, x); T (4, c);  T (1, x); Lambda_apply y [((Iter 3), (Arg 4)); ((Iter 1), (Arg 5))];  T (32, f); T (1, c); T (1, x)]"
52.82,3035979,3892889,"[V f; U (2, f); ULambda y; T (128, c); Hoist_vars [c]; T (17, x); T (8, c);  T (1, x); Lambda_apply y [((Iter 3), (Arg 4)); ((Iter 1), (Arg 5))];  T (32, f); T (1, c); T (1, x)]"
60.03,4826881,4131987,"[V f; U (2, f); ULambda y; T (64, c); Hoist_vars [c]; T (17, x); T (16, c);  T (1, x); Lambda_apply y [((Iter 3), (Arg 4)); ((Iter 1), (Arg 5))];  T (32, f); T (1, c); T (1, x)]"
56.17,5009221,4866715,"[V f; U (2, f); ULambda y; T (32, c); Hoist_vars [c]; T (17, x); T (32, c);  T (1, x); Lambda_apply y [((Iter 3), (Arg 4)); ((Iter 1), (Arg 5))];  T (32, f); T (1, c); T (1, x)]"
51.25,3936496,2929173,"[V f; U (2, f); ULambda y; T (16, c); Hoist_vars [c]; T (17, x); T (64, c);  T (1, x); Lambda_apply y [((Iter 3), (Arg 4)); ((Iter 1), (Arg 5))];  T (32, f); T (1, c); T (1, x)]"
39.43,3817274,3566408,"[V f; U (2, f); ULambda y; T (8, c); Hoist_vars [c]; T (17, x); T (128, c);  T (1, x); Lambda_apply y [((Iter 3), (Arg 4)); ((Iter 1), (Arg 5))];  T (32, f); T (1, c); T (1, x)]"
28.46,8418084,5959869,"[V f; U (2, f); ULambda y; T (4, c); Hoist_vars [c]; T (17, x); T (256, c);  T (1, x); Lambda_apply y [((Iter 3), (Arg 4)); ((Iter 1), (Arg 5))];  T (32, f); T (1, c); T (1, x)]"
14.13,17990291,12144004,"[V f; U (2, f); ULambda y; T (2, c); Hoist_vars [c]; T (17, x); T (512, c);  T (1, x); Lambda_apply y [((Iter 3), (Arg 4)); ((Iter 1), (Arg 5))];  T (32, f); T (1, c); T (1, x)]"
7.46,30406157,10287782,"[V f; U (2, f); ULambda y; T (1, c); Hoist_vars [c]; T (17, x); T (1024, c);  T (1, x); Lambda_apply y [((Iter 3), (Arg 4)); ((Iter 1), (Arg 5))];  T (32, f); T (1, c); T (1, x)]"
43.13,3528211,9242568,"[V f; U (2, f); ULambda y; T (512, c); Hoist_vars [c]; T (17, x); T (1, c);  T (1, x); Lambda_apply y [((Iter 3), (Arg 4)); ((Iter 1), (Arg 5))];  T (32, f); T (2, c); T (1, x)]"
40.97,2934814,8340585,"[V f; U (2, f); ULambda y; T (256, c); Hoist_vars [c]; T (17, x); T (2, c);  T (1, x); Lambda_apply y [((Iter 3), (Arg 4)); ((Iter 1), (Arg 5))];  T (32, f); T (2, c); T (1, x)]"
51.13,3034115,4218776,"[V f; U (2, f); ULambda y; T (128, c); Hoist_vars [c]; T (17, x); T (4, c);  T (1, x); Lambda_apply y [((Iter 3), (Arg 4)); ((Iter 1), (Arg 5))];  T (32, f); T (2, c); T (1, x)]"
58.11,3181187,3146168,"[V f; U (2, f); ULambda y; T (64, c); Hoist_vars [c]; T (17, x); T (8, c);  T (1, x); Lambda_apply y [((Iter 3), (Arg 4)); ((Iter 1), (Arg 5))];  T (32, f); T (2, c); T (1, x)]"
53.68,4980239,4903881,"[V f; U (2, f); ULambda y; T (32, c); Hoist_vars [c]; T (17, x); T (16, c);  T (1, x); Lambda_apply y [((Iter 3), (Arg 4)); ((Iter 1), (Arg 5))];  T (32, f); T (2, c); T (1, x)]"
48.86,5059741,4735735,"[V f; U (2, f); ULambda y; T (16, c); Hoist_vars [c]; T (17, x); T (32, c);  T (1, x); Lambda_apply y [((Iter 3), (Arg 4)); ((Iter 1), (Arg 5))];  T (32, f); T (2, c); T (1, x)]"
38.23,3990116,3752551,"[V f; U (2, f); ULambda y; T (8, c); Hoist_vars [c]; T (17, x); T (64, c);  T (1, x); Lambda_apply y [((Iter 3), (Arg 4)); ((Iter 1), (Arg 5))];  T (32, f); T (2, c); T (1, x)]"
29.33,7550231,6818406,"[V f; U (2, f); ULambda y; T (4, c); Hoist_vars [c]; T (17, x); T (128, c);  T (1, x); Lambda_apply y [((Iter 3), (Arg 4)); ((Iter 1), (Arg 5))];  T (32, f); T (2, c); T (1, x)]"
14.18,17694433,10804739,"[V f; U (2, f); ULambda y; T (2, c); Hoist_vars [c]; T (17, x); T (256, c);  T (1, x); Lambda_apply y [((Iter 3), (Arg 4)); ((Iter 1), (Arg 5))];  T (32, f); T (2, c); T (1, x)]"
7.33,31067230,17056611,"[V f; U (2, f); ULambda y; T (1, c); Hoist_vars [c]; T (17, x); T (512, c);  T (1, x); Lambda_apply y [((Iter 3), (Arg 4)); ((Iter 1), (Arg 5))];  T (32, f); T (2, c); T (1, x)]"
37.91,3779294,8921505,"[V f; U (2, f); ULambda y; T (256, c); Hoist_vars [c]; T (17, x); T (1, c);  T (1, x); Lambda_apply y [((Iter 3), (Arg 4)); ((Iter 1), (Arg 5))];  T (32, f); T (4, c); T (1, x)]"
46.14,4273875,5685696,"[V f; U (2, f); ULambda y; T (128, c); Hoist_vars [c]; T (17, x); T (2, c);  T (1, x); Lambda_apply y [((Iter 3), (Arg 4)); ((Iter 1), (Arg 5))];  T (32, f); T (4, c); T (1, x)]"
59.76,3182505,2979760,"[V f; U (2, f); ULambda y; T (64, c); Hoist_vars [c]; T (17, x); T (4, c);  T (1, x); Lambda_apply y [((Iter 3), (Arg 4)); ((Iter 1), (Arg 5))];  T (32, f); T (4, c); T (1, x)]"
53.68,3482997,3134173,"[V f; U (2, f); ULambda y; T (32, c); Hoist_vars [c]; T (17, x); T (8, c);  T (1, x); Lambda_apply y [((Iter 3), (Arg 4)); ((Iter 1), (Arg 5))];  T (32, f); T (4, c); T (1, x)]"
47.15,4830731,4817350,"[V f; U (2, f); ULambda y; T (16, c); Hoist_vars [c]; T (17, x); T (16, c);  T (1, x); Lambda_apply y [((Iter 3), (Arg 4)); ((Iter 1), (Arg 5))];  T (32, f); T (4, c); T (1, x)]"
42.08,3901972,3016452,"[V f; U (2, f); ULambda y; T (8, c); Hoist_vars [c]; T (17, x); T (32, c);  T (1, x); Lambda_apply y [((Iter 3), (Arg 4)); ((Iter 1), (Arg 5))];  T (32, f); T (4, c); T (1, x)]"
28.84,7082626,3658086,"[V f; U (2, f); ULambda y; T (4, c); Hoist_vars [c]; T (17, x); T (64, c);  T (1, x); Lambda_apply y [((Iter 3), (Arg 4)); ((Iter 1), (Arg 5))];  T (32, f); T (4, c); T (1, x)]"
14.78,14645907,8816713,"[V f; U (2, f); ULambda y; T (2, c); Hoist_vars [c]; T (17, x); T (128, c);  T (1, x); Lambda_apply y [((Iter 3), (Arg 4)); ((Iter 1), (Arg 5))];  T (32, f); T (4, c); T (1, x)]"
7.24,31599796,15522299,"[V f; U (2, f); ULambda y; T (1, c); Hoist_vars [c]; T (17, x); T (256, c);  T (1, x); Lambda_apply y [((Iter 3), (Arg 4)); ((Iter 1), (Arg 5))];  T (32, f); T (4, c); T (1, x)]"
51.74,3047911,4226063,"[V f; U (2, f); ULambda y; T (128, c); Hoist_vars [c]; T (17, x); T (1, c);  T (1, x); Lambda_apply y [((Iter 3), (Arg 4)); ((Iter 1), (Arg 5))];  T (32, f); T (8, c); T (1, x)]"
58.96,4761144,4214286,"[V f; U (2, f); ULambda y; T (64, c); Hoist_vars [c]; T (17, x); T (2, c);  T (1, x); Lambda_apply y [((Iter 3), (Arg 4)); ((Iter 1), (Arg 5))];  T (32, f); T (8, c); T (1, x)]"
54.64,4957739,4414978,"[V f; U (2, f); ULambda y; T (32, c); Hoist_vars [c]; T (17, x); T (4, c);  T (1, x); Lambda_apply y [((Iter 3), (Arg 4)); ((Iter 1), (Arg 5))];  T (32, f); T (8, c); T (1, x)]"
48.32,4860264,4551908,"[V f; U (2, f); ULambda y; T (16, c); Hoist_vars [c]; T (17, x); T (8, c);  T (1, x); Lambda_apply y [((Iter 3), (Arg 4)); ((Iter 1), (Arg 5))];  T (32, f); T (8, c); T (1, x)]"
39.06,3775222,3465223,"[V f; U (2, f); ULambda y; T (8, c); Hoist_vars [c]; T (17, x); T (16, c);  T (1, x); Lambda_apply y [((Iter 3), (Arg 4)); ((Iter 1), (Arg 5))];  T (32, f); T (8, c); T (1, x)]"
29.75,7138884,6366860,"[V f; U (2, f); ULambda y; T (4, c); Hoist_vars [c]; T (17, x); T (32, c);  T (1, x); Lambda_apply y [((Iter 3), (Arg 4)); ((Iter 1), (Arg 5))];  T (32, f); T (8, c); T (1, x)]"
14.80,14652232,8519945,"[V f; U (2, f); ULambda y; T (2, c); Hoist_vars [c]; T (17, x); T (64, c);  T (1, x); Lambda_apply y [((Iter 3), (Arg 4)); ((Iter 1), (Arg 5))];  T (32, f); T (8, c); T (1, x)]"
7.17,31237628,19269061,"[V f; U (2, f); ULambda y; T (1, c); Hoist_vars [c]; T (17, x); T (128, c);  T (1, x); Lambda_apply y [((Iter 3), (Arg 4)); ((Iter 1), (Arg 5))];  T (32, f); T (8, c); T (1, x)]"
62.87,4833718,3900132,"[V f; U (2, f); ULambda y; T (64, c); Hoist_vars [c]; T (17, x); T (1, c);  T (1, x); Lambda_apply y [((Iter 3), (Arg 4)); ((Iter 1), (Arg 5))];  T (32, f); T (16, c); T (1, x)]"
52.43,3485940,2886156,"[V f; U (2, f); ULambda y; T (32, c); Hoist_vars [c]; T (17, x); T (2, c);  T (1, x); Lambda_apply y [((Iter 3), (Arg 4)); ((Iter 1), (Arg 5))];  T (32, f); T (16, c); T (1, x)]"
49.25,3873895,2762869,"[V f; U (2, f); ULambda y; T (16, c); Hoist_vars [c]; T (17, x); T (4, c);  T (1, x); Lambda_apply y [((Iter 3), (Arg 4)); ((Iter 1), (Arg 5))];  T (32, f); T (16, c); T (1, x)]"
42.16,3966095,2976877,"[V f; U (2, f); ULambda y; T (8, c); Hoist_vars [c]; T (17, x); T (8, c);  T (1, x); Lambda_apply y [((Iter 3), (Arg 4)); ((Iter 1), (Arg 5))];  T (32, f); T (16, c); T (1, x)]"
29.15,7672007,6770102,"[V f; U (2, f); ULambda y; T (4, c); Hoist_vars [c]; T (17, x); T (16, c);  T (1, x); Lambda_apply y [((Iter 3), (Arg 4)); ((Iter 1), (Arg 5))];  T (32, f); T (16, c); T (1, x)]"
14.08,17892266,12865392,"[V f; U (2, f); ULambda y; T (2, c); Hoist_vars [c]; T (17, x); T (32, c);  T (1, x); Lambda_apply y [((Iter 3), (Arg 4)); ((Iter 1), (Arg 5))];  T (32, f); T (16, c); T (1, x)]"
7.30,31589958,18862214,"[V f; U (2, f); ULambda y; T (1, c); Hoist_vars [c]; T (17, x); T (64, c);  T (1, x); Lambda_apply y [((Iter 3), (Arg 4)); ((Iter 1), (Arg 5))];  T (32, f); T (16, c); T (1, x)]"
54.28,4903895,5268246,"[V f; U (2, f); ULambda y; T (32, c); Hoist_vars [c]; T (17, x); T (1, c);  T (1, x); Lambda_apply y [((Iter 3), (Arg 4)); ((Iter 1), (Arg 5))];  T (32, f); T (32, c); T (1, x)]"
47.24,4905886,5300051,"[V f; U (2, f); ULambda y; T (16, c); Hoist_vars [c]; T (17, x); T (2, c);  T (1, x); Lambda_apply y [((Iter 3), (Arg 4)); ((Iter 1), (Arg 5))];  T (32, f); T (32, c); T (1, x)]"
38.47,3684758,4151456,"[V f; U (2, f); ULambda y; T (8, c); Hoist_vars [c]; T (17, x); T (4, c);  T (1, x); Lambda_apply y [((Iter 3), (Arg 4)); ((Iter 1), (Arg 5))];  T (32, f); T (32, c); T (1, x)]"
28.56,8083945,5231320,"[V f; U (2, f); ULambda y; T (4, c); Hoist_vars [c]; T (17, x); T (8, c);  T (1, x); Lambda_apply y [((Iter 3), (Arg 4)); ((Iter 1), (Arg 5))];  T (32, f); T (32, c); T (1, x)]"
14.42,14602245,10074454,"[V f; U (2, f); ULambda y; T (2, c); Hoist_vars [c]; T (17, x); T (16, c);  T (1, x); Lambda_apply y [((Iter 3), (Arg 4)); ((Iter 1), (Arg 5))];  T (32, f); T (32, c); T (1, x)]"
7.42,30493422,10340927,"[V f; U (2, f); ULambda y; T (1, c); Hoist_vars [c]; T (17, x); T (32, c);  T (1, x); Lambda_apply y [((Iter 3), (Arg 4)); ((Iter 1), (Arg 5))];  T (32, f); T (32, c); T (1, x)]"
45.13,4596466,6578361,"[V f; U (2, f); ULambda y; T (16, c); Hoist_vars [c]; T (17, x); T (1, c);  T (1, x); Lambda_apply y [((Iter 3), (Arg 4)); ((Iter 1), (Arg 5))];  T (32, f); T (64, c); T (1, x)]"
38.61,4537933,6725708,"[V f; U (2, f); ULambda y; T (8, c); Hoist_vars [c]; T (17, x); T (2, c);  T (1, x); Lambda_apply y [((Iter 3), (Arg 4)); ((Iter 1), (Arg 5))];  T (32, f); T (64, c); T (1, x)]"
29.96,5638478,6021202,"[V f; U (2, f); ULambda y; T (4, c); Hoist_vars [c]; T (17, x); T (4, c);  T (1, x); Lambda_apply y [((Iter 3), (Arg 4)); ((Iter 1), (Arg 5))];  T (32, f); T (64, c); T (1, x)]"
13.69,17748024,13214498,"[V f; U (2, f); ULambda y; T (2, c); Hoist_vars [c]; T (17, x); T (8, c);  T (1, x); Lambda_apply y [((Iter 3), (Arg 4)); ((Iter 1), (Arg 5))];  T (32, f); T (64, c); T (1, x)]"
7.47,30663451,8998332,"[V f; U (2, f); ULambda y; T (1, c); Hoist_vars [c]; T (17, x); T (16, c);  T (1, x); Lambda_apply y [((Iter 3), (Arg 4)); ((Iter 1), (Arg 5))];  T (32, f); T (64, c); T (1, x)]"
36.46,3858617,8496033,"[V f; U (2, f); ULambda y; T (8, c); Hoist_vars [c]; T (17, x); T (1, c);  T (1, x); Lambda_apply y [((Iter 3), (Arg 4)); ((Iter 1), (Arg 5))];  T (32, f); T (128, c); T (1, x)]"
28.01,6752740,6358088,"[V f; U (2, f); ULambda y; T (4, c); Hoist_vars [c]; T (17, x); T (2, c);  T (1, x); Lambda_apply y [((Iter 3), (Arg 4)); ((Iter 1), (Arg 5))];  T (32, f); T (128, c); T (1, x)]"
13.30,17380730,16968488,"[V f; U (2, f); ULambda y; T (2, c); Hoist_vars [c]; T (17, x); T (4, c);  T (1, x); Lambda_apply y [((Iter 3), (Arg 4)); ((Iter 1), (Arg 5))];  T (32, f); T (128, c); T (1, x)]"
7.13,31541681,20758643,"[V f; U (2, f); ULambda y; T (1, c); Hoist_vars [c]; T (17, x); T (8, c);  T (1, x); Lambda_apply y [((Iter 3), (Arg 4)); ((Iter 1), (Arg 5))];  T (32, f); T (128, c); T (1, x)]"
28.87,4934308,8544274,"[V f; U (2, f); ULambda y; T (4, c); Hoist_vars [c]; T (17, x); T (1, c);  T (1, x); Lambda_apply y [((Iter 3), (Arg 4)); ((Iter 1), (Arg 5))];  T (32, f); T (256, c); T (1, x)]"
12.91,16936589,20357502,"[V f; U (2, f); ULambda y; T (2, c); Hoist_vars [c]; T (17, x); T (2, c);  T (1, x); Lambda_apply y [((Iter 3), (Arg 4)); ((Iter 1), (Arg 5))];  T (32, f); T (256, c); T (1, x)]"
6.97,31580222,24344415,"[V f; U (2, f); ULambda y; T (1, c); Hoist_vars [c]; T (17, x); T (4, c);  T (1, x); Lambda_apply y [((Iter 3), (Arg 4)); ((Iter 1), (Arg 5))];  T (32, f); T (256, c); T (1, x)]"
12.92,14296606,18075084,"[V f; U (2, f); ULambda y; T (2, c); Hoist_vars [c]; T (17, x); T (1, c);  T (1, x); Lambda_apply y [((Iter 3), (Arg 4)); ((Iter 1), (Arg 5))];  T (32, f); T (512, c); T (1, x)]"
6.69,31287404,32902663,"[V f; U (2, f); ULambda y; T (1, c); Hoist_vars [c]; T (17, x); T (2, c);  T (1, x); Lambda_apply y [((Iter 3), (Arg 4)); ((Iter 1), (Arg 5))];  T (32, f); T (512, c); T (1, x)]"
6.38,31031136,42021360,"[V f; U (2, f); ULambda y; T (1, c); Hoist_vars [c]; T (17, x); T (1, c);  T (1, x); Lambda_apply y [((Iter 3), (Arg 4)); ((Iter 1), (Arg 5))];  T (32, f); T (1024, c); T (1, x)]"
35.70,3720596,10212675,"[V f; U (2, f); ULambda y; T (1024, c); Hoist_vars [c]; T (1, x); T (1, c);  T (17, x); Lambda_apply y [((Iter 3), (Arg 4)); ((Iter 1), (Arg 5))];  T (32, f); T (1, c); T (1, x)]"
46.68,2883478,8461061,"[V f; U (2, f); ULambda y; T (512, c); Hoist_vars [c]; T (1, x); T (2, c);  T (17, x); Lambda_apply y [((Iter 3), (Arg 4)); ((Iter 1), (Arg 5))];  T (32, f); T (1, c); T (1, x)]"
43.90,3754075,9650861,"[V f; U (2, f); ULambda y; T (256, c); Hoist_vars [c]; T (1, x); T (4, c);  T (17, x); Lambda_apply y [((Iter 3), (Arg 4)); ((Iter 1), (Arg 5))];  T (32, f); T (1, c); T (1, x)]"
37.65,2942003,9094901,"[V f; U (2, f); ULambda y; T (128, c); Hoist_vars [c]; T (1, x); T (8, c);  T (17, x); Lambda_apply y [((Iter 3), (Arg 4)); ((Iter 1), (Arg 5))];  T (32, f); T (1, c); T (1, x)]"
43.06,3021399,8847942,"[V f; U (2, f); ULambda y; T (64, c); Hoist_vars [c]; T (1, x); T (16, c);  T (17, x); Lambda_apply y [((Iter 3), (Arg 4)); ((Iter 1), (Arg 5))];  T (32, f); T (1, c); T (1, x)]"
34.96,4170730,10371274,"[V f; U (2, f); ULambda y; T (32, c); Hoist_vars [c]; T (1, x); T (32, c);  T (17, x); Lambda_apply y [((Iter 3), (Arg 4)); ((Iter 1), (Arg 5))];  T (32, f); T (1, c); T (1, x)]"
42.51,3000716,8893229,"[V f; U (2, f); ULambda y; T (16, c); Hoist_vars [c]; T (1, x); T (64, c);  T (17, x); Lambda_apply y [((Iter 3), (Arg 4)); ((Iter 1), (Arg 5))];  T (32, f); T (1, c); T (1, x)]"
40.79,2886818,9026751,"[V f; U (2, f); ULambda y; T (8, c); Hoist_vars [c]; T (1, x); T (128, c);  T (17, x); Lambda_apply y [((Iter 3), (Arg 4)); ((Iter 1), (Arg 5))];  T (32, f); T (1, c); T (1, x)]"
30.41,4146121,11835116,"[V f; U (2, f); ULambda y; T (4, c); Hoist_vars [c]; T (1, x); T (256, c);  T (17, x); Lambda_apply y [((Iter 3), (Arg 4)); ((Iter 1), (Arg 5))];  T (32, f); T (1, c); T (1, x)]"
32.99,3860273,10620011,"[V f; U (2, f); ULambda y; T (2, c); Hoist_vars [c]; T (1, x); T (512, c);  T (17, x); Lambda_apply y [((Iter 3), (Arg 4)); ((Iter 1), (Arg 5))];  T (32, f); T (1, c); T (1, x)]"
40.49,2873622,8673130,"[V f; U (2, f); ULambda y; T (1, c); Hoist_vars [c]; T (1, x); T (1024, c);  T (17, x); Lambda_apply y [((Iter 3), (Arg 4)); ((Iter 1), (Arg 5))];  T (32, f); T (1, c); T (1, x)]"
46.46,2894847,8555423,"[V f; U (2, f); ULambda y; T (512, c); Hoist_vars [c]; T (1, x); T (1, c);  T (17, x); Lambda_apply y [((Iter 3), (Arg 4)); ((Iter 1), (Arg 5))];  T (32, f); T (2, c); T (1, x)]"
38.95,2923816,8897346,"[V f; U (2, f); ULambda y; T (256, c); Hoist_vars [c]; T (1, x); T (2, c);  T (17, x); Lambda_apply y [((Iter 3), (Arg 4)); ((Iter 1), (Arg 5))];  T (32, f); T (2, c); T (1, x)]"
38.79,2953264,8877679,"[V f; U (2, f); ULambda y; T (128, c); Hoist_vars [c]; T (1, x); T (4, c);  T (17, x); Lambda_apply y [((Iter 3), (Arg 4)); ((Iter 1), (Arg 5))];  T (32, f); T (2, c); T (1, x)]"
43.41,4021958,9738031,"[V f; U (2, f); ULambda y; T (64, c); Hoist_vars [c]; T (1, x); T (8, c);  T (17, x); Lambda_apply y [((Iter 3), (Arg 4)); ((Iter 1), (Arg 5))];  T (32, f); T (2, c); T (1, x)]"
42.40,4300206,10064006,"[V f; U (2, f); ULambda y; T (32, c); Hoist_vars [c]; T (1, x); T (16, c);  T (17, x); Lambda_apply y [((Iter 3), (Arg 4)); ((Iter 1), (Arg 5))];  T (32, f); T (2, c); T (1, x)]"
34.77,3761027,9879139,"[V f; U (2, f); ULambda y; T (16, c); Hoist_vars [c]; T (1, x); T (32, c);  T (17, x); Lambda_apply y [((Iter 3), (Arg 4)); ((Iter 1), (Arg 5))];  T (32, f); T (2, c); T (1, x)]"
38.14,3270164,9479752,"[V f; U (2, f); ULambda y; T (8, c); Hoist_vars [c]; T (1, x); T (64, c);  T (17, x); Lambda_apply y [((Iter 3), (Arg 4)); ((Iter 1), (Arg 5))];  T (32, f); T (2, c); T (1, x)]"
32.43,2909431,9778013,"[V f; U (2, f); ULambda y; T (4, c); Hoist_vars [c]; T (1, x); T (128, c);  T (17, x); Lambda_apply y [((Iter 3), (Arg 4)); ((Iter 1), (Arg 5))];  T (32, f); T (2, c); T (1, x)]"
33.30,3714561,10634481,"[V f; U (2, f); ULambda y; T (2, c); Hoist_vars [c]; T (1, x); T (256, c);  T (17, x); Lambda_apply y [((Iter 3), (Arg 4)); ((Iter 1), (Arg 5))];  T (32, f); T (2, c); T (1, x)]"
44.25,2894989,8813737,"[V f; U (2, f); ULambda y; T (1, c); Hoist_vars [c]; T (1, x); T (512, c);  T (17, x); Lambda_apply y [((Iter 3), (Arg 4)); ((Iter 1), (Arg 5))];  T (32, f); T (2, c); T (1, x)]"
39.76,2935056,8356637,"[V f; U (2, f); ULambda y; T (256, c); Hoist_vars [c]; T (1, x); T (1, c);  T (17, x); Lambda_apply y [((Iter 3), (Arg 4)); ((Iter 1), (Arg 5))];  T (32, f); T (4, c); T (1, x)]"
39.33,2984167,8377680,"[V f; U (2, f); ULambda y; T (128, c); Hoist_vars [c]; T (1, x); T (2, c);  T (17, x); Lambda_apply y [((Iter 3), (Arg 4)); ((Iter 1), (Arg 5))];  T (32, f); T (4, c); T (1, x)]"
37.27,3842585,8881291,"[V f; U (2, f); ULambda y; T (64, c); Hoist_vars [c]; T (1, x); T (4, c);  T (17, x); Lambda_apply y [((Iter 3), (Arg 4)); ((Iter 1), (Arg 5))];  T (32, f); T (4, c); T (1, x)]"
36.83,3851421,8684227,"[V f; U (2, f); ULambda y; T (32, c); Hoist_vars [c]; T (1, x); T (8, c);  T (17, x); Lambda_apply y [((Iter 3), (Arg 4)); ((Iter 1), (Arg 5))];  T (32, f); T (4, c); T (1, x)]"
35.56,4210915,9757050,"[V f; U (2, f); ULambda y; T (16, c); Hoist_vars [c]; T (1, x); T (16, c);  T (17, x); Lambda_apply y [((Iter 3), (Arg 4)); ((Iter 1), (Arg 5))];  T (32, f); T (4, c); T (1, x)]"
34.08,3824711,9331091,"[V f; U (2, f); ULambda y; T (8, c); Hoist_vars [c]; T (1, x); T (32, c);  T (17, x); Lambda_apply y [((Iter 3), (Arg 4)); ((Iter 1), (Arg 5))];  T (32, f); T (4, c); T (1, x)]"
32.11,3834472,9488493,"[V f; U (2, f); ULambda y; T (4, c); Hoist_vars [c]; T (1, x); T (64, c);  T (17, x); Lambda_apply y [((Iter 3), (Arg 4)); ((Iter 1), (Arg 5))];  T (32, f); T (4, c); T (1, x)]"
40.88,2944954,8430537,"[V f; U (2, f); ULambda y; T (2, c); Hoist_vars [c]; T (1, x); T (128, c);  T (17, x); Lambda_apply y [((Iter 3), (Arg 4)); ((Iter 1), (Arg 5))];  T (32, f); T (4, c); T (1, x)]"
43.66,3736116,8603345,"[V f; U (2, f); ULambda y; T (1, c); Hoist_vars [c]; T (1, x); T (256, c);  T (17, x); Lambda_apply y [((Iter 3), (Arg 4)); ((Iter 1), (Arg 5))];  T (32, f); T (4, c); T (1, x)]"
49.97,4331997,5366609,"[V f; U (2, f); ULambda y; T (128, c); Hoist_vars [c]; T (1, x); T (1, c);  T (17, x); Lambda_apply y [((Iter 3), (Arg 4)); ((Iter 1), (Arg 5))];  T (32, f); T (8, c); T (1, x)]"
47.19,4454113,5318333,"[V f; U (2, f); ULambda y; T (64, c); Hoist_vars [c]; T (1, x); T (2, c);  T (17, x); Lambda_apply y [((Iter 3), (Arg 4)); ((Iter 1), (Arg 5))];  T (32, f); T (8, c); T (1, x)]"
46.19,4599511,6163261,"[V f; U (2, f); ULambda y; T (32, c); Hoist_vars [c]; T (1, x); T (4, c);  T (17, x); Lambda_apply y [((Iter 3), (Arg 4)); ((Iter 1), (Arg 5))];  T (32, f); T (8, c); T (1, x)]"
44.96,3179622,4553671,"[V f; U (2, f); ULambda y; T (16, c); Hoist_vars [c]; T (1, x); T (8, c);  T (17, x); Lambda_apply y [((Iter 3), (Arg 4)); ((Iter 1), (Arg 5))];  T (32, f); T (8, c); T (1, x)]"
41.46,4291646,5067728,"[V f; U (2, f); ULambda y; T (8, c); Hoist_vars [c]; T (1, x); T (16, c);  T (17, x); Lambda_apply y [((Iter 3), (Arg 4)); ((Iter 1), (Arg 5))];  T (32, f); T (8, c); T (1, x)]"
37.30,3014228,4847876,"[V f; U (2, f); ULambda y; T (4, c); Hoist_vars [c]; T (1, x); T (32, c);  T (17, x); Lambda_apply y [((Iter 3), (Arg 4)); ((Iter 1), (Arg 5))];  T (32, f); T (8, c); T (1, x)]"
46.56,4672871,4495118,"[V f; U (2, f); ULambda y; T (2, c); Hoist_vars [c]; T (1, x); T (64, c);  T (17, x); Lambda_apply y [((Iter 3), (Arg 4)); ((Iter 1), (Arg 5))];  T (32, f); T (8, c); T (1, x)]"
51.50,4356214,4788357,"[V f; U (2, f); ULambda y; T (1, c); Hoist_vars [c]; T (1, x); T (128, c);  T (17, x); Lambda_apply y [((Iter 3), (Arg 4)); ((Iter 1), (Arg 5))];  T (32, f); T (8, c); T (1, x)]"
62.38,3187619,2802117,"[V f; U (2, f); ULambda y; T (64, c); Hoist_vars [c]; T (1, x); T (1, c);  T (17, x); Lambda_apply y [((Iter 3), (Arg 4)); ((Iter 1), (Arg 5))];  T (32, f); T (16, c); T (1, x)]"
50.75,3344205,3566589,"[V f; U (2, f); ULambda y; T (32, c); Hoist_vars [c]; T (1, x); T (2, c);  T (17, x); Lambda_apply y [((Iter 3), (Arg 4)); ((Iter 1), (Arg 5))];  T (32, f); T (16, c); T (1, x)]"
51.57,4867120,4851242,"[V f; U (2, f); ULambda y; T (16, c); Hoist_vars [c]; T (1, x); T (4, c);  T (17, x); Lambda_apply y [((Iter 3), (Arg 4)); ((Iter 1), (Arg 5))];  T (32, f); T (16, c); T (1, x)]"
48.01,4609335,4400635,"[V f; U (2, f); ULambda y; T (8, c); Hoist_vars [c]; T (1, x); T (8, c);  T (17, x); Lambda_apply y [((Iter 3), (Arg 4)); ((Iter 1), (Arg 5))];  T (32, f); T (16, c); T (1, x)]"
37.08,4490995,4985068,"[V f; U (2, f); ULambda y; T (4, c); Hoist_vars [c]; T (1, x); T (16, c);  T (17, x); Lambda_apply y [((Iter 3), (Arg 4)); ((Iter 1), (Arg 5))];  T (32, f); T (16, c); T (1, x)]"
44.44,4619757,4856833,"[V f; U (2, f); ULambda y; T (2, c); Hoist_vars [c]; T (1, x); T (32, c);  T (17, x); Lambda_apply y [((Iter 3), (Arg 4)); ((Iter 1), (Arg 5))];  T (32, f); T (16, c); T (1, x)]"
54.04,4612970,4504560,"[V f; U (2, f); ULambda y; T (1, c); Hoist_vars [c]; T (1, x); T (64, c);  T (17, x); Lambda_apply y [((Iter 3), (Arg 4)); ((Iter 1), (Arg 5))];  T (32, f); T (16, c); T (1, x)]"
50.72,3481993,3283641,"[V f; U (2, f); ULambda y; T (32, c); Hoist_vars [c]; T (1, x); T (1, c);  T (17, x); Lambda_apply y [((Iter 3), (Arg 4)); ((Iter 1), (Arg 5))];  T (32, f); T (32, c); T (1, x)]"
50.54,4994831,5216203,"[V f; U (2, f); ULambda y; T (16, c); Hoist_vars [c]; T (1, x); T (2, c);  T (17, x); Lambda_apply y [((Iter 3), (Arg 4)); ((Iter 1), (Arg 5))];  T (32, f); T (32, c); T (1, x)]"
44.62,3214668,3248440,"[V f; U (2, f); ULambda y; T (8, c); Hoist_vars [c]; T (1, x); T (4, c);  T (17, x); Lambda_apply y [((Iter 3), (Arg 4)); ((Iter 1), (Arg 5))];  T (32, f); T (32, c); T (1, x)]"
37.58,4800677,5732327,"[V f; U (2, f); ULambda y; T (4, c); Hoist_vars [c]; T (1, x); T (8, c);  T (17, x); Lambda_apply y [((Iter 3), (Arg 4)); ((Iter 1), (Arg 5))];  T (32, f); T (32, c); T (1, x)]"
43.29,4981583,5086957,"[V f; U (2, f); ULambda y; T (2, c); Hoist_vars [c]; T (1, x); T (16, c);  T (17, x); Lambda_apply y [((Iter 3), (Arg 4)); ((Iter 1), (Arg 5))];  T (32, f); T (32, c); T (1, x)]"
49.37,4692810,5185826,"[V f; U (2, f); ULambda y; T (1, c); Hoist_vars [c]; T (1, x); T (32, c);  T (17, x); Lambda_apply y [((Iter 3), (Arg 4)); ((Iter 1), (Arg 5))];  T (32, f); T (32, c); T (1, x)]"
44.64,3617141,3591806,"[V f; U (2, f); ULambda y; T (16, c); Hoist_vars [c]; T (1, x); T (1, c);  T (17, x); Lambda_apply y [((Iter 3), (Arg 4)); ((Iter 1), (Arg 5))];  T (32, f); T (64, c); T (1, x)]"
39.97,3888770,5013886,"[V f; U (2, f); ULambda y; T (8, c); Hoist_vars [c]; T (1, x); T (2, c);  T (17, x); Lambda_apply y [((Iter 3), (Arg 4)); ((Iter 1), (Arg 5))];  T (32, f); T (64, c); T (1, x)]"
38.48,3238246,3418065,"[V f; U (2, f); ULambda y; T (4, c); Hoist_vars [c]; T (1, x); T (4, c);  T (17, x); Lambda_apply y [((Iter 3), (Arg 4)); ((Iter 1), (Arg 5))];  T (32, f); T (64, c); T (1, x)]"
39.32,3521811,3517108,"[V f; U (2, f); ULambda y; T (2, c); Hoist_vars [c]; T (1, x); T (8, c);  T (17, x); Lambda_apply y [((Iter 3), (Arg 4)); ((Iter 1), (Arg 5))];  T (32, f); T (64, c); T (1, x)]"
44.08,3606887,3657251,"[V f; U (2, f); ULambda y; T (1, c); Hoist_vars [c]; T (1, x); T (16, c);  T (17, x); Lambda_apply y [((Iter 3), (Arg 4)); ((Iter 1), (Arg 5))];  T (32, f); T (64, c); T (1, x)]"
33.91,3938471,8921268,"[V f; U (2, f); ULambda y; T (8, c); Hoist_vars [c]; T (1, x); T (1, c);  T (17, x); Lambda_apply y [((Iter 3), (Arg 4)); ((Iter 1), (Arg 5))];  T (32, f); T (128, c); T (1, x)]"
30.47,4227730,9362845,"[V f; U (2, f); ULambda y; T (4, c); Hoist_vars [c]; T (1, x); T (2, c);  T (17, x); Lambda_apply y [((Iter 3), (Arg 4)); ((Iter 1), (Arg 5))];  T (32, f); T (128, c); T (1, x)]"
33.32,4274791,9243118,"[V f; U (2, f); ULambda y; T (2, c); Hoist_vars [c]; T (1, x); T (4, c);  T (17, x); Lambda_apply y [((Iter 3), (Arg 4)); ((Iter 1), (Arg 5))];  T (32, f); T (128, c); T (1, x)]"
34.82,3068190,6587896,"[V f; U (2, f); ULambda y; T (1, c); Hoist_vars [c]; T (1, x); T (8, c);  T (17, x); Lambda_apply y [((Iter 3), (Arg 4)); ((Iter 1), (Arg 5))];  T (32, f); T (128, c); T (1, x)]"
26.25,7155529,11580405,"[V f; U (2, f); ULambda y; T (4, c); Hoist_vars [c]; T (1, x); T (1, c);  T (17, x); Lambda_apply y [((Iter 3), (Arg 4)); ((Iter 1), (Arg 5))];  T (32, f); T (256, c); T (1, x)]"
21.78,6854930,14268119,"[V f; U (2, f); ULambda y; T (2, c); Hoist_vars [c]; T (1, x); T (2, c);  T (17, x); Lambda_apply y [((Iter 3), (Arg 4)); ((Iter 1), (Arg 5))];  T (32, f); T (256, c); T (1, x)]"
26.10,6277127,11319008,"[V f; U (2, f); ULambda y; T (1, c); Hoist_vars [c]; T (1, x); T (4, c);  T (17, x); Lambda_apply y [((Iter 3), (Arg 4)); ((Iter 1), (Arg 5))];  T (32, f); T (256, c); T (1, x)]"
12.11,16167236,22871606,"[V f; U (2, f); ULambda y; T (2, c); Hoist_vars [c]; T (1, x); T (1, c);  T (17, x); Lambda_apply y [((Iter 3), (Arg 4)); ((Iter 1), (Arg 5))];  T (32, f); T (512, c); T (1, x)]"
14.07,10663135,17421431,"[V f; U (2, f); ULambda y; T (1, c); Hoist_vars [c]; T (1, x); T (2, c);  T (17, x); Lambda_apply y [((Iter 3), (Arg 4)); ((Iter 1), (Arg 5))];  T (32, f); T (512, c); T (1, x)]"
6.58,28896657,37640370,"[V f; U (2, f); ULambda y; T (1, c); Hoist_vars [c]; T (1, x); T (1, c);  T (17, x); Lambda_apply y [((Iter 3), (Arg 4)); ((Iter 1), (Arg 5))];  T (32, f); T (1024, c); T (1, x)]"
36.51,3998723,10138172,"[V f; U (2, f); ULambda y; T (1024, c); Hoist_vars [c]; T (1, x); T (1, c);  T (1, x); Lambda_apply y [((Iter 3), (Arg 4)); ((Iter 1), (Arg 5))];  T (32, f); T (1, c); T (17, x)]"
45.99,3995897,9406294,"[V f; U (2, f); ULambda y; T (512, c); Hoist_vars [c]; T (1, x); T (2, c);  T (1, x); Lambda_apply y [((Iter 3), (Arg 4)); ((Iter 1), (Arg 5))];  T (32, f); T (1, c); T (17, x)]"
36.96,3821632,9715999,"[V f; U (2, f); ULambda y; T (256, c); Hoist_vars [c]; T (1, x); T (4, c);  T (1, x); Lambda_apply y [((Iter 3), (Arg 4)); ((Iter 1), (Arg 5))];  T (32, f); T (1, c); T (17, x)]"
44.61,3913731,9289502,"[V f; U (2, f); ULambda y; T (128, c); Hoist_vars [c]; T (1, x); T (8, c);  T (1, x); Lambda_apply y [((Iter 3), (Arg 4)); ((Iter 1), (Arg 5))];  T (32, f); T (1, c); T (17, x)]"
41.96,3033263,8175067,"[V f; U (2, f); ULambda y; T (64, c); Hoist_vars [c]; T (1, x); T (16, c);  T (1, x); Lambda_apply y [((Iter 3), (Arg 4)); ((Iter 1), (Arg 5))];  T (32, f); T (1, c); T (17, x)]"
37.15,3865768,9217386,"[V f; U (2, f); ULambda y; T (32, c); Hoist_vars [c]; T (1, x); T (32, c);  T (1, x); Lambda_apply y [((Iter 3), (Arg 4)); ((Iter 1), (Arg 5))];  T (32, f); T (1, c); T (17, x)]"
40.86,3744095,9151206,"[V f; U (2, f); ULambda y; T (16, c); Hoist_vars [c]; T (1, x); T (64, c);  T (1, x); Lambda_apply y [((Iter 3), (Arg 4)); ((Iter 1), (Arg 5))];  T (32, f); T (1, c); T (17, x)]"
34.05,4152556,10638690,"[V f; U (2, f); ULambda y; T (8, c); Hoist_vars [c]; T (1, x); T (128, c);  T (1, x); Lambda_apply y [((Iter 3), (Arg 4)); ((Iter 1), (Arg 5))];  T (32, f); T (1, c); T (17, x)]"
32.80,2904562,9271148,"[V f; U (2, f); ULambda y; T (4, c); Hoist_vars [c]; T (1, x); T (256, c);  T (1, x); Lambda_apply y [((Iter 3), (Arg 4)); ((Iter 1), (Arg 5))];  T (32, f); T (1, c); T (17, x)]"
40.60,4120159,10170578,"[V f; U (2, f); ULambda y; T (2, c); Hoist_vars [c]; T (1, x); T (512, c);  T (1, x); Lambda_apply y [((Iter 3), (Arg 4)); ((Iter 1), (Arg 5))];  T (32, f); T (1, c); T (17, x)]"
43.39,3777505,9330190,"[V f; U (2, f); ULambda y; T (1, c); Hoist_vars [c]; T (1, x); T (1024, c);  T (1, x); Lambda_apply y [((Iter 3), (Arg 4)); ((Iter 1), (Arg 5))];  T (32, f); T (1, c); T (17, x)]"
44.26,3580250,8762278,"[V f; U (2, f); ULambda y; T (512, c); Hoist_vars [c]; T (1, x); T (1, c);  T (1, x); Lambda_apply y [((Iter 3), (Arg 4)); ((Iter 1), (Arg 5))];  T (32, f); T (2, c); T (17, x)]"
47.08,2924670,8088345,"[V f; U (2, f); ULambda y; T (256, c); Hoist_vars [c]; T (1, x); T (2, c);  T (1, x); Lambda_apply y [((Iter 3), (Arg 4)); ((Iter 1), (Arg 5))];  T (32, f); T (2, c); T (17, x)]"
37.30,3878105,9474402,"[V f; U (2, f); ULambda y; T (128, c); Hoist_vars [c]; T (1, x); T (4, c);  T (1, x); Lambda_apply y [((Iter 3), (Arg 4)); ((Iter 1), (Arg 5))];  T (32, f); T (2, c); T (17, x)]"
37.20,4023474,9554317,"[V f; U (2, f); ULambda y; T (64, c); Hoist_vars [c]; T (1, x); T (8, c);  T (1, x); Lambda_apply y [((Iter 3), (Arg 4)); ((Iter 1), (Arg 5))];  T (32, f); T (2, c); T (17, x)]"
42.94,4192867,9176246,"[V f; U (2, f); ULambda y; T (32, c); Hoist_vars [c]; T (1, x); T (16, c);  T (1, x); Lambda_apply y [((Iter 3), (Arg 4)); ((Iter 1), (Arg 5))];  T (32, f); T (2, c); T (17, x)]"
36.50,3570773,8980173,"[V f; U (2, f); ULambda y; T (16, c); Hoist_vars [c]; T (1, x); T (32, c);  T (1, x); Lambda_apply y [((Iter 3), (Arg 4)); ((Iter 1), (Arg 5))];  T (32, f); T (2, c); T (17, x)]"
34.85,3591412,9257723,"[V f; U (2, f); ULambda y; T (8, c); Hoist_vars [c]; T (1, x); T (64, c);  T (1, x); Lambda_apply y [((Iter 3), (Arg 4)); ((Iter 1), (Arg 5))];  T (32, f); T (2, c); T (17, x)]"
33.94,4332567,11211019,"[V f; U (2, f); ULambda y; T (4, c); Hoist_vars [c]; T (1, x); T (128, c);  T (1, x); Lambda_apply y [((Iter 3), (Arg 4)); ((Iter 1), (Arg 5))];  T (32, f); T (2, c); T (17, x)]"
43.65,2917309,7902990,"[V f; U (2, f); ULambda y; T (2, c); Hoist_vars [c]; T (1, x); T (256, c);  T (1, x); Lambda_apply y [((Iter 3), (Arg 4)); ((Iter 1), (Arg 5))];  T (32, f); T (2, c); T (17, x)]"
36.73,3836700,9664016,"[V f; U (2, f); ULambda y; T (1, c); Hoist_vars [c]; T (1, x); T (512, c);  T (1, x); Lambda_apply y [((Iter 3), (Arg 4)); ((Iter 1), (Arg 5))];  T (32, f); T (2, c); T (17, x)]"
46.59,4102928,8494198,"[V f; U (2, f); ULambda y; T (256, c); Hoist_vars [c]; T (1, x); T (1, c);  T (1, x); Lambda_apply y [((Iter 3), (Arg 4)); ((Iter 1), (Arg 5))];  T (32, f); T (4, c); T (17, x)]"
42.77,3614465,7947335,"[V f; U (2, f); ULambda y; T (128, c); Hoist_vars [c]; T (1, x); T (2, c);  T (1, x); Lambda_apply y [((Iter 3), (Arg 4)); ((Iter 1), (Arg 5))];  T (32, f); T (4, c); T (17, x)]"
44.85,3061117,7658293,"[V f; U (2, f); ULambda y; T (64, c); Hoist_vars [c]; T (1, x); T (4, c);  T (1, x); Lambda_apply y [((Iter 3), (Arg 4)); ((Iter 1), (Arg 5))];  T (32, f); T (4, c); T (17, x)]"
43.24,4278994,8426804,"[V f; U (2, f); ULambda y; T (32, c); Hoist_vars [c]; T (1, x); T (8, c);  T (1, x); Lambda_apply y [((Iter 3), (Arg 4)); ((Iter 1), (Arg 5))];  T (32, f); T (4, c); T (17, x)]"
37.68,4049192,8605050,"[V f; U (2, f); ULambda y; T (16, c); Hoist_vars [c]; T (1, x); T (16, c);  T (1, x); Lambda_apply y [((Iter 3), (Arg 4)); ((Iter 1), (Arg 5))];  T (32, f); T (4, c); T (17, x)]"
35.60,3889343,8749082,"[V f; U (2, f); ULambda y; T (8, c); Hoist_vars [c]; T (1, x); T (32, c);  T (1, x); Lambda_apply y [((Iter 3), (Arg 4)); ((Iter 1), (Arg 5))];  T (32, f); T (4, c); T (17, x)]"
34.19,2947048,8349912,"[V f; U (2, f); ULambda y; T (4, c); Hoist_vars [c]; T (1, x); T (64, c);  T (1, x); Lambda_apply y [((Iter 3), (Arg 4)); ((Iter 1), (Arg 5))];  T (32, f); T (4, c); T (17, x)]"
39.94,3817763,7958346,"[V f; U (2, f); ULambda y; T (2, c); Hoist_vars [c]; T (1, x); T (128, c);  T (1, x); Lambda_apply y [((Iter 3), (Arg 4)); ((Iter 1), (Arg 5))];  T (32, f); T (4, c); T (17, x)]"
44.86,2943149,7854511,"[V f; U (2, f); ULambda y; T (1, c); Hoist_vars [c]; T (1, x); T (256, c);  T (1, x); Lambda_apply y [((Iter 3), (Arg 4)); ((Iter 1), (Arg 5))];  T (32, f); T (4, c); T (17, x)]"
46.31,4021996,4657910,"[V f; U (2, f); ULambda y; T (128, c); Hoist_vars [c]; T (1, x); T (1, c);  T (1, x); Lambda_apply y [((Iter 3), (Arg 4)); ((Iter 1), (Arg 5))];  T (32, f); T (8, c); T (17, x)]"
53.99,3119163,3264142,"[V f; U (2, f); ULambda y; T (64, c); Hoist_vars [c]; T (1, x); T (2, c);  T (1, x); Lambda_apply y [((Iter 3), (Arg 4)); ((Iter 1), (Arg 5))];  T (32, f); T (8, c); T (17, x)]"
48.92,3270507,4138123,"[V f; U (2, f); ULambda y; T (32, c); Hoist_vars [c]; T (1, x); T (4, c);  T (1, x); Lambda_apply y [((Iter 3), (Arg 4)); ((Iter 1), (Arg 5))];  T (32, f); T (8, c); T (17, x)]"
47.78,4487899,3711227,"[V f; U (2, f); ULambda y; T (16, c); Hoist_vars [c]; T (1, x); T (8, c);  T (1, x); Lambda_apply y [((Iter 3), (Arg 4)); ((Iter 1), (Arg 5))];  T (32, f); T (8, c); T (17, x)]"
43.50,4313238,3531181,"[V f; U (2, f); ULambda y; T (8, c); Hoist_vars [c]; T (1, x); T (16, c);  T (1, x); Lambda_apply y [((Iter 3), (Arg 4)); ((Iter 1), (Arg 5))];  T (32, f); T (8, c); T (17, x)]"
40.41,4873281,3228719,"[V f; U (2, f); ULambda y; T (4, c); Hoist_vars [c]; T (1, x); T (32, c);  T (1, x); Lambda_apply y [((Iter 3), (Arg 4)); ((Iter 1), (Arg 5))];  T (32, f); T (8, c); T (17, x)]"
46.14,3052404,3662894,"[V f; U (2, f); ULambda y; T (2, c); Hoist_vars [c]; T (1, x); T (64, c);  T (1, x); Lambda_apply y [((Iter 3), (Arg 4)); ((Iter 1), (Arg 5))];  T (32, f); T (8, c); T (17, x)]"
48.83,3033545,3542141,"[V f; U (2, f); ULambda y; T (1, c); Hoist_vars [c]; T (1, x); T (128, c);  T (1, x); Lambda_apply y [((Iter 3), (Arg 4)); ((Iter 1), (Arg 5))];  T (32, f); T (8, c); T (17, x)]"
60.37,4727331,2460909,"[V f; U (2, f); ULambda y; T (64, c); Hoist_vars [c]; T (1, x); T (1, c);  T (1, x); Lambda_apply y [((Iter 3), (Arg 4)); ((Iter 1), (Arg 5))];  T (32, f); T (16, c); T (17, x)]"
60.51,5035234,1792615,"[V f; U (2, f); ULambda y; T (32, c); Hoist_vars [c]; T (1, x); T (2, c);  T (1, x); Lambda_apply y [((Iter 3), (Arg 4)); ((Iter 1), (Arg 5))];  T (32, f); T (16, c); T (17, x)]"
54.84,4970430,2072492,"[V f; U (2, f); ULambda y; T (16, c); Hoist_vars [c]; T (1, x); T (4, c);  T (1, x); Lambda_apply y [((Iter 3), (Arg 4)); ((Iter 1), (Arg 5))];  T (32, f); T (16, c); T (17, x)]"
50.87,4747928,1853637,"[V f; U (2, f); ULambda y; T (8, c); Hoist_vars [c]; T (1, x); T (8, c);  T (1, x); Lambda_apply y [((Iter 3), (Arg 4)); ((Iter 1), (Arg 5))];  T (32, f); T (16, c); T (17, x)]"
41.38,4950737,2691768,"[V f; U (2, f); ULambda y; T (4, c); Hoist_vars [c]; T (1, x); T (16, c);  T (1, x); Lambda_apply y [((Iter 3), (Arg 4)); ((Iter 1), (Arg 5))];  T (32, f); T (16, c); T (17, x)]"
53.40,3196973,1604323,"[V f; U (2, f); ULambda y; T (2, c); Hoist_vars [c]; T (1, x); T (32, c);  T (1, x); Lambda_apply y [((Iter 3), (Arg 4)); ((Iter 1), (Arg 5))];  T (32, f); T (16, c); T (17, x)]"
60.93,4842169,1877024,"[V f; U (2, f); ULambda y; T (1, c); Hoist_vars [c]; T (1, x); T (64, c);  T (1, x); Lambda_apply y [((Iter 3), (Arg 4)); ((Iter 1), (Arg 5))];  T (32, f); T (16, c); T (17, x)]"
65.15,5209664,1502092,"[V f; U (2, f); ULambda y; T (32, c); Hoist_vars [c]; T (1, x); T (1, c);  T (1, x); Lambda_apply y [((Iter 3), (Arg 4)); ((Iter 1), (Arg 5))];  T (32, f); T (32, c); T (17, x)]"
57.70,5309277,1582434,"[V f; U (2, f); ULambda y; T (16, c); Hoist_vars [c]; T (1, x); T (2, c);  T (1, x); Lambda_apply y [((Iter 3), (Arg 4)); ((Iter 1), (Arg 5))];  T (32, f); T (32, c); T (17, x)]"
51.56,5080316,1521538,"[V f; U (2, f); ULambda y; T (8, c); Hoist_vars [c]; T (1, x); T (4, c);  T (1, x); Lambda_apply y [((Iter 3), (Arg 4)); ((Iter 1), (Arg 5))];  T (32, f); T (32, c); T (17, x)]"
43.64,3323288,1526627,"[V f; U (2, f); ULambda y; T (4, c); Hoist_vars [c]; T (1, x); T (8, c);  T (1, x); Lambda_apply y [((Iter 3), (Arg 4)); ((Iter 1), (Arg 5))];  T (32, f); T (32, c); T (17, x)]"
53.91,3459725,1452204,"[V f; U (2, f); ULambda y; T (2, c); Hoist_vars [c]; T (1, x); T (16, c);  T (1, x); Lambda_apply y [((Iter 3), (Arg 4)); ((Iter 1), (Arg 5))];  T (32, f); T (32, c); T (17, x)]"
62.79,5219472,1499097,"[V f; U (2, f); ULambda y; T (1, c); Hoist_vars [c]; T (1, x); T (32, c);  T (1, x); Lambda_apply y [((Iter 3), (Arg 4)); ((Iter 1), (Arg 5))];  T (32, f); T (32, c); T (17, x)]"
58.40,5231540,1439968,"[V f; U (2, f); ULambda y; T (16, c); Hoist_vars [c]; T (1, x); T (1, c);  T (1, x); Lambda_apply y [((Iter 3), (Arg 4)); ((Iter 1), (Arg 5))];  T (32, f); T (64, c); T (17, x)]"
51.57,4673438,1421990,"[V f; U (2, f); ULambda y; T (8, c); Hoist_vars [c]; T (1, x); T (2, c);  T (1, x); Lambda_apply y [((Iter 3), (Arg 4)); ((Iter 1), (Arg 5))];  T (32, f); T (64, c); T (17, x)]"
42.32,5363930,1508131,"[V f; U (2, f); ULambda y; T (4, c); Hoist_vars [c]; T (1, x); T (4, c);  T (1, x); Lambda_apply y [((Iter 3), (Arg 4)); ((Iter 1), (Arg 5))];  T (32, f); T (64, c); T (17, x)]"
49.02,3788466,1380009,"[V f; U (2, f); ULambda y; T (2, c); Hoist_vars [c]; T (1, x); T (8, c);  T (1, x); Lambda_apply y [((Iter 3), (Arg 4)); ((Iter 1), (Arg 5))];  T (32, f); T (64, c); T (17, x)]"
56.30,5290312,1482965,"[V f; U (2, f); ULambda y; T (1, c); Hoist_vars [c]; T (1, x); T (16, c);  T (1, x); Lambda_apply y [((Iter 3), (Arg 4)); ((Iter 1), (Arg 5))];  T (32, f); T (64, c); T (17, x)]"
52.98,3942455,1254552,"[V f; U (2, f); ULambda y; T (8, c); Hoist_vars [c]; T (1, x); T (1, c);  T (1, x); Lambda_apply y [((Iter 3), (Arg 4)); ((Iter 1), (Arg 5))];  T (32, f); T (128, c); T (17, x)]"
40.86,4411689,1455528,"[V f; U (2, f); ULambda y; T (4, c); Hoist_vars [c]; T (1, x); T (2, c);  T (1, x); Lambda_apply y [((Iter 3), (Arg 4)); ((Iter 1), (Arg 5))];  T (32, f); T (128, c); T (17, x)]"
46.83,3897669,1315241,"[V f; U (2, f); ULambda y; T (2, c); Hoist_vars [c]; T (1, x); T (4, c);  T (1, x); Lambda_apply y [((Iter 3), (Arg 4)); ((Iter 1), (Arg 5))];  T (32, f); T (128, c); T (17, x)]"
53.77,4687040,1351698,"[V f; U (2, f); ULambda y; T (1, c); Hoist_vars [c]; T (1, x); T (8, c);  T (1, x); Lambda_apply y [((Iter 3), (Arg 4)); ((Iter 1), (Arg 5))];  T (32, f); T (128, c); T (17, x)]"
49.32,4869399,1386565,"[V f; U (2, f); ULambda y; T (4, c); Hoist_vars [c]; T (1, x); T (1, c);  T (1, x); Lambda_apply y [((Iter 3), (Arg 4)); ((Iter 1), (Arg 5))];  T (32, f); T (256, c); T (17, x)]"
34.89,6297353,1385002,"[V f; U (2, f); ULambda y; T (2, c); Hoist_vars [c]; T (1, x); T (2, c);  T (1, x); Lambda_apply y [((Iter 3), (Arg 4)); ((Iter 1), (Arg 5))];  T (32, f); T (256, c); T (17, x)]"
41.95,6224271,1391894,"[V f; U (2, f); ULambda y; T (1, c); Hoist_vars [c]; T (1, x); T (4, c);  T (1, x); Lambda_apply y [((Iter 3), (Arg 4)); ((Iter 1), (Arg 5))];  T (32, f); T (256, c); T (17, x)]"
24.32,5393673,1452925,"[V f; U (2, f); ULambda y; T (2, c); Hoist_vars [c]; T (1, x); T (1, c);  T (1, x); Lambda_apply y [((Iter 3), (Arg 4)); ((Iter 1), (Arg 5))];  T (32, f); T (512, c); T (17, x)]"
25.53,8379479,1430904,"[V f; U (2, f); ULambda y; T (1, c); Hoist_vars [c]; T (1, x); T (2, c);  T (1, x); Lambda_apply y [((Iter 3), (Arg 4)); ((Iter 1), (Arg 5))];  T (32, f); T (512, c); T (17, x)]"
13.42,7414740,1492387,"[V f; U (2, f); ULambda y; T (1, c); Hoist_vars [c]; T (1, x); T (1, c);  T (1, x); Lambda_apply y [((Iter 3), (Arg 4)); ((Iter 1), (Arg 5))];  T (32, f); T (1024, c); T (17, x)]"
