perf,CACHE_MISS_L1,CACHE_MISS_L2,scheme
19.48,38554979,32578009,"[V f; U (2, f); U (4, y); T (2, c); Hoist_vars [c]; T (56, x); T (3, w);  T (3, h); T (8, f); T (14, y); T (1, f); T (64, c); T (1, x); T (1, f)]"
70.89,11847546,5341345,"[V f; U (2, f); U (4, y); T (128, c); Hoist_vars [c]; T (28, x); T (3, w);  T (3, h); T (2, f); T (14, y); T (1, f); T (1, c); T (2, x); T (4, f)]"
71.97,5401143,4428149,"[V f; U (2, f); U (4, y); T (32, c); Hoist_vars [c]; T (28, x); T (3, w);  T (3, h); T (1, f); T (14, y); T (4, f); T (4, c); T (2, x); T (2, f)]"
9.90,61970614,22659797,"[V f; U (2, f); U (4, y); T (1, c); Hoist_vars [c]; T (14, x); T (3, w);  T (3, h); T (4, f); T (14, y); T (1, f); T (128, c); T (4, x); T (2, f)]"
69.50,4456168,2675070,"[V f; U (2, f); U (4, y); T (16, c); Hoist_vars [c]; T (8, x); T (3, w);  T (3, h); T (4, f); T (14, y); T (2, f); T (8, c); T (7, x); T (1, f)]"
66.89,4812048,5557040,"[V f; U (2, f); U (4, y); T (16, c); Hoist_vars [c]; T (8, x); T (3, w);  T (3, h); T (1, f); T (14, y); T (4, f); T (8, c); T (7, x); T (2, f)]"
70.03,5428150,3416912,"[V f; U (2, f); U (4, y); T (8, c); Hoist_vars [c]; T (8, x); T (3, w);  T (3, h); T (4, f); T (14, y); T (1, f); T (16, c); T (7, x); T (2, f)]"
63.17,10601010,10247221,"[V f; U (2, f); U (4, y); T (128, c); Hoist_vars [c]; T (7, x); T (3, w);  T (3, h); T (2, f); T (14, y); T (2, f); T (1, c); T (8, x); T (2, f)]"
64.52,10689858,12970493,"[V f; U (2, f); U (4, y); T (128, c); Hoist_vars [c]; T (4, x); T (3, w);  T (3, h); T (4, f); T (14, y); T (2, f); T (1, c); T (14, x); T (1, f)]"
72.51,4033151,2607383,"[V f; U (2, f); U (4, y); T (32, c); Hoist_vars [c]; T (4, x); T (3, w);  T (3, h); T (4, f); T (14, y); T (2, f); T (4, c); T (14, x); T (1, f)]"
64.71,2655859,2806114,"[V f; U (2, f); U (4, y); T (16, c); Hoist_vars [c]; T (4, x); T (3, w);  T (3, h); T (1, f); T (14, y); T (1, f); T (8, c); T (14, x); T (8, f)]"
39.55,6006292,3723394,"[V f; U (2, f); U (4, y); T (2, c); Hoist_vars [c]; T (4, x); T (3, w);  T (3, h); T (1, f); T (14, y); T (8, f); T (64, c); T (14, x); T (1, f)]"
65.22,3996248,2245266,"[V f; U (2, f); U (4, y); T (16, c); Hoist_vars [c]; T (2, x); T (3, w);  T (3, h); T (2, f); T (14, y); T (2, f); T (8, c); T (28, x); T (2, f)]"
41.73,10547448,32831006,"[V f; U (2, f); U (4, y); T (128, c); Hoist_vars [c]; T (1, x); T (3, w);  T (3, h); T (1, f); T (14, y); T (1, f); T (1, c); T (56, x); T (8, f)]"
40.36,11588161,19648554,"[V f; U (2, f); U (4, y); T (4, c); Hoist_vars [c]; T (1, x); T (3, w);  T (3, h); T (1, f); T (14, y); T (4, f); T (32, c); T (56, x); T (2, f)]"
55.48,14591539,2884396,"[V f; U (2, f); U (4, y); T (2, c); Hoist_vars [c]; T (1, x); T (3, w);  T (3, h); T (1, f); T (14, y); T (8, f); T (64, c); T (56, x); T (1, f)]"
62.79,9855348,7683850,"[V f; U (1, f); U (8, y); U (3, h); T (32, c); Hoist_vars [c]; T (56, x);  T (3, w); T (4, c); T (7, y); T (16, f); T (1, c); T (1, x)]"
68.72,10993794,6550974,"[V f; U (1, f); U (8, y); U (3, h); T (32, c); Hoist_vars [c]; T (28, x);  T (3, w); T (4, c); T (7, y); T (16, f); T (1, c); T (2, x)]"
68.12,4408383,5086105,"[V f; U (1, f); U (8, y); U (3, h); T (16, c); Hoist_vars [c]; T (28, x);  T (3, w); T (2, c); T (7, y); T (16, f); T (4, c); T (2, x)]"
47.34,12058147,8592797,"[V f; U (1, f); U (8, y); U (3, h); T (4, c); Hoist_vars [c]; T (14, x);  T (3, w); T (4, c); T (7, y); T (16, f); T (8, c); T (4, x)]"
48.16,19719755,3082166,"[V f; U (1, f); U (8, y); U (3, h); T (4, c); Hoist_vars [c]; T (1, x);  T (3, w); T (1, c); T (7, y); T (16, f); T (32, c); T (56, x)]"
42.48,16301359,19691174,"[V f; U (2, f); U (4, y); U (3, h); T (2, c); Hoist_vars [c]; T (56, x);  T (3, w); T (4, f); T (14, y); T (1, f); T (64, c); T (1, x); T (2, f)]"
68.40,6970592,4698947,"[V f; U (2, f); U (4, y); U (3, h); T (8, c); Hoist_vars [c]; T (28, x);  T (3, w); T (4, f); T (14, y); T (2, f); T (16, c); T (2, x); T (1, f)]"
52.41,16101905,11646016,"[V f; U (2, f); U (4, y); U (3, h); T (2, c); Hoist_vars [c]; T (28, x);  T (3, w); T (4, f); T (14, y); T (1, f); T (64, c); T (2, x); T (2, f)]"
28.37,29081926,28389151,"[V f; U (2, f); U (4, y); U (3, h); T (1, c); Hoist_vars [c]; T (28, x);  T (3, w); T (2, f); T (14, y); T (1, f); T (128, c); T (2, x); T (4, f)]"
71.09,9059842,5904657,"[V f; U (2, f); U (4, y); U (3, h); T (64, c); Hoist_vars [c]; T (14, x);  T (3, w); T (1, f); T (14, y); T (8, f); T (2, c); T (4, x); T (1, f)]"
75.84,8745257,3115651,"[V f; U (2, f); U (4, y); U (3, h); T (32, c); Hoist_vars [c]; T (14, x);  T (3, w); T (4, f); T (14, y); T (2, f); T (4, c); T (4, x); T (1, f)]"
28.48,27404407,33029826,"[V f; U (2, f); U (4, y); U (3, h); T (1, c); Hoist_vars [c]; T (14, x);  T (3, w); T (2, f); T (14, y); T (4, f); T (128, c); T (4, x); T (1, f)]"
74.61,3826496,3242338,"[V f; U (2, f); U (4, y); U (3, h); T (16, c); Hoist_vars [c]; T (8, x);  T (3, w); T (2, f); T (14, y); T (4, f); T (8, c); T (7, x); T (1, f)]"
73.59,2863931,2306115,"[V f; U (2, f); U (4, y); U (3, h); T (8, c); Hoist_vars [c]; T (8, x);  T (3, w); T (4, f); T (14, y); T (2, f); T (16, c); T (7, x); T (1, f)]"
54.20,7948382,13504423,"[V f; U (2, f); U (4, y); U (3, h); T (4, c); Hoist_vars [c]; T (8, x);  T (3, w); T (1, f); T (14, y); T (1, f); T (32, c); T (7, x); T (8, f)]"
53.44,8062224,12781760,"[V f; U (2, f); U (4, y); U (3, h); T (2, c); Hoist_vars [c]; T (8, x);  T (3, w); T (2, f); T (14, y); T (2, f); T (64, c); T (7, x); T (2, f)]"
36.75,12494280,21139649,"[V f; U (2, f); U (4, y); U (3, h); T (1, c); Hoist_vars [c]; T (8, x);  T (3, w); T (2, f); T (14, y); T (4, f); T (128, c); T (7, x); T (1, f)]"
65.09,8126000,9185556,"[V f; U (2, f); U (4, y); U (3, h); T (64, c); Hoist_vars [c]; T (4, x);  T (3, w); T (1, f); T (14, y); T (4, f); T (2, c); T (14, x); T (2, f)]"
64.70,5352763,3373029,"[V f; U (2, f); U (4, y); U (3, h); T (4, c); Hoist_vars [c]; T (4, x);  T (3, w); T (4, f); T (14, y); T (2, f); T (32, c); T (14, x); T (1, f)]"
60.19,4876081,3508501,"[V f; U (2, f); U (4, y); U (3, h); T (2, c); Hoist_vars [c]; T (4, x);  T (3, w); T (4, f); T (14, y); T (1, f); T (64, c); T (14, x); T (2, f)]"
67.94,4809480,4503510,"[V f; U (2, f); U (4, y); U (3, h); T (16, c); Hoist_vars [c]; T (2, x);  T (3, w); T (2, f); T (14, y); T (1, f); T (8, c); T (28, x); T (4, f)]"
66.84,5787372,2499307,"[V f; U (2, f); U (4, y); U (3, h); T (8, c); Hoist_vars [c]; T (2, x);  T (3, w); T (4, f); T (14, y); T (1, f); T (16, c); T (28, x); T (2, f)]"
58.47,9521624,2699944,"[V f; U (2, f); U (4, y); U (3, h); T (4, c); Hoist_vars [c]; T (2, x);  T (3, w); T (1, f); T (14, y); T (8, f); T (32, c); T (28, x); T (1, f)]"
68.25,8080401,4972453,"[V f; U (2, f); U (4, y); U (3, h); T (32, c); Hoist_vars [c]; T (1, x);  T (3, w); T (8, f); T (14, y); T (1, f); T (4, c); T (56, x); T (1, f)]"
69.31,9731264,3827870,"[V f; U (2, f); U (4, y); U (3, h); T (16, c); Hoist_vars [c]; T (1, x);  T (3, w); T (1, f); T (14, y); T (4, f); T (8, c); T (56, x); T (2, f)]"
61.63,6129107,5175923,"[V f; U (2, f); U (7, y); U (3, h); T (32, c); Hoist_vars [c]; T (56, x);  T (3, w); T (2, f); T (8, y); T (1, f); T (4, c); T (1, x); T (4, f)]"
56.81,4625529,7819814,"[V f; U (2, f); U (7, y); U (3, h); T (16, c); Hoist_vars [c]; T (56, x);  T (3, w); T (2, f); T (8, y); T (2, f); T (8, c); T (1, x); T (2, f)]"
46.66,6243680,15471994,"[V f; U (2, f); U (7, y); U (3, h); T (8, c); Hoist_vars [c]; T (56, x);  T (3, w); T (1, f); T (8, y); T (1, f); T (16, c); T (1, x); T (8, f)]"
33.40,15126315,28897825,"[V f; U (2, f); U (7, y); U (3, h); T (2, c); Hoist_vars [c]; T (56, x);  T (3, w); T (4, f); T (8, y); T (2, f); T (64, c); T (1, x); T (1, f)]"
62.46,6360441,4519609,"[V f; U (2, f); U (7, y); U (3, h); T (32, c); Hoist_vars [c]; T (14, x);  T (3, w); T (1, f); T (8, y); T (1, f); T (4, c); T (4, x); T (8, f)]"
42.30,10615650,15053866,"[V f; U (2, f); U (7, y); U (3, h); T (4, c); Hoist_vars [c]; T (14, x);  T (3, w); T (1, f); T (8, y); T (2, f); T (32, c); T (4, x); T (4, f)]"
53.99,5223556,11574634,"[V f; U (2, f); U (7, y); U (3, h); T (128, c); Hoist_vars [c]; T (4, x);  T (3, w); T (1, f); T (8, y); T (8, f); T (1, c); T (14, x); T (1, f)]"
59.98,6155775,4934452,"[V f; U (2, f); U (7, y); U (3, h); T (32, c); Hoist_vars [c]; T (2, x);  T (3, w); T (1, f); T (8, y); T (4, f); T (4, c); T (28, x); T (2, f)]"
49.35,6290201,15593797,"[V f; U (2, f); U (7, y); U (3, h); T (64, c); Hoist_vars [c]; T (1, x);  T (3, w); T (4, f); T (8, y); T (1, f); T (2, c); T (56, x); T (2, f)]"
68.19,4273929,6669120,"[V f; U (2, f); U (4, y); U (3, w); T (16, c); Hoist_vars [c]; T (56, x);  T (3, h); T (1, f); T (14, y); T (1, f); T (8, c); T (1, x); T (8, f)]"
45.41,5194586,9653671,"[V f; U (2, f); U (4, y); U (3, w); T (4, c); Hoist_vars [c]; T (56, x);  T (3, h); T (1, f); T (14, y); T (4, f); T (32, c); T (1, x); T (2, f)]"
38.39,14183968,24889283,"[V f; U (2, f); U (4, y); U (3, w); T (2, c); Hoist_vars [c]; T (56, x);  T (3, h); T (1, f); T (14, y); T (8, f); T (64, c); T (1, x); T (1, f)]"
38.17,10486525,20194839,"[V f; U (2, f); U (4, y); U (3, w); T (2, c); Hoist_vars [c]; T (56, x);  T (3, h); T (1, f); T (14, y); T (1, f); T (64, c); T (1, x); T (8, f)]"
72.58,8589946,4069056,"[V f; U (2, f); U (4, y); U (3, w); T (64, c); Hoist_vars [c]; T (28, x);  T (3, h); T (2, f); T (14, y); T (2, f); T (2, c); T (2, x); T (2, f)]"
74.09,9414213,4621738,"[V f; U (2, f); U (4, y); U (3, w); T (64, c); Hoist_vars [c]; T (28, x);  T (3, h); T (1, f); T (14, y); T (4, f); T (2, c); T (2, x); T (2, f)]"
31.25,23002655,31037265,"[V f; U (2, f); U (4, y); U (3, w); T (1, c); Hoist_vars [c]; T (14, x);  T (3, h); T (2, f); T (14, y); T (4, f); T (128, c); T (4, x); T (1, f)]"
57.93,9013944,11873001,"[V f; U (2, f); U (4, y); U (3, w); T (128, c); Hoist_vars [c]; T (8, x);  T (3, h); T (4, f); T (14, y); T (1, f); T (1, c); T (7, x); T (2, f)]"
55.61,6293087,12243893,"[V f; U (2, f); U (4, y); U (3, w); T (16, c); Hoist_vars [c]; T (2, x);  T (3, h); T (2, f); T (14, y); T (1, f); T (8, c); T (28, x); T (4, f)]"
53.41,14632202,5483408,"[V f; U (2, f); U (4, y); U (3, w); T (4, c); Hoist_vars [c]; T (1, x);  T (3, h); T (1, f); T (14, y); T (2, f); T (32, c); T (56, x); T (4, f)]"
50.15,2888843,5057524,"[V f; U (2, f); U (7, y); U (3, w); T (8, c); Hoist_vars [c]; T (28, x);  T (3, h); T (1, f); T (8, y); T (2, f); T (16, c); T (2, x); T (4, f)]"
41.43,11497992,12142311,"[V f; U (2, f); U (7, y); U (3, w); T (4, c); Hoist_vars [c]; T (28, x);  T (3, h); T (2, f); T (8, y); T (4, f); T (32, c); T (2, x); T (1, f)]"
58.95,5177235,4121646,"[V f; U (2, f); U (7, y); U (3, w); T (16, c); Hoist_vars [c]; T (14, x);  T (3, h); T (2, f); T (8, y); T (1, f); T (8, c); T (4, x); T (4, f)]"
43.68,5900839,7322858,"[V f; U (2, f); U (7, y); U (3, w); T (4, c); Hoist_vars [c]; T (14, x);  T (3, h); T (2, f); T (8, y); T (1, f); T (32, c); T (4, x); T (4, f)]"
60.75,6250333,4553329,"[V f; U (2, f); U (7, y); U (3, w); T (32, c); Hoist_vars [c]; T (7, x);  T (3, h); T (1, f); T (8, y); T (4, f); T (4, c); T (8, x); T (2, f)]"
35.44,8429833,7031703,"[V f; U (2, f); U (7, y); U (3, w); T (2, c); Hoist_vars [c]; T (4, x);  T (3, h); T (1, f); T (8, y); T (1, f); T (64, c); T (14, x); T (8, f)]"
31.05,13212164,9900626,"[V f; U (2, f); U (7, y); U (3, w); T (1, c); Hoist_vars [c]; T (4, x);  T (3, h); T (1, f); T (8, y); T (4, f); T (128, c); T (14, x); T (2, f)]"
56.46,6089131,9909706,"[V f; U (2, f); U (7, y); U (3, w); T (64, c); Hoist_vars [c]; T (2, x);  T (3, h); T (1, f); T (8, y); T (4, f); T (2, c); T (28, x); T (2, f)]"
50.48,6162927,12933381,"[V f; U (2, f); U (7, y); U (3, w); T (32, c); Hoist_vars [c]; T (2, x);  T (3, h); T (1, f); T (8, y); T (4, f); T (4, c); T (28, x); T (2, f)]"
54.88,3149688,2599322,"[V f; U (2, f); U (7, y); U (3, w); T (8, c); Hoist_vars [c]; T (2, x);  T (3, h); T (2, f); T (8, y); T (1, f); T (16, c); T (28, x); T (4, f)]"
35.96,7268318,2011351,"[V f; U (2, f); U (7, y); U (3, w); T (2, c); Hoist_vars [c]; T (2, x);  T (3, h); T (1, f); T (8, y); T (8, f); T (64, c); T (28, x); T (1, f)]"
35.38,7275300,3937128,"[V f; U (2, f); U (7, y); U (3, w); T (2, c); Hoist_vars [c]; T (2, x);  T (3, h); T (1, f); T (8, y); T (2, f); T (64, c); T (28, x); T (4, f)]"
55.91,5858324,6908408,"[V f; U (2, f); U (7, y); U (3, w); T (32, c); Hoist_vars [c]; T (1, x);  T (3, h); T (4, f); T (8, y); T (1, f); T (4, c); T (56, x); T (2, f)]"
48.92,8877219,5120444,"[V f; U (2, f); U (7, y); U (3, w); T (4, c); Hoist_vars [c]; T (1, x);  T (3, h); T (2, f); T (8, y); T (1, f); T (32, c); T (56, x); T (4, f)]"
53.69,8751076,3695463,"[V f; U (4, f); U (4, y); U (3, w); T (32, c); Hoist_vars [c]; T (56, x);  T (3, h); T (1, f); T (1, x); T (14, y); T (1, f); T (4, c); T (1, x);  T (4, f)]"
46.72,3719741,7867584,"[V f; U (4, f); U (4, y); U (3, w); T (8, c); Hoist_vars [c]; T (56, x);  T (3, h); T (1, f); T (1, x); T (14, y); T (4, f); T (16, c); T (1, x);  T (1, f)]"
55.49,8647219,3903313,"[V f; U (4, f); U (4, y); U (3, w); T (64, c); Hoist_vars [c]; T (28, x);  T (3, h); T (2, f); T (2, x); T (14, y); T (2, f); T (2, c); T (1, x);  T (1, f)]"
45.16,7919843,4710156,"[V f; U (4, f); U (4, y); U (3, w); T (64, c); Hoist_vars [c]; T (14, x);  T (3, h); T (2, f); T (4, x); T (14, y); T (1, f); T (2, c); T (1, x);  T (2, f)]"
52.72,8585168,6523487,"[V f; U (4, f); U (4, y); U (3, w); T (64, c); Hoist_vars [c]; T (14, x);  T (3, h); T (1, f); T (4, x); T (14, y); T (2, f); T (2, c); T (1, x);  T (2, f)]"
43.71,4052962,5858858,"[V f; U (4, f); U (4, y); U (3, w); T (4, c); Hoist_vars [c]; T (14, x);  T (3, h); T (2, f); T (4, x); T (14, y); T (2, f); T (32, c); T (1, x);  T (1, f)]"
53.87,4563429,2977801,"[V f; U (4, f); U (4, y); U (3, w); T (16, c); Hoist_vars [c]; T (7, x);  T (3, h); T (2, f); T (8, x); T (14, y); T (1, f); T (8, c); T (1, x);  T (2, f)]"
45.09,3461495,3062360,"[V f; U (4, f); U (4, y); U (3, w); T (4, c); Hoist_vars [c]; T (7, x);  T (3, h); T (4, f); T (8, x); T (14, y); T (1, f); T (32, c); T (1, x);  T (1, f)]"
40.49,5808280,12461967,"[V f; U (4, f); U (4, y); U (3, w); T (4, c); Hoist_vars [c]; T (7, x);  T (3, h); T (1, f); T (8, x); T (14, y); T (1, f); T (32, c); T (1, x);  T (4, f)]"
46.84,8760245,7877577,"[V f; U (4, f); U (4, y); U (3, w); T (32, c); Hoist_vars [c]; T (4, x);  T (3, h); T (2, f); T (14, x); T (14, y); T (1, f); T (4, c); T (1, x);  T (2, f)]"
34.70,6400336,10073195,"[V f; U (4, f); U (4, y); U (3, w); T (1, c); Hoist_vars [c]; T (4, x);  T (3, h); T (4, f); T (14, x); T (14, y); T (1, f); T (128, c); T (1, x);  T (1, f)]"
45.35,8710894,18685661,"[V f; U (4, f); U (4, y); U (3, w); T (128, c); Hoist_vars [c]; T (2, x);  T (3, h); T (4, f); T (28, x); T (14, y); T (1, f); T (1, c); T (1, x);  T (1, f)]"
50.59,8892555,5398715,"[V f; U (4, f); U (4, y); U (3, w); T (32, c); Hoist_vars [c]; T (2, x);  T (3, h); T (2, f); T (28, x); T (14, y); T (1, f); T (4, c); T (1, x);  T (2, f)]"
37.84,8214526,31520959,"[V f; U (4, f); U (4, y); U (3, w); T (128, c); Hoist_vars [c]; T (1, x);  T (3, h); T (2, f); T (56, x); T (14, y); T (2, f); T (1, c); T (1, x);  T (1, f)]"
31.93,7928955,26690467,"[V f; U (4, f); U (4, y); U (3, w); T (4, c); Hoist_vars [c]; T (1, x);  T (3, h); T (2, f); T (56, x); T (14, y); T (2, f); T (32, c); T (1, x);  T (1, f)]"
49.74,8558882,13106166,"[V f; U (4, f); U (4, y); U (3, w); T (128, c); Hoist_vars [c]; T (28, x);  T (3, h); T (2, f); T (1, x); T (14, y); T (1, f); T (1, c); T (2, x);  T (2, f)]"
42.52,5974280,9216270,"[V f; U (4, f); U (4, y); U (3, w); T (4, c); Hoist_vars [c]; T (4, x);  T (3, h); T (1, f); T (7, x); T (14, y); T (2, f); T (32, c); T (2, x);  T (2, f)]"
35.19,6457981,8705700,"[V f; U (4, f); U (4, y); U (3, w); T (1, c); Hoist_vars [c]; T (4, x);  T (3, h); T (4, f); T (7, x); T (14, y); T (1, f); T (128, c); T (2, x);  T (1, f)]"
29.03,7737462,12494443,"[V f; U (4, f); U (4, y); U (3, w); T (2, c); Hoist_vars [c]; T (2, x);  T (3, h); T (1, f); T (14, x); T (14, y); T (4, f); T (64, c); T (2, x);  T (1, f)]"
41.86,8088539,3559758,"[V f; U (4, f); U (4, y); U (3, w); T (32, c); Hoist_vars [c]; T (2, x);  T (3, h); T (2, f); T (4, x); T (14, y); T (2, f); T (4, c); T (7, x);  T (1, f)]"
49.11,8929649,5754993,"[V f; U (4, f); U (4, y); U (3, w); T (32, c); Hoist_vars [c]; T (1, x);  T (3, h); T (2, f); T (8, x); T (14, y); T (1, f); T (4, c); T (7, x);  T (2, f)]"
49.65,9098334,3899986,"[V f; U (4, f); U (4, y); U (3, w); T (16, c); Hoist_vars [c]; T (1, x);  T (3, h); T (1, f); T (8, x); T (14, y); T (4, f); T (8, c); T (7, x);  T (1, f)]"
40.63,7419820,3249109,"[V f; U (4, f); U (4, y); U (3, w); T (8, c); Hoist_vars [c]; T (1, x);  T (3, h); T (1, f); T (8, x); T (14, y); T (4, f); T (16, c); T (7, x);  T (1, f)]"
32.84,9067021,4192134,"[V f; U (4, f); U (4, y); U (3, w); T (2, c); Hoist_vars [c]; T (1, x);  T (3, h); T (4, f); T (8, x); T (14, y); T (1, f); T (64, c); T (7, x);  T (1, f)]"
53.07,8645626,3456812,"[V f; U (4, f); U (4, y); U (3, w); T (32, c); Hoist_vars [c]; T (7, x);  T (3, h); T (4, f); T (1, x); T (14, y); T (1, f); T (4, c); T (8, x);  T (1, f)]"
42.96,7283026,1435853,"[V f; U (4, f); U (4, y); U (3, w); T (8, c); Hoist_vars [c]; T (1, x);  T (3, h); T (4, f); T (7, x); T (14, y); T (1, f); T (16, c); T (8, x);  T (1, f)]"
44.39,5226823,5074258,"[V f; U (4, f); U (4, y); U (3, w); T (4, c); Hoist_vars [c]; T (4, x);  T (3, h); T (2, f); T (1, x); T (14, y); T (2, f); T (32, c); T (14, x);  T (1, f)]"
42.38,8572260,19950041,"[V f; U (4, f); U (4, y); U (3, w); T (128, c); Hoist_vars [c]; T (2, x);  T (3, h); T (1, f); T (2, x); T (14, y); T (2, f); T (1, c); T (14, x);  T (2, f)]"
42.49,7031248,5604046,"[V f; U (4, f); U (4, y); U (3, w); T (4, c); Hoist_vars [c]; T (2, x);  T (3, h); T (1, f); T (2, x); T (14, y); T (1, f); T (32, c); T (14, x);  T (4, f)]"
37.38,7827673,17912919,"[V f; U (4, f); U (4, y); U (3, w); T (64, c); Hoist_vars [c]; T (1, x);  T (3, h); T (2, f); T (4, x); T (14, y); T (1, f); T (2, c); T (14, x);  T (2, f)]"
48.09,8561868,20964809,"[V f; U (4, f); U (4, y); U (3, w); T (128, c); Hoist_vars [c]; T (2, x);  T (3, h); T (4, f); T (1, x); T (14, y); T (1, f); T (1, c); T (28, x);  T (1, f)]"
46.97,8585540,21919582,"[V f; U (4, f); U (4, y); U (3, w); T (128, c); Hoist_vars [c]; T (2, x);  T (3, h); T (2, f); T (1, x); T (14, y); T (1, f); T (1, c); T (28, x);  T (2, f)]"
32.17,11940387,2721443,"[V f; U (4, f); U (4, y); U (3, w); T (2, c); Hoist_vars [c]; T (1, x);  T (3, h); T (1, f); T (2, x); T (14, y); T (2, f); T (64, c); T (28, x);  T (2, f)]"
37.86,9737561,10008982,"[V f; U (4, f); U (4, y); U (3, w); T (1, c); Hoist_vars [c]; T (1, x);  T (3, h); T (4, f); T (2, x); T (14, y); T (1, f); T (128, c); T (28, x);  T (1, f)]"
45.73,8887650,18784426,"[V f; U (4, f); U (4, y); U (3, w); T (64, c); Hoist_vars [c]; T (1, x);  T (3, h); T (4, f); T (1, x); T (14, y); T (1, f); T (2, c); T (56, x);  T (1, f)]"
13.40,52138383,32854661,"[V f; U (1, f); ULambda y; U (3, h); T (1, c); Hoist_vars [c]; T (28, x);  T (3, w); T (8, c);  Lambda_apply y [((Iter 5), (Arg 9)); ((Iter 1), (Arg 11))]; T (16, f);  T (16, c); T (2, x)]"
63.91,5547923,5283888,"[V f; U (1, f); ULambda y; U (3, h); T (16, c); Hoist_vars [c]; T (14, x);  T (3, w); T (4, c);  Lambda_apply y [((Iter 5), (Arg 9)); ((Iter 1), (Arg 11))]; T (16, f);  T (2, c); T (4, x)]"
55.76,9382621,7413152,"[V f; U (1, f); ULambda y; U (3, h); T (8, c); Hoist_vars [c]; T (8, x);  T (3, w); T (8, c);  Lambda_apply y [((Iter 5), (Arg 9)); ((Iter 1), (Arg 11))]; T (16, f);  T (2, c); T (7, x)]"
37.76,16000273,20922519,"[V f; U (1, f); ULambda y; U (3, h); T (4, c); Hoist_vars [c]; T (8, x);  T (3, w); T (1, c);  Lambda_apply y [((Iter 5), (Arg 9)); ((Iter 1), (Arg 11))]; T (16, f);  T (32, c); T (7, x)]"
29.69,21126531,26754479,"[V f; U (1, f); ULambda y; U (3, h); T (2, c); Hoist_vars [c]; T (8, x);  T (3, w); T (1, c);  Lambda_apply y [((Iter 5), (Arg 9)); ((Iter 1), (Arg 11))]; T (16, f);  T (64, c); T (7, x)]"
14.33,41632389,36345881,"[V f; U (1, f); ULambda y; U (3, h); T (1, c); Hoist_vars [c]; T (8, x);  T (3, w); T (2, c);  Lambda_apply y [((Iter 5), (Arg 9)); ((Iter 1), (Arg 11))]; T (16, f);  T (64, c); T (7, x)]"
38.06,15643140,6669860,"[V f; U (1, f); ULambda y; U (3, h); T (2, c); Hoist_vars [c]; T (7, x);  T (3, w); T (32, c);  Lambda_apply y [((Iter 5), (Arg 9)); ((Iter 1), (Arg 11))]; T (16, f);  T (2, c); T (8, x)]"
59.49,7314888,11757392,"[V f; U (1, f); ULambda y; U (3, h); T (128, c); Hoist_vars [c]; T (56, x);  T (3, w); T (1, c);  Lambda_apply y [((Iter 2), (Arg 10)); ((Iter 3), (Arg 12))]; T (16, f);  T (1, c); T (1, x)]"
62.85,7567157,8194374,"[V f; U (1, f); ULambda y; U (3, h); T (16, c); Hoist_vars [c]; T (14, x);  T (3, w); T (2, c);  Lambda_apply y [((Iter 2), (Arg 10)); ((Iter 3), (Arg 12))]; T (16, f);  T (4, c); T (4, x)]"
41.23,17185680,8048572,"[V f; U (1, f); ULambda y; U (3, h); T (4, c); Hoist_vars [c]; T (8, x);  T (3, w); T (8, c);  Lambda_apply y [((Iter 2), (Arg 10)); ((Iter 3), (Arg 12))]; T (16, f);  T (4, c); T (7, x)]"
28.51,5097853,10157598,"[V f; U (1, f); ULambda y; U (3, h); T (2, c); Hoist_vars [c]; T (2, x);  T (3, w); T (32, c);  Lambda_apply y [((Iter 2), (Arg 10)); ((Iter 3), (Arg 12))]; T (16, f);  T (2, c); T (28, x)]"
63.16,10039037,3552885,"[V f; U (1, f); ULambda y; U (3, h); T (8, c); Hoist_vars [c]; T (1, x);  T (3, w); T (2, c);  Lambda_apply y [((Iter 2), (Arg 10)); ((Iter 3), (Arg 12))]; T (16, f);  T (8, c); T (56, x)]"
25.42,22711999,21859165,"[V f; U (1, f); ULambda y; U (3, h); T (2, c); Hoist_vars [c]; T (28, x);  T (3, w); T (8, c);  Lambda_apply y [((Iter 3), (Arg 10)); ((Iter 2), (Arg 13))]; T (16, f);  T (8, c); T (2, x)]"
65.16,7604558,6523549,"[V f; U (1, f); ULambda y; U (3, h); T (32, c); Hoist_vars [c]; T (7, x);  T (3, w); T (2, c);  Lambda_apply y [((Iter 3), (Arg 10)); ((Iter 2), (Arg 13))]; T (16, f);  T (2, c); T (8, x)]"
34.36,10272417,8672145,"[V f; U (1, f); ULambda y; U (3, h); T (2, c); Hoist_vars [c]; T (4, x);  T (3, w); T (64, c);  Lambda_apply y [((Iter 3), (Arg 10)); ((Iter 2), (Arg 13))]; T (16, f);  T (1, c); T (14, x)]"
27.45,19820584,8640410,"[V f; U (1, f); ULambda y; U (3, h); T (1, c); Hoist_vars [c]; T (4, x);  T (3, w); T (2, c);  Lambda_apply y [((Iter 3), (Arg 10)); ((Iter 2), (Arg 13))]; T (16, f);  T (64, c); T (14, x)]"
14.89,47141321,43528318,"[V f; U (1, f); ULambda y; U (3, h); T (1, c); Hoist_vars [c]; T (28, x);  T (3, w); T (4, c);  Lambda_apply y [((Iter 4), (Arg 11)); ((Iter 1), (Arg 12))]; T (16, f);  T (32, c); T (2, x)]"
31.53,20950407,8576861,"[V f; U (1, f); ULambda y; U (3, h); T (2, c); Hoist_vars [c]; T (8, x);  T (3, w); T (8, c);  Lambda_apply y [((Iter 4), (Arg 11)); ((Iter 1), (Arg 12))]; T (16, f);  T (8, c); T (7, x)]"
42.72,16032261,7778627,"[V f; U (1, f); ULambda y; U (3, h); T (4, c); Hoist_vars [c]; T (7, x);  T (3, w); T (32, c);  Lambda_apply y [((Iter 4), (Arg 11)); ((Iter 1), (Arg 12))]; T (16, f);  T (1, c); T (8, x)]"
39.71,5668662,2254832,"[V f; U (1, f); ULambda y; U (3, h); T (1, c); Hoist_vars [c]; T (2, x);  T (3, w); T (16, c);  Lambda_apply y [((Iter 4), (Arg 11)); ((Iter 1), (Arg 12))]; T (16, f);  T (8, c); T (28, x)]"
61.71,7168839,9379803,"[V f; U (2, f); ULambda y; U (3, h); T (128, c); Hoist_vars [c]; T (8, x);  T (3, w); T (1, f);  Lambda_apply y [((Iter 7), (Arg 4)); ((Iter 4), (Arg 7))]; T (2, f);  T (1, c); T (7, x); T (4, f)]"
43.74,10073883,17027619,"[V f; U (2, f); ULambda y; U (3, h); T (2, c); Hoist_vars [c]; T (8, x);  T (3, w); T (1, f);  Lambda_apply y [((Iter 7), (Arg 4)); ((Iter 4), (Arg 7))]; T (2, f);  T (64, c); T (7, x); T (4, f)]"
62.69,6339696,7096135,"[V f; U (2, f); ULambda y; U (3, h); T (64, c); Hoist_vars [c]; T (4, x);  T (3, w); T (4, f);  Lambda_apply y [((Iter 7), (Arg 4)); ((Iter 4), (Arg 7))]; T (2, f);  T (2, c); T (14, x); T (1, f)]"
48.64,7360503,6545985,"[V f; U (2, f); ULambda y; U (3, h); T (2, c); Hoist_vars [c]; T (4, x);  T (3, w); T (1, f);  Lambda_apply y [((Iter 7), (Arg 4)); ((Iter 4), (Arg 7))]; T (1, f);  T (64, c); T (14, x); T (8, f)]"
63.25,3542083,1204320,"[V f; U (2, f); ULambda y; U (3, h); T (8, c); Hoist_vars [c]; T (2, x);  T (3, w); T (4, f);  Lambda_apply y [((Iter 7), (Arg 4)); ((Iter 4), (Arg 7))]; T (2, f);  T (16, c); T (28, x); T (1, f)]"
45.61,5021351,2107425,"[V f; U (2, f); ULambda y; U (3, h); T (2, c); Hoist_vars [c]; T (2, x);  T (3, w); T (4, f);  Lambda_apply y [((Iter 7), (Arg 4)); ((Iter 4), (Arg 7))]; T (1, f);  T (64, c); T (28, x); T (2, f)]"
57.65,6490606,6326747,"[V f; U (2, f); ULambda y; U (3, h); T (32, c); Hoist_vars [c]; T (1, x);  T (3, w); T (4, f);  Lambda_apply y [((Iter 7), (Arg 4)); ((Iter 4), (Arg 7))]; T (2, f);  T (4, c); T (56, x); T (1, f)]"
63.07,6122814,4364700,"[V f; U (2, f); ULambda y; U (3, h); T (8, c); Hoist_vars [c]; T (1, x);  T (3, w); T (1, f);  Lambda_apply y [((Iter 7), (Arg 4)); ((Iter 4), (Arg 7))]; T (2, f);  T (16, c); T (56, x); T (4, f)]"
51.94,6117222,13183532,"[V f; U (2, f); ULambda y; U (3, h); T (8, c); Hoist_vars [c]; T (56, x);  T (3, w); T (1, f);  Lambda_apply y [((Iter 7), (Arg 5)); ((Iter 3), (Arg 7))]; T (8, f);  T (16, c); T (1, x); T (1, f)]"
38.31,14433439,22625666,"[V f; U (2, f); ULambda y; U (3, h); T (2, c); Hoist_vars [c]; T (56, x);  T (3, w); T (4, f);  Lambda_apply y [((Iter 7), (Arg 5)); ((Iter 3), (Arg 7))]; T (1, f);  T (64, c); T (1, x); T (2, f)]"
61.50,6334209,5519999,"[V f; U (2, f); ULambda y; U (3, h); T (64, c); Hoist_vars [c]; T (28, x);  T (3, w); T (1, f);  Lambda_apply y [((Iter 7), (Arg 5)); ((Iter 3), (Arg 7))]; T (1, f);  T (2, c); T (2, x); T (8, f)]"
42.27,12007595,18956120,"[V f; U (2, f); ULambda y; U (3, h); T (2, c); Hoist_vars [c]; T (14, x);  T (3, w); T (1, f);  Lambda_apply y [((Iter 7), (Arg 5)); ((Iter 3), (Arg 7))]; T (8, f);  T (64, c); T (4, x); T (1, f)]"
66.05,6762633,6423813,"[V f; U (2, f); ULambda y; U (3, h); T (64, c); Hoist_vars [c]; T (7, x);  T (3, w); T (1, f);  Lambda_apply y [((Iter 7), (Arg 5)); ((Iter 3), (Arg 7))]; T (4, f);  T (2, c); T (8, x); T (2, f)]"
50.53,5733492,5479103,"[V f; U (2, f); ULambda y; U (3, h); T (2, c); Hoist_vars [c]; T (4, x);  T (3, w); T (1, f);  Lambda_apply y [((Iter 7), (Arg 5)); ((Iter 3), (Arg 7))]; T (1, f);  T (64, c); T (14, x); T (8, f)]"
51.26,5668775,16322983,"[V f; U (2, f); ULambda y; U (3, h); T (128, c); Hoist_vars [c]; T (2, x);  T (3, w); T (2, f);  Lambda_apply y [((Iter 7), (Arg 5)); ((Iter 3), (Arg 7))]; T (2, f);  T (1, c); T (28, x); T (2, f)]"
58.40,5110308,1750189,"[V f; U (2, f); ULambda y; U (3, h); T (4, c); Hoist_vars [c]; T (2, x);  T (3, w); T (1, f);  Lambda_apply y [((Iter 7), (Arg 5)); ((Iter 3), (Arg 7))]; T (8, f);  T (32, c); T (28, x); T (1, f)]"
66.10,6974803,4651924,"[V f; U (2, f); ULambda y; U (3, h); T (32, c); Hoist_vars [c]; T (28, x);  T (3, w); T (1, f);  Lambda_apply y [((Iter 7), (Arg 6)); ((Iter 2), (Arg 7))]; T (4, f);  T (4, c); T (2, x); T (2, f)]"
48.15,11769438,8926008,"[V f; U (2, f); ULambda y; U (3, h); T (4, c); Hoist_vars [c]; T (28, x);  T (3, w); T (4, f);  Lambda_apply y [((Iter 7), (Arg 6)); ((Iter 2), (Arg 7))]; T (1, f);  T (32, c); T (2, x); T (2, f)]"
28.76,22577989,24071914,"[V f; U (2, f); ULambda y; U (3, h); T (1, c); Hoist_vars [c]; T (28, x);  T (3, w); T (2, f);  Lambda_apply y [((Iter 7), (Arg 6)); ((Iter 2), (Arg 7))]; T (4, f);  T (128, c); T (2, x); T (1, f)]"
41.60,14675424,22188766,"[V f; U (2, f); ULambda y; U (3, h); T (2, c); Hoist_vars [c]; T (14, x);  T (3, w); T (1, f);  Lambda_apply y [((Iter 7), (Arg 6)); ((Iter 2), (Arg 7))]; T (1, f);  T (64, c); T (4, x); T (8, f)]"
26.01,25532993,39013759,"[V f; U (2, f); ULambda y; U (3, h); T (1, c); Hoist_vars [c]; T (14, x);  T (3, w); T (1, f);  Lambda_apply y [((Iter 7), (Arg 6)); ((Iter 2), (Arg 7))]; T (4, f);  T (128, c); T (4, x); T (2, f)]"
52.55,5266346,11477940,"[V f; U (2, f); ULambda y; U (3, h); T (128, c); Hoist_vars [c]; T (8, x);  T (3, w); T (2, f);  Lambda_apply y [((Iter 7), (Arg 6)); ((Iter 2), (Arg 7))]; T (2, f);  T (1, c); T (7, x); T (2, f)]"
67.00,6616159,3717992,"[V f; U (2, f); ULambda y; U (3, h); T (32, c); Hoist_vars [c]; T (8, x);  T (3, w); T (2, f);  Lambda_apply y [((Iter 7), (Arg 6)); ((Iter 2), (Arg 7))]; T (2, f);  T (4, c); T (7, x); T (2, f)]"
59.57,5895446,9387612,"[V f; U (2, f); ULambda y; U (3, h); T (64, c); Hoist_vars [c]; T (2, x);  T (3, w); T (8, f);  Lambda_apply y [((Iter 7), (Arg 6)); ((Iter 2), (Arg 7))]; T (1, f);  T (2, c); T (28, x); T (1, f)]"
45.86,8255668,4069304,"[V f; U (2, f); ULambda y; U (3, h); T (2, c); Hoist_vars [c]; T (2, x);  T (3, w); T (1, f);  Lambda_apply y [((Iter 7), (Arg 6)); ((Iter 2), (Arg 7))]; T (2, f);  T (64, c); T (28, x); T (4, f)]"
47.54,5507373,15689171,"[V f; U (2, f); ULambda y; U (3, h); T (64, c); Hoist_vars [c]; T (1, x);  T (3, w); T (1, f);  Lambda_apply y [((Iter 7), (Arg 6)); ((Iter 2), (Arg 7))]; T (1, f);  T (2, c); T (56, x); T (8, f)]"
66.16,2032120,3047662,"[V f; U (2, f); ULambda y; U (3, w); T (16, c); Hoist_vars [c]; T (56, x);  T (3, h); T (2, f);  Lambda_apply y [((Iter 7), (Arg 4)); ((Iter 4), (Arg 7))]; T (2, f);  T (8, c); T (1, x); T (2, f)]"
41.25,10924344,19546729,"[V f; U (2, f); ULambda y; U (3, w); T (4, c); Hoist_vars [c]; T (56, x);  T (3, h); T (2, f);  Lambda_apply y [((Iter 7), (Arg 4)); ((Iter 4), (Arg 7))]; T (2, f);  T (32, c); T (1, x); T (2, f)]"
39.96,11265621,22812343,"[V f; U (2, f); ULambda y; U (3, w); T (4, c); Hoist_vars [c]; T (56, x);  T (3, h); T (1, f);  Lambda_apply y [((Iter 7), (Arg 4)); ((Iter 4), (Arg 7))]; T (1, f);  T (32, c); T (1, x); T (8, f)]"
32.25,24108977,13183521,"[V f; U (2, f); ULambda y; U (3, w); T (1, c); Hoist_vars [c]; T (14, x);  T (3, h); T (8, f);  Lambda_apply y [((Iter 7), (Arg 4)); ((Iter 4), (Arg 7))]; T (1, f);  T (128, c); T (4, x); T (1, f)]"
47.20,8227136,10983477,"[V f; U (2, f); ULambda y; U (3, w); T (4, c); Hoist_vars [c]; T (8, x);  T (3, h); T (2, f);  Lambda_apply y [((Iter 7), (Arg 4)); ((Iter 4), (Arg 7))]; T (1, f);  T (32, c); T (7, x); T (4, f)]"
48.86,7582960,9693918,"[V f; U (2, f); ULambda y; U (3, w); T (4, c); Hoist_vars [c]; T (7, x);  T (3, h); T (2, f);  Lambda_apply y [((Iter 7), (Arg 4)); ((Iter 4), (Arg 7))]; T (2, f);  T (32, c); T (8, x); T (2, f)]"
43.27,5969728,7206382,"[V f; U (2, f); ULambda y; U (3, w); T (2, c); Hoist_vars [c]; T (7, x);  T (3, h); T (4, f);  Lambda_apply y [((Iter 7), (Arg 4)); ((Iter 4), (Arg 7))]; T (1, f);  T (64, c); T (8, x); T (2, f)]"
37.10,10269371,12139222,"[V f; U (2, f); ULambda y; U (3, w); T (1, c); Hoist_vars [c]; T (7, x);  T (3, h); T (4, f);  Lambda_apply y [((Iter 7), (Arg 4)); ((Iter 4), (Arg 7))]; T (1, f);  T (128, c); T (8, x); T (2, f)]"
40.11,6566608,4345894,"[V f; U (2, f); ULambda y; U (3, w); T (1, c); Hoist_vars [c]; T (4, x);  T (3, h); T (8, f);  Lambda_apply y [((Iter 7), (Arg 4)); ((Iter 4), (Arg 7))]; T (1, f);  T (128, c); T (14, x); T (1, f)]"
36.89,12556528,7316637,"[V f; U (2, f); ULambda y; U (3, w); T (1, c); Hoist_vars [c]; T (4, x);  T (3, h); T (1, f);  Lambda_apply y [((Iter 7), (Arg 4)); ((Iter 4), (Arg 7))]; T (8, f);  T (128, c); T (14, x); T (1, f)]"
41.77,6497572,2472687,"[V f; U (2, f); ULambda y; U (3, w); T (2, c); Hoist_vars [c]; T (2, x);  T (3, h); T (2, f);  Lambda_apply y [((Iter 7), (Arg 4)); ((Iter 4), (Arg 7))]; T (2, f);  T (64, c); T (28, x); T (2, f)]"
57.90,7465274,2498113,"[V f; U (2, f); ULambda y; U (3, w); T (8, c); Hoist_vars [c]; T (1, x);  T (3, h); T (4, f);  Lambda_apply y [((Iter 7), (Arg 4)); ((Iter 4), (Arg 7))]; T (2, f);  T (16, c); T (56, x); T (1, f)]"
43.85,16130472,2129707,"[V f; U (2, f); ULambda y; U (3, w); T (1, c); Hoist_vars [c]; T (1, x);  T (3, h); T (1, f);  Lambda_apply y [((Iter 7), (Arg 4)); ((Iter 4), (Arg 7))]; T (8, f);  T (128, c); T (56, x); T (1, f)]"
69.39,7792777,3816216,"[V f; U (2, f); ULambda y; U (3, w); T (32, c); Hoist_vars [c]; T (28, x);  T (3, h); T (2, f);  Lambda_apply y [((Iter 7), (Arg 5)); ((Iter 3), (Arg 7))]; T (4, f);  T (4, c); T (2, x); T (1, f)]"
69.21,6546219,2946981,"[V f; U (2, f); ULambda y; U (3, w); T (32, c); Hoist_vars [c]; T (14, x);  T (3, h); T (2, f);  Lambda_apply y [((Iter 7), (Arg 5)); ((Iter 3), (Arg 7))]; T (1, f);  T (4, c); T (4, x); T (4, f)]"
50.57,11012622,6865546,"[V f; U (2, f); ULambda y; U (3, w); T (4, c); Hoist_vars [c]; T (14, x);  T (3, h); T (4, f);  Lambda_apply y [((Iter 7), (Arg 5)); ((Iter 3), (Arg 7))]; T (1, f);  T (32, c); T (4, x); T (2, f)]"
65.53,6265018,3779135,"[V f; U (2, f); ULambda y; U (3, w); T (32, c); Hoist_vars [c]; T (7, x);  T (3, h); T (2, f);  Lambda_apply y [((Iter 7), (Arg 5)); ((Iter 3), (Arg 7))]; T (4, f);  T (4, c); T (8, x); T (1, f)]"
55.03,5697711,12282143,"[V f; U (2, f); ULambda y; U (3, w); T (128, c); Hoist_vars [c]; T (4, x);  T (3, h); T (8, f);  Lambda_apply y [((Iter 7), (Arg 5)); ((Iter 3), (Arg 7))]; T (1, f);  T (1, c); T (14, x); T (1, f)]"
67.11,7435244,4919730,"[V f; U (2, f); ULambda y; U (3, w); T (32, c); Hoist_vars [c]; T (4, x);  T (3, h); T (1, f);  Lambda_apply y [((Iter 7), (Arg 5)); ((Iter 3), (Arg 7))]; T (8, f);  T (4, c); T (14, x); T (1, f)]"
65.34,4428091,3991277,"[V f; U (2, f); ULambda y; U (3, w); T (16, c); Hoist_vars [c]; T (4, x);  T (3, h); T (8, f);  Lambda_apply y [((Iter 7), (Arg 5)); ((Iter 3), (Arg 7))]; T (1, f);  T (8, c); T (14, x); T (1, f)]"
47.34,4930049,1650229,"[V f; U (2, f); ULambda y; U (3, w); T (2, c); Hoist_vars [c]; T (2, x);  T (3, h); T (8, f);  Lambda_apply y [((Iter 7), (Arg 5)); ((Iter 3), (Arg 7))]; T (1, f);  T (64, c); T (28, x); T (1, f)]"
44.63,8627943,6328971,"[V f; U (2, f); ULambda y; U (3, w); T (2, c); Hoist_vars [c]; T (2, x);  T (3, h); T (1, f);  Lambda_apply y [((Iter 7), (Arg 5)); ((Iter 3), (Arg 7))]; T (1, f);  T (64, c); T (28, x); T (8, f)]"
64.45,7419317,3564038,"[V f; U (2, f); ULambda y; U (3, w); T (16, c); Hoist_vars [c]; T (1, x);  T (3, h); T (4, f);  Lambda_apply y [((Iter 7), (Arg 5)); ((Iter 3), (Arg 7))]; T (1, f);  T (8, c); T (56, x); T (2, f)]"
60.26,9619484,2838009,"[V f; U (2, f); ULambda y; U (3, w); T (8, c); Hoist_vars [c]; T (1, x);  T (3, h); T (1, f);  Lambda_apply y [((Iter 7), (Arg 5)); ((Iter 3), (Arg 7))]; T (8, f);  T (16, c); T (56, x); T (1, f)]"
40.68,16134032,2398765,"[V f; U (2, f); ULambda y; U (3, w); T (1, c); Hoist_vars [c]; T (1, x);  T (3, h); T (1, f);  Lambda_apply y [((Iter 7), (Arg 5)); ((Iter 3), (Arg 7))]; T (8, f);  T (128, c); T (56, x); T (1, f)]"
56.92,5636213,8512016,"[V f; U (2, f); ULambda y; U (3, w); T (128, c); Hoist_vars [c]; T (56, x);  T (3, h); T (2, f);  Lambda_apply y [((Iter 7), (Arg 6)); ((Iter 2), (Arg 7))]; T (1, f);  T (1, c); T (1, x); T (4, f)]"
70.72,7220400,5479582,"[V f; U (2, f); ULambda y; U (3, w); T (32, c); Hoist_vars [c]; T (56, x);  T (3, h); T (1, f);  Lambda_apply y [((Iter 7), (Arg 6)); ((Iter 2), (Arg 7))]; T (8, f);  T (4, c); T (1, x); T (1, f)]"
64.94,2872721,3098431,"[V f; U (2, f); ULambda y; U (3, w); T (8, c); Hoist_vars [c]; T (28, x);  T (3, h); T (4, f);  Lambda_apply y [((Iter 7), (Arg 6)); ((Iter 2), (Arg 7))]; T (1, f);  T (16, c); T (2, x); T (2, f)]"
62.95,6520196,9558020,"[V f; U (2, f); ULambda y; U (3, w); T (128, c); Hoist_vars [c]; T (14, x);  T (3, h); T (1, f);  Lambda_apply y [((Iter 7), (Arg 6)); ((Iter 2), (Arg 7))]; T (4, f);  T (1, c); T (4, x); T (2, f)]"
68.58,6084276,3500812,"[V f; U (2, f); ULambda y; U (3, w); T (32, c); Hoist_vars [c]; T (14, x);  T (3, h); T (1, f);  Lambda_apply y [((Iter 7), (Arg 6)); ((Iter 2), (Arg 7))]; T (4, f);  T (4, c); T (4, x); T (2, f)]"
69.08,5016471,3132032,"[V f; U (2, f); ULambda y; U (3, w); T (16, c); Hoist_vars [c]; T (14, x);  T (3, h); T (4, f);  Lambda_apply y [((Iter 7), (Arg 6)); ((Iter 2), (Arg 7))]; T (2, f);  T (8, c); T (4, x); T (1, f)]"
38.25,6975204,11345927,"[V f; U (2, f); ULambda y; U (3, w); T (2, c); Hoist_vars [c]; T (8, x);  T (3, h); T (2, f);  Lambda_apply y [((Iter 7), (Arg 6)); ((Iter 2), (Arg 7))]; T (4, f);  T (64, c); T (7, x); T (1, f)]"
69.54,5484186,5288425,"[V f; U (2, f); ULambda y; U (3, w); T (64, c); Hoist_vars [c]; T (7, x);  T (3, h); T (4, f);  Lambda_apply y [((Iter 7), (Arg 6)); ((Iter 2), (Arg 7))]; T (1, f);  T (2, c); T (8, x); T (2, f)]"
69.12,6672387,6254367,"[V f; U (2, f); ULambda y; U (3, w); T (32, c); Hoist_vars [c]; T (7, x);  T (3, h); T (1, f);  Lambda_apply y [((Iter 7), (Arg 6)); ((Iter 2), (Arg 7))]; T (2, f);  T (4, c); T (8, x); T (4, f)]"
59.05,6192907,12201733,"[V f; U (2, f); ULambda y; U (3, w); T (128, c); Hoist_vars [c]; T (4, x);  T (3, h); T (2, f);  Lambda_apply y [((Iter 7), (Arg 6)); ((Iter 2), (Arg 7))]; T (1, f);  T (1, c); T (14, x); T (4, f)]"
58.34,6270214,12323577,"[V f; U (2, f); ULambda y; U (3, w); T (128, c); Hoist_vars [c]; T (4, x);  T (3, h); T (1, f);  Lambda_apply y [((Iter 7), (Arg 6)); ((Iter 2), (Arg 7))]; T (1, f);  T (1, c); T (14, x); T (8, f)]"
69.11,6874417,5479173,"[V f; U (2, f); ULambda y; U (3, w); T (32, c); Hoist_vars [c]; T (4, x);  T (3, h); T (1, f);  Lambda_apply y [((Iter 7), (Arg 6)); ((Iter 2), (Arg 7))]; T (1, f);  T (4, c); T (14, x); T (8, f)]"
64.51,4255164,5284556,"[V f; U (2, f); ULambda y; U (3, w); T (16, c); Hoist_vars [c]; T (4, x);  T (3, h); T (8, f);  Lambda_apply y [((Iter 7), (Arg 6)); ((Iter 2), (Arg 7))]; T (1, f);  T (8, c); T (14, x); T (1, f)]"
69.41,4554472,2419654,"[V f; U (2, f); ULambda y; U (3, w); T (16, c); Hoist_vars [c]; T (4, x);  T (3, h); T (4, f);  Lambda_apply y [((Iter 7), (Arg 6)); ((Iter 2), (Arg 7))]; T (2, f);  T (8, c); T (14, x); T (1, f)]"
53.63,6370546,16454590,"[V f; U (2, f); ULambda y; U (3, w); T (128, c); Hoist_vars [c]; T (2, x);  T (3, h); T (1, f);  Lambda_apply y [((Iter 7), (Arg 6)); ((Iter 2), (Arg 7))]; T (8, f);  T (1, c); T (28, x); T (1, f)]"
53.29,5432348,15934281,"[V f; U (2, f); ULambda y; U (3, w); T (128, c); Hoist_vars [c]; T (2, x);  T (3, h); T (1, f);  Lambda_apply y [((Iter 7), (Arg 6)); ((Iter 2), (Arg 7))]; T (1, f);  T (1, c); T (28, x); T (8, f)]"
68.98,6600299,4329915,"[V f; U (2, f); ULambda y; U (3, w); T (32, c); Hoist_vars [c]; T (2, x);  T (3, h); T (4, f);  Lambda_apply y [((Iter 7), (Arg 6)); ((Iter 2), (Arg 7))]; T (1, f);  T (4, c); T (28, x); T (2, f)]"
65.06,3741122,3005095,"[V f; U (2, f); ULambda y; U (3, w); T (8, c); Hoist_vars [c]; T (2, x);  T (3, h); T (1, f);  Lambda_apply y [((Iter 7), (Arg 6)); ((Iter 2), (Arg 7))]; T (2, f);  T (16, c); T (28, x); T (4, f)]"
62.13,9386618,4750426,"[V f; U (2, f); ULambda y; U (3, w); T (8, c); Hoist_vars [c]; T (1, x);  T (3, h); T (1, f);  Lambda_apply y [((Iter 7), (Arg 6)); ((Iter 2), (Arg 7))]; T (4, f);  T (16, c); T (56, x); T (2, f)]"
51.39,12705358,8506209,"[V f; U (2, f); ULambda y; U (3, w); T (4, c); Hoist_vars [c]; T (1, x);  T (3, h); T (1, f);  Lambda_apply y [((Iter 7), (Arg 6)); ((Iter 2), (Arg 7))]; T (1, f);  T (32, c); T (56, x); T (8, f)]"
