perf,CACHE_MISS_L1,CACHE_MISS_L2,scheme
25.92,26382789,52654990,"[V f; U (2, f); U (4, y); T (1, c); Hoist_vars [c]; T (2, x); T (3, w);  T (3, h); T (2, c); T (34, y); T (68, x); T (1, y); T (8, f); T (32, c);  T (1, x)]"
55.49,10868790,16700240,"[V f; U (2, f); U (4, y); T (4, c); Hoist_vars [c]; T (4, x); T (3, w);  T (3, h); T (2, c); T (17, y); T (17, x); T (2, y); T (8, f); T (8, c);  T (2, x)]"
46.74,60214982,21210826,"[V f; U (2, f); U (4, y); T (4, c); Hoist_vars [c]; T (34, x); T (3, w);  T (3, h); T (4, c); T (34, y); T (1, x); T (1, y); T (8, f); T (4, c);  T (4, x)]"
9.26,260156330,88384133,"[V f; U (2, f); U (4, y); T (1, c); Hoist_vars [c]; T (34, x); T (3, w);  T (3, h); T (2, c); T (2, y); T (1, x); T (17, y); T (8, f); T (32, c);  T (4, x)]"
75.34,9179029,9551889,"[V f; U (2, f); U (4, y); T (32, c); Hoist_vars [c]; T (17, x); T (3, w);  T (3, h); T (2, c); T (1, y); T (2, x); T (34, y); T (8, f); T (1, c);  T (4, x)]"
59.36,25956869,38371482,"[V f; U (2, f); U (4, y); T (64, c); Hoist_vars [c]; T (2, x); T (3, w);  T (3, h); T (1, c); T (2, y); T (1, x); T (17, y); T (8, f); T (1, c);  T (68, x)]"
46.91,32811014,11568403,"[V f; U (1, f); U (8, y); U (3, h); T (2, c); Hoist_vars [c]; T (1, x);  T (3, w); T (8, c); T (17, y); T (16, f); T (136, x); T (1, y); T (1, y);  T (4, c); T (1, x)]"
62.58,33187037,24600136,"[V f; U (1, f); U (8, y); U (3, h); T (32, c); Hoist_vars [c]; T (68, x);  T (3, w); T (2, c); T (1, y); T (16, f); T (1, x); T (17, y); T (1, y);  T (1, c); T (2, x)]"
20.64,142205057,7610314,"[V f; U (1, f); U (8, y); U (3, h); T (1, c); Hoist_vars [c]; T (17, x);  T (3, w); T (8, c); T (1, y); T (16, f); T (4, x); T (1, y); T (17, y);  T (8, c); T (2, x)]"
38.81,16245409,13416528,"[V f; U (1, f); U (8, y); U (3, h); T (2, c); Hoist_vars [c]; T (2, x);  T (3, w); T (1, c); T (1, y); T (16, f); T (34, x); T (17, y); T (1, y);  T (32, c); T (2, x)]"
36.33,12937269,4740597,"[V f; U (1, f); U (8, y); U (3, h); T (1, c); Hoist_vars [c]; T (2, x);  T (3, w); T (32, c); T (1, y); T (16, f); T (34, x); T (1, y); T (17, y);  T (2, c); T (2, x)]"
56.77,22702718,24502773,"[V f; U (1, f); U (8, y); U (3, h); T (1, c); Hoist_vars [c]; T (1, x);  T (3, w); T (1, c); T (1, y); T (16, f); T (8, x); T (1, y); T (17, y);  T (64, c); T (17, x)]"
68.49,15268296,4249474,"[V f; U (1, f); U (8, y); U (3, h); T (8, c); Hoist_vars [c]; T (4, x);  T (3, w); T (2, c); T (1, y); T (16, f); T (1, x); T (17, y); T (1, y);  T (4, c); T (34, x)]"
43.00,11502163,3885838,"[V f; U (1, f); U (8, y); U (3, h); T (2, c); Hoist_vars [c]; T (2, x);  T (3, w); T (4, c); T (1, y); T (16, f); T (2, x); T (1, y); T (17, y);  T (8, c); T (34, x)]"
72.00,11944984,11285916,"[V f; U (2, f); U (4, y); U (3, h); T (8, c); Hoist_vars [c]; T (17, x);  T (3, w); T (4, c); T (2, y); T (8, x); T (8, f); T (2, c); T (17, y);  T (1, x)]"
26.31,86289576,12666763,"[V f; U (2, f); U (4, y); U (3, h); T (1, c); Hoist_vars [c]; T (17, x);  T (3, w); T (32, c); T (2, y); T (8, x); T (8, f); T (2, c); T (17, y);  T (1, x)]"
51.72,28066866,40568973,"[V f; U (2, f); U (4, y); U (3, h); T (4, c); Hoist_vars [c]; T (68, x);  T (3, w); T (8, c); T (2, y); T (1, x); T (8, f); T (2, c); T (17, y);  T (2, x)]"
50.70,27745847,39532970,"[V f; U (2, f); U (4, y); U (3, h); T (4, c); Hoist_vars [c]; T (68, x);  T (3, w); T (4, c); T (1, y); T (1, x); T (8, f); T (4, c); T (34, y);  T (2, x)]"
70.29,8147752,9255759,"[V f; U (2, f); U (4, y); U (3, h); T (8, c); Hoist_vars [c]; T (17, x);  T (3, w); T (1, c); T (1, y); T (4, x); T (8, f); T (8, c); T (34, y);  T (2, x)]"
29.14,45251347,112202132,"[V f; U (2, f); U (4, y); U (3, h); T (1, c); Hoist_vars [c]; T (2, x);  T (3, w); T (1, c); T (17, y); T (17, x); T (8, f); T (64, c); T (2, y);  T (4, x)]"
63.85,17478489,29578951,"[V f; U (2, f); U (4, y); U (3, h); T (16, c); Hoist_vars [c]; T (2, x);  T (3, w); T (4, c); T (17, y); T (1, x); T (8, f); T (1, c); T (2, y);  T (68, x)]"
72.32,29446936,12936779,"[V f; U (2, f); U (4, y); U (3, w); T (32, c); Hoist_vars [c]; T (34, x);  T (3, h); T (1, c); T (2, y); T (2, x); T (8, f); T (2, c); T (17, y);  T (2, x)]"
55.69,28960632,11975027,"[V f; U (2, f); U (4, y); U (3, w); T (2, c); Hoist_vars [c]; T (34, x);  T (3, h); T (4, c); T (1, y); T (2, x); T (8, f); T (8, c); T (34, y);  T (2, x)]"
68.43,21210138,15774549,"[V f; U (2, f); U (4, y); U (3, w); T (16, c); Hoist_vars [c]; T (2, x);  T (3, h); T (1, c); T (17, y); T (34, x); T (8, f); T (4, c); T (2, y);  T (2, x)]"
40.33,15293820,18085983,"[V f; U (2, f); U (4, y); U (3, w); T (1, c); Hoist_vars [c]; T (2, x);  T (3, h); T (32, c); T (2, y); T (34, x); T (8, f); T (2, c); T (17, y);  T (2, x)]"
50.93,45389563,17999208,"[V f; U (2, f); U (4, y); U (3, w); T (2, c); Hoist_vars [c]; T (34, x);  T (3, h); T (8, c); T (34, y); T (1, x); T (8, f); T (4, c); T (1, y);  T (4, x)]"
56.78,19063038,8157141,"[V f; U (2, f); U (4, y); U (3, w); T (4, c); Hoist_vars [c]; T (34, x);  T (3, h); T (16, c); T (17, y); T (1, x); T (8, f); T (1, c); T (2, y);  T (4, x)]"
59.65,15861543,13851713,"[V f; U (2, f); U (4, y); U (3, w); T (2, c); Hoist_vars [c]; T (8, x);  T (3, h); T (8, c); T (34, y); T (1, x); T (8, f); T (4, c); T (1, y);  T (17, x)]"
56.34,7944512,5895003,"[V f; U (2, f); U (4, y); U (3, w); T (1, c); Hoist_vars [c]; T (4, x);  T (3, h); T (8, c); T (2, y); T (1, x); T (8, f); T (8, c); T (17, y);  T (34, x)]"
49.40,26058443,12199966,"[V f; U (4, f); U (4, y); U (3, w); T (32, c); Hoist_vars [c]; T (68, x);  T (3, h); T (1, c); T (34, y); T (2, x); T (1, y); T (4, f); T (2, c);  T (1, x)]"
47.11,11169133,15107425,"[V f; U (4, f); U (4, y); U (3, w); T (8, c); Hoist_vars [c]; T (34, x);  T (3, h); T (1, c); T (17, y); T (2, x); T (2, y); T (4, f); T (8, c);  T (2, x)]"
29.24,51772610,79534973,"[V f; U (4, f); U (4, y); U (3, w); T (1, c); Hoist_vars [c]; T (17, x);  T (3, h); T (1, c); T (2, y); T (2, x); T (17, y); T (4, f); T (64, c);  T (4, x)]"
37.06,21734039,9652888,"[V f; U (4, f); U (4, y); U (3, w); T (1, c); Hoist_vars [c]; T (1, x);  T (3, h); T (8, c); T (1, y); T (8, x); T (34, y); T (4, f); T (8, c);  T (17, x)]"
43.43,12830841,21065201,"[V f; U (4, f); U (4, y); U (3, w); T (4, c); Hoist_vars [c]; T (4, x);  T (3, h); T (16, c); T (17, y); T (1, x); T (2, y); T (4, f); T (1, c);  T (34, x)]"
37.16,28212220,16506985,"[V f; U (4, f); U (4, y); U (3, w); T (1, c); Hoist_vars [c]; T (1, x);  T (3, h); T (4, c); T (34, y); T (1, x); T (1, y); T (4, f); T (16, c);  T (136, x)]"
35.89,31922335,5333922,"[V f; U (4, f); U (4, y); U (3, w); T (1, c); Hoist_vars [c]; T (1, x);  T (3, h); T (16, c); T (1, y); T (1, x); T (34, y); T (4, f); T (4, c);  T (136, x)]"
19.40,29563582,17664041,"[V f; U (2, f); ULambda y; T (1, c); Hoist_vars [c]; T (8, x); T (3, w);  T (3, h); T (64, c);  Lambda_apply y [((Iter 3), (Arg 4)); ((Iter 1), (Arg 5))]; T (17, x);  T (8, y); T (8, f); T (1, c); T (1, x)]"
53.25,30496521,19084121,"[V f; U (2, f); ULambda y; T (1, c); Hoist_vars [c]; T (1, x); T (3, w);  T (3, h); T (32, c);  Lambda_apply y [((Iter 3), (Arg 4)); ((Iter 1), (Arg 5))]; T (136, x);  T (8, y); T (8, f); T (2, c); T (1, x)]"
71.50,12818249,9022936,"[V f; U (2, f); ULambda y; T (16, c); Hoist_vars [c]; T (17, x); T (3, w);  T (3, h); T (4, c);  Lambda_apply y [((Iter 3), (Arg 4)); ((Iter 1), (Arg 5))]; T (4, x);  T (8, y); T (8, f); T (1, c); T (2, x)]"
55.91,10700882,13720768,"[V f; U (2, f); ULambda y; T (4, c); Hoist_vars [c]; T (4, x); T (3, w);  T (3, h); T (2, c);  Lambda_apply y [((Iter 3), (Arg 4)); ((Iter 1), (Arg 5))]; T (1, x);  T (8, y); T (8, f); T (8, c); T (34, x)]"
38.80,17283415,9440145,"[V f; U (2, f); ULambda y; T (2, c); Hoist_vars [c]; T (2, x); T (3, w);  T (3, h); T (8, c); T (8, y); T (2, x);  Lambda_apply y [((Iter 3), (Arg 4)); ((Iter 1), (Arg 5))]; T (8, f);  T (4, c); T (34, x)]"
64.99,30667720,16650749,"[V f; U (1, f); ULambda y; U (3, h); T (32, c); Hoist_vars [c]; T (17, x);  T (3, w); T (2, c); T (8, y); T (16, f); T (8, x);  Lambda_apply y [((Iter 1), (Arg 8)); ((Iter 1), (Arg 9))]; T (1, y);  T (1, c); T (1, x)]"
21.10,52094522,6404834,"[V f; U (1, f); ULambda y; U (3, h); T (1, c); Hoist_vars [c]; T (8, x);  T (3, w); T (16, c);  Lambda_apply y [((Iter 1), (Arg 8)); ((Iter 1), (Arg 9))]; T (16, f);  T (17, x); T (4, y); T (2, y); T (4, c); T (1, x)]"
30.44,42488628,34965046,"[V f; U (1, f); ULambda y; U (3, h); T (2, c); Hoist_vars [c]; T (8, x);  T (3, w); T (1, c); T (4, y); T (16, f); T (17, x); T (2, y);  Lambda_apply y [((Iter 1), (Arg 8)); ((Iter 1), (Arg 9))]; T (32, c);  T (1, x)]"
37.74,14358110,5110788,"[V f; U (1, f); ULambda y; U (3, h); T (1, c); Hoist_vars [c]; T (2, x);  T (3, w); T (8, c);  Lambda_apply y [((Iter 1), (Arg 8)); ((Iter 1), (Arg 9))]; T (16, f);  T (68, x); T (2, y); T (4, y); T (8, c); T (1, x)]"
40.32,28715776,57717295,"[V f; U (1, f); ULambda y; U (3, h); T (4, c); Hoist_vars [c]; T (1, x);  T (3, w); T (16, c); T (8, y); T (16, f); T (136, x);  Lambda_apply y [((Iter 1), (Arg 8)); ((Iter 1), (Arg 9))]; T (1, y);  T (1, c); T (1, x)]"
33.84,67917743,34831777,"[V f; U (1, f); ULambda y; U (3, h); T (2, c); Hoist_vars [c]; T (34, x);  T (3, w); T (8, c); T (8, y); T (16, f); T (2, x);  Lambda_apply y [((Iter 1), (Arg 8)); ((Iter 1), (Arg 9))]; T (1, y);  T (4, c); T (2, x)]"
52.61,19553072,13413502,"[V f; U (1, f); ULambda y; U (3, h); T (4, c); Hoist_vars [c]; T (4, x);  T (3, w); T (8, c); T (4, y); T (16, f); T (17, x);  Lambda_apply y [((Iter 1), (Arg 8)); ((Iter 1), (Arg 9))]; T (2, y);  T (2, c); T (2, x)]"
44.45,15304636,33386834,"[V f; U (1, f); ULambda y; U (3, h); T (4, c); Hoist_vars [c]; T (2, x);  T (3, w); T (16, c);  Lambda_apply y [((Iter 1), (Arg 8)); ((Iter 1), (Arg 9))]; T (16, f);  T (34, x); T (2, y); T (4, y); T (1, c); T (2, x)]"
37.70,13500276,4368678,"[V f; U (1, f); ULambda y; U (3, h); T (2, c); Hoist_vars [c]; T (2, x);  T (3, w); T (4, c);  Lambda_apply y [((Iter 1), (Arg 8)); ((Iter 1), (Arg 9))]; T (16, f);  T (17, x); T (2, y); T (4, y); T (8, c); T (4, x)]"
55.10,21740524,3432301,"[V f; U (1, f); ULambda y; U (3, h); T (1, c); Hoist_vars [c]; T (1, x);  T (3, w); T (16, c); T (1, y); T (16, f); T (34, x); T (8, y);  Lambda_apply y [((Iter 1), (Arg 8)); ((Iter 1), (Arg 9))]; T (4, c);  T (4, x)]"
42.84,49386390,28732900,"[V f; U (1, f); ULambda y; U (3, h); T (4, c); Hoist_vars [c]; T (17, x);  T (3, w); T (2, c); T (4, y); T (16, f); T (1, x);  Lambda_apply y [((Iter 1), (Arg 8)); ((Iter 1), (Arg 9))]; T (2, y);  T (8, c); T (8, x)]"
35.92,12882080,22722441,"[V f; U (1, f); ULambda y; U (3, h); T (1, c); Hoist_vars [c]; T (4, x);  T (3, w); T (64, c); T (4, y); T (16, f); T (2, x);  Lambda_apply y [((Iter 1), (Arg 8)); ((Iter 1), (Arg 9))]; T (2, y);  T (1, c); T (17, x)]"
69.87,15099738,5299129,"[V f; U (1, f); ULambda y; U (3, h); T (16, c); Hoist_vars [c]; T (4, x);  T (3, w); T (1, c);  Lambda_apply y [((Iter 1), (Arg 8)); ((Iter 1), (Arg 9))]; T (16, f);  T (1, x); T (8, y); T (1, y); T (4, c); T (34, x)]"
34.89,15385243,7228668,"[V f; U (1, f); ULambda y; U (3, h); T (1, c); Hoist_vars [c]; T (2, x);  T (3, w); T (16, c); T (8, y); T (16, f); T (2, x); T (1, y);  Lambda_apply y [((Iter 1), (Arg 8)); ((Iter 1), (Arg 9))]; T (4, c);  T (34, x)]"
39.42,27969690,48959846,"[V f; U (1, f); ULambda y; U (3, h); T (2, c); Hoist_vars [c]; T (1, x);  T (3, w); T (32, c);  Lambda_apply y [((Iter 1), (Arg 8)); ((Iter 1), (Arg 9))]; T (16, f);  T (4, x); T (2, y); T (4, y); T (1, c); T (34, x)]"
70.91,22900038,4529238,"[V f; U (1, f); ULambda y; U (3, h); T (16, c); Hoist_vars [c]; T (1, x);  T (3, w); T (1, c); T (2, y); T (16, f); T (1, x);  Lambda_apply y [((Iter 1), (Arg 8)); ((Iter 1), (Arg 9))]; T (4, y);  T (4, c); T (136, x)]"
28.61,47833890,102243341,"[V f; U (1, f); ULambda y; U (3, h); T (4, c); Hoist_vars [c]; T (68, x);  T (3, w); T (4, c); T (2, y); T (16, f); T (1, x); T (2, y);  Lambda_apply y [((Iter 3), (Arg 8)); ((Iter 1), (Arg 10))]; T (4, c);  T (2, x)]"
57.09,27480193,17871979,"[V f; U (1, f); ULambda y; U (3, h); T (8, c); Hoist_vars [c]; T (34, x);  T (3, w); T (4, c); T (1, y); T (16, f); T (2, x);  Lambda_apply y [((Iter 3), (Arg 8)); ((Iter 1), (Arg 10))]; T (4, y);  T (2, c); T (2, x)]"
70.97,26230382,12333260,"[V f; U (1, f); ULambda y; U (3, h); T (64, c); Hoist_vars [c]; T (34, x);  T (3, w); T (1, c); T (1, y); T (16, f); T (2, x); T (4, y);  Lambda_apply y [((Iter 3), (Arg 8)); ((Iter 1), (Arg 10))]; T (1, c);  T (2, x)]"
52.22,16179456,10255136,"[V f; U (1, f); ULambda y; U (3, h); T (4, c); Hoist_vars [c]; T (4, x);  T (3, w); T (8, c); T (1, y); T (16, f); T (17, x);  Lambda_apply y [((Iter 3), (Arg 8)); ((Iter 1), (Arg 10))]; T (4, y);  T (2, c); T (2, x)]"
60.67,20515046,8633096,"[V f; U (1, f); ULambda y; U (3, h); T (8, c); Hoist_vars [c]; T (17, x);  T (3, w); T (2, c); T (2, y); T (16, f); T (2, x);  Lambda_apply y [((Iter 3), (Arg 8)); ((Iter 1), (Arg 10))]; T (2, y);  T (4, c); T (4, x)]"
63.44,27315736,4682895,"[V f; U (1, f); ULambda y; U (3, h); T (8, c); Hoist_vars [c]; T (1, x);  T (3, w); T (1, c); T (2, y); T (16, f); T (17, x);  Lambda_apply y [((Iter 3), (Arg 8)); ((Iter 1), (Arg 10))]; T (2, y);  T (8, c); T (8, x)]"
37.45,16662594,6012916,"[V f; U (1, f); ULambda y; U (3, h); T (1, c); Hoist_vars [c]; T (2, x);  T (3, w); T (8, c); T (4, y); T (16, f); T (4, x); T (1, y);  Lambda_apply y [((Iter 3), (Arg 8)); ((Iter 1), (Arg 10))]; T (8, c);  T (17, x)]"
65.67,28684228,18626910,"[V f; U (1, f); ULambda y; U (3, h); T (32, c); Hoist_vars [c]; T (2, x);  T (3, w); T (1, c);  Lambda_apply y [((Iter 3), (Arg 8)); ((Iter 1), (Arg 10))]; T (16, f);  T (4, x); T (1, y); T (4, y); T (2, c); T (17, x)]"
63.42,15155389,8270458,"[V f; U (1, f); ULambda y; U (3, h); T (8, c); Hoist_vars [c]; T (4, x);  T (3, w); T (4, c); T (1, y); T (16, f); T (1, x); T (4, y);  Lambda_apply y [((Iter 3), (Arg 8)); ((Iter 1), (Arg 10))]; T (2, c);  T (34, x)]"
48.02,29432374,4667696,"[V f; U (1, f); ULambda y; U (3, h); T (2, c); Hoist_vars [c]; T (1, x);  T (3, w); T (8, c); T (4, y); T (16, f); T (2, x);  Lambda_apply y [((Iter 3), (Arg 8)); ((Iter 1), (Arg 10))]; T (1, y);  T (4, c); T (68, x)]"
55.06,17261512,6780962,"[V f; U (1, f); ULambda y; U (3, h); T (8, c); Hoist_vars [c]; T (4, x);  T (3, w); T (1, c); T (1, y); T (16, f); T (34, x);  Lambda_apply y [((Iter 3), (Arg 8)); ((Iter 4), (Arg 11))]; T (2, y);  T (8, c); T (1, x)]"
61.37,28193532,15873727,"[V f; U (1, f); ULambda y; U (3, h); T (16, c); Hoist_vars [c]; T (1, x);  T (3, w); T (2, c);  Lambda_apply y [((Iter 3), (Arg 8)); ((Iter 4), (Arg 11))]; T (16, f);  T (136, x); T (1, y); T (2, y); T (2, c); T (1, x)]"
35.47,11221512,15920143,"[V f; U (1, f); ULambda y; U (3, h); T (2, c); Hoist_vars [c]; T (2, x);  T (3, w); T (32, c); T (1, y); T (16, f); T (17, x);  Lambda_apply y [((Iter 3), (Arg 8)); ((Iter 4), (Arg 11))]; T (2, y);  T (1, c); T (4, x)]"
63.34,21353511,18627034,"[V f; U (1, f); ULambda y; U (3, h); T (16, c); Hoist_vars [c]; T (17, x);  T (3, w); T (2, c);  Lambda_apply y [((Iter 3), (Arg 8)); ((Iter 4), (Arg 11))]; T (16, f);  T (1, x); T (2, y); T (1, y); T (2, c); T (8, x)]"
68.67,25107410,9437656,"[V f; U (1, f); ULambda y; U (3, h); T (32, c); Hoist_vars [c]; T (17, x);  T (3, w); T (1, c); T (1, y); T (16, f); T (1, x); T (2, y);  Lambda_apply y [((Iter 3), (Arg 8)); ((Iter 4), (Arg 11))]; T (2, c);  T (8, x)]"
35.80,11904928,14212937,"[V f; U (1, f); ULambda y; U (3, h); T (2, c); Hoist_vars [c]; T (2, x);  T (3, w); T (16, c); T (2, y); T (16, f); T (4, x);  Lambda_apply y [((Iter 3), (Arg 8)); ((Iter 4), (Arg 11))]; T (1, y);  T (2, c); T (17, x)]"
41.87,26192317,52738360,"[V f; U (1, f); ULambda y; U (3, h); T (4, c); Hoist_vars [c]; T (1, x);  T (3, w); T (16, c);  Lambda_apply y [((Iter 3), (Arg 8)); ((Iter 4), (Arg 11))]; T (16, f);  T (8, x); T (1, y); T (2, y); T (1, c); T (17, x)]"
65.29,22858887,26484992,"[V f; U (1, f); ULambda y; U (3, h); T (64, c); Hoist_vars [c]; T (4, x);  T (3, w); T (1, c); T (2, y); T (16, f); T (1, x);  Lambda_apply y [((Iter 3), (Arg 8)); ((Iter 4), (Arg 11))]; T (1, y);  T (1, c); T (34, x)]"
47.84,25193797,7237651,"[V f; U (1, f); ULambda y; U (3, h); T (2, c); Hoist_vars [c]; T (1, x);  T (3, w); T (1, c); T (2, y); T (16, f); T (2, x);  Lambda_apply y [((Iter 3), (Arg 8)); ((Iter 4), (Arg 11))]; T (1, y);  T (32, c); T (68, x)]"
40.64,52059750,5765289,"[V f; U (1, f); ULambda y; U (3, h); T (1, c); Hoist_vars [c]; T (1, x);  T (3, w); T (2, c);  Lambda_apply y [((Iter 3), (Arg 8)); ((Iter 4), (Arg 11))]; T (16, f);  T (1, x); T (1, y); T (2, y); T (32, c); T (136, x)]"
60.08,23108445,22001414,"[V f; U (1, f); ULambda y; U (3, h); T (16, c); Hoist_vars [c]; T (34, x);  T (3, w); T (2, c); T (1, y); T (16, f); T (4, x); T (2, y);  Lambda_apply y [((Iter 1), (Arg 8)); ((Iter 5), (Arg 12))]; T (2, c);  T (1, x)]"
37.05,19581045,6119898,"[V f; U (1, f); ULambda y; U (3, h); T (2, c); Hoist_vars [c]; T (4, x);  T (3, w); T (4, c); T (1, y); T (16, f); T (34, x); T (2, y);  Lambda_apply y [((Iter 1), (Arg 8)); ((Iter 5), (Arg 12))]; T (8, c);  T (1, x)]"
31.86,39304527,70055142,"[V f; U (1, f); ULambda y; U (3, h); T (4, c); Hoist_vars [c]; T (34, x);  T (3, w); T (1, c);  Lambda_apply y [((Iter 1), (Arg 8)); ((Iter 5), (Arg 12))]; T (16, f);  T (1, x); T (1, y); T (2, y); T (16, c); T (4, x)]"
16.29,139234774,107228953,"[V f; U (1, f); ULambda y; U (3, h); T (1, c); Hoist_vars [c]; T (17, x);  T (3, w); T (2, c);  Lambda_apply y [((Iter 1), (Arg 8)); ((Iter 5), (Arg 12))]; T (16, f);  T (2, x); T (2, y); T (1, y); T (32, c); T (4, x)]"
68.20,18316327,8496153,"[V f; U (1, f); ULambda y; U (3, h); T (32, c); Hoist_vars [c]; T (1, x);  T (3, w); T (1, c); T (2, y); T (16, f); T (17, x); T (1, y);  Lambda_apply y [((Iter 1), (Arg 8)); ((Iter 5), (Arg 12))]; T (2, c);  T (8, x)]"
66.97,18709904,13829293,"[V f; U (1, f); ULambda y; U (3, h); T (16, c); Hoist_vars [c]; T (8, x);  T (3, w); T (4, c); T (1, y); T (16, f); T (1, x);  Lambda_apply y [((Iter 1), (Arg 8)); ((Iter 5), (Arg 12))]; T (2, y);  T (1, c); T (17, x)]"
10.38,125858331,274566582,"[V f; U (1, f); ULambda y; U (3, h); T (1, c); Hoist_vars [c]; T (68, x);  T (3, w); T (16, c); T (1, y); T (16, f); T (2, x); T (4, y);  Lambda_apply y [((Iter 1), (Arg 8)); ((Iter 2), (Arg 13))]; T (4, c);  T (1, x)]"
32.82,46163337,16707137,"[V f; U (1, f); ULambda y; U (3, h); T (2, c); Hoist_vars [c]; T (8, x);  T (3, w); T (8, c);  Lambda_apply y [((Iter 1), (Arg 8)); ((Iter 2), (Arg 13))]; T (16, f);  T (17, x); T (1, y); T (4, y); T (4, c); T (1, x)]"
36.92,25955956,63189367,"[V f; U (1, f); ULambda y; U (3, h); T (8, c); Hoist_vars [c]; T (68, x);  T (3, w); T (2, c); T (4, y); T (16, f); T (1, x);  Lambda_apply y [((Iter 1), (Arg 8)); ((Iter 2), (Arg 13))]; T (1, y);  T (4, c); T (2, x)]"
46.76,21041762,4743038,"[V f; U (1, f); ULambda y; U (3, h); T (1, c); Hoist_vars [c]; T (1, x);  T (3, w); T (16, c); T (4, y); T (16, f); T (68, x);  Lambda_apply y [((Iter 1), (Arg 8)); ((Iter 2), (Arg 13))]; T (1, y);  T (4, c); T (2, x)]"
42.53,21197755,23107171,"[V f; U (1, f); ULambda y; U (3, h); T (2, c); Hoist_vars [c]; T (1, x);  T (3, w); T (16, c); T (4, y); T (16, f); T (68, x); T (1, y);  Lambda_apply y [((Iter 1), (Arg 8)); ((Iter 2), (Arg 13))]; T (2, c);  T (2, x)]"
43.68,20497646,14881026,"[V f; U (1, f); ULambda y; U (3, h); T (1, c); Hoist_vars [c]; T (1, x);  T (3, w); T (32, c); T (4, y); T (16, f); T (68, x); T (1, y);  Lambda_apply y [((Iter 1), (Arg 8)); ((Iter 2), (Arg 13))]; T (2, c);  T (2, x)]"
46.04,21325961,6248874,"[V f; U (1, f); ULambda y; U (3, h); T (4, c); Hoist_vars [c]; T (2, x);  T (3, w); T (2, c);  Lambda_apply y [((Iter 1), (Arg 8)); ((Iter 2), (Arg 13))]; T (16, f);  T (17, x); T (2, y); T (2, y); T (8, c); T (4, x)]"
50.37,18626917,4362050,"[V f; U (1, f); ULambda y; U (3, h); T (2, c); Hoist_vars [c]; T (1, x);  T (3, w); T (4, c); T (2, y); T (16, f); T (34, x);  Lambda_apply y [((Iter 1), (Arg 8)); ((Iter 2), (Arg 13))]; T (2, y);  T (8, c); T (4, x)]"
44.78,17093788,44695569,"[V f; U (1, f); ULambda y; U (3, h); T (8, c); Hoist_vars [c]; T (1, x);  T (3, w); T (8, c);  Lambda_apply y [((Iter 1), (Arg 8)); ((Iter 2), (Arg 13))]; T (16, f);  T (34, x); T (1, y); T (4, y); T (1, c); T (4, x)]"
27.40,69656901,47869237,"[V f; U (1, f); ULambda y; U (3, h); T (2, c); Hoist_vars [c]; T (17, x);  T (3, w); T (2, c);  Lambda_apply y [((Iter 1), (Arg 8)); ((Iter 2), (Arg 13))]; T (16, f);  T (1, x); T (2, y); T (2, y); T (16, c); T (8, x)]"
35.24,27847491,14918947,"[V f; U (1, f); ULambda y; U (3, h); T (2, c); Hoist_vars [c]; T (4, x);  T (3, w); T (2, c);  Lambda_apply y [((Iter 1), (Arg 8)); ((Iter 2), (Arg 13))]; T (16, f);  T (1, x); T (4, y); T (1, y); T (16, c); T (34, x)]"
63.84,21998211,19878205,"[V f; U (1, f); ULambda y; U (3, h); T (32, c); Hoist_vars [c]; T (4, x);  T (3, w); T (2, c); T (2, y); T (16, f); T (1, x); T (2, y);  Lambda_apply y [((Iter 1), (Arg 8)); ((Iter 2), (Arg 13))]; T (1, c);  T (34, x)]"
51.43,20304778,46205211,"[V f; U (1, f); ULambda y; U (3, h); T (16, c); Hoist_vars [c]; T (1, x);  T (3, w); T (4, c); T (2, y); T (16, f); T (4, x); T (2, y);  Lambda_apply y [((Iter 1), (Arg 8)); ((Iter 2), (Arg 13))]; T (1, c);  T (34, x)]"
63.38,23738407,13363116,"[V f; U (1, f); ULambda y; U (3, h); T (16, c); Hoist_vars [c]; T (1, x);  T (3, w); T (2, c); T (4, y); T (16, f); T (1, x); T (1, y);  Lambda_apply y [((Iter 1), (Arg 8)); ((Iter 2), (Arg 13))]; T (2, c);  T (136, x)]"
63.67,23597768,17878651,"[V f; U (1, f); ULambda y; U (3, h); T (64, c); Hoist_vars [c]; T (136, x);  T (3, w); T (1, c);  Lambda_apply y [((Iter 2), (Arg 9)); ((Iter 5), (Arg 10))]; T (16, f);  T (1, x); T (2, y); T (1, y); T (1, c); T (1, x)]"
67.27,23836338,17506297,"[V f; U (1, f); ULambda y; U (3, h); T (32, c); Hoist_vars [c]; T (8, x);  T (3, w); T (2, c);  Lambda_apply y [((Iter 2), (Arg 9)); ((Iter 5), (Arg 10))]; T (16, f);  T (17, x); T (1, y); T (2, y); T (1, c); T (1, x)]"
10.13,131551836,305820778,"[V f; U (1, f); ULambda y; U (3, h); T (1, c); Hoist_vars [c]; T (68, x);  T (3, w); T (1, c); T (2, y); T (16, f); T (1, x);  Lambda_apply y [((Iter 2), (Arg 9)); ((Iter 5), (Arg 10))]; T (1, y);  T (64, c); T (2, x)]"
68.92,28842365,10070519,"[V f; U (1, f); ULambda y; U (3, h); T (32, c); Hoist_vars [c]; T (17, x);  T (3, w); T (1, c); T (1, y); T (16, f); T (4, x); T (2, y);  Lambda_apply y [((Iter 2), (Arg 9)); ((Iter 5), (Arg 10))]; T (2, c);  T (2, x)]"
42.65,15051515,10500348,"[V f; U (1, f); ULambda y; U (3, h); T (2, c); Hoist_vars [c]; T (4, x);  T (3, w); T (8, c);  Lambda_apply y [((Iter 2), (Arg 9)); ((Iter 5), (Arg 10))]; T (16, f);  T (17, x); T (2, y); T (1, y); T (4, c); T (2, x)]"
61.86,17722266,21099109,"[V f; U (1, f); ULambda y; U (3, h); T (16, c); Hoist_vars [c]; T (4, x);  T (3, w); T (4, c); T (2, y); T (16, f); T (17, x);  Lambda_apply y [((Iter 2), (Arg 9)); ((Iter 5), (Arg 10))]; T (1, y);  T (1, c); T (2, x)]"
64.45,25203736,16920076,"[V f; U (1, f); ULambda y; U (3, h); T (32, c); Hoist_vars [c]; T (34, x);  T (3, w); T (1, c); T (2, y); T (16, f); T (1, x); T (1, y);  Lambda_apply y [((Iter 2), (Arg 9)); ((Iter 5), (Arg 10))]; T (2, c);  T (4, x)]"
33.41,23782929,11014871,"[V f; U (1, f); ULambda y; U (3, h); T (2, c); Hoist_vars [c]; T (2, x);  T (3, w); T (2, c);  Lambda_apply y [((Iter 2), (Arg 9)); ((Iter 5), (Arg 10))]; T (16, f);  T (17, x); T (1, y); T (2, y); T (16, c); T (4, x)]"
58.40,20735982,19369723,"[V f; U (1, f); ULambda y; U (3, h); T (32, c); Hoist_vars [c]; T (1, x);  T (3, w); T (1, c); T (2, y); T (16, f); T (34, x);  Lambda_apply y [((Iter 2), (Arg 9)); ((Iter 5), (Arg 10))]; T (1, y);  T (2, c); T (4, x)]"
38.25,27367196,75784699,"[V f; U (1, f); ULambda y; U (3, h); T (8, c); Hoist_vars [c]; T (136, x);  T (3, w); T (8, c); T (1, y); T (16, f); T (1, x);  Lambda_apply y [((Iter 9), (Arg 9)); ((Iter 5), (Arg 11))]; T (1, y);  T (1, c); T (1, x)]"
16.00,87442422,19422784,"[V f; U (1, f); ULambda y; U (3, h); T (1, c); Hoist_vars [c]; T (8, x);  T (3, w); T (32, c);  Lambda_apply y [((Iter 9), (Arg 9)); ((Iter 5), (Arg 11))]; T (16, f);  T (17, x); T (1, y); T (1, y); T (2, c); T (1, x)]"
55.03,16153415,16987586,"[V f; U (1, f); ULambda y; U (3, h); T (8, c); Hoist_vars [c]; T (4, x);  T (3, w); T (4, c);  Lambda_apply y [((Iter 9), (Arg 9)); ((Iter 5), (Arg 11))]; T (16, f);  T (34, x); T (1, y); T (1, y); T (2, c); T (1, x)]"
38.07,17912262,17639199,"[V f; U (1, f); ULambda y; U (3, h); T (2, c); Hoist_vars [c]; T (4, x);  T (3, w); T (1, c); T (1, y); T (16, f); T (17, x); T (1, y);  Lambda_apply y [((Iter 9), (Arg 9)); ((Iter 5), (Arg 11))]; T (32, c);  T (2, x)]"
22.32,48792221,136388846,"[V f; U (1, f); ULambda y; U (3, h); T (4, c); Hoist_vars [c]; T (136, x);  T (3, w); T (1, c); T (1, y); T (16, f); T (1, x); T (1, y);  Lambda_apply y [((Iter 5), (Arg 9)); ((Iter 7), (Arg 13))]; T (16, c);  T (1, x)]"
40.57,49080188,18463990,"[V f; U (1, f); ULambda y; U (3, h); T (4, c); Hoist_vars [c]; T (17, x);  T (3, w); T (16, c);  Lambda_apply y [((Iter 5), (Arg 9)); ((Iter 7), (Arg 13))]; T (16, f);  T (8, x); T (1, y); T (1, y); T (1, c); T (1, x)]"
43.72,16105044,8726843,"[V f; U (1, f); ULambda y; U (3, h); T (4, c); Hoist_vars [c]; T (2, x);  T (3, w); T (1, c); T (1, y); T (16, f); T (34, x);  Lambda_apply y [((Iter 5), (Arg 9)); ((Iter 7), (Arg 13))]; T (1, y);  T (16, c); T (2, x)]"
60.89,20424462,13431215,"[V f; U (1, f); ULambda y; U (3, h); T (16, c); Hoist_vars [c]; T (1, x);  T (3, w); T (2, c);  Lambda_apply y [((Iter 5), (Arg 9)); ((Iter 7), (Arg 13))]; T (16, f);  T (68, x); T (1, y); T (1, y); T (2, c); T (2, x)]"
48.20,20126727,18493953,"[V f; U (1, f); ULambda y; U (3, h); T (4, c); Hoist_vars [c]; T (1, x);  T (3, w); T (8, c);  Lambda_apply y [((Iter 5), (Arg 9)); ((Iter 7), (Arg 13))]; T (16, f);  T (1, x); T (1, y); T (1, y); T (2, c); T (136, x)]"
31.45,69729908,11984845,"[V f; U (1, f); ULambda y; U (3, h); T (2, c); Hoist_vars [c]; T (17, x);  T (3, w); T (4, c); T (1, y); T (16, f); T (8, x); T (1, y);  Lambda_apply y [((Iter 7), (Arg 10)); ((Iter 6), (Arg 11))]; T (8, c);  T (1, x)]"
44.44,16077880,8734806,"[V f; U (1, f); ULambda y; U (3, h); T (4, c); Hoist_vars [c]; T (2, x);  T (3, w); T (1, c); T (1, y); T (16, f); T (34, x);  Lambda_apply y [((Iter 7), (Arg 10)); ((Iter 6), (Arg 11))]; T (1, y);  T (16, c); T (2, x)]"
53.81,20068570,13909067,"[V f; U (1, f); ULambda y; U (3, h); T (8, c); Hoist_vars [c]; T (2, x);  T (3, w); T (2, c);  Lambda_apply y [((Iter 7), (Arg 10)); ((Iter 6), (Arg 11))]; T (16, f);  T (4, x); T (1, y); T (1, y); T (4, c); T (17, x)]"
46.03,13957741,7283782,"[V f; U (1, f); ULambda y; U (3, h); T (4, c); Hoist_vars [c]; T (2, x);  T (3, w); T (8, c); T (1, y); T (16, f); T (4, x);  Lambda_apply y [((Iter 7), (Arg 10)); ((Iter 6), (Arg 11))]; T (1, y);  T (2, c); T (17, x)]"
36.27,13945473,7735276,"[V f; U (1, f); ULambda y; U (3, h); T (1, c); Hoist_vars [c]; T (2, x);  T (3, w); T (16, c);  Lambda_apply y [((Iter 7), (Arg 10)); ((Iter 6), (Arg 11))]; T (16, f);  T (1, x); T (1, y); T (1, y); T (4, c); T (68, x)]"
8.77,127043688,381240528,"[V f; U (1, f); ULambda y; U (3, h); T (1, c); Hoist_vars [c]; T (136, x);  T (3, w); T (8, c); T (2, y); T (16, f); T (1, x);  Lambda_apply y [((Iter 1), (Arg 10)); ((Iter 2), (Arg 12))]; T (2, y);  T (8, c); T (1, x)]"
30.40,24102219,10845390,"[V f; U (1, f); ULambda y; U (3, h); T (1, c); Hoist_vars [c]; T (4, x);  T (3, w); T (32, c);  Lambda_apply y [((Iter 1), (Arg 10)); ((Iter 2), (Arg 12))]; T (16, f);  T (34, x); T (4, y); T (1, y); T (2, c); T (1, x)]"
38.56,18540959,4519259,"[V f; U (1, f); ULambda y; U (3, h); T (2, c); Hoist_vars [c]; T (4, x);  T (3, w); T (8, c); T (1, y); T (16, f); T (34, x);  Lambda_apply y [((Iter 1), (Arg 10)); ((Iter 2), (Arg 12))]; T (4, y);  T (4, c); T (1, x)]"
45.18,13270215,7349544,"[V f; U (1, f); ULambda y; U (3, h); T (4, c); Hoist_vars [c]; T (2, x);  T (3, w); T (8, c); T (1, y); T (16, f); T (68, x);  Lambda_apply y [((Iter 1), (Arg 10)); ((Iter 2), (Arg 12))]; T (4, y);  T (2, c); T (1, x)]"
14.38,136238405,150837052,"[V f; U (1, f); ULambda y; U (3, h); T (1, c); Hoist_vars [c]; T (17, x);  T (3, w); T (1, c); T (4, y); T (16, f); T (4, x); T (1, y);  Lambda_apply y [((Iter 1), (Arg 10)); ((Iter 2), (Arg 12))]; T (64, c);  T (2, x)]"
50.51,22883971,4059080,"[V f; U (1, f); ULambda y; U (3, h); T (4, c); Hoist_vars [c]; T (1, x);  T (3, w); T (2, c); T (2, y); T (16, f); T (68, x);  Lambda_apply y [((Iter 1), (Arg 10)); ((Iter 2), (Arg 12))]; T (2, y);  T (8, c); T (2, x)]"
21.34,69426217,106590277,"[V f; U (1, f); ULambda y; U (3, h); T (2, c); Hoist_vars [c]; T (34, x);  T (3, w); T (1, c); T (2, y); T (16, f); T (1, x); T (2, y);  Lambda_apply y [((Iter 1), (Arg 10)); ((Iter 2), (Arg 12))]; T (32, c);  T (4, x)]"
40.65,21746785,8271222,"[V f; U (1, f); ULambda y; U (3, h); T (1, c); Hoist_vars [c]; T (1, x);  T (3, w); T (4, c);  Lambda_apply y [((Iter 1), (Arg 10)); ((Iter 2), (Arg 12))]; T (16, f);  T (34, x); T (2, y); T (2, y); T (16, c); T (4, x)]"
39.54,19424104,34373106,"[V f; U (1, f); ULambda y; U (3, h); T (2, c); Hoist_vars [c]; T (1, x);  T (3, w); T (32, c); T (2, y); T (16, f); T (4, x);  Lambda_apply y [((Iter 1), (Arg 10)); ((Iter 2), (Arg 12))]; T (2, y);  T (1, c); T (34, x)]"
29.00,65507652,15950948,"[V f; U (1, f); ULambda y; U (3, h); T (1, c); Hoist_vars [c]; T (2, x);  T (3, w); T (1, c); T (4, y); T (16, f); T (1, x); T (1, y);  Lambda_apply y [((Iter 1), (Arg 10)); ((Iter 2), (Arg 12))]; T (64, c);  T (68, x)]"
53.76,17918483,31161477,"[V f; U (1, f); ULambda y; U (3, h); T (32, c); Hoist_vars [c]; T (1, x);  T (3, w); T (2, c); T (1, y); T (16, f); T (1, x);  Lambda_apply y [((Iter 1), (Arg 10)); ((Iter 2), (Arg 12))]; T (4, y);  T (1, c); T (136, x)]"
69.86,23803667,13053766,"[V f; U (1, f); ULambda y; U (3, h); T (64, c); Hoist_vars [c]; T (17, x);  T (3, w); T (1, c); T (1, y); T (16, f); T (8, x);  Lambda_apply y [((Iter 11), (Arg 10)); ((Iter 2), (Arg 13))]; T (1, y);  T (1, c); T (1, x)]"
48.43,21387883,29295925,"[V f; U (1, f); ULambda y; U (3, h); T (4, c); Hoist_vars [c]; T (1, x);  T (3, w); T (16, c); T (1, y); T (16, f); T (8, x); T (1, y);  Lambda_apply y [((Iter 11), (Arg 10)); ((Iter 2), (Arg 13))]; T (1, c);  T (17, x)]"
44.67,18643388,4220844,"[V f; U (1, f); ULambda y; U (3, h); T (2, c); Hoist_vars [c]; T (1, x);  T (3, w); T (4, c); T (1, y); T (16, f); T (4, x);  Lambda_apply y [((Iter 11), (Arg 10)); ((Iter 2), (Arg 13))]; T (1, y);  T (8, c); T (34, x)]"
33.64,28300022,80646973,"[V f; U (1, f); ULambda y; U (3, h); T (8, c); Hoist_vars [c]; T (136, x);  T (3, w); T (1, c); T (2, y); T (16, f); T (1, x); T (2, y);  Lambda_apply y [((Iter 2), (Arg 11)); ((Iter 1), (Arg 12))]; T (8, c);  T (1, x)]"
46.94,29795813,35158631,"[V f; U (1, f); ULambda y; U (3, h); T (8, c); Hoist_vars [c]; T (34, x);  T (3, w); T (4, c); T (2, y); T (16, f); T (4, x); T (2, y);  Lambda_apply y [((Iter 2), (Arg 11)); ((Iter 1), (Arg 12))]; T (2, c);  T (1, x)]"
42.28,22708575,54000407,"[V f; U (1, f); ULambda y; U (3, h); T (4, c); Hoist_vars [c]; T (1, x);  T (3, w); T (16, c); T (4, y); T (16, f); T (136, x);  Lambda_apply y [((Iter 2), (Arg 11)); ((Iter 1), (Arg 12))]; T (1, y);  T (1, c); T (1, x)]"
10.18,128022081,286540114,"[V f; U (1, f); ULambda y; U (3, h); T (1, c); Hoist_vars [c]; T (68, x);  T (3, w); T (32, c); T (4, y); T (16, f); T (1, x);  Lambda_apply y [((Iter 2), (Arg 11)); ((Iter 1), (Arg 12))]; T (1, y);  T (2, c); T (2, x)]"
22.98,69037637,44155360,"[V f; U (1, f); ULambda y; U (3, h); T (1, c); Hoist_vars [c]; T (4, x);  T (3, w); T (1, c);  Lambda_apply y [((Iter 2), (Arg 11)); ((Iter 1), (Arg 12))]; T (16, f);  T (17, x); T (1, y); T (4, y); T (64, c); T (2, x)]"
62.16,21121526,26064600,"[V f; U (1, f); ULambda y; U (3, h); T (32, c); Hoist_vars [c]; T (2, x);  T (3, w); T (2, c); T (1, y); T (16, f); T (34, x); T (4, y);  Lambda_apply y [((Iter 2), (Arg 11)); ((Iter 1), (Arg 12))]; T (1, c);  T (2, x)]"
50.52,18254264,4018463,"[V f; U (1, f); ULambda y; U (3, h); T (2, c); Hoist_vars [c]; T (1, x);  T (3, w); T (4, c); T (2, y); T (16, f); T (68, x);  Lambda_apply y [((Iter 2), (Arg 11)); ((Iter 1), (Arg 12))]; T (2, y);  T (8, c); T (2, x)]"
35.04,28538225,23905882,"[V f; U (1, f); ULambda y; U (3, h); T (1, c); Hoist_vars [c]; T (1, x);  T (3, w); T (1, c); T (2, y); T (16, f); T (68, x);  Lambda_apply y [((Iter 2), (Arg 11)); ((Iter 1), (Arg 12))]; T (2, y);  T (64, c); T (2, x)]"
51.16,20433639,19319077,"[V f; U (1, f); ULambda y; U (3, h); T (4, c); Hoist_vars [c]; T (1, x);  T (3, w); T (8, c); T (1, y); T (16, f); T (34, x); T (4, y);  Lambda_apply y [((Iter 2), (Arg 11)); ((Iter 1), (Arg 12))]; T (2, c);  T (4, x)]"
29.81,68256903,25704313,"[V f; U (1, f); ULambda y; U (3, h); T (2, c); Hoist_vars [c]; T (17, x);  T (3, w); T (8, c);  Lambda_apply y [((Iter 2), (Arg 11)); ((Iter 1), (Arg 12))]; T (16, f);  T (1, x); T (4, y); T (1, y); T (4, c); T (8, x)]"
37.40,39062505,16099035,"[V f; U (1, f); ULambda y; U (3, h); T (1, c); Hoist_vars [c]; T (1, x);  T (3, w); T (2, c); T (4, y); T (16, f); T (8, x);  Lambda_apply y [((Iter 2), (Arg 11)); ((Iter 1), (Arg 12))]; T (1, y);  T (32, c); T (17, x)]"
49.46,19839403,7897072,"[V f; U (1, f); ULambda y; U (3, h); T (2, c); Hoist_vars [c]; T (1, x);  T (3, w); T (2, c); T (2, y); T (16, f); T (8, x);  Lambda_apply y [((Iter 2), (Arg 11)); ((Iter 1), (Arg 12))]; T (2, y);  T (16, c); T (17, x)]"
26.84,45977876,23918552,"[V f; U (1, f); ULambda y; U (3, h); T (1, c); Hoist_vars [c]; T (4, x);  T (3, w); T (2, c);  Lambda_apply y [((Iter 2), (Arg 11)); ((Iter 1), (Arg 12))]; T (16, f);  T (1, x); T (1, y); T (4, y); T (32, c); T (34, x)]"
55.01,16648837,6630446,"[V f; U (1, f); ULambda y; U (3, h); T (8, c); Hoist_vars [c]; T (2, x);  T (3, w); T (2, c);  Lambda_apply y [((Iter 2), (Arg 11)); ((Iter 1), (Arg 12))]; T (16, f);  T (2, x); T (2, y); T (2, y); T (4, c); T (34, x)]"
13.73,153301065,85655017,"[V f; U (1, f); ULambda y; U (3, h); T (1, c); Hoist_vars [c]; T (34, x);  T (3, w); T (32, c); T (1, y); T (16, f); T (4, x); T (2, y);  Lambda_apply y [((Iter 5), (Arg 11)); ((Iter 1), (Arg 13))]; T (2, c);  T (1, x)]"
30.65,48079440,72192909,"[V f; U (1, f); ULambda y; U (3, h); T (4, c); Hoist_vars [c]; T (34, x);  T (3, w); T (1, c); T (2, y); T (16, f); T (2, x); T (1, y);  Lambda_apply y [((Iter 5), (Arg 11)); ((Iter 1), (Arg 13))]; T (16, c);  T (2, x)]"
38.57,52540387,25380544,"[V f; U (1, f); ULambda y; U (3, h); T (2, c); Hoist_vars [c]; T (1, x);  T (3, w); T (1, c);  Lambda_apply y [((Iter 5), (Arg 11)); ((Iter 1), (Arg 13))]; T (16, f);  T (68, x); T (2, y); T (1, y); T (32, c); T (2, x)]"
61.65,22432289,16736349,"[V f; U (1, f); ULambda y; U (3, h); T (16, c); Hoist_vars [c]; T (17, x);  T (3, w); T (2, c); T (2, y); T (16, f); T (1, x); T (1, y);  Lambda_apply y [((Iter 5), (Arg 11)); ((Iter 1), (Arg 13))]; T (2, c);  T (8, x)]"
52.38,19134978,52214986,"[V f; U (1, f); ULambda y; U (3, h); T (64, c); Hoist_vars [c]; T (1, x);  T (3, w); T (1, c); T (2, y); T (16, f); T (17, x); T (1, y);  Lambda_apply y [((Iter 5), (Arg 11)); ((Iter 1), (Arg 13))]; T (1, c);  T (8, x)]"
16.77,102638531,20435127,"[V f; U (1, f); ULambda y; U (3, h); T (1, c); Hoist_vars [c]; T (8, x);  T (3, w); T (2, c); T (1, y); T (16, f); T (1, x); T (2, y);  Lambda_apply y [((Iter 5), (Arg 11)); ((Iter 1), (Arg 13))]; T (32, c);  T (17, x)]"
43.82,20561242,50708082,"[V f; U (1, f); ULambda y; U (3, h); T (4, c); Hoist_vars [c]; T (1, x);  T (3, w); T (16, c); T (2, y); T (16, f); T (8, x); T (1, y);  Lambda_apply y [((Iter 5), (Arg 11)); ((Iter 1), (Arg 13))]; T (1, c);  T (17, x)]"
66.13,21607640,17893458,"[V f; U (1, f); ULambda y; U (3, h); T (32, c); Hoist_vars [c]; T (4, x);  T (3, w); T (2, c); T (2, y); T (16, f); T (1, x);  Lambda_apply y [((Iter 5), (Arg 11)); ((Iter 1), (Arg 13))]; T (1, y);  T (1, c); T (34, x)]"
30.39,21088165,8752985,"[V f; U (1, f); ULambda y; U (3, h); T (2, c); Hoist_vars [c]; T (2, x);  T (3, w); T (1, c); T (2, y); T (16, f); T (1, x); T (1, y);  Lambda_apply y [((Iter 5), (Arg 11)); ((Iter 1), (Arg 13))]; T (32, c);  T (68, x)]"
36.08,16581965,9083550,"[V f; U (1, f); ULambda y; U (3, h); T (1, c); Hoist_vars [c]; T (2, x);  T (3, w); T (8, c);  Lambda_apply y [((Iter 7), (Arg 12)); ((Iter 4), (Arg 13))]; T (16, f);  T (68, x); T (1, y); T (1, y); T (8, c); T (1, x)]"
50.01,29118716,12890393,"[V f; U (1, f); ULambda y; U (3, h); T (8, c); Hoist_vars [c]; T (17, x);  T (3, w); T (1, c); T (1, y); T (16, f); T (4, x);  Lambda_apply y [((Iter 7), (Arg 12)); ((Iter 4), (Arg 13))]; T (1, y);  T (8, c); T (2, x)]"
67.12,24308738,12525813,"[V f; U (1, f); ULambda y; U (3, h); T (32, c); Hoist_vars [c]; T (17, x);  T (3, w); T (2, c); T (1, y); T (16, f); T (1, x); T (1, y);  Lambda_apply y [((Iter 7), (Arg 12)); ((Iter 4), (Arg 13))]; T (1, c);  T (8, x)]"
54.57,21240213,40544607,"[V f; U (1, f); ULambda y; U (3, h); T (32, c); Hoist_vars [c]; T (1, x);  T (3, w); T (2, c);  Lambda_apply y [((Iter 7), (Arg 12)); ((Iter 4), (Arg 13))]; T (16, f);  T (2, x); T (1, y); T (1, y); T (1, c); T (68, x)]"
67.72,9046079,4713994,"[V f; U (2, f); ULambda y; U (3, h); T (4, c); Hoist_vars [c]; T (4, x);  T (3, w); T (4, c); T (8, y); T (1, x); T (8, f); T (4, c);  Lambda_apply y [((Iter 3), (Arg 4)); ((Iter 1), (Arg 5))]; T (34, x)]"
61.50,17656695,7423559,"[V f; U (2, f); ULambda y; U (3, h); T (4, c); Hoist_vars [c]; T (2, x);  T (3, w); T (4, c);  Lambda_apply y [((Iter 3), (Arg 4)); ((Iter 1), (Arg 5))]; T (1, x);  T (8, f); T (4, c); T (8, y); T (68, x)]"
61.42,26617316,4687443,"[V f; U (2, f); ULambda y; U (3, h); T (1, c); Hoist_vars [c]; T (1, x);  T (3, w); T (1, c); T (8, y); T (2, x); T (8, f); T (64, c);  Lambda_apply y [((Iter 3), (Arg 4)); ((Iter 1), (Arg 5))]; T (68, x)]"
58.45,9339016,21425765,"[V f; U (2, f); ULambda y; U (3, h); T (8, c); Hoist_vars [c]; T (68, x);  T (3, w); T (1, c); T (4, y); T (2, x); T (8, f); T (8, c);  Lambda_apply y [((Iter 1), (Arg 4)); ((Iter 5), (Arg 6))]; T (1, x)]"
69.08,17322584,9570116,"[V f; U (2, f); ULambda y; U (3, h); T (64, c); Hoist_vars [c]; T (17, x);  T (3, w); T (1, c); T (4, y); T (4, x); T (8, f); T (1, c);  Lambda_apply y [((Iter 1), (Arg 4)); ((Iter 5), (Arg 6))]; T (2, x)]"
57.56,8662748,9798079,"[V f; U (2, f); ULambda y; U (3, h); T (2, c); Hoist_vars [c]; T (4, x);  T (3, w); T (8, c); T (4, y); T (17, x); T (8, f); T (4, c);  Lambda_apply y [((Iter 1), (Arg 4)); ((Iter 5), (Arg 6))]; T (2, x)]"
50.62,12336117,4798953,"[V f; U (2, f); ULambda y; U (3, h); T (2, c); Hoist_vars [c]; T (2, x);  T (3, w); T (4, c); T (4, y); T (4, x); T (8, f); T (8, c);  Lambda_apply y [((Iter 1), (Arg 4)); ((Iter 5), (Arg 6))]; T (17, x)]"
53.46,11324357,17523555,"[V f; U (2, f); ULambda y; U (3, h); T (4, c); Hoist_vars [c]; T (4, x);  T (3, w); T (16, c);  Lambda_apply y [((Iter 1), (Arg 4)); ((Iter 5), (Arg 6))]; T (1, x);  T (8, f); T (1, c); T (4, y); T (34, x)]"
57.70,12606662,4481898,"[V f; U (2, f); ULambda y; U (3, h); T (2, c); Hoist_vars [c]; T (4, x);  T (3, w); T (2, c); T (4, y); T (1, x); T (8, f); T (16, c);  Lambda_apply y [((Iter 1), (Arg 4)); ((Iter 5), (Arg 6))]; T (34, x)]"
39.53,16942284,18551139,"[V f; U (2, f); ULambda y; U (3, h); T (1, c); Hoist_vars [c]; T (1, x);  T (3, w); T (32, c);  Lambda_apply y [((Iter 1), (Arg 4)); ((Iter 5), (Arg 6))]; T (1, x);  T (8, f); T (2, c); T (4, y); T (136, x)]"
41.16,17483468,50241607,"[V f; U (2, f); ULambda y; U (3, h); T (4, c); Hoist_vars [c]; T (136, x);  T (3, w); T (4, c); T (4, y); T (1, x); T (8, f); T (4, c);  Lambda_apply y [((Iter 5), (Arg 4)); ((Iter 2), (Arg 7))]; T (1, x)]"
53.48,23864797,41429726,"[V f; U (2, f); ULambda y; U (3, h); T (16, c); Hoist_vars [c]; T (1, x);  T (3, w); T (4, c); T (4, y); T (8, x); T (8, f); T (1, c);  Lambda_apply y [((Iter 5), (Arg 4)); ((Iter 2), (Arg 7))]; T (17, x)]"
67.00,11542370,13088077,"[V f; U (2, f); ULambda y; U (3, h); T (16, c); Hoist_vars [c]; T (17, x);  T (3, w); T (1, c); T (8, y); T (8, x); T (8, f); T (4, c);  Lambda_apply y [((Iter 1), (Arg 5)); ((Iter 2), (Arg 6))]; T (1, x)]"
62.10,13579101,19644029,"[V f; U (2, f); ULambda y; U (3, h); T (8, c); Hoist_vars [c]; T (4, x);  T (3, w); T (1, c); T (8, y); T (17, x); T (8, f); T (8, c);  Lambda_apply y [((Iter 1), (Arg 5)); ((Iter 2), (Arg 6))]; T (2, x)]"
41.45,15956602,22493863,"[V f; U (2, f); ULambda y; U (3, h); T (1, c); Hoist_vars [c]; T (2, x);  T (3, w); T (4, c);  Lambda_apply y [((Iter 1), (Arg 5)); ((Iter 2), (Arg 6))]; T (17, x);  T (8, f); T (16, c); T (8, y); T (4, x)]"
42.26,24517333,8457013,"[V f; U (2, f); ULambda y; U (3, h); T (1, c); Hoist_vars [c]; T (1, x);  T (3, w); T (16, c);  Lambda_apply y [((Iter 1), (Arg 5)); ((Iter 2), (Arg 6))]; T (34, x);  T (8, f); T (4, c); T (8, y); T (4, x)]"
55.44,21265747,16180100,"[V f; U (2, f); ULambda y; U (3, h); T (4, c); Hoist_vars [c]; T (1, x);  T (3, w); T (2, c); T (8, y); T (34, x); T (8, f); T (8, c);  Lambda_apply y [((Iter 1), (Arg 5)); ((Iter 2), (Arg 6))]; T (4, x)]"
58.24,16360228,4448128,"[V f; U (2, f); ULambda y; U (3, h); T (4, c); Hoist_vars [c]; T (1, x);  T (3, w); T (4, c);  Lambda_apply y [((Iter 1), (Arg 5)); ((Iter 2), (Arg 6))]; T (4, x);  T (8, f); T (4, c); T (8, y); T (34, x)]"
61.26,13767173,12580562,"[V f; U (2, f); ULambda y; U (3, h); T (8, c); Hoist_vars [c]; T (2, x);  T (3, w); T (2, c);  Lambda_apply y [((Iter 2), (Arg 5)); ((Iter 1), (Arg 7))]; T (34, x);  T (8, f); T (4, c); T (8, y); T (2, x)]"
47.23,43151516,38545297,"[V f; U (2, f); ULambda y; U (3, h); T (2, c); Hoist_vars [c]; T (17, x);  T (3, w); T (2, c); T (8, y); T (1, x); T (8, f); T (16, c);  Lambda_apply y [((Iter 2), (Arg 5)); ((Iter 1), (Arg 7))]; T (8, x)]"
47.41,11821586,26398037,"[V f; U (2, f); ULambda y; U (3, h); T (4, c); Hoist_vars [c]; T (8, x);  T (3, w); T (1, c);  Lambda_apply y [((Iter 1), (Arg 6)); ((Iter 4), (Arg 7))]; T (17, x);  T (8, f); T (16, c); T (4, y); T (1, x)]"
40.22,18404876,16066728,"[V f; U (2, f); ULambda y; U (3, h); T (2, c); Hoist_vars [c]; T (1, x);  T (3, w); T (4, c); T (4, y); T (136, x); T (8, f); T (8, c);  Lambda_apply y [((Iter 1), (Arg 6)); ((Iter 4), (Arg 7))]; T (1, x)]"
41.34,21651742,16407185,"[V f; U (2, f); ULambda y; U (3, h); T (2, c); Hoist_vars [c]; T (1, x);  T (3, w); T (2, c); T (4, y); T (17, x); T (8, f); T (16, c);  Lambda_apply y [((Iter 1), (Arg 6)); ((Iter 4), (Arg 7))]; T (8, x)]"
60.84,20824003,5753951,"[V f; U (2, f); ULambda y; U (3, h); T (8, c); Hoist_vars [c]; T (1, x);  T (3, w); T (1, c);  Lambda_apply y [((Iter 1), (Arg 6)); ((Iter 4), (Arg 7))]; T (2, x);  T (8, f); T (8, c); T (4, y); T (68, x)]"
37.18,27980825,60866591,"[V f; U (2, f); ULambda y; U (3, w); T (2, c); Hoist_vars [c]; T (2, x);  T (3, h); T (1, c); T (8, y); T (68, x); T (8, f); T (32, c);  Lambda_apply y [((Iter 3), (Arg 4)); ((Iter 1), (Arg 5))]; T (1, x)]"
45.84,45242159,42344710,"[V f; U (2, f); ULambda y; U (3, w); T (2, c); Hoist_vars [c]; T (34, x);  T (3, h); T (1, c);  Lambda_apply y [((Iter 3), (Arg 4)); ((Iter 1), (Arg 5))]; T (1, x);  T (8, f); T (32, c); T (8, y); T (4, x)]"
52.76,25294892,5045030,"[V f; U (2, f); ULambda y; U (3, w); T (4, c); Hoist_vars [c]; T (1, x);  T (3, h); T (2, c); T (4, y); T (4, x); T (8, f); T (8, c);  Lambda_apply y [((Iter 5), (Arg 4)); ((Iter 2), (Arg 7))]; T (34, x)]"
66.91,11660925,21857506,"[V f; U (2, f); ULambda y; U (3, w); T (16, c); Hoist_vars [c]; T (136, x);  T (3, h); T (4, c); T (8, y); T (1, x); T (8, f); T (1, c);  Lambda_apply y [((Iter 1), (Arg 5)); ((Iter 2), (Arg 6))]; T (1, x)]"
41.09,32201707,63230686,"[V f; U (2, f); ULambda y; U (3, w); T (4, c); Hoist_vars [c]; T (68, x);  T (3, h); T (2, c); T (8, y); T (1, x); T (8, f); T (8, c);  Lambda_apply y [((Iter 1), (Arg 5)); ((Iter 2), (Arg 6))]; T (2, x)]"
33.27,66022833,10865740,"[V f; U (2, f); ULambda y; U (3, w); T (1, c); Hoist_vars [c]; T (17, x);  T (3, h); T (64, c); T (8, y); T (4, x); T (8, f); T (1, c);  Lambda_apply y [((Iter 1), (Arg 5)); ((Iter 2), (Arg 6))]; T (2, x)]"
25.08,66986052,114376371,"[V f; U (2, f); ULambda y; U (3, w); T (1, c); Hoist_vars [c]; T (17, x);  T (3, h); T (1, c); T (8, y); T (4, x); T (8, f); T (64, c);  Lambda_apply y [((Iter 1), (Arg 5)); ((Iter 2), (Arg 6))]; T (2, x)]"
64.25,14017638,11554973,"[V f; U (2, f); ULambda y; U (3, w); T (8, c); Hoist_vars [c]; T (2, x);  T (3, h); T (4, c); T (8, y); T (34, x); T (8, f); T (2, c);  Lambda_apply y [((Iter 1), (Arg 5)); ((Iter 2), (Arg 6))]; T (2, x)]"
66.44,11903873,12114654,"[V f; U (2, f); ULambda y; U (3, w); T (8, c); Hoist_vars [c]; T (17, x);  T (3, h); T (2, c);  Lambda_apply y [((Iter 1), (Arg 5)); ((Iter 2), (Arg 6))]; T (2, x);  T (8, f); T (4, c); T (8, y); T (4, x)]"
48.29,34495992,11700798,"[V f; U (2, f); ULambda y; U (3, w); T (2, c); Hoist_vars [c]; T (17, x);  T (3, h); T (16, c); T (8, y); T (2, x); T (8, f); T (2, c);  Lambda_apply y [((Iter 1), (Arg 5)); ((Iter 2), (Arg 6))]; T (4, x)]"
44.26,15140130,26877629,"[V f; U (2, f); ULambda y; U (3, w); T (4, c); Hoist_vars [c]; T (68, x);  T (3, h); T (2, c); T (8, y); T (2, x); T (8, f); T (8, c);  Lambda_apply y [((Iter 2), (Arg 5)); ((Iter 1), (Arg 7))]; T (1, x)]"
36.93,8402239,9874014,"[V f; U (2, f); ULambda y; U (3, w); T (1, c); Hoist_vars [c]; T (4, x);  T (3, h); T (32, c);  Lambda_apply y [((Iter 2), (Arg 5)); ((Iter 1), (Arg 7))]; T (34, x);  T (8, f); T (2, c); T (8, y); T (1, x)]"
47.31,16046467,9874520,"[V f; U (2, f); ULambda y; U (3, w); T (4, c); Hoist_vars [c]; T (34, x);  T (3, h); T (4, c);  Lambda_apply y [((Iter 1), (Arg 6)); ((Iter 4), (Arg 7))]; T (1, x);  T (8, f); T (4, c); T (4, y); T (4, x)]"
57.42,6112526,9672703,"[V f; U (4, f); ULambda y; U (3, w); T (8, c); Hoist_vars [c]; T (68, x);  T (3, h); T (8, c);  Lambda_apply y [((Iter 3), (Arg 3)); ((Iter 2), (Arg 4))]; T (1, x);  T (8, y); T (4, f); T (1, c); T (2, x)]"
51.41,9568168,10411117,"[V f; U (4, f); ULambda y; U (3, w); T (4, c); Hoist_vars [c]; T (4, x);  T (3, h); T (8, c);  Lambda_apply y [((Iter 3), (Arg 3)); ((Iter 2), (Arg 4))]; T (1, x);  T (8, y); T (4, f); T (2, c); T (34, x)]"
