perf,CACHE_MISS_L1,CACHE_MISS_L2,scheme
62.35,3034693,1793829,"[V f; U (2, f); U (4, y); T (256, c); Hoist_vars [c]; T (68, x); T (17, y);  T (8, f); T (1, x); T (1, y)]"
73.97,3977352,1915674,"[V f; U (2, f); U (4, y); T (256, c); Hoist_vars [c]; T (68, x); T (1, y);  T (8, f); T (1, x); T (17, y)]"
65.87,3844653,2645158,"[V f; U (2, f); U (4, y); T (256, c); Hoist_vars [c]; T (34, x); T (17, y);  T (8, f); T (2, x); T (1, y)]"
75.41,3977563,1573296,"[V f; U (2, f); U (4, y); T (256, c); Hoist_vars [c]; T (34, x); T (1, y);  T (8, f); T (2, x); T (17, y)]"
66.30,3831137,2654789,"[V f; U (2, f); U (4, y); T (256, c); Hoist_vars [c]; T (17, x); T (17, y);  T (8, f); T (4, x); T (1, y)]"
67.48,3916376,2299546,"[V f; U (2, f); U (4, y); T (256, c); Hoist_vars [c]; T (17, x); T (1, y);  T (8, f); T (4, x); T (17, y)]"
73.30,3907376,1900525,"[V f; U (2, f); U (4, y); T (256, c); Hoist_vars [c]; T (4, x); T (17, y);  T (8, f); T (17, x); T (1, y)]"
78.91,2657936,663168,"[V f; U (2, f); U (4, y); T (256, c); Hoist_vars [c]; T (4, x); T (1, y);  T (8, f); T (17, x); T (17, y)]"
60.06,3038472,2608340,"[V f; U (2, f); U (4, y); T (256, c); Hoist_vars [c]; T (2, x); T (17, y);  T (8, f); T (34, x); T (1, y)]"
66.50,3590644,1877263,"[V f; U (2, f); U (4, y); T (256, c); Hoist_vars [c]; T (2, x); T (1, y);  T (8, f); T (34, x); T (17, y)]"
68.22,3858135,2041176,"[V f; U (2, f); U (4, y); T (256, c); Hoist_vars [c]; T (1, x); T (17, y);  T (8, f); T (68, x); T (1, y)]"
66.19,2623561,1959758,"[V f; U (2, f); U (4, y); T (256, c); Hoist_vars [c]; T (1, x); T (1, y);  T (8, f); T (68, x); T (17, y)]"
62.44,2897205,2752614,"[V f; U (2, f); ULambda y; T (256, c); Hoist_vars [c]; T (68, x);  Lambda_apply y [((Iter 3), (Arg 4)); ((Iter 1), (Arg 5))]; T (8, f);  T (1, x); T (4, y)]"
74.90,3724444,2049891,"[V f; U (2, f); ULambda y; T (256, c); Hoist_vars [c]; T (68, x); T (4, y);  T (8, f); T (1, x);  Lambda_apply y [((Iter 3), (Arg 4)); ((Iter 1), (Arg 5))]]"
63.38,3621355,3139551,"[V f; U (2, f); ULambda y; T (256, c); Hoist_vars [c]; T (34, x);  Lambda_apply y [((Iter 3), (Arg 4)); ((Iter 1), (Arg 5))]; T (8, f);  T (2, x); T (4, y)]"
58.95,3611896,3736949,"[V f; U (2, f); ULambda y; T (256, c); Hoist_vars [c]; T (34, x); T (4, y);  T (8, f); T (2, x);  Lambda_apply y [((Iter 3), (Arg 4)); ((Iter 1), (Arg 5))]]"
72.54,3714478,2286634,"[V f; U (2, f); ULambda y; T (256, c); Hoist_vars [c]; T (17, x);  Lambda_apply y [((Iter 3), (Arg 4)); ((Iter 1), (Arg 5))]; T (8, f);  T (4, x); T (4, y)]"
69.14,3044766,1848840,"[V f; U (2, f); ULambda y; T (256, c); Hoist_vars [c]; T (17, x); T (4, y);  T (8, f); T (4, x);  Lambda_apply y [((Iter 3), (Arg 4)); ((Iter 1), (Arg 5))]]"
69.66,3701891,1971493,"[V f; U (2, f); ULambda y; T (256, c); Hoist_vars [c]; T (4, x);  Lambda_apply y [((Iter 3), (Arg 4)); ((Iter 1), (Arg 5))]; T (8, f);  T (17, x); T (4, y)]"
65.11,2899314,2524965,"[V f; U (2, f); ULambda y; T (256, c); Hoist_vars [c]; T (4, x); T (4, y);  T (8, f); T (17, x);  Lambda_apply y [((Iter 3), (Arg 4)); ((Iter 1), (Arg 5))]]"
60.99,3465372,2873218,"[V f; U (2, f); ULambda y; T (256, c); Hoist_vars [c]; T (2, x);  Lambda_apply y [((Iter 3), (Arg 4)); ((Iter 1), (Arg 5))]; T (8, f);  T (34, x); T (4, y)]"
62.61,3451689,3373804,"[V f; U (2, f); ULambda y; T (256, c); Hoist_vars [c]; T (2, x); T (4, y);  T (8, f); T (34, x);  Lambda_apply y [((Iter 3), (Arg 4)); ((Iter 1), (Arg 5))]]"
72.70,2506490,1296284,"[V f; U (2, f); ULambda y; T (256, c); Hoist_vars [c]; T (1, x);  Lambda_apply y [((Iter 3), (Arg 4)); ((Iter 1), (Arg 5))]; T (8, f);  T (68, x); T (4, y)]"
62.95,2507176,2125897,"[V f; U (2, f); ULambda y; T (256, c); Hoist_vars [c]; T (1, x); T (4, y);  T (8, f); T (68, x);  Lambda_apply y [((Iter 3), (Arg 4)); ((Iter 1), (Arg 5))]]"
