bench,perf,stdev
MobilNet_1,0.7110347000000001,0.008679288980671182
MobilNet_2,0.8229272,0.0137204030611349
MobilNet_3,2.2473412,0.010843347783779735
MobilNet_4,0.6487130000000001,0.002953454079548246
MobilNet_5,2.0693294999999994,0.011028931945116064
MobilNet_6,0.7017363999999999,0.007235632898371785
MobilNet_7,2.0304735,0.009613076378038392
MobilNet_8,0.7447137999999999,0.008670824295302039
MobilNet_9,2.5270814,0.01194972226622869
ResNet18_1,0.9119342000000001,0.01091769174138932
ResNet18_2,0.6801235,0.005975954438414029
ResNet18_3,0.25139140000000004,0.003093954821906742
ResNet18_4,0.43250590000000005,0.006394922508521908
ResNet18_5,0.193027,0.006889021280269057
ResNet18_6,0.623362,0.0060820621831744045
ResNet18_7,0.34903580000000006,0.009562136757022473
ResNet18_8,1.0629434,0.004491675059485023
ResNet18_9,0.5693113,0.0051110859129934435
ResNet18_10,0.7442984000000001,0.004696281810113179
ResNet18_11,0.1177229,0.002662151364967816
ResNet18_12,0.478252,0.009785575343330622
Yolo9000_0,6.796687199999999,0.16035183376799886
Yolo9000_2,6.7471646,0.2579911061836047
Yolo9000_4,5.929170699999999,0.28948763034300784
Yolo9000_5,2.317454,0.029234794348515638
Yolo9000_8,5.5085092,0.41011464429395833
Yolo9000_9,1.2764444000000001,0.01673605628097612
Yolo9000_12,5.8374593,0.20502892643236967
Yolo9000_13,0.9190727000000001,0.007447046489045182
Yolo9000_18,5.2489438,0.41599967671064325
Yolo9000_19,1.0275189,0.008972963183363667
Yolo9000_23,35.427195,0.02692737545324513
