77.3,2084779,176466,11427840,1114112,"[V f; U (2, f); U (14, y); T (64, c); Hoist_vars [c]; T (28, x); T (3, w);   T (3, h); T (8, f); T (2, c); T (1, x); T (2, y); T (1, f)]"
76.2,2086458,194521,11427840,726016,"[V f; U (2, f); U (14, y); T (64, c); Hoist_vars [c]; T (28, x); T (3, w);   T (3, h); T (4, f); T (2, c); T (1, x); T (2, y); T (2, f)]"
75.0,2087813,207893,11427840,610816,"[V f; U (2, f); U (14, y); T (64, c); Hoist_vars [c]; T (28, x); T (3, w);   T (3, h); T (2, f); T (2, c); T (1, x); T (2, y); T (4, f)]"
74.6,2091978,231966,11427840,610816,"[V f; U (2, f); U (14, y); T (64, c); Hoist_vars [c]; T (28, x); T (3, w);   T (3, h); T (1, f); T (2, c); T (1, x); T (2, y); T (8, f)]"
76.5,2090036,175349,12017664,1511424,"[V f; U (2, f); U (14, y); T (64, c); Hoist_vars [c]; T (14, x); T (3, w);   T (3, h); T (8, f); T (2, c); T (2, x); T (2, y); T (1, f)]"
75.5,2089660,226791,12017664,726016,"[V f; U (2, f); U (14, y); T (64, c); Hoist_vars [c]; T (14, x); T (3, w);   T (3, h); T (4, f); T (2, c); T (2, x); T (2, y); T (2, f)]"
72.9,2087264,291106,12017664,610816,"[V f; U (2, f); U (14, y); T (64, c); Hoist_vars [c]; T (14, x); T (3, w);   T (3, h); T (2, f); T (2, c); T (2, x); T (2, y); T (4, f)]"
73.2,2083914,320458,12017664,610816,"[V f; U (2, f); U (14, y); T (64, c); Hoist_vars [c]; T (14, x); T (3, w);   T (3, h); T (1, f); T (2, c); T (2, x); T (2, y); T (8, f)]"
72.5,2058353,266835,13197312,2707456,"[V f; U (2, f); U (14, y); T (64, c); Hoist_vars [c]; T (7, x); T (3, w);   T (3, h); T (8, f); T (2, c); T (4, x); T (2, y); T (1, f)]"
70.7,2058489,319813,13197312,726016,"[V f; U (2, f); U (14, y); T (64, c); Hoist_vars [c]; T (7, x); T (3, w);   T (3, h); T (4, f); T (2, c); T (4, x); T (2, y); T (2, f)]"
68.8,2059348,397084,13197312,610816,"[V f; U (2, f); U (14, y); T (64, c); Hoist_vars [c]; T (7, x); T (3, w);   T (3, h); T (2, f); T (2, c); T (4, x); T (2, y); T (4, f)]"
65.9,2048409,510677,13197312,610816,"[V f; U (2, f); U (14, y); T (64, c); Hoist_vars [c]; T (7, x); T (3, w);   T (3, h); T (1, f); T (2, c); T (4, x); T (2, y); T (8, f)]"
67.9,1854128,365482,8945664,4501504,"[V f; U (2, f); U (14, y); T (64, c); Hoist_vars [c]; T (4, x); T (3, w);   T (3, h); T (8, f); T (2, c); T (7, x); T (2, y); T (1, f)]"
66.6,1850827,457728,8945664,726016,"[V f; U (2, f); U (14, y); T (64, c); Hoist_vars [c]; T (4, x); T (3, w);   T (3, h); T (4, f); T (2, c); T (7, x); T (2, y); T (2, f)]"
64.2,1849445,582441,8945664,610816,"[V f; U (2, f); U (14, y); T (64, c); Hoist_vars [c]; T (4, x); T (3, w);   T (3, h); T (2, f); T (2, c); T (7, x); T (2, y); T (4, f)]"
59.8,1842645,754229,8945664,610816,"[V f; U (2, f); U (14, y); T (64, c); Hoist_vars [c]; T (4, x); T (3, w);   T (3, h); T (1, f); T (2, c); T (7, x); T (2, y); T (8, f)]"
57.7,1633874,600153,14278656,8687616,"[V f; U (2, f); U (14, y); T (64, c); Hoist_vars [c]; T (2, x); T (3, w);   T (3, h); T (8, f); T (2, c); T (14, x); T (2, y); T (1, f)]"
55.0,1641888,757024,14278656,726016,"[V f; U (2, f); U (14, y); T (64, c); Hoist_vars [c]; T (2, x); T (3, w);   T (3, h); T (4, f); T (2, c); T (14, x); T (2, y); T (2, f)]"
54.4,1649714,851885,14278656,610816,"[V f; U (2, f); U (14, y); T (64, c); Hoist_vars [c]; T (2, x); T (3, w);   T (3, h); T (2, f); T (2, c); T (14, x); T (2, y); T (4, f)]"
52.0,1660617,1012024,14278656,610816,"[V f; U (2, f); U (14, y); T (64, c); Hoist_vars [c]; T (2, x); T (3, w);   T (3, h); T (1, f); T (2, c); T (14, x); T (2, y); T (8, f)]"
43.8,1428289,640319,24944640,17059840,"[V f; U (2, f); U (14, y); T (64, c); Hoist_vars [c]; T (1, x); T (3, w);   T (3, h); T (8, f); T (2, c); T (28, x); T (2, y); T (1, f)]"
46.5,1431343,613155,24944640,726016,"[V f; U (2, f); U (14, y); T (64, c); Hoist_vars [c]; T (1, x); T (3, w);   T (3, h); T (4, f); T (2, c); T (28, x); T (2, y); T (2, f)]"
44.1,1446117,636343,24944640,610816,"[V f; U (2, f); U (14, y); T (64, c); Hoist_vars [c]; T (1, x); T (3, w);   T (3, h); T (2, f); T (2, c); T (28, x); T (2, y); T (4, f)]"
44.0,1435621,668677,24944640,610816,"[V f; U (2, f); U (14, y); T (64, c); Hoist_vars [c]; T (1, x); T (3, w);   T (3, h); T (1, f); T (2, c); T (28, x); T (2, y); T (8, f)]"
76.8,2869301,222724,8404992,811520,"[V f; U (4, f); U (7, y); T (64, c); Hoist_vars [c]; T (28, x); T (3, w);   T (3, h); T (4, y); T (4, f); T (2, c); T (1, f); T (1, x); T (1, f)]"
76.5,2868976,232897,8404992,726016,"[V f; U (4, f); U (7, y); T (64, c); Hoist_vars [c]; T (28, x); T (3, w);   T (3, h); T (4, y); T (2, f); T (2, c); T (2, f); T (1, x); T (1, f)]"
75.8,2869013,242783,8404992,610816,"[V f; U (4, f); U (7, y); T (64, c); Hoist_vars [c]; T (28, x); T (3, w);   T (3, h); T (4, y); T (1, f); T (2, c); T (4, f); T (1, x); T (1, f)]"
76.5,2869396,237425,8404992,726016,"[V f; U (4, f); U (7, y); T (64, c); Hoist_vars [c]; T (28, x); T (3, w);   T (3, h); T (4, y); T (2, f); T (2, c); T (1, f); T (1, x); T (2, f)]"
76.0,2870015,238570,8404992,726016,"[V f; U (4, f); U (7, y); T (64, c); Hoist_vars [c]; T (28, x); T (3, w);   T (3, h); T (4, y); T (1, f); T (2, c); T (2, f); T (1, x); T (2, f)]"
76.4,2869057,251465,8404992,610816,"[V f; U (4, f); U (7, y); T (64, c); Hoist_vars [c]; T (28, x); T (3, w);   T (3, h); T (4, y); T (1, f); T (2, c); T (1, f); T (1, x); T (4, f)]"
76.4,2867639,206361,9584640,1114112,"[V f; U (4, f); U (7, y); T (64, c); Hoist_vars [c]; T (14, x); T (3, w);   T (3, h); T (4, y); T (4, f); T (2, c); T (1, f); T (2, x); T (1, f)]"
76.5,2867222,230390,9584640,913408,"[V f; U (4, f); U (7, y); T (64, c); Hoist_vars [c]; T (14, x); T (3, w);   T (3, h); T (4, y); T (2, f); T (2, c); T (2, f); T (2, x); T (1, f)]"
76.5,2865457,237159,9584640,913408,"[V f; U (4, f); U (7, y); T (64, c); Hoist_vars [c]; T (14, x); T (3, w);   T (3, h); T (4, y); T (1, f); T (2, c); T (4, f); T (2, x); T (1, f)]"
75.6,2868314,244563,9584640,726016,"[V f; U (4, f); U (7, y); T (64, c); Hoist_vars [c]; T (14, x); T (3, w);   T (3, h); T (4, y); T (2, f); T (2, c); T (1, f); T (2, x); T (2, f)]"
74.2,2877947,276608,9584640,726016,"[V f; U (4, f); U (7, y); T (64, c); Hoist_vars [c]; T (14, x); T (3, w);   T (3, h); T (4, y); T (1, f); T (2, c); T (2, f); T (2, x); T (2, f)]"
74.4,2864787,289966,9584640,610816,"[V f; U (4, f); U (7, y); T (64, c); Hoist_vars [c]; T (14, x); T (3, w);   T (3, h); T (4, y); T (1, f); T (2, c); T (1, f); T (2, x); T (4, f)]"
78.5,2701088,184977,11943936,1518592,"[V f; U (4, f); U (7, y); T (64, c); Hoist_vars [c]; T (7, x); T (3, w);   T (3, h); T (4, y); T (4, f); T (2, c); T (1, f); T (4, x); T (1, f)]"
75.7,2700260,276031,11943936,1518592,"[V f; U (4, f); U (7, y); T (64, c); Hoist_vars [c]; T (7, x); T (3, w);   T (3, h); T (4, y); T (2, f); T (2, c); T (2, f); T (4, x); T (1, f)]"
73.5,2700295,345433,11943936,1518592,"[V f; U (4, f); U (7, y); T (64, c); Hoist_vars [c]; T (7, x); T (3, w);   T (3, h); T (4, y); T (1, f); T (2, c); T (4, f); T (4, x); T (1, f)]"
75.7,2700134,274611,11943936,726016,"[V f; U (4, f); U (7, y); T (64, c); Hoist_vars [c]; T (7, x); T (3, w);   T (3, h); T (4, y); T (2, f); T (2, c); T (1, f); T (4, x); T (2, f)]"
73.8,2700416,346262,11943936,726016,"[V f; U (4, f); U (7, y); T (64, c); Hoist_vars [c]; T (7, x); T (3, w);   T (3, h); T (4, y); T (1, f); T (2, c); T (2, f); T (4, x); T (2, f)]"
73.6,2699642,352086,11943936,610816,"[V f; U (4, f); U (7, y); T (64, c); Hoist_vars [c]; T (7, x); T (3, w);   T (3, h); T (4, y); T (1, f); T (2, c); T (1, f); T (4, x); T (4, f)]"
75.9,2701038,263701,11268096,2426368,"[V f; U (4, f); U (7, y); T (64, c); Hoist_vars [c]; T (4, x); T (3, w);   T (3, h); T (4, y); T (4, f); T (2, c); T (1, f); T (7, x); T (1, f)]"
74.4,2701569,336879,11268096,2426368,"[V f; U (4, f); U (7, y); T (64, c); Hoist_vars [c]; T (4, x); T (3, w);   T (3, h); T (4, y); T (2, f); T (2, c); T (2, f); T (7, x); T (1, f)]"
69.7,2698910,425972,11268096,2426368,"[V f; U (4, f); U (7, y); T (64, c); Hoist_vars [c]; T (4, x); T (3, w);   T (3, h); T (4, y); T (1, f); T (2, c); T (4, f); T (7, x); T (1, f)]"
71.3,2699222,416646,11268096,726016,"[V f; U (4, f); U (7, y); T (64, c); Hoist_vars [c]; T (4, x); T (3, w);   T (3, h); T (4, y); T (2, f); T (2, c); T (1, f); T (7, x); T (2, f)]"
72.3,2700760,378850,11268096,726016,"[V f; U (4, f); U (7, y); T (64, c); Hoist_vars [c]; T (4, x); T (3, w);   T (3, h); T (4, y); T (1, f); T (2, c); T (2, f); T (7, x); T (2, f)]"
72.9,2701081,423396,11268096,610816,"[V f; U (4, f); U (7, y); T (64, c); Hoist_vars [c]; T (4, x); T (3, w);   T (3, h); T (4, y); T (1, f); T (2, c); T (1, f); T (7, x); T (4, f)]"
72.8,2700189,317991,20127744,4544512,"[V f; U (4, f); U (7, y); T (64, c); Hoist_vars [c]; T (2, x); T (3, w);   T (3, h); T (4, y); T (4, f); T (2, c); T (1, f); T (14, x); T (1, f)]"
70.3,2698204,387852,20127744,4544512,"[V f; U (4, f); U (7, y); T (64, c); Hoist_vars [c]; T (2, x); T (3, w);   T (3, h); T (4, y); T (2, f); T (2, c); T (2, f); T (14, x); T (1, f)]"
68.7,2697661,422402,20127744,4544512,"[V f; U (4, f); U (7, y); T (64, c); Hoist_vars [c]; T (2, x); T (3, w);   T (3, h); T (4, y); T (1, f); T (2, c); T (4, f); T (14, x); T (1, f)]"
67.6,2698004,464411,20127744,726016,"[V f; U (4, f); U (7, y); T (64, c); Hoist_vars [c]; T (2, x); T (3, w);   T (3, h); T (4, y); T (2, f); T (2, c); T (1, f); T (14, x); T (2, f)]"
69.0,2697634,514534,20127744,726016,"[V f; U (4, f); U (7, y); T (64, c); Hoist_vars [c]; T (2, x); T (3, w);   T (3, h); T (4, y); T (1, f); T (2, c); T (2, f); T (14, x); T (2, f)]"
67.7,2698139,503872,20127744,610816,"[V f; U (4, f); U (7, y); T (64, c); Hoist_vars [c]; T (2, x); T (3, w);   T (3, h); T (4, y); T (1, f); T (2, c); T (1, f); T (14, x); T (4, f)]"
63.9,2522158,535050,37847040,8780800,"[V f; U (4, f); U (7, y); T (64, c); Hoist_vars [c]; T (1, x); T (3, w);   T (3, h); T (4, y); T (4, f); T (2, c); T (1, f); T (28, x); T (1, f)]"
65.3,2523361,568084,37847040,8780800,"[V f; U (4, f); U (7, y); T (64, c); Hoist_vars [c]; T (1, x); T (3, w);   T (3, h); T (4, y); T (2, f); T (2, c); T (2, f); T (28, x); T (1, f)]"
60.0,2520951,672766,37847040,8780800,"[V f; U (4, f); U (7, y); T (64, c); Hoist_vars [c]; T (1, x); T (3, w);   T (3, h); T (4, y); T (1, f); T (2, c); T (4, f); T (28, x); T (1, f)]"
61.4,2523504,652992,37847040,726016,"[V f; U (4, f); U (7, y); T (64, c); Hoist_vars [c]; T (1, x); T (3, w);   T (3, h); T (4, y); T (2, f); T (2, c); T (1, f); T (28, x); T (2, f)]"
60.0,2520135,794631,37847040,726016,"[V f; U (4, f); U (7, y); T (64, c); Hoist_vars [c]; T (1, x); T (3, w);   T (3, h); T (4, y); T (1, f); T (2, c); T (2, f); T (28, x); T (2, f)]"
58.3,2520100,803232,37847040,610816,"[V f; U (4, f); U (7, y); T (64, c); Hoist_vars [c]; T (1, x); T (3, w);   T (3, h); T (4, y); T (1, f); T (2, c); T (1, f); T (28, x); T (4, f)]"
82.4,1670348,128070,7299072,1114112,"[V f; U (1, f); U (14, y); U (3, h); T (64, c); Hoist_vars [c]; T (28, x);   T (3, w); T (16, f); T (2, c); T (1, x); T (2, y); T (1, f)]"
81.7,1668934,146980,7299072,726016,"[V f; U (1, f); U (14, y); U (3, h); T (64, c); Hoist_vars [c]; T (28, x);   T (3, w); T (8, f); T (2, c); T (1, x); T (2, y); T (2, f)]"
80.6,1672023,167118,7299072,610816,"[V f; U (1, f); U (14, y); U (3, h); T (64, c); Hoist_vars [c]; T (28, x);   T (3, w); T (4, f); T (2, c); T (1, x); T (2, y); T (4, f)]"
81.6,1668164,171766,7299072,610816,"[V f; U (1, f); U (14, y); U (3, h); T (64, c); Hoist_vars [c]; T (28, x);   T (3, w); T (2, f); T (2, c); T (1, x); T (2, y); T (8, f)]"
79.8,1669478,183790,7299072,610816,"[V f; U (1, f); U (14, y); U (3, h); T (64, c); Hoist_vars [c]; T (28, x);   T (3, w); T (1, f); T (2, c); T (1, x); T (2, y); T (16, f)]"
80.7,1670708,149817,7888896,1511424,"[V f; U (1, f); U (14, y); U (3, h); T (64, c); Hoist_vars [c]; T (14, x);   T (3, w); T (16, f); T (2, c); T (2, x); T (2, y); T (1, f)]"
79.8,1671421,183516,7888896,726016,"[V f; U (1, f); U (14, y); U (3, h); T (64, c); Hoist_vars [c]; T (14, x);   T (3, w); T (8, f); T (2, c); T (2, x); T (2, y); T (2, f)]"
79.5,1667854,215328,7888896,610816,"[V f; U (1, f); U (14, y); U (3, h); T (64, c); Hoist_vars [c]; T (14, x);   T (3, w); T (4, f); T (2, c); T (2, x); T (2, y); T (4, f)]"
78.3,1671855,244713,7888896,610816,"[V f; U (1, f); U (14, y); U (3, h); T (64, c); Hoist_vars [c]; T (14, x);   T (3, w); T (2, f); T (2, c); T (2, x); T (2, y); T (8, f)]"
76.8,1665589,268478,7888896,610816,"[V f; U (1, f); U (14, y); U (3, h); T (64, c); Hoist_vars [c]; T (14, x);   T (3, w); T (1, f); T (2, c); T (2, x); T (2, y); T (16, f)]"
75.8,1656946,229592,9068544,2707456,"[V f; U (1, f); U (14, y); U (3, h); T (64, c); Hoist_vars [c]; T (7, x);   T (3, w); T (16, f); T (2, c); T (4, x); T (2, y); T (1, f)]"
75.7,1653920,271897,9068544,726016,"[V f; U (1, f); U (14, y); U (3, h); T (64, c); Hoist_vars [c]; T (7, x);   T (3, w); T (8, f); T (2, c); T (4, x); T (2, y); T (2, f)]"
73.8,1649921,312800,9068544,610816,"[V f; U (1, f); U (14, y); U (3, h); T (64, c); Hoist_vars [c]; T (7, x);   T (3, w); T (4, f); T (2, c); T (4, x); T (2, y); T (4, f)]"
71.2,1648435,349810,9068544,610816,"[V f; U (1, f); U (14, y); U (3, h); T (64, c); Hoist_vars [c]; T (7, x);   T (3, w); T (2, f); T (2, c); T (4, x); T (2, y); T (8, f)]"
71.2,1636640,367586,9068544,610816,"[V f; U (1, f); U (14, y); U (3, h); T (64, c); Hoist_vars [c]; T (7, x);   T (3, w); T (1, f); T (2, c); T (4, x); T (2, y); T (16, f)]"
69.2,1468949,310312,7282688,4501504,"[V f; U (1, f); U (14, y); U (3, h); T (64, c); Hoist_vars [c]; T (4, x);   T (3, w); T (16, f); T (2, c); T (7, x); T (2, y); T (1, f)]"
67.0,1467288,356833,7282688,726016,"[V f; U (1, f); U (14, y); U (3, h); T (64, c); Hoist_vars [c]; T (4, x);   T (3, w); T (8, f); T (2, c); T (7, x); T (2, y); T (2, f)]"
66.2,1464822,388821,7282688,610816,"[V f; U (1, f); U (14, y); U (3, h); T (64, c); Hoist_vars [c]; T (4, x);   T (3, w); T (4, f); T (2, c); T (7, x); T (2, y); T (4, f)]"
65.3,1454800,400201,7282688,610816,"[V f; U (1, f); U (14, y); U (3, h); T (64, c); Hoist_vars [c]; T (4, x);   T (3, w); T (2, f); T (2, c); T (7, x); T (2, y); T (8, f)]"
63.9,1439900,430115,7282688,610816,"[V f; U (1, f); U (14, y); U (3, h); T (64, c); Hoist_vars [c]; T (4, x);   T (3, w); T (1, f); T (2, c); T (7, x); T (2, y); T (16, f)]"
55.6,1294952,378575,12328960,8687616,"[V f; U (1, f); U (14, y); U (3, h); T (64, c); Hoist_vars [c]; T (2, x);   T (3, w); T (16, f); T (2, c); T (14, x); T (2, y); T (1, f)]"
57.4,1297627,395463,12328960,726016,"[V f; U (1, f); U (14, y); U (3, h); T (64, c); Hoist_vars [c]; T (2, x);   T (3, w); T (8, f); T (2, c); T (14, x); T (2, y); T (2, f)]"
56.2,1312727,386713,12328960,610816,"[V f; U (1, f); U (14, y); U (3, h); T (64, c); Hoist_vars [c]; T (2, x);   T (3, w); T (4, f); T (2, c); T (14, x); T (2, y); T (4, f)]"
57.4,1336918,387564,12328960,610816,"[V f; U (1, f); U (14, y); U (3, h); T (64, c); Hoist_vars [c]; T (2, x);   T (3, w); T (2, f); T (2, c); T (14, x); T (2, y); T (8, f)]"
54.9,1375010,394319,12328960,610816,"[V f; U (1, f); U (14, y); U (3, h); T (64, c); Hoist_vars [c]; T (2, x);   T (3, w); T (1, f); T (2, c); T (14, x); T (2, y); T (16, f)]"
44.1,1237655,622494,22421504,17059840,"[V f; U (1, f); U (14, y); U (3, h); T (64, c); Hoist_vars [c]; T (1, x);   T (3, w); T (16, f); T (2, c); T (28, x); T (2, y); T (1, f)]"
43.4,1246486,625031,22421504,726016,"[V f; U (1, f); U (14, y); U (3, h); T (64, c); Hoist_vars [c]; T (1, x);   T (3, w); T (8, f); T (2, c); T (28, x); T (2, y); T (2, f)]"
42.9,1245845,656010,22421504,610816,"[V f; U (1, f); U (14, y); U (3, h); T (64, c); Hoist_vars [c]; T (1, x);   T (3, w); T (4, f); T (2, c); T (28, x); T (2, y); T (4, f)]"
41.9,1281056,689601,22421504,610816,"[V f; U (1, f); U (14, y); U (3, h); T (64, c); Hoist_vars [c]; T (1, x);   T (3, w); T (2, f); T (2, c); T (28, x); T (2, y); T (8, f)]"
43.7,1305052,649740,22421504,610816,"[V f; U (1, f); U (14, y); U (3, h); T (64, c); Hoist_vars [c]; T (1, x);   T (3, w); T (1, f); T (2, c); T (28, x); T (2, y); T (16, f)]"
75.5,2395094,202802,35782656,811520,"[V f; U (4, f); U (7, y); U (3, h); T (64, c); Hoist_vars [c]; T (28, x);   T (3, w); T (4, y); T (4, f); T (2, c); T (1, f); T (1, x); T (1, f)]"
74.6,2395340,209337,35782656,726016,"[V f; U (4, f); U (7, y); U (3, h); T (64, c); Hoist_vars [c]; T (28, x);   T (3, w); T (4, y); T (2, f); T (2, c); T (2, f); T (1, x); T (1, f)]"
74.4,2378333,235372,35782656,610816,"[V f; U (4, f); U (7, y); U (3, h); T (64, c); Hoist_vars [c]; T (28, x);   T (3, w); T (4, y); T (1, f); T (2, c); T (4, f); T (1, x); T (1, f)]"
74.6,2397588,209279,35782656,726016,"[V f; U (4, f); U (7, y); U (3, h); T (64, c); Hoist_vars [c]; T (28, x);   T (3, w); T (4, y); T (2, f); T (2, c); T (1, f); T (1, x); T (2, f)]"
75.0,2377468,215012,35782656,726016,"[V f; U (4, f); U (7, y); U (3, h); T (64, c); Hoist_vars [c]; T (28, x);   T (3, w); T (4, y); T (1, f); T (2, c); T (2, f); T (1, x); T (2, f)]"
75.0,2394380,214491,35782656,610816,"[V f; U (4, f); U (7, y); U (3, h); T (64, c); Hoist_vars [c]; T (28, x);   T (3, w); T (4, y); T (1, f); T (2, c); T (1, f); T (1, x); T (4, f)]"
75.2,2391159,187145,35782656,1114112,"[V f; U (4, f); U (7, y); U (3, h); T (64, c); Hoist_vars [c]; T (14, x);   T (3, w); T (4, y); T (4, f); T (2, c); T (1, f); T (2, x); T (1, f)]"
74.0,2382037,199644,35782656,913408,"[V f; U (4, f); U (7, y); U (3, h); T (64, c); Hoist_vars [c]; T (14, x);   T (3, w); T (4, y); T (2, f); T (2, c); T (2, f); T (2, x); T (1, f)]"
73.0,2393948,252964,35782656,913408,"[V f; U (4, f); U (7, y); U (3, h); T (64, c); Hoist_vars [c]; T (14, x);   T (3, w); T (4, y); T (1, f); T (2, c); T (4, f); T (2, x); T (1, f)]"
73.8,2393616,216001,35782656,726016,"[V f; U (4, f); U (7, y); U (3, h); T (64, c); Hoist_vars [c]; T (14, x);   T (3, w); T (4, y); T (2, f); T (2, c); T (1, f); T (2, x); T (2, f)]"
73.2,2397034,233789,35782656,726016,"[V f; U (4, f); U (7, y); U (3, h); T (64, c); Hoist_vars [c]; T (14, x);   T (3, w); T (4, y); T (1, f); T (2, c); T (2, f); T (2, x); T (2, f)]"
74.3,2393965,225449,35782656,610816,"[V f; U (4, f); U (7, y); U (3, h); T (64, c); Hoist_vars [c]; T (14, x);   T (3, w); T (4, y); T (1, f); T (2, c); T (1, f); T (2, x); T (4, f)]"
73.2,2350986,199562,35782656,1518592,"[V f; U (4, f); U (7, y); U (3, h); T (64, c); Hoist_vars [c]; T (7, x);   T (3, w); T (4, y); T (4, f); T (2, c); T (1, f); T (4, x); T (1, f)]"
75.3,2332766,221695,35782656,1518592,"[V f; U (4, f); U (7, y); U (3, h); T (64, c); Hoist_vars [c]; T (7, x);   T (3, w); T (4, y); T (2, f); T (2, c); T (2, f); T (4, x); T (1, f)]"
73.0,2351829,230317,35782656,1518592,"[V f; U (4, f); U (7, y); U (3, h); T (64, c); Hoist_vars [c]; T (7, x);   T (3, w); T (4, y); T (1, f); T (2, c); T (4, f); T (4, x); T (1, f)]"
72.8,2354501,241762,35782656,726016,"[V f; U (4, f); U (7, y); U (3, h); T (64, c); Hoist_vars [c]; T (7, x);   T (3, w); T (4, y); T (2, f); T (2, c); T (1, f); T (4, x); T (2, f)]"
74.5,2350794,248949,35782656,726016,"[V f; U (4, f); U (7, y); U (3, h); T (64, c); Hoist_vars [c]; T (7, x);   T (3, w); T (4, y); T (1, f); T (2, c); T (2, f); T (4, x); T (2, f)]"
70.4,2332638,349642,35782656,610816,"[V f; U (4, f); U (7, y); U (3, h); T (64, c); Hoist_vars [c]; T (7, x);   T (3, w); T (4, y); T (1, f); T (2, c); T (1, f); T (4, x); T (4, f)]"
72.4,2347582,232194,35782656,2426368,"[V f; U (4, f); U (7, y); U (3, h); T (64, c); Hoist_vars [c]; T (4, x);   T (3, w); T (4, y); T (4, f); T (2, c); T (1, f); T (7, x); T (1, f)]"
74.1,2344710,253852,35782656,2426368,"[V f; U (4, f); U (7, y); U (3, h); T (64, c); Hoist_vars [c]; T (4, x);   T (3, w); T (4, y); T (2, f); T (2, c); T (2, f); T (7, x); T (1, f)]"
69.2,2343556,352118,35782656,2426368,"[V f; U (4, f); U (7, y); U (3, h); T (64, c); Hoist_vars [c]; T (4, x);   T (3, w); T (4, y); T (1, f); T (2, c); T (4, f); T (7, x); T (1, f)]"
70.0,2332158,307121,35782656,726016,"[V f; U (4, f); U (7, y); U (3, h); T (64, c); Hoist_vars [c]; T (4, x);   T (3, w); T (4, y); T (2, f); T (2, c); T (1, f); T (7, x); T (2, f)]"
69.7,2350545,301540,35782656,726016,"[V f; U (4, f); U (7, y); U (3, h); T (64, c); Hoist_vars [c]; T (4, x);   T (3, w); T (4, y); T (1, f); T (2, c); T (2, f); T (7, x); T (2, f)]"
69.8,2342720,376432,35782656,610816,"[V f; U (4, f); U (7, y); U (3, h); T (64, c); Hoist_vars [c]; T (4, x);   T (3, w); T (4, y); T (1, f); T (2, c); T (1, f); T (7, x); T (4, f)]"
69.0,2362146,327120,35782656,4544512,"[V f; U (4, f); U (7, y); U (3, h); T (64, c); Hoist_vars [c]; T (2, x);   T (3, w); T (4, y); T (4, f); T (2, c); T (1, f); T (14, x); T (1, f)]"
67.6,2360416,397242,35782656,4544512,"[V f; U (4, f); U (7, y); U (3, h); T (64, c); Hoist_vars [c]; T (2, x);   T (3, w); T (4, y); T (2, f); T (2, c); T (2, f); T (14, x); T (1, f)]"
65.8,2347603,457595,35782656,4544512,"[V f; U (4, f); U (7, y); U (3, h); T (64, c); Hoist_vars [c]; T (2, x);   T (3, w); T (4, y); T (1, f); T (2, c); T (4, f); T (14, x); T (1, f)]"
67.9,2343462,428102,35782656,726016,"[V f; U (4, f); U (7, y); U (3, h); T (64, c); Hoist_vars [c]; T (2, x);   T (3, w); T (4, y); T (2, f); T (2, c); T (1, f); T (14, x); T (2, f)]"
67.0,2360865,416296,35782656,726016,"[V f; U (4, f); U (7, y); U (3, h); T (64, c); Hoist_vars [c]; T (2, x);   T (3, w); T (4, y); T (1, f); T (2, c); T (2, f); T (14, x); T (2, f)]"
66.8,2341031,413513,35782656,610816,"[V f; U (4, f); U (7, y); U (3, h); T (64, c); Hoist_vars [c]; T (2, x);   T (3, w); T (4, y); T (1, f); T (2, c); T (1, f); T (14, x); T (4, f)]"
59.3,2333343,571179,35782656,8780800,"[V f; U (4, f); U (7, y); U (3, h); T (64, c); Hoist_vars [c]; T (1, x);   T (3, w); T (4, y); T (4, f); T (2, c); T (1, f); T (28, x); T (1, f)]"
59.0,2320287,600938,35782656,8780800,"[V f; U (4, f); U (7, y); U (3, h); T (64, c); Hoist_vars [c]; T (1, x);   T (3, w); T (4, y); T (2, f); T (2, c); T (2, f); T (28, x); T (1, f)]"
55.5,2323074,847239,35782656,8780800,"[V f; U (4, f); U (7, y); U (3, h); T (64, c); Hoist_vars [c]; T (1, x);   T (3, w); T (4, y); T (1, f); T (2, c); T (4, f); T (28, x); T (1, f)]"
58.4,2313171,685329,35782656,726016,"[V f; U (4, f); U (7, y); U (3, h); T (64, c); Hoist_vars [c]; T (1, x);   T (3, w); T (4, y); T (2, f); T (2, c); T (1, f); T (28, x); T (2, f)]"
60.9,2323979,611733,35782656,726016,"[V f; U (4, f); U (7, y); U (3, h); T (64, c); Hoist_vars [c]; T (1, x);   T (3, w); T (4, y); T (1, f); T (2, c); T (2, f); T (28, x); T (2, f)]"
57.6,2321082,783315,35782656,610816,"[V f; U (4, f); U (7, y); U (3, h); T (64, c); Hoist_vars [c]; T (1, x);   T (3, w); T (4, y); T (1, f); T (2, c); T (1, f); T (28, x); T (4, f)]"
76.7,3981334,202830,62619648,2426368,"[V f; U (4, f); U (4, y); U (3, w); T (64, c); Hoist_vars [c]; T (28, x);   T (3, h); T (4, f); T (2, c); T (1, x); T (7, y); T (1, f)]"
74.9,3983132,260595,62619648,726016,"[V f; U (4, f); U (4, y); U (3, w); T (64, c); Hoist_vars [c]; T (28, x);   T (3, h); T (2, f); T (2, c); T (1, x); T (7, y); T (2, f)]"
75.2,3981209,290699,62619648,610816,"[V f; U (4, f); U (4, y); U (3, w); T (64, c); Hoist_vars [c]; T (28, x);   T (3, h); T (1, f); T (2, c); T (1, x); T (7, y); T (4, f)]"
71.8,3943030,331798,62619648,4501504,"[V f; U (4, f); U (4, y); U (3, w); T (64, c); Hoist_vars [c]; T (14, x);   T (3, h); T (4, f); T (2, c); T (2, x); T (7, y); T (1, f)]"
70.0,3940394,417895,62619648,726016,"[V f; U (4, f); U (4, y); U (3, w); T (64, c); Hoist_vars [c]; T (14, x);   T (3, h); T (2, f); T (2, c); T (2, x); T (7, y); T (2, f)]"
69.7,3941175,466854,62619648,610816,"[V f; U (4, f); U (4, y); U (3, w); T (64, c); Hoist_vars [c]; T (14, x);   T (3, h); T (1, f); T (2, c); T (2, x); T (7, y); T (4, f)]"
64.8,3904423,567685,62619648,8651776,"[V f; U (4, f); U (4, y); U (3, w); T (64, c); Hoist_vars [c]; T (7, x);   T (3, h); T (4, f); T (2, c); T (4, x); T (7, y); T (1, f)]"
63.2,3927665,666128,62619648,726016,"[V f; U (4, f); U (4, y); U (3, w); T (64, c); Hoist_vars [c]; T (7, x);   T (3, h); T (2, f); T (2, c); T (4, x); T (7, y); T (2, f)]"
62.9,3921848,751438,62619648,610816,"[V f; U (4, f); U (4, y); U (3, w); T (64, c); Hoist_vars [c]; T (7, x);   T (3, h); T (1, f); T (2, c); T (4, x); T (7, y); T (4, f)]"
56.3,3904825,916618,62619648,14877184,"[V f; U (4, f); U (4, y); U (3, w); T (64, c); Hoist_vars [c]; T (4, x);   T (3, h); T (4, f); T (2, c); T (7, x); T (7, y); T (1, f)]"
54.1,3906232,1114757,62619648,726016,"[V f; U (4, f); U (4, y); U (3, w); T (64, c); Hoist_vars [c]; T (4, x);   T (3, h); T (2, f); T (2, c); T (7, x); T (7, y); T (2, f)]"
52.5,3914558,1153296,62619648,610816,"[V f; U (4, f); U (4, y); U (3, w); T (64, c); Hoist_vars [c]; T (4, x);   T (3, h); T (1, f); T (2, c); T (7, x); T (7, y); T (4, f)]"
47.6,3921702,1445501,62619648,29403136,"[V f; U (4, f); U (4, y); U (3, w); T (64, c); Hoist_vars [c]; T (2, x);   T (3, h); T (4, f); T (2, c); T (14, x); T (7, y); T (1, f)]"
43.5,3926222,1672317,62619648,726016,"[V f; U (4, f); U (4, y); U (3, w); T (64, c); Hoist_vars [c]; T (2, x);   T (3, h); T (2, f); T (2, c); T (14, x); T (7, y); T (2, f)]"
43.1,3924785,1677284,62619648,610816,"[V f; U (4, f); U (4, y); U (3, w); T (64, c); Hoist_vars [c]; T (2, x);   T (3, h); T (1, f); T (2, c); T (14, x); T (7, y); T (4, f)]"
36.0,3863856,2201638,62619648,58455040,"[V f; U (4, f); U (4, y); U (3, w); T (64, c); Hoist_vars [c]; T (1, x);   T (3, h); T (4, f); T (2, c); T (28, x); T (7, y); T (1, f)]"
34.2,3849684,2548596,62619648,726016,"[V f; U (4, f); U (4, y); U (3, w); T (64, c); Hoist_vars [c]; T (1, x);   T (3, h); T (2, f); T (2, c); T (28, x); T (7, y); T (2, f)]"
37.6,3869915,2161232,62619648,610816,"[V f; U (4, f); U (4, y); U (3, w); T (64, c); Hoist_vars [c]; T (1, x);   T (3, h); T (1, f); T (2, c); T (28, x); T (7, y); T (4, f)]"
81.6,2454647,161794,37847040,1518592,"[V f; U (4, f); U (7, y); U (3, w); T (64, c); Hoist_vars [c]; T (28, x);   T (3, h); T (4, f); T (2, c); T (1, x); T (4, y); T (1, f)]"
81.3,2453712,200778,37847040,726016,"[V f; U (4, f); U (7, y); U (3, w); T (64, c); Hoist_vars [c]; T (28, x);   T (3, h); T (2, f); T (2, c); T (1, x); T (4, y); T (2, f)]"
78.9,2454886,229754,37847040,610816,"[V f; U (4, f); U (7, y); U (3, w); T (64, c); Hoist_vars [c]; T (28, x);   T (3, h); T (1, f); T (2, c); T (1, x); T (4, y); T (4, f)]"
79.3,2456989,227195,37847040,2707456,"[V f; U (4, f); U (7, y); U (3, w); T (64, c); Hoist_vars [c]; T (14, x);   T (3, h); T (4, f); T (2, c); T (2, x); T (4, y); T (1, f)]"
75.8,2455759,302143,37847040,726016,"[V f; U (4, f); U (7, y); U (3, w); T (64, c); Hoist_vars [c]; T (14, x);   T (3, h); T (2, f); T (2, c); T (2, x); T (4, y); T (2, f)]"
74.8,2458017,347703,37847040,610816,"[V f; U (4, f); U (7, y); U (3, w); T (64, c); Hoist_vars [c]; T (14, x);   T (3, h); T (1, f); T (2, c); T (2, x); T (4, y); T (4, f)]"
71.8,2420786,404905,37847040,5085184,"[V f; U (4, f); U (7, y); U (3, w); T (64, c); Hoist_vars [c]; T (7, x);   T (3, h); T (4, f); T (2, c); T (4, x); T (4, y); T (1, f)]"
69.5,2417442,501963,37847040,726016,"[V f; U (4, f); U (7, y); U (3, w); T (64, c); Hoist_vars [c]; T (7, x);   T (3, h); T (2, f); T (2, c); T (4, x); T (4, y); T (2, f)]"
71.0,2415730,532503,37847040,610816,"[V f; U (4, f); U (7, y); U (3, w); T (64, c); Hoist_vars [c]; T (7, x);   T (3, h); T (1, f); T (2, c); T (4, x); T (4, y); T (4, f)]"
66.5,2399571,612782,37847040,8651776,"[V f; U (4, f); U (7, y); U (3, w); T (64, c); Hoist_vars [c]; T (4, x);   T (3, h); T (4, f); T (2, c); T (7, x); T (4, y); T (1, f)]"
65.5,2399632,698893,37847040,726016,"[V f; U (4, f); U (7, y); U (3, w); T (64, c); Hoist_vars [c]; T (4, x);   T (3, h); T (2, f); T (2, c); T (7, x); T (4, y); T (2, f)]"
64.2,2408192,752871,37847040,610816,"[V f; U (4, f); U (7, y); U (3, w); T (64, c); Hoist_vars [c]; T (4, x);   T (3, h); T (1, f); T (2, c); T (7, x); T (4, y); T (4, f)]"
52.3,2398753,1074161,37847040,16973824,"[V f; U (4, f); U (7, y); U (3, w); T (64, c); Hoist_vars [c]; T (2, x);   T (3, h); T (4, f); T (2, c); T (14, x); T (4, y); T (1, f)]"
52.1,2399895,1156823,37847040,726016,"[V f; U (4, f); U (7, y); U (3, w); T (64, c); Hoist_vars [c]; T (2, x);   T (3, h); T (2, f); T (2, c); T (14, x); T (4, y); T (2, f)]"
52.7,2374924,1244371,37847040,610816,"[V f; U (4, f); U (7, y); U (3, w); T (64, c); Hoist_vars [c]; T (2, x);   T (3, h); T (1, f); T (2, c); T (14, x); T (4, y); T (4, f)]"
41.6,2343931,1568869,37847040,33617920,"[V f; U (4, f); U (7, y); U (3, w); T (64, c); Hoist_vars [c]; T (1, x);   T (3, h); T (4, f); T (2, c); T (28, x); T (4, y); T (1, f)]"
42.0,2336630,1830024,37847040,726016,"[V f; U (4, f); U (7, y); U (3, w); T (64, c); Hoist_vars [c]; T (1, x);   T (3, h); T (2, f); T (2, c); T (28, x); T (4, y); T (2, f)]"
40.6,2333052,1940275,37847040,610816,"[V f; U (4, f); U (7, y); U (3, w); T (64, c); Hoist_vars [c]; T (1, x);   T (3, h); T (1, f); T (2, c); T (28, x); T (4, y); T (4, f)]"
76.6,2627227,168408,12496896,1238016,"[V f; U (2, f); ULambda y; T (64, c); Hoist_vars [c]; T (28, x); T (3, w);   T (3, h); T (8, f); T (2, c); T (1, x);   Lambda_apply y [((Iter 1), (Arg 8)); ((Iter 2), (Arg 10))]; T (1, f)]"
75.6,2631697,198923,12496896,726016,"[V f; U (2, f); ULambda y; T (64, c); Hoist_vars [c]; T (28, x); T (3, w);   T (3, h); T (4, f); T (2, c); T (1, x);   Lambda_apply y [((Iter 1), (Arg 8)); ((Iter 2), (Arg 10))]; T (2, f)]"
74.5,2627128,242410,12496896,610816,"[V f; U (2, f); ULambda y; T (64, c); Hoist_vars [c]; T (28, x); T (3, w);   T (3, h); T (2, f); T (2, c); T (1, x);   Lambda_apply y [((Iter 1), (Arg 8)); ((Iter 2), (Arg 10))]; T (4, f)]"
73.0,2624423,290069,12496896,610816,"[V f; U (2, f); ULambda y; T (64, c); Hoist_vars [c]; T (28, x); T (3, w);   T (3, h); T (1, f); T (2, c); T (1, x);   Lambda_apply y [((Iter 1), (Arg 8)); ((Iter 2), (Arg 10))]; T (8, f)]"
75.1,2633070,218471,13381632,2131968,"[V f; U (2, f); ULambda y; T (64, c); Hoist_vars [c]; T (14, x); T (3, w);   T (3, h); T (8, f); T (2, c); T (2, x);   Lambda_apply y [((Iter 1), (Arg 8)); ((Iter 2), (Arg 10))]; T (1, f)]"
73.9,2623524,282310,13381632,726016,"[V f; U (2, f); ULambda y; T (64, c); Hoist_vars [c]; T (14, x); T (3, w);   T (3, h); T (4, f); T (2, c); T (2, x);   Lambda_apply y [((Iter 1), (Arg 8)); ((Iter 2), (Arg 10))]; T (2, f)]"
70.6,2622406,355082,13381632,610816,"[V f; U (2, f); ULambda y; T (64, c); Hoist_vars [c]; T (14, x); T (3, w);   T (3, h); T (2, f); T (2, c); T (2, x);   Lambda_apply y [((Iter 1), (Arg 8)); ((Iter 2), (Arg 10))]; T (4, f)]"
67.0,2624591,455330,13381632,610816,"[V f; U (2, f); ULambda y; T (64, c); Hoist_vars [c]; T (14, x); T (3, w);   T (3, h); T (1, f); T (2, c); T (2, x);   Lambda_apply y [((Iter 1), (Arg 8)); ((Iter 2), (Arg 10))]; T (8, f)]"
70.7,2374482,332861,15151104,3919872,"[V f; U (2, f); ULambda y; T (64, c); Hoist_vars [c]; T (7, x); T (3, w);   T (3, h); T (8, f); T (2, c); T (4, x);   Lambda_apply y [((Iter 1), (Arg 8)); ((Iter 2), (Arg 10))]; T (1, f)]"
70.4,2367310,436104,15151104,726016,"[V f; U (2, f); ULambda y; T (64, c); Hoist_vars [c]; T (7, x); T (3, w);   T (3, h); T (4, f); T (2, c); T (4, x);   Lambda_apply y [((Iter 1), (Arg 8)); ((Iter 2), (Arg 10))]; T (2, f)]"
65.8,2368578,540978,15151104,610816,"[V f; U (2, f); ULambda y; T (64, c); Hoist_vars [c]; T (7, x); T (3, w);   T (3, h); T (2, f); T (2, c); T (4, x);   Lambda_apply y [((Iter 1), (Arg 8)); ((Iter 2), (Arg 10))]; T (4, f)]"
63.6,2366723,714157,15151104,610816,"[V f; U (2, f); ULambda y; T (64, c); Hoist_vars [c]; T (7, x); T (3, w);   T (3, h); T (1, f); T (2, c); T (4, x);   Lambda_apply y [((Iter 1), (Arg 8)); ((Iter 2), (Arg 10))]; T (8, f)]"
64.2,2206944,535361,11354112,6601728,"[V f; U (2, f); ULambda y; T (64, c); Hoist_vars [c]; T (4, x); T (3, w);   T (3, h); T (8, f); T (2, c); T (7, x);   Lambda_apply y [((Iter 1), (Arg 8)); ((Iter 2), (Arg 10))]; T (1, f)]"
62.8,2201009,635953,11354112,726016,"[V f; U (2, f); ULambda y; T (64, c); Hoist_vars [c]; T (4, x); T (3, w);   T (3, h); T (4, f); T (2, c); T (7, x);   Lambda_apply y [((Iter 1), (Arg 8)); ((Iter 2), (Arg 10))]; T (2, f)]"
60.9,2207209,765100,11354112,610816,"[V f; U (2, f); ULambda y; T (64, c); Hoist_vars [c]; T (4, x); T (3, w);   T (3, h); T (2, f); T (2, c); T (7, x);   Lambda_apply y [((Iter 1), (Arg 8)); ((Iter 2), (Arg 10))]; T (4, f)]"
57.1,2219805,972081,11354112,610816,"[V f; U (2, f); ULambda y; T (64, c); Hoist_vars [c]; T (4, x); T (3, w);   T (3, h); T (1, f); T (2, c); T (7, x);   Lambda_apply y [((Iter 1), (Arg 8)); ((Iter 2), (Arg 10))]; T (8, f)]"
53.7,2145680,831931,18837504,12859392,"[V f; U (2, f); ULambda y; T (64, c); Hoist_vars [c]; T (2, x); T (3, w);   T (3, h); T (8, f); T (2, c); T (14, x);   Lambda_apply y [((Iter 1), (Arg 8)); ((Iter 2), (Arg 10))]; T (1, f)]"
50.9,2153653,1042423,18837504,726016,"[V f; U (2, f); ULambda y; T (64, c); Hoist_vars [c]; T (2, x); T (3, w);   T (3, h); T (4, f); T (2, c); T (14, x);   Lambda_apply y [((Iter 1), (Arg 8)); ((Iter 2), (Arg 10))]; T (2, f)]"
48.8,2164072,1135833,18837504,610816,"[V f; U (2, f); ULambda y; T (64, c); Hoist_vars [c]; T (2, x); T (3, w);   T (3, h); T (2, f); T (2, c); T (14, x);   Lambda_apply y [((Iter 1), (Arg 8)); ((Iter 2), (Arg 10))]; T (4, f)]"
49.5,2168150,1297184,18837504,610816,"[V f; U (2, f); ULambda y; T (64, c); Hoist_vars [c]; T (2, x); T (3, w);   T (3, h); T (1, f); T (2, c); T (14, x);   Lambda_apply y [((Iter 1), (Arg 8)); ((Iter 2), (Arg 10))]; T (8, f)]"
44.0,1939109,793914,33804288,25374720,"[V f; U (2, f); ULambda y; T (64, c); Hoist_vars [c]; T (1, x); T (3, w);   T (3, h); T (8, f); T (2, c); T (28, x);   Lambda_apply y [((Iter 1), (Arg 8)); ((Iter 2), (Arg 10))]; T (1, f)]"
41.2,1946803,862891,33804288,726016,"[V f; U (2, f); ULambda y; T (64, c); Hoist_vars [c]; T (1, x); T (3, w);   T (3, h); T (4, f); T (2, c); T (28, x);   Lambda_apply y [((Iter 1), (Arg 8)); ((Iter 2), (Arg 10))]; T (2, f)]"
41.4,1952432,892305,33804288,610816,"[V f; U (2, f); ULambda y; T (64, c); Hoist_vars [c]; T (1, x); T (3, w);   T (3, h); T (2, f); T (2, c); T (28, x);   Lambda_apply y [((Iter 1), (Arg 8)); ((Iter 2), (Arg 10))]; T (4, f)]"
42.1,1957666,863481,33804288,610816,"[V f; U (2, f); ULambda y; T (64, c); Hoist_vars [c]; T (1, x); T (3, w);   T (3, h); T (1, f); T (2, c); T (28, x);   Lambda_apply y [((Iter 1), (Arg 8)); ((Iter 2), (Arg 10))]; T (8, f)]"
76.5,2625259,165760,14819328,1304064,"[V f; U (2, f); ULambda y; T (64, c); Hoist_vars [c]; T (28, x); T (3, w);   T (3, h); T (8, f); T (2, c); T (1, x);   Lambda_apply y [((Iter 2), (Arg 8)); ((Iter 1), (Arg 12))]; T (1, f)]"
75.3,2623444,204042,14819328,726016,"[V f; U (2, f); ULambda y; T (64, c); Hoist_vars [c]; T (28, x); T (3, w);   T (3, h); T (4, f); T (2, c); T (1, x);   Lambda_apply y [((Iter 2), (Arg 8)); ((Iter 1), (Arg 12))]; T (2, f)]"
73.7,2624580,238602,14819328,610816,"[V f; U (2, f); ULambda y; T (64, c); Hoist_vars [c]; T (28, x); T (3, w);   T (3, h); T (2, f); T (2, c); T (1, x);   Lambda_apply y [((Iter 2), (Arg 8)); ((Iter 1), (Arg 12))]; T (4, f)]"
72.0,2621496,292215,14819328,610816,"[V f; U (2, f); ULambda y; T (64, c); Hoist_vars [c]; T (28, x); T (3, w);   T (3, h); T (1, f); T (2, c); T (1, x);   Lambda_apply y [((Iter 2), (Arg 8)); ((Iter 1), (Arg 12))]; T (8, f)]"
74.6,2623032,222300,15704064,2199552,"[V f; U (2, f); ULambda y; T (64, c); Hoist_vars [c]; T (14, x); T (3, w);   T (3, h); T (8, f); T (2, c); T (2, x);   Lambda_apply y [((Iter 2), (Arg 8)); ((Iter 1), (Arg 12))]; T (1, f)]"
73.6,2622479,272124,15704064,726016,"[V f; U (2, f); ULambda y; T (64, c); Hoist_vars [c]; T (14, x); T (3, w);   T (3, h); T (4, f); T (2, c); T (2, x);   Lambda_apply y [((Iter 2), (Arg 8)); ((Iter 1), (Arg 12))]; T (2, f)]"
71.0,2619090,353765,15704064,610816,"[V f; U (2, f); ULambda y; T (64, c); Hoist_vars [c]; T (14, x); T (3, w);   T (3, h); T (2, f); T (2, c); T (2, x);   Lambda_apply y [((Iter 2), (Arg 8)); ((Iter 1), (Arg 12))]; T (4, f)]"
68.0,2614837,452621,15704064,610816,"[V f; U (2, f); ULambda y; T (64, c); Hoist_vars [c]; T (14, x); T (3, w);   T (3, h); T (1, f); T (2, c); T (2, x);   Lambda_apply y [((Iter 2), (Arg 8)); ((Iter 1), (Arg 12))]; T (8, f)]"
71.3,2408539,315880,17473536,3990528,"[V f; U (2, f); ULambda y; T (64, c); Hoist_vars [c]; T (7, x); T (3, w);   T (3, h); T (8, f); T (2, c); T (4, x);   Lambda_apply y [((Iter 2), (Arg 8)); ((Iter 1), (Arg 12))]; T (1, f)]"
68.5,2404760,432568,17473536,726016,"[V f; U (2, f); ULambda y; T (64, c); Hoist_vars [c]; T (7, x); T (3, w);   T (3, h); T (4, f); T (2, c); T (4, x);   Lambda_apply y [((Iter 2), (Arg 8)); ((Iter 1), (Arg 12))]; T (2, f)]"
65.5,2408847,552598,17473536,610816,"[V f; U (2, f); ULambda y; T (64, c); Hoist_vars [c]; T (7, x); T (3, w);   T (3, h); T (2, f); T (2, c); T (4, x);   Lambda_apply y [((Iter 2), (Arg 8)); ((Iter 1), (Arg 12))]; T (4, f)]"
63.0,2398789,699286,17473536,610816,"[V f; U (2, f); ULambda y; T (64, c); Hoist_vars [c]; T (7, x); T (3, w);   T (3, h); T (1, f); T (2, c); T (4, x);   Lambda_apply y [((Iter 2), (Arg 8)); ((Iter 1), (Arg 12))]; T (8, f)]"
64.8,2226391,533401,12386304,6676992,"[V f; U (2, f); ULambda y; T (64, c); Hoist_vars [c]; T (4, x); T (3, w);   T (3, h); T (8, f); T (2, c); T (7, x);   Lambda_apply y [((Iter 2), (Arg 8)); ((Iter 1), (Arg 12))]; T (1, f)]"
64.5,2226050,599756,12386304,726016,"[V f; U (2, f); ULambda y; T (64, c); Hoist_vars [c]; T (4, x); T (3, w);   T (3, h); T (4, f); T (2, c); T (7, x);   Lambda_apply y [((Iter 2), (Arg 8)); ((Iter 1), (Arg 12))]; T (2, f)]"
60.7,2232126,748114,12386304,610816,"[V f; U (2, f); ULambda y; T (64, c); Hoist_vars [c]; T (4, x); T (3, w);   T (3, h); T (2, f); T (2, c); T (7, x);   Lambda_apply y [((Iter 2), (Arg 8)); ((Iter 1), (Arg 12))]; T (4, f)]"
57.4,2234977,1001085,12386304,610816,"[V f; U (2, f); ULambda y; T (64, c); Hoist_vars [c]; T (4, x); T (3, w);   T (3, h); T (1, f); T (2, c); T (7, x);   Lambda_apply y [((Iter 2), (Arg 8)); ((Iter 1), (Arg 12))]; T (8, f)]"
54.8,2143246,833150,20127744,12945408,"[V f; U (2, f); ULambda y; T (64, c); Hoist_vars [c]; T (2, x); T (3, w);   T (3, h); T (8, f); T (2, c); T (14, x);   Lambda_apply y [((Iter 2), (Arg 8)); ((Iter 1), (Arg 12))]; T (1, f)]"
53.7,2145498,1032903,20127744,726016,"[V f; U (2, f); ULambda y; T (64, c); Hoist_vars [c]; T (2, x); T (3, w);   T (3, h); T (4, f); T (2, c); T (14, x);   Lambda_apply y [((Iter 2), (Arg 8)); ((Iter 1), (Arg 12))]; T (2, f)]"
48.2,2163103,1215529,20127744,610816,"[V f; U (2, f); ULambda y; T (64, c); Hoist_vars [c]; T (2, x); T (3, w);   T (3, h); T (2, f); T (2, c); T (14, x);   Lambda_apply y [((Iter 2), (Arg 8)); ((Iter 1), (Arg 12))]; T (4, f)]"
47.3,2173494,1349335,20127744,610816,"[V f; U (2, f); ULambda y; T (64, c); Hoist_vars [c]; T (2, x); T (3, w);   T (3, h); T (1, f); T (2, c); T (14, x);   Lambda_apply y [((Iter 2), (Arg 8)); ((Iter 1), (Arg 12))]; T (8, f)]"
41.0,1943482,885142,35610624,25482240,"[V f; U (2, f); ULambda y; T (64, c); Hoist_vars [c]; T (1, x); T (3, w);   T (3, h); T (8, f); T (2, c); T (28, x);   Lambda_apply y [((Iter 2), (Arg 8)); ((Iter 1), (Arg 12))]; T (1, f)]"
41.8,1943461,864006,35610624,726016,"[V f; U (2, f); ULambda y; T (64, c); Hoist_vars [c]; T (1, x); T (3, w);   T (3, h); T (4, f); T (2, c); T (28, x);   Lambda_apply y [((Iter 2), (Arg 8)); ((Iter 1), (Arg 12))]; T (2, f)]"
42.2,1954111,923077,35610624,610816,"[V f; U (2, f); ULambda y; T (64, c); Hoist_vars [c]; T (1, x); T (3, w);   T (3, h); T (2, f); T (2, c); T (28, x);   Lambda_apply y [((Iter 2), (Arg 8)); ((Iter 1), (Arg 12))]; T (4, f)]"
41.4,1954884,872338,35610624,610816,"[V f; U (2, f); ULambda y; T (64, c); Hoist_vars [c]; T (1, x); T (3, w);   T (3, h); T (1, f); T (2, c); T (28, x);   Lambda_apply y [((Iter 2), (Arg 8)); ((Iter 1), (Arg 12))]; T (8, f)]"
74.3,2650296,193422,12496896,1238016,"[V f; U (2, f); ULambda y; T (64, c); Hoist_vars [c]; T (28, x); T (3, w);   T (3, h); T (8, f); T (2, c); T (1, x);   Lambda_apply y [((Iter 2), (Arg 9)); ((Iter 1), (Arg 10))]; T (1, f)]"
76.4,2641736,204472,12496896,726016,"[V f; U (2, f); ULambda y; T (64, c); Hoist_vars [c]; T (28, x); T (3, w);   T (3, h); T (4, f); T (2, c); T (1, x);   Lambda_apply y [((Iter 2), (Arg 9)); ((Iter 1), (Arg 10))]; T (2, f)]"
75.4,2645526,238867,12496896,610816,"[V f; U (2, f); ULambda y; T (64, c); Hoist_vars [c]; T (28, x); T (3, w);   T (3, h); T (2, f); T (2, c); T (1, x);   Lambda_apply y [((Iter 2), (Arg 9)); ((Iter 1), (Arg 10))]; T (4, f)]"
73.6,2643147,285207,12496896,610816,"[V f; U (2, f); ULambda y; T (64, c); Hoist_vars [c]; T (28, x); T (3, w);   T (3, h); T (1, f); T (2, c); T (1, x);   Lambda_apply y [((Iter 2), (Arg 9)); ((Iter 1), (Arg 10))]; T (8, f)]"
75.1,2647576,216605,13381632,2131968,"[V f; U (2, f); ULambda y; T (64, c); Hoist_vars [c]; T (14, x); T (3, w);   T (3, h); T (8, f); T (2, c); T (2, x);   Lambda_apply y [((Iter 2), (Arg 9)); ((Iter 1), (Arg 10))]; T (1, f)]"
73.4,2645809,286618,13381632,726016,"[V f; U (2, f); ULambda y; T (64, c); Hoist_vars [c]; T (14, x); T (3, w);   T (3, h); T (4, f); T (2, c); T (2, x);   Lambda_apply y [((Iter 2), (Arg 9)); ((Iter 1), (Arg 10))]; T (2, f)]"
70.7,2642927,347260,13381632,610816,"[V f; U (2, f); ULambda y; T (64, c); Hoist_vars [c]; T (14, x); T (3, w);   T (3, h); T (2, f); T (2, c); T (2, x);   Lambda_apply y [((Iter 2), (Arg 9)); ((Iter 1), (Arg 10))]; T (4, f)]"
68.9,2637719,447294,13381632,610816,"[V f; U (2, f); ULambda y; T (64, c); Hoist_vars [c]; T (14, x); T (3, w);   T (3, h); T (1, f); T (2, c); T (2, x);   Lambda_apply y [((Iter 2), (Arg 9)); ((Iter 1), (Arg 10))]; T (8, f)]"
72.5,2375487,323938,15151104,3919872,"[V f; U (2, f); ULambda y; T (64, c); Hoist_vars [c]; T (7, x); T (3, w);   T (3, h); T (8, f); T (2, c); T (4, x);   Lambda_apply y [((Iter 2), (Arg 9)); ((Iter 1), (Arg 10))]; T (1, f)]"
70.8,2371664,413713,15151104,726016,"[V f; U (2, f); ULambda y; T (64, c); Hoist_vars [c]; T (7, x); T (3, w);   T (3, h); T (4, f); T (2, c); T (4, x);   Lambda_apply y [((Iter 2), (Arg 9)); ((Iter 1), (Arg 10))]; T (2, f)]"
66.6,2375208,540985,15151104,610816,"[V f; U (2, f); ULambda y; T (64, c); Hoist_vars [c]; T (7, x); T (3, w);   T (3, h); T (2, f); T (2, c); T (4, x);   Lambda_apply y [((Iter 2), (Arg 9)); ((Iter 1), (Arg 10))]; T (4, f)]"
62.3,2370295,713171,15151104,610816,"[V f; U (2, f); ULambda y; T (64, c); Hoist_vars [c]; T (7, x); T (3, w);   T (3, h); T (1, f); T (2, c); T (4, x);   Lambda_apply y [((Iter 2), (Arg 9)); ((Iter 1), (Arg 10))]; T (8, f)]"
64.2,2195158,528864,11354112,6601728,"[V f; U (2, f); ULambda y; T (64, c); Hoist_vars [c]; T (4, x); T (3, w);   T (3, h); T (8, f); T (2, c); T (7, x);   Lambda_apply y [((Iter 2), (Arg 9)); ((Iter 1), (Arg 10))]; T (1, f)]"
63.0,2190854,635620,11354112,726016,"[V f; U (2, f); ULambda y; T (64, c); Hoist_vars [c]; T (4, x); T (3, w);   T (3, h); T (4, f); T (2, c); T (7, x);   Lambda_apply y [((Iter 2), (Arg 9)); ((Iter 1), (Arg 10))]; T (2, f)]"
61.2,2204489,728378,11354112,610816,"[V f; U (2, f); ULambda y; T (64, c); Hoist_vars [c]; T (4, x); T (3, w);   T (3, h); T (2, f); T (2, c); T (7, x);   Lambda_apply y [((Iter 2), (Arg 9)); ((Iter 1), (Arg 10))]; T (4, f)]"
58.2,2206892,1051176,11354112,610816,"[V f; U (2, f); ULambda y; T (64, c); Hoist_vars [c]; T (4, x); T (3, w);   T (3, h); T (1, f); T (2, c); T (7, x);   Lambda_apply y [((Iter 2), (Arg 9)); ((Iter 1), (Arg 10))]; T (8, f)]"
55.3,2144285,832135,18837504,12859392,"[V f; U (2, f); ULambda y; T (64, c); Hoist_vars [c]; T (2, x); T (3, w);   T (3, h); T (8, f); T (2, c); T (14, x);   Lambda_apply y [((Iter 2), (Arg 9)); ((Iter 1), (Arg 10))]; T (1, f)]"
52.8,2150312,991813,18837504,726016,"[V f; U (2, f); ULambda y; T (64, c); Hoist_vars [c]; T (2, x); T (3, w);   T (3, h); T (4, f); T (2, c); T (14, x);   Lambda_apply y [((Iter 2), (Arg 9)); ((Iter 1), (Arg 10))]; T (2, f)]"
49.1,2160652,1233382,18837504,610816,"[V f; U (2, f); ULambda y; T (64, c); Hoist_vars [c]; T (2, x); T (3, w);   T (3, h); T (2, f); T (2, c); T (14, x);   Lambda_apply y [((Iter 2), (Arg 9)); ((Iter 1), (Arg 10))]; T (4, f)]"
47.3,2174072,1312568,18837504,610816,"[V f; U (2, f); ULambda y; T (64, c); Hoist_vars [c]; T (2, x); T (3, w);   T (3, h); T (1, f); T (2, c); T (14, x);   Lambda_apply y [((Iter 2), (Arg 9)); ((Iter 1), (Arg 10))]; T (8, f)]"
41.5,1936163,846101,33804288,25374720,"[V f; U (2, f); ULambda y; T (64, c); Hoist_vars [c]; T (1, x); T (3, w);   T (3, h); T (8, f); T (2, c); T (28, x);   Lambda_apply y [((Iter 2), (Arg 9)); ((Iter 1), (Arg 10))]; T (1, f)]"
41.5,1940665,977035,33804288,726016,"[V f; U (2, f); ULambda y; T (64, c); Hoist_vars [c]; T (1, x); T (3, w);   T (3, h); T (4, f); T (2, c); T (28, x);   Lambda_apply y [((Iter 2), (Arg 9)); ((Iter 1), (Arg 10))]; T (2, f)]"
40.4,1952700,897508,33804288,610816,"[V f; U (2, f); ULambda y; T (64, c); Hoist_vars [c]; T (1, x); T (3, w);   T (3, h); T (2, f); T (2, c); T (28, x);   Lambda_apply y [((Iter 2), (Arg 9)); ((Iter 1), (Arg 10))]; T (4, f)]"
42.3,1954058,905242,33804288,610816,"[V f; U (2, f); ULambda y; T (64, c); Hoist_vars [c]; T (1, x); T (3, w);   T (3, h); T (1, f); T (2, c); T (28, x);   Lambda_apply y [((Iter 2), (Arg 9)); ((Iter 1), (Arg 10))]; T (8, f)]"
76.1,2088345,191045,12201984,1150464,"[V f; U (2, f); ULambda y; T (64, c); Hoist_vars [c]; T (28, x); T (3, w);   T (3, h); T (8, f); T (2, c); T (1, x);   Lambda_apply y [((Iter 1), (Arg 13)); ((Iter 1), (Arg 15))]; T (1, f)]"
76.1,2093991,186221,12201984,1065984,"[V f; U (2, f); ULambda y; T (64, c); Hoist_vars [c]; T (28, x); T (3, w);   T (3, h); T (4, f); T (2, c); T (1, x);   Lambda_apply y [((Iter 1), (Arg 13)); ((Iter 1), (Arg 15))]; T (2, f)]"
75.0,2088110,210431,12201984,610816,"[V f; U (2, f); ULambda y; T (64, c); Hoist_vars [c]; T (28, x); T (3, w);   T (3, h); T (2, f); T (2, c); T (1, x);   Lambda_apply y [((Iter 1), (Arg 13)); ((Iter 1), (Arg 15))]; T (4, f)]"
74.6,2087150,248214,12201984,610816,"[V f; U (2, f); ULambda y; T (64, c); Hoist_vars [c]; T (28, x); T (3, w);   T (3, h); T (1, f); T (2, c); T (1, x);   Lambda_apply y [((Iter 1), (Arg 13)); ((Iter 1), (Arg 15))]; T (8, f)]"
76.3,2084521,179791,12791808,1533952,"[V f; U (2, f); ULambda y; T (64, c); Hoist_vars [c]; T (14, x); T (3, w);   T (3, h); T (8, f); T (2, c); T (2, x);   Lambda_apply y [((Iter 1), (Arg 13)); ((Iter 1), (Arg 15))]; T (1, f)]"
74.7,2085133,222356,12791808,1065984,"[V f; U (2, f); ULambda y; T (64, c); Hoist_vars [c]; T (14, x); T (3, w);   T (3, h); T (4, f); T (2, c); T (2, x);   Lambda_apply y [((Iter 1), (Arg 13)); ((Iter 1), (Arg 15))]; T (2, f)]"
73.8,2085051,257826,12791808,610816,"[V f; U (2, f); ULambda y; T (64, c); Hoist_vars [c]; T (14, x); T (3, w);   T (3, h); T (2, f); T (2, c); T (2, x);   Lambda_apply y [((Iter 1), (Arg 13)); ((Iter 1), (Arg 15))]; T (4, f)]"
72.5,2082198,321444,12791808,610816,"[V f; U (2, f); ULambda y; T (64, c); Hoist_vars [c]; T (14, x); T (3, w);   T (3, h); T (1, f); T (2, c); T (2, x);   Lambda_apply y [((Iter 1), (Arg 13)); ((Iter 1), (Arg 15))]; T (8, f)]"
72.5,2041235,255952,13971456,2731008,"[V f; U (2, f); ULambda y; T (64, c); Hoist_vars [c]; T (7, x); T (3, w);   T (3, h); T (8, f); T (2, c); T (4, x);   Lambda_apply y [((Iter 1), (Arg 13)); ((Iter 1), (Arg 15))]; T (1, f)]"
71.3,2035465,310804,13971456,1065984,"[V f; U (2, f); ULambda y; T (64, c); Hoist_vars [c]; T (7, x); T (3, w);   T (3, h); T (4, f); T (2, c); T (4, x);   Lambda_apply y [((Iter 1), (Arg 13)); ((Iter 1), (Arg 15))]; T (2, f)]"
69.0,2036144,372989,13971456,610816,"[V f; U (2, f); ULambda y; T (64, c); Hoist_vars [c]; T (7, x); T (3, w);   T (3, h); T (2, f); T (2, c); T (4, x);   Lambda_apply y [((Iter 1), (Arg 13)); ((Iter 1), (Arg 15))]; T (4, f)]"
67.3,2031136,512770,13971456,610816,"[V f; U (2, f); ULambda y; T (64, c); Hoist_vars [c]; T (7, x); T (3, w);   T (3, h); T (1, f); T (2, c); T (4, x);   Lambda_apply y [((Iter 1), (Arg 13)); ((Iter 1), (Arg 15))]; T (8, f)]"
68.4,1826705,369318,9289728,4526592,"[V f; U (2, f); ULambda y; T (64, c); Hoist_vars [c]; T (4, x); T (3, w);   T (3, h); T (8, f); T (2, c); T (7, x);   Lambda_apply y [((Iter 1), (Arg 13)); ((Iter 1), (Arg 15))]; T (1, f)]"
65.4,1826168,475731,9289728,1065984,"[V f; U (2, f); ULambda y; T (64, c); Hoist_vars [c]; T (4, x); T (3, w);   T (3, h); T (4, f); T (2, c); T (7, x);   Lambda_apply y [((Iter 1), (Arg 13)); ((Iter 1), (Arg 15))]; T (2, f)]"
62.7,1821066,598219,9289728,610816,"[V f; U (2, f); ULambda y; T (64, c); Hoist_vars [c]; T (4, x); T (3, w);   T (3, h); T (2, f); T (2, c); T (7, x);   Lambda_apply y [((Iter 1), (Arg 13)); ((Iter 1), (Arg 15))]; T (4, f)]"
62.2,1813325,741310,9289728,610816,"[V f; U (2, f); ULambda y; T (64, c); Hoist_vars [c]; T (4, x); T (3, w);   T (3, h); T (1, f); T (2, c); T (7, x);   Lambda_apply y [((Iter 1), (Arg 13)); ((Iter 1), (Arg 15))]; T (8, f)]"
58.8,1629804,625729,14708736,8716288,"[V f; U (2, f); ULambda y; T (64, c); Hoist_vars [c]; T (2, x); T (3, w);   T (3, h); T (8, f); T (2, c); T (14, x);   Lambda_apply y [((Iter 1), (Arg 13)); ((Iter 1), (Arg 15))]; T (1, f)]"
57.5,1635585,688825,14708736,1065984,"[V f; U (2, f); ULambda y; T (64, c); Hoist_vars [c]; T (2, x); T (3, w);   T (3, h); T (4, f); T (2, c); T (14, x);   Lambda_apply y [((Iter 1), (Arg 13)); ((Iter 1), (Arg 15))]; T (2, f)]"
53.4,1645430,854153,14708736,610816,"[V f; U (2, f); ULambda y; T (64, c); Hoist_vars [c]; T (2, x); T (3, w);   T (3, h); T (2, f); T (2, c); T (14, x);   Lambda_apply y [((Iter 1), (Arg 13)); ((Iter 1), (Arg 15))]; T (4, f)]"
51.9,1654303,1033084,14708736,610816,"[V f; U (2, f); ULambda y; T (64, c); Hoist_vars [c]; T (2, x); T (3, w);   T (3, h); T (1, f); T (2, c); T (14, x);   Lambda_apply y [((Iter 1), (Arg 13)); ((Iter 1), (Arg 15))]; T (8, f)]"
44.0,1426941,608611,25546752,17095680,"[V f; U (2, f); ULambda y; T (64, c); Hoist_vars [c]; T (1, x); T (3, w);   T (3, h); T (8, f); T (2, c); T (28, x);   Lambda_apply y [((Iter 1), (Arg 13)); ((Iter 1), (Arg 15))]; T (1, f)]"
41.4,1436564,691621,25546752,1065984,"[V f; U (2, f); ULambda y; T (64, c); Hoist_vars [c]; T (1, x); T (3, w);   T (3, h); T (4, f); T (2, c); T (28, x);   Lambda_apply y [((Iter 1), (Arg 13)); ((Iter 1), (Arg 15))]; T (2, f)]"
45.1,1442908,654003,25546752,610816,"[V f; U (2, f); ULambda y; T (64, c); Hoist_vars [c]; T (1, x); T (3, w);   T (3, h); T (2, f); T (2, c); T (28, x);   Lambda_apply y [((Iter 1), (Arg 13)); ((Iter 1), (Arg 15))]; T (4, f)]"
46.1,1428973,619441,25546752,610816,"[V f; U (2, f); ULambda y; T (64, c); Hoist_vars [c]; T (1, x); T (3, w);   T (3, h); T (1, f); T (2, c); T (28, x);   Lambda_apply y [((Iter 1), (Arg 13)); ((Iter 1), (Arg 15))]; T (8, f)]"
77.3,2241962,141983,8368128,1238016,"[V f; U (1, f); ULambda y; U (3, h); T (64, c); Hoist_vars [c]; T (28, x);   T (3, w); T (16, f); T (2, c); T (1, x);   Lambda_apply y [((Iter 2), (Arg 9)); ((Iter 1), (Arg 10))]; T (1, f)]"
76.6,2242943,163785,8368128,726016,"[V f; U (1, f); ULambda y; U (3, h); T (64, c); Hoist_vars [c]; T (28, x);   T (3, w); T (8, f); T (2, c); T (1, x);   Lambda_apply y [((Iter 2), (Arg 9)); ((Iter 1), (Arg 10))]; T (2, f)]"
77.0,2243618,186467,8368128,610816,"[V f; U (1, f); ULambda y; U (3, h); T (64, c); Hoist_vars [c]; T (28, x);   T (3, w); T (4, f); T (2, c); T (1, x);   Lambda_apply y [((Iter 2), (Arg 9)); ((Iter 1), (Arg 10))]; T (4, f)]"
75.1,2239205,207604,8368128,610816,"[V f; U (1, f); ULambda y; U (3, h); T (64, c); Hoist_vars [c]; T (28, x);   T (3, w); T (2, f); T (2, c); T (1, x);   Lambda_apply y [((Iter 2), (Arg 9)); ((Iter 1), (Arg 10))]; T (8, f)]"
76.1,2224855,219384,8368128,610816,"[V f; U (1, f); ULambda y; U (3, h); T (64, c); Hoist_vars [c]; T (28, x);   T (3, w); T (1, f); T (2, c); T (1, x);   Lambda_apply y [((Iter 2), (Arg 9)); ((Iter 1), (Arg 10))]; T (16, f)]"
74.6,2237864,214019,9252864,2131968,"[V f; U (1, f); ULambda y; U (3, h); T (64, c); Hoist_vars [c]; T (14, x);   T (3, w); T (16, f); T (2, c); T (2, x);   Lambda_apply y [((Iter 2), (Arg 9)); ((Iter 1), (Arg 10))]; T (1, f)]"
73.8,2235750,244625,9252864,726016,"[V f; U (1, f); ULambda y; U (3, h); T (64, c); Hoist_vars [c]; T (14, x);   T (3, w); T (8, f); T (2, c); T (2, x);   Lambda_apply y [((Iter 2), (Arg 9)); ((Iter 1), (Arg 10))]; T (2, f)]"
73.2,2237340,274767,9252864,610816,"[V f; U (1, f); ULambda y; U (3, h); T (64, c); Hoist_vars [c]; T (14, x);   T (3, w); T (4, f); T (2, c); T (2, x);   Lambda_apply y [((Iter 2), (Arg 9)); ((Iter 1), (Arg 10))]; T (4, f)]"
72.0,2234778,321003,9252864,610816,"[V f; U (1, f); ULambda y; U (3, h); T (64, c); Hoist_vars [c]; T (14, x);   T (3, w); T (2, f); T (2, c); T (2, x);   Lambda_apply y [((Iter 2), (Arg 9)); ((Iter 1), (Arg 10))]; T (8, f)]"
70.7,2230402,355162,9252864,610816,"[V f; U (1, f); ULambda y; U (3, h); T (64, c); Hoist_vars [c]; T (14, x);   T (3, w); T (1, f); T (2, c); T (2, x);   Lambda_apply y [((Iter 2), (Arg 9)); ((Iter 1), (Arg 10))]; T (16, f)]"
70.2,2088990,312463,11022336,3919872,"[V f; U (1, f); ULambda y; U (3, h); T (64, c); Hoist_vars [c]; T (7, x);   T (3, w); T (16, f); T (2, c); T (4, x);   Lambda_apply y [((Iter 2), (Arg 9)); ((Iter 1), (Arg 10))]; T (1, f)]"
68.9,2090449,365238,11022336,726016,"[V f; U (1, f); ULambda y; U (3, h); T (64, c); Hoist_vars [c]; T (7, x);   T (3, w); T (8, f); T (2, c); T (4, x);   Lambda_apply y [((Iter 2), (Arg 9)); ((Iter 1), (Arg 10))]; T (2, f)]"
67.7,2086630,408612,11022336,610816,"[V f; U (1, f); ULambda y; U (3, h); T (64, c); Hoist_vars [c]; T (7, x);   T (3, w); T (4, f); T (2, c); T (4, x);   Lambda_apply y [((Iter 2), (Arg 9)); ((Iter 1), (Arg 10))]; T (4, f)]"
67.1,2078962,451592,11022336,610816,"[V f; U (1, f); ULambda y; U (3, h); T (64, c); Hoist_vars [c]; T (7, x);   T (3, w); T (2, f); T (2, c); T (4, x);   Lambda_apply y [((Iter 2), (Arg 9)); ((Iter 1), (Arg 10))]; T (8, f)]"
64.7,2072965,505016,11022336,610816,"[V f; U (1, f); ULambda y; U (3, h); T (64, c); Hoist_vars [c]; T (7, x);   T (3, w); T (1, f); T (2, c); T (4, x);   Lambda_apply y [((Iter 2), (Arg 9)); ((Iter 1), (Arg 10))]; T (16, f)]"
65.0,1887416,425167,9719808,6601728,"[V f; U (1, f); ULambda y; U (3, h); T (64, c); Hoist_vars [c]; T (4, x);   T (3, w); T (16, f); T (2, c); T (7, x);   Lambda_apply y [((Iter 2), (Arg 9)); ((Iter 1), (Arg 10))]; T (1, f)]"
62.8,1890144,496671,9719808,726016,"[V f; U (1, f); ULambda y; U (3, h); T (64, c); Hoist_vars [c]; T (4, x);   T (3, w); T (8, f); T (2, c); T (7, x);   Lambda_apply y [((Iter 2), (Arg 9)); ((Iter 1), (Arg 10))]; T (2, f)]"
62.3,1897039,524420,9719808,610816,"[V f; U (1, f); ULambda y; U (3, h); T (64, c); Hoist_vars [c]; T (4, x);   T (3, w); T (4, f); T (2, c); T (7, x);   Lambda_apply y [((Iter 2), (Arg 9)); ((Iter 1), (Arg 10))]; T (4, f)]"
60.9,1909277,565027,9719808,610816,"[V f; U (1, f); ULambda y; U (3, h); T (64, c); Hoist_vars [c]; T (4, x);   T (3, w); T (2, f); T (2, c); T (7, x);   Lambda_apply y [((Iter 2), (Arg 9)); ((Iter 1), (Arg 10))]; T (8, f)]"
59.6,1927443,559059,9719808,610816,"[V f; U (1, f); ULambda y; U (3, h); T (64, c); Hoist_vars [c]; T (4, x);   T (3, w); T (1, f); T (2, c); T (7, x);   Lambda_apply y [((Iter 2), (Arg 9)); ((Iter 1), (Arg 10))]; T (16, f)]"
52.2,1804838,493487,16945152,12859392,"[V f; U (1, f); ULambda y; U (3, h); T (64, c); Hoist_vars [c]; T (2, x);   T (3, w); T (16, f); T (2, c); T (14, x);   Lambda_apply y [((Iter 2), (Arg 9)); ((Iter 1), (Arg 10))]; T (1, f)]"
51.7,1811958,541388,16945152,726016,"[V f; U (1, f); ULambda y; U (3, h); T (64, c); Hoist_vars [c]; T (2, x);   T (3, w); T (8, f); T (2, c); T (14, x);   Lambda_apply y [((Iter 2), (Arg 9)); ((Iter 1), (Arg 10))]; T (2, f)]"
49.9,1823942,585648,16945152,610816,"[V f; U (1, f); ULambda y; U (3, h); T (64, c); Hoist_vars [c]; T (2, x);   T (3, w); T (4, f); T (2, c); T (14, x);   Lambda_apply y [((Iter 2), (Arg 9)); ((Iter 1), (Arg 10))]; T (4, f)]"
52.5,1851021,513390,16945152,610816,"[V f; U (1, f); ULambda y; U (3, h); T (64, c); Hoist_vars [c]; T (2, x);   T (3, w); T (2, f); T (2, c); T (14, x);   Lambda_apply y [((Iter 2), (Arg 9)); ((Iter 1), (Arg 10))]; T (8, f)]"
52.4,1899569,516746,16945152,610816,"[V f; U (1, f); ULambda y; U (3, h); T (64, c); Hoist_vars [c]; T (2, x);   T (3, w); T (1, f); T (2, c); T (14, x);   Lambda_apply y [((Iter 2), (Arg 9)); ((Iter 1), (Arg 10))]; T (16, f)]"
38.2,1754401,906591,31395840,25374720,"[V f; U (1, f); ULambda y; U (3, h); T (64, c); Hoist_vars [c]; T (1, x);   T (3, w); T (16, f); T (2, c); T (28, x);   Lambda_apply y [((Iter 2), (Arg 9)); ((Iter 1), (Arg 10))]; T (1, f)]"
38.9,1763128,890499,31395840,726016,"[V f; U (1, f); ULambda y; U (3, h); T (64, c); Hoist_vars [c]; T (1, x);   T (3, w); T (8, f); T (2, c); T (28, x);   Lambda_apply y [((Iter 2), (Arg 9)); ((Iter 1), (Arg 10))]; T (2, f)]"
39.9,1779352,839310,31395840,610816,"[V f; U (1, f); ULambda y; U (3, h); T (64, c); Hoist_vars [c]; T (1, x);   T (3, w); T (4, f); T (2, c); T (28, x);   Lambda_apply y [((Iter 2), (Arg 9)); ((Iter 1), (Arg 10))]; T (4, f)]"
39.2,1806855,808579,31395840,610816,"[V f; U (1, f); ULambda y; U (3, h); T (64, c); Hoist_vars [c]; T (1, x);   T (3, w); T (2, f); T (2, c); T (28, x);   Lambda_apply y [((Iter 2), (Arg 9)); ((Iter 1), (Arg 10))]; T (8, f)]"
39.4,1838492,822792,31395840,610816,"[V f; U (1, f); ULambda y; U (3, h); T (64, c); Hoist_vars [c]; T (1, x);   T (3, w); T (1, f); T (2, c); T (28, x);   Lambda_apply y [((Iter 2), (Arg 9)); ((Iter 1), (Arg 10))]; T (16, f)]"
86.0,1991161,152756,5271552,1238016,"[V f; U (2, f); ULambda y; U (3, h); T (64, c); Hoist_vars [c]; T (28, x);   T (3, w); T (8, f); T (2, c); T (1, x);   Lambda_apply y [((Iter 2), (Arg 9)); ((Iter 1), (Arg 10))]; T (1, f)]"
85.4,1994198,169495,5271552,726016,"[V f; U (2, f); ULambda y; U (3, h); T (64, c); Hoist_vars [c]; T (28, x);   T (3, w); T (4, f); T (2, c); T (1, x);   Lambda_apply y [((Iter 2), (Arg 9)); ((Iter 1), (Arg 10))]; T (2, f)]"
84.0,1991018,200170,5271552,610816,"[V f; U (2, f); ULambda y; U (3, h); T (64, c); Hoist_vars [c]; T (28, x);   T (3, w); T (2, f); T (2, c); T (1, x);   Lambda_apply y [((Iter 2), (Arg 9)); ((Iter 1), (Arg 10))]; T (4, f)]"
83.4,1993353,224794,5271552,610816,"[V f; U (2, f); ULambda y; U (3, h); T (64, c); Hoist_vars [c]; T (28, x);   T (3, w); T (1, f); T (2, c); T (1, x);   Lambda_apply y [((Iter 2), (Arg 9)); ((Iter 1), (Arg 10))]; T (8, f)]"
83.5,1993539,199413,6156288,2131968,"[V f; U (2, f); ULambda y; U (3, h); T (64, c); Hoist_vars [c]; T (14, x);   T (3, w); T (8, f); T (2, c); T (2, x);   Lambda_apply y [((Iter 2), (Arg 9)); ((Iter 1), (Arg 10))]; T (1, f)]"
82.0,1993322,243821,6156288,726016,"[V f; U (2, f); ULambda y; U (3, h); T (64, c); Hoist_vars [c]; T (14, x);   T (3, w); T (4, f); T (2, c); T (2, x);   Lambda_apply y [((Iter 2), (Arg 9)); ((Iter 1), (Arg 10))]; T (2, f)]"
81.4,1991187,296485,6156288,610816,"[V f; U (2, f); ULambda y; U (3, h); T (64, c); Hoist_vars [c]; T (14, x);   T (3, w); T (2, f); T (2, c); T (2, x);   Lambda_apply y [((Iter 2), (Arg 9)); ((Iter 1), (Arg 10))]; T (4, f)]"
80.0,1987840,330359,6156288,610816,"[V f; U (2, f); ULambda y; U (3, h); T (64, c); Hoist_vars [c]; T (14, x);   T (3, w); T (1, f); T (2, c); T (2, x);   Lambda_apply y [((Iter 2), (Arg 9)); ((Iter 1), (Arg 10))]; T (8, f)]"
79.7,1923857,328290,7925760,3919872,"[V f; U (2, f); ULambda y; U (3, h); T (64, c); Hoist_vars [c]; T (7, x);   T (3, w); T (8, f); T (2, c); T (4, x);   Lambda_apply y [((Iter 2), (Arg 9)); ((Iter 1), (Arg 10))]; T (1, f)]"
76.6,1924494,385818,7925760,726016,"[V f; U (2, f); ULambda y; U (3, h); T (64, c); Hoist_vars [c]; T (7, x);   T (3, w); T (4, f); T (2, c); T (4, x);   Lambda_apply y [((Iter 2), (Arg 9)); ((Iter 1), (Arg 10))]; T (2, f)]"
75.9,1920931,460178,7925760,610816,"[V f; U (2, f); ULambda y; U (3, h); T (64, c); Hoist_vars [c]; T (7, x);   T (3, w); T (2, f); T (2, c); T (4, x);   Lambda_apply y [((Iter 2), (Arg 9)); ((Iter 1), (Arg 10))]; T (4, f)]"
73.8,1916918,520823,7925760,610816,"[V f; U (2, f); ULambda y; U (3, h); T (64, c); Hoist_vars [c]; T (7, x);   T (3, w); T (1, f); T (2, c); T (4, x);   Lambda_apply y [((Iter 2), (Arg 9)); ((Iter 1), (Arg 10))]; T (8, f)]"
72.3,1840404,484758,10579968,6601728,"[V f; U (2, f); ULambda y; U (3, h); T (64, c); Hoist_vars [c]; T (4, x);   T (3, w); T (8, f); T (2, c); T (7, x);   Lambda_apply y [((Iter 2), (Arg 9)); ((Iter 1), (Arg 10))]; T (1, f)]"
71.1,1844651,552856,10579968,726016,"[V f; U (2, f); ULambda y; U (3, h); T (64, c); Hoist_vars [c]; T (4, x);   T (3, w); T (4, f); T (2, c); T (7, x);   Lambda_apply y [((Iter 2), (Arg 9)); ((Iter 1), (Arg 10))]; T (2, f)]"
69.2,1848245,604666,10579968,610816,"[V f; U (2, f); ULambda y; U (3, h); T (64, c); Hoist_vars [c]; T (4, x);   T (3, w); T (2, f); T (2, c); T (7, x);   Lambda_apply y [((Iter 2), (Arg 9)); ((Iter 1), (Arg 10))]; T (4, f)]"
66.2,1852671,720861,10579968,610816,"[V f; U (2, f); ULambda y; U (3, h); T (64, c); Hoist_vars [c]; T (4, x);   T (3, w); T (1, f); T (2, c); T (7, x);   Lambda_apply y [((Iter 2), (Arg 9)); ((Iter 1), (Arg 10))]; T (8, f)]"
58.2,1809023,780670,16773120,12859392,"[V f; U (2, f); ULambda y; U (3, h); T (64, c); Hoist_vars [c]; T (2, x);   T (3, w); T (8, f); T (2, c); T (14, x);   Lambda_apply y [((Iter 2), (Arg 9)); ((Iter 1), (Arg 10))]; T (1, f)]"
57.8,1813292,764716,16773120,726016,"[V f; U (2, f); ULambda y; U (3, h); T (64, c); Hoist_vars [c]; T (2, x);   T (3, w); T (4, f); T (2, c); T (14, x);   Lambda_apply y [((Iter 2), (Arg 9)); ((Iter 1), (Arg 10))]; T (2, f)]"
56.0,1825207,879468,16773120,610816,"[V f; U (2, f); ULambda y; U (3, h); T (64, c); Hoist_vars [c]; T (2, x);   T (3, w); T (2, f); T (2, c); T (14, x);   Lambda_apply y [((Iter 2), (Arg 9)); ((Iter 1), (Arg 10))]; T (4, f)]"
60.1,1835113,853669,16773120,610816,"[V f; U (2, f); ULambda y; U (3, h); T (64, c); Hoist_vars [c]; T (2, x);   T (3, w); T (1, f); T (2, c); T (14, x);   Lambda_apply y [((Iter 2), (Arg 9)); ((Iter 1), (Arg 10))]; T (8, f)]"
46.6,1758848,832985,28299264,25374720,"[V f; U (2, f); ULambda y; U (3, h); T (64, c); Hoist_vars [c]; T (1, x);   T (3, w); T (8, f); T (2, c); T (28, x);   Lambda_apply y [((Iter 2), (Arg 9)); ((Iter 1), (Arg 10))]; T (1, f)]"
47.1,1762012,827061,28299264,726016,"[V f; U (2, f); ULambda y; U (3, h); T (64, c); Hoist_vars [c]; T (1, x);   T (3, w); T (4, f); T (2, c); T (28, x);   Lambda_apply y [((Iter 2), (Arg 9)); ((Iter 1), (Arg 10))]; T (2, f)]"
46.5,1773408,886476,28299264,610816,"[V f; U (2, f); ULambda y; U (3, h); T (64, c); Hoist_vars [c]; T (1, x);   T (3, w); T (2, f); T (2, c); T (28, x);   Lambda_apply y [((Iter 2), (Arg 9)); ((Iter 1), (Arg 10))]; T (4, f)]"
47.5,1773385,856847,28299264,610816,"[V f; U (2, f); ULambda y; U (3, h); T (64, c); Hoist_vars [c]; T (1, x);   T (3, w); T (1, f); T (2, c); T (28, x);   Lambda_apply y [((Iter 2), (Arg 9)); ((Iter 1), (Arg 10))]; T (8, f)]"
83.0,2918753,207496,44298240,811520,"[V f; U (4, f); ULambda y; U (3, h); T (64, c); Hoist_vars [c]; T (28, x);   T (3, w); Lambda_apply y [((Iter 2), (Arg 5)); ((Iter 3), (Arg 6))];   T (4, f); T (2, c); T (1, f); T (1, x); T (1, f)]"
83.1,2917878,207460,44298240,726016,"[V f; U (4, f); ULambda y; U (3, h); T (64, c); Hoist_vars [c]; T (28, x);   T (3, w); Lambda_apply y [((Iter 2), (Arg 5)); ((Iter 3), (Arg 6))];   T (2, f); T (2, c); T (2, f); T (1, x); T (1, f)]"
80.5,2922846,226686,44298240,610816,"[V f; U (4, f); ULambda y; U (3, h); T (64, c); Hoist_vars [c]; T (28, x);   T (3, w); Lambda_apply y [((Iter 2), (Arg 5)); ((Iter 3), (Arg 6))];   T (1, f); T (2, c); T (4, f); T (1, x); T (1, f)]"
82.3,2918795,215519,44298240,726016,"[V f; U (4, f); ULambda y; U (3, h); T (64, c); Hoist_vars [c]; T (28, x);   T (3, w); Lambda_apply y [((Iter 2), (Arg 5)); ((Iter 3), (Arg 6))];   T (2, f); T (2, c); T (1, f); T (1, x); T (2, f)]"
81.7,2919012,223277,44298240,726016,"[V f; U (4, f); ULambda y; U (3, h); T (64, c); Hoist_vars [c]; T (28, x);   T (3, w); Lambda_apply y [((Iter 2), (Arg 5)); ((Iter 3), (Arg 6))];   T (1, f); T (2, c); T (2, f); T (1, x); T (2, f)]"
80.7,2921283,235893,44298240,610816,"[V f; U (4, f); ULambda y; U (3, h); T (64, c); Hoist_vars [c]; T (28, x);   T (3, w); Lambda_apply y [((Iter 2), (Arg 5)); ((Iter 3), (Arg 6))];   T (1, f); T (2, c); T (1, f); T (1, x); T (4, f)]"
82.0,2915521,205138,44298240,1114112,"[V f; U (4, f); ULambda y; U (3, h); T (64, c); Hoist_vars [c]; T (14, x);   T (3, w); Lambda_apply y [((Iter 2), (Arg 5)); ((Iter 3), (Arg 6))];   T (4, f); T (2, c); T (1, f); T (2, x); T (1, f)]"
81.9,2917609,213718,44298240,913408,"[V f; U (4, f); ULambda y; U (3, h); T (64, c); Hoist_vars [c]; T (14, x);   T (3, w); Lambda_apply y [((Iter 2), (Arg 5)); ((Iter 3), (Arg 6))];   T (2, f); T (2, c); T (2, f); T (2, x); T (1, f)]"
83.7,2917182,191561,44298240,913408,"[V f; U (4, f); ULambda y; U (3, h); T (64, c); Hoist_vars [c]; T (14, x);   T (3, w); Lambda_apply y [((Iter 2), (Arg 5)); ((Iter 3), (Arg 6))];   T (1, f); T (2, c); T (4, f); T (2, x); T (1, f)]"
80.8,2920779,222025,44298240,726016,"[V f; U (4, f); ULambda y; U (3, h); T (64, c); Hoist_vars [c]; T (14, x);   T (3, w); Lambda_apply y [((Iter 2), (Arg 5)); ((Iter 3), (Arg 6))];   T (2, f); T (2, c); T (1, f); T (2, x); T (2, f)]"
81.6,2917095,237911,44298240,726016,"[V f; U (4, f); ULambda y; U (3, h); T (64, c); Hoist_vars [c]; T (14, x);   T (3, w); Lambda_apply y [((Iter 2), (Arg 5)); ((Iter 3), (Arg 6))];   T (1, f); T (2, c); T (2, f); T (2, x); T (2, f)]"
79.5,2917003,240671,44298240,610816,"[V f; U (4, f); ULambda y; U (3, h); T (64, c); Hoist_vars [c]; T (14, x);   T (3, w); Lambda_apply y [((Iter 2), (Arg 5)); ((Iter 3), (Arg 6))];   T (1, f); T (2, c); T (1, f); T (2, x); T (4, f)]"
81.2,2850108,226762,44298240,1518592,"[V f; U (4, f); ULambda y; U (3, h); T (64, c); Hoist_vars [c]; T (7, x);   T (3, w); Lambda_apply y [((Iter 2), (Arg 5)); ((Iter 3), (Arg 6))];   T (4, f); T (2, c); T (1, f); T (4, x); T (1, f)]"
81.6,2867287,212321,44298240,1518592,"[V f; U (4, f); ULambda y; U (3, h); T (64, c); Hoist_vars [c]; T (7, x);   T (3, w); Lambda_apply y [((Iter 2), (Arg 5)); ((Iter 3), (Arg 6))];   T (2, f); T (2, c); T (2, f); T (4, x); T (1, f)]"
81.4,2867349,249896,44298240,1518592,"[V f; U (4, f); ULambda y; U (3, h); T (64, c); Hoist_vars [c]; T (7, x);   T (3, w); Lambda_apply y [((Iter 2), (Arg 5)); ((Iter 3), (Arg 6))];   T (1, f); T (2, c); T (4, f); T (4, x); T (1, f)]"
81.2,2865165,230422,44298240,726016,"[V f; U (4, f); ULambda y; U (3, h); T (64, c); Hoist_vars [c]; T (7, x);   T (3, w); Lambda_apply y [((Iter 2), (Arg 5)); ((Iter 3), (Arg 6))];   T (2, f); T (2, c); T (1, f); T (4, x); T (2, f)]"
77.2,2863953,353794,44298240,726016,"[V f; U (4, f); ULambda y; U (3, h); T (64, c); Hoist_vars [c]; T (7, x);   T (3, w); Lambda_apply y [((Iter 2), (Arg 5)); ((Iter 3), (Arg 6))];   T (1, f); T (2, c); T (2, f); T (4, x); T (2, f)]"
80.3,2865245,274352,44298240,610816,"[V f; U (4, f); ULambda y; U (3, h); T (64, c); Hoist_vars [c]; T (7, x);   T (3, w); Lambda_apply y [((Iter 2), (Arg 5)); ((Iter 3), (Arg 6))];   T (1, f); T (2, c); T (1, f); T (4, x); T (4, f)]"
79.0,2869366,264508,44298240,2426368,"[V f; U (4, f); ULambda y; U (3, h); T (64, c); Hoist_vars [c]; T (4, x);   T (3, w); Lambda_apply y [((Iter 2), (Arg 5)); ((Iter 3), (Arg 6))];   T (4, f); T (2, c); T (1, f); T (7, x); T (1, f)]"
78.9,2865974,305894,44298240,2426368,"[V f; U (4, f); ULambda y; U (3, h); T (64, c); Hoist_vars [c]; T (4, x);   T (3, w); Lambda_apply y [((Iter 2), (Arg 5)); ((Iter 3), (Arg 6))];   T (2, f); T (2, c); T (2, f); T (7, x); T (1, f)]"
80.4,2869054,268801,44298240,2426368,"[V f; U (4, f); ULambda y; U (3, h); T (64, c); Hoist_vars [c]; T (4, x);   T (3, w); Lambda_apply y [((Iter 2), (Arg 5)); ((Iter 3), (Arg 6))];   T (1, f); T (2, c); T (4, f); T (7, x); T (1, f)]"
79.2,2861168,279280,44298240,726016,"[V f; U (4, f); ULambda y; U (3, h); T (64, c); Hoist_vars [c]; T (4, x);   T (3, w); Lambda_apply y [((Iter 2), (Arg 5)); ((Iter 3), (Arg 6))];   T (2, f); T (2, c); T (1, f); T (7, x); T (2, f)]"
78.3,2864385,311019,44298240,726016,"[V f; U (4, f); ULambda y; U (3, h); T (64, c); Hoist_vars [c]; T (4, x);   T (3, w); Lambda_apply y [((Iter 2), (Arg 5)); ((Iter 3), (Arg 6))];   T (1, f); T (2, c); T (2, f); T (7, x); T (2, f)]"
76.9,2868063,332170,44298240,610816,"[V f; U (4, f); ULambda y; U (3, h); T (64, c); Hoist_vars [c]; T (4, x);   T (3, w); Lambda_apply y [((Iter 2), (Arg 5)); ((Iter 3), (Arg 6))];   T (1, f); T (2, c); T (1, f); T (7, x); T (4, f)]"
74.8,2881995,380052,44298240,4544512,"[V f; U (4, f); ULambda y; U (3, h); T (64, c); Hoist_vars [c]; T (2, x);   T (3, w); Lambda_apply y [((Iter 2), (Arg 5)); ((Iter 3), (Arg 6))];   T (4, f); T (2, c); T (1, f); T (14, x); T (1, f)]"
74.2,2881404,358366,44298240,4544512,"[V f; U (4, f); ULambda y; U (3, h); T (64, c); Hoist_vars [c]; T (2, x);   T (3, w); Lambda_apply y [((Iter 2), (Arg 5)); ((Iter 3), (Arg 6))];   T (2, f); T (2, c); T (2, f); T (14, x); T (1, f)]"
74.9,2878889,374679,44298240,4544512,"[V f; U (4, f); ULambda y; U (3, h); T (64, c); Hoist_vars [c]; T (2, x);   T (3, w); Lambda_apply y [((Iter 2), (Arg 5)); ((Iter 3), (Arg 6))];   T (1, f); T (2, c); T (4, f); T (14, x); T (1, f)]"
71.5,2878698,486443,44298240,726016,"[V f; U (4, f); ULambda y; U (3, h); T (64, c); Hoist_vars [c]; T (2, x);   T (3, w); Lambda_apply y [((Iter 2), (Arg 5)); ((Iter 3), (Arg 6))];   T (2, f); T (2, c); T (1, f); T (14, x); T (2, f)]"
73.3,2876044,390987,44298240,726016,"[V f; U (4, f); ULambda y; U (3, h); T (64, c); Hoist_vars [c]; T (2, x);   T (3, w); Lambda_apply y [((Iter 2), (Arg 5)); ((Iter 3), (Arg 6))];   T (1, f); T (2, c); T (2, f); T (14, x); T (2, f)]"
70.4,2884550,423124,44298240,610816,"[V f; U (4, f); ULambda y; U (3, h); T (64, c); Hoist_vars [c]; T (2, x);   T (3, w); Lambda_apply y [((Iter 2), (Arg 5)); ((Iter 3), (Arg 6))];   T (1, f); T (2, c); T (1, f); T (14, x); T (4, f)]"
67.2,2850818,494296,44298240,8780800,"[V f; U (4, f); ULambda y; U (3, h); T (64, c); Hoist_vars [c]; T (1, x);   T (3, w); Lambda_apply y [((Iter 2), (Arg 5)); ((Iter 3), (Arg 6))];   T (4, f); T (2, c); T (1, f); T (28, x); T (1, f)]"
65.5,2847695,548069,44298240,8780800,"[V f; U (4, f); ULambda y; U (3, h); T (64, c); Hoist_vars [c]; T (1, x);   T (3, w); Lambda_apply y [((Iter 2), (Arg 5)); ((Iter 3), (Arg 6))];   T (2, f); T (2, c); T (2, f); T (28, x); T (1, f)]"
66.8,2829416,503587,44298240,8780800,"[V f; U (4, f); ULambda y; U (3, h); T (64, c); Hoist_vars [c]; T (1, x);   T (3, w); Lambda_apply y [((Iter 2), (Arg 5)); ((Iter 3), (Arg 6))];   T (1, f); T (2, c); T (4, f); T (28, x); T (1, f)]"
63.3,2852851,585793,44298240,726016,"[V f; U (4, f); ULambda y; U (3, h); T (64, c); Hoist_vars [c]; T (1, x);   T (3, w); Lambda_apply y [((Iter 2), (Arg 5)); ((Iter 3), (Arg 6))];   T (2, f); T (2, c); T (1, f); T (28, x); T (2, f)]"
61.6,2850640,716762,44298240,726016,"[V f; U (4, f); ULambda y; U (3, h); T (64, c); Hoist_vars [c]; T (1, x);   T (3, w); Lambda_apply y [((Iter 2), (Arg 5)); ((Iter 3), (Arg 6))];   T (1, f); T (2, c); T (2, f); T (28, x); T (2, f)]"
66.4,2844508,652062,44298240,610816,"[V f; U (4, f); ULambda y; U (3, h); T (64, c); Hoist_vars [c]; T (1, x);   T (3, w); Lambda_apply y [((Iter 2), (Arg 5)); ((Iter 3), (Arg 6))];   T (1, f); T (2, c); T (1, f); T (28, x); T (4, f)]"
83.3,2972330,170245,46448640,1843200,"[V f; U (4, f); ULambda y; U (3, w); T (64, c); Hoist_vars [c]; T (28, x);   T (3, h); T (4, f); T (2, c); T (1, x);   Lambda_apply y [((Iter 2), (Arg 5)); ((Iter 3), (Arg 6))]; T (1, f)]"
81.5,2965675,222228,46448640,726016,"[V f; U (4, f); ULambda y; U (3, w); T (64, c); Hoist_vars [c]; T (28, x);   T (3, h); T (2, f); T (2, c); T (1, x);   Lambda_apply y [((Iter 2), (Arg 5)); ((Iter 3), (Arg 6))]; T (2, f)]"
80.4,2966688,252927,46448640,610816,"[V f; U (4, f); ULambda y; U (3, w); T (64, c); Hoist_vars [c]; T (28, x);   T (3, h); T (1, f); T (2, c); T (1, x);   Lambda_apply y [((Iter 2), (Arg 5)); ((Iter 3), (Arg 6))]; T (4, f)]"
78.3,2967953,263945,46448640,3328000,"[V f; U (4, f); ULambda y; U (3, w); T (64, c); Hoist_vars [c]; T (14, x);   T (3, h); T (4, f); T (2, c); T (2, x);   Lambda_apply y [((Iter 2), (Arg 5)); ((Iter 3), (Arg 6))]; T (1, f)]"
76.2,2962330,344890,46448640,726016,"[V f; U (4, f); ULambda y; U (3, w); T (64, c); Hoist_vars [c]; T (14, x);   T (3, h); T (2, f); T (2, c); T (2, x);   Lambda_apply y [((Iter 2), (Arg 5)); ((Iter 3), (Arg 6))]; T (2, f)]"
74.4,2945318,381901,46448640,610816,"[V f; U (4, f); ULambda y; U (3, w); T (64, c); Hoist_vars [c]; T (14, x);   T (3, h); T (1, f); T (2, c); T (2, x);   Lambda_apply y [((Iter 2), (Arg 5)); ((Iter 3), (Arg 6))]; T (4, f)]"
72.9,2909876,461648,46448640,6297600,"[V f; U (4, f); ULambda y; U (3, w); T (64, c); Hoist_vars [c]; T (7, x);   T (3, h); T (4, f); T (2, c); T (4, x);   Lambda_apply y [((Iter 2), (Arg 5)); ((Iter 3), (Arg 6))]; T (1, f)]"
70.5,2912734,556033,46448640,726016,"[V f; U (4, f); ULambda y; U (3, w); T (64, c); Hoist_vars [c]; T (7, x);   T (3, h); T (2, f); T (2, c); T (4, x);   Lambda_apply y [((Iter 2), (Arg 5)); ((Iter 3), (Arg 6))]; T (2, f)]"
69.2,2912982,601402,46448640,610816,"[V f; U (4, f); ULambda y; U (3, w); T (64, c); Hoist_vars [c]; T (7, x);   T (3, h); T (1, f); T (2, c); T (4, x);   Lambda_apply y [((Iter 2), (Arg 5)); ((Iter 3), (Arg 6))]; T (4, f)]"
65.2,2907083,686786,46448640,10752000,"[V f; U (4, f); ULambda y; U (3, w); T (64, c); Hoist_vars [c]; T (4, x);   T (3, h); T (4, f); T (2, c); T (7, x);   Lambda_apply y [((Iter 2), (Arg 5)); ((Iter 3), (Arg 6))]; T (1, f)]"
64.9,2904395,795620,46448640,726016,"[V f; U (4, f); ULambda y; U (3, w); T (64, c); Hoist_vars [c]; T (4, x);   T (3, h); T (2, f); T (2, c); T (7, x);   Lambda_apply y [((Iter 2), (Arg 5)); ((Iter 3), (Arg 6))]; T (2, f)]"
59.6,2907959,925056,46448640,610816,"[V f; U (4, f); ULambda y; U (3, w); T (64, c); Hoist_vars [c]; T (4, x);   T (3, h); T (1, f); T (2, c); T (7, x);   Lambda_apply y [((Iter 2), (Arg 5)); ((Iter 3), (Arg 6))]; T (4, f)]"
52.7,2914429,1180077,46448640,21145600,"[V f; U (4, f); ULambda y; U (3, w); T (64, c); Hoist_vars [c]; T (2, x);   T (3, h); T (4, f); T (2, c); T (14, x);   Lambda_apply y [((Iter 2), (Arg 5)); ((Iter 3), (Arg 6))]; T (1, f)]"
53.1,2908186,1286884,46448640,726016,"[V f; U (4, f); ULambda y; U (3, w); T (64, c); Hoist_vars [c]; T (2, x);   T (3, h); T (2, f); T (2, c); T (14, x);   Lambda_apply y [((Iter 2), (Arg 5)); ((Iter 3), (Arg 6))]; T (2, f)]"
49.0,2889967,1421215,46448640,610816,"[V f; U (4, f); ULambda y; U (3, w); T (64, c); Hoist_vars [c]; T (2, x);   T (3, h); T (1, f); T (2, c); T (14, x);   Lambda_apply y [((Iter 2), (Arg 5)); ((Iter 3), (Arg 6))]; T (4, f)]"
37.5,2858264,1900063,46448640,41932800,"[V f; U (4, f); ULambda y; U (3, w); T (64, c); Hoist_vars [c]; T (1, x);   T (3, h); T (4, f); T (2, c); T (28, x);   Lambda_apply y [((Iter 2), (Arg 5)); ((Iter 3), (Arg 6))]; T (1, f)]"
37.0,2856192,2083050,46448640,726016,"[V f; U (4, f); ULambda y; U (3, w); T (64, c); Hoist_vars [c]; T (1, x);   T (3, h); T (2, f); T (2, c); T (28, x);   Lambda_apply y [((Iter 2), (Arg 5)); ((Iter 3), (Arg 6))]; T (2, f)]"
39.5,2860117,2077898,46448640,610816,"[V f; U (4, f); ULambda y; U (3, w); T (64, c); Hoist_vars [c]; T (1, x);   T (3, h); T (1, f); T (2, c); T (28, x);   Lambda_apply y [((Iter 2), (Arg 5)); ((Iter 3), (Arg 6))]; T (4, f)]"
