31.4,7009651,3348013,17350656,10814464,"[V f; U (4, f); U (7, y); T (32, c); Hoist_vars [c]; T (7, x); T (3, w);   T (3, h); T (32, c); T (16, f); T (1, y); T (1, c); T (1, f); T (1, c)]"
31.4,6994682,3318263,17350656,10814464,"[V f; U (4, f); U (7, y); T (32, c); Hoist_vars [c]; T (7, x); T (3, w);   T (3, h); T (32, c); T (8, f); T (1, y); T (1, c); T (2, f); T (1, c)]"
31.8,7003951,3307275,17350656,10814464,"[V f; U (4, f); U (7, y); T (32, c); Hoist_vars [c]; T (7, x); T (3, w);   T (3, h); T (32, c); T (4, f); T (1, y); T (1, c); T (4, f); T (1, c)]"
31.9,6969033,3305286,17350656,10814464,"[V f; U (4, f); U (7, y); T (32, c); Hoist_vars [c]; T (7, x); T (3, w);   T (3, h); T (32, c); T (2, f); T (1, y); T (1, c); T (8, f); T (1, c)]"
32.4,6963518,3318906,17350656,10814464,"[V f; U (4, f); U (7, y); T (32, c); Hoist_vars [c]; T (7, x); T (3, w);   T (3, h); T (32, c); T (1, f); T (1, y); T (1, c); T (16, f); T (1, c)]"
33.0,6994916,3385260,17350656,10864640,"[V f; U (4, f); U (7, y); T (32, c); Hoist_vars [c]; T (7, x); T (3, w);   T (3, h); T (16, c); T (16, f); T (1, y); T (2, c); T (1, f); T (1, c)]"
33.0,6999039,3406266,17350656,10864640,"[V f; U (4, f); U (7, y); T (32, c); Hoist_vars [c]; T (7, x); T (3, w);   T (3, h); T (16, c); T (8, f); T (1, y); T (2, c); T (2, f); T (1, c)]"
31.9,6963518,3328748,17350656,10864640,"[V f; U (4, f); U (7, y); T (32, c); Hoist_vars [c]; T (7, x); T (3, w);   T (3, h); T (16, c); T (4, f); T (1, y); T (2, c); T (4, f); T (1, c)]"
31.2,6981739,3333667,17350656,10864640,"[V f; U (4, f); U (7, y); T (32, c); Hoist_vars [c]; T (7, x); T (3, w);   T (3, h); T (16, c); T (2, f); T (1, y); T (2, c); T (8, f); T (1, c)]"
31.6,7007915,3313567,17350656,10864640,"[V f; U (4, f); U (7, y); T (32, c); Hoist_vars [c]; T (7, x); T (3, w);   T (3, h); T (16, c); T (1, f); T (1, y); T (2, c); T (16, f); T (1, c)]"
34.9,7015300,3365031,17350656,9720832,"[V f; U (4, f); U (7, y); T (32, c); Hoist_vars [c]; T (7, x); T (3, w);   T (3, h); T (8, c); T (16, f); T (1, y); T (4, c); T (1, f); T (1, c)]"
35.6,6961252,3304655,17350656,9803776,"[V f; U (4, f); U (7, y); T (32, c); Hoist_vars [c]; T (7, x); T (3, w);   T (3, h); T (8, c); T (8, f); T (1, y); T (4, c); T (2, f); T (1, c)]"
32.4,6984402,3298840,17350656,9969664,"[V f; U (4, f); U (7, y); T (32, c); Hoist_vars [c]; T (7, x); T (3, w);   T (3, h); T (8, c); T (4, f); T (1, y); T (4, c); T (4, f); T (1, c)]"
31.0,6973984,3324450,17350656,10301440,"[V f; U (4, f); U (7, y); T (32, c); Hoist_vars [c]; T (7, x); T (3, w);   T (3, h); T (8, c); T (2, f); T (1, y); T (4, c); T (8, f); T (1, c)]"
32.5,6966342,3331664,17350656,10814464,"[V f; U (4, f); U (7, y); T (32, c); Hoist_vars [c]; T (7, x); T (3, w);   T (3, h); T (8, c); T (1, f); T (1, y); T (4, c); T (16, f); T (1, c)]"
35.6,6993118,3302961,17350656,9921536,"[V f; U (4, f); U (7, y); T (32, c); Hoist_vars [c]; T (7, x); T (3, w);   T (3, h); T (4, c); T (16, f); T (1, y); T (8, c); T (1, f); T (1, c)]"
37.3,6999725,3292116,17350656,10004480,"[V f; U (4, f); U (7, y); T (32, c); Hoist_vars [c]; T (7, x); T (3, w);   T (3, h); T (4, c); T (8, f); T (1, y); T (8, c); T (2, f); T (1, c)]"
32.7,7015784,3362878,17350656,10170368,"[V f; U (4, f); U (7, y); T (32, c); Hoist_vars [c]; T (7, x); T (3, w);   T (3, h); T (4, c); T (4, f); T (1, y); T (8, c); T (4, f); T (1, c)]"
31.6,6989523,3332012,17350656,10150912,"[V f; U (4, f); U (7, y); T (32, c); Hoist_vars [c]; T (7, x); T (3, w);   T (3, h); T (4, c); T (2, f); T (1, y); T (8, c); T (8, f); T (1, c)]"
31.9,6996374,3358901,17350656,10814464,"[V f; U (4, f); U (7, y); T (32, c); Hoist_vars [c]; T (7, x); T (3, w);   T (3, h); T (4, c); T (1, f); T (1, y); T (8, c); T (16, f); T (1, c)]"
37.5,6964851,3179392,17350656,10322944,"[V f; U (4, f); U (7, y); T (32, c); Hoist_vars [c]; T (7, x); T (3, w);   T (3, h); T (2, c); T (16, f); T (1, y); T (16, c); T (1, f); T (1, c)]"
38.1,6957837,3141068,17350656,10405888,"[V f; U (4, f); U (7, y); T (32, c); Hoist_vars [c]; T (7, x); T (3, w);   T (3, h); T (2, c); T (8, f); T (1, y); T (16, c); T (2, f); T (1, c)]"
33.9,6975921,3196228,17350656,9819136,"[V f; U (4, f); U (7, y); T (32, c); Hoist_vars [c]; T (7, x); T (3, w);   T (3, h); T (2, c); T (4, f); T (1, y); T (16, c); T (4, f); T (1, c)]"
32.2,6955049,3257654,17350656,10150912,"[V f; U (4, f); U (7, y); T (32, c); Hoist_vars [c]; T (7, x); T (3, w);   T (3, h); T (2, c); T (2, f); T (1, y); T (16, c); T (8, f); T (1, c)]"
31.7,6984965,3339738,17350656,10814464,"[V f; U (4, f); U (7, y); T (32, c); Hoist_vars [c]; T (7, x); T (3, w);   T (3, h); T (2, c); T (1, f); T (1, y); T (16, c); T (16, f); T (1, c)]"
43.9,6963776,2119621,17350656,11125760,"[V f; U (4, f); U (7, y); T (32, c); Hoist_vars [c]; T (7, x); T (3, w);   T (3, h); T (1, c); T (16, f); T (1, y); T (32, c); T (1, f); T (1, c)]"
41.7,6944801,2249425,17350656,9653248,"[V f; U (4, f); U (7, y); T (32, c); Hoist_vars [c]; T (7, x); T (3, w);   T (3, h); T (1, c); T (8, f); T (1, y); T (32, c); T (2, f); T (1, c)]"
37.8,6953385,2498262,17350656,9819136,"[V f; U (4, f); U (7, y); T (32, c); Hoist_vars [c]; T (7, x); T (3, w);   T (3, h); T (1, c); T (4, f); T (1, y); T (32, c); T (4, f); T (1, c)]"
34.7,6959259,2826414,17350656,10150912,"[V f; U (4, f); U (7, y); T (32, c); Hoist_vars [c]; T (7, x); T (3, w);   T (3, h); T (1, c); T (2, f); T (1, y); T (32, c); T (8, f); T (1, c)]"
31.6,7001506,3308669,17350656,10814464,"[V f; U (4, f); U (7, y); T (32, c); Hoist_vars [c]; T (7, x); T (3, w);   T (3, h); T (1, c); T (1, f); T (1, y); T (32, c); T (16, f); T (1, c)]"
33.5,6965712,3346238,17350656,10864640,"[V f; U (4, f); U (7, y); T (32, c); Hoist_vars [c]; T (7, x); T (3, w);   T (3, h); T (16, c); T (16, f); T (1, y); T (1, c); T (1, f); T (2, c)]"
33.3,6980871,3358230,17350656,10864640,"[V f; U (4, f); U (7, y); T (32, c); Hoist_vars [c]; T (7, x); T (3, w);   T (3, h); T (16, c); T (8, f); T (1, y); T (1, c); T (2, f); T (2, c)]"
34.2,6973166,3344417,17350656,10864640,"[V f; U (4, f); U (7, y); T (32, c); Hoist_vars [c]; T (7, x); T (3, w);   T (3, h); T (16, c); T (4, f); T (1, y); T (1, c); T (4, f); T (2, c)]"
33.6,6961942,3352595,17350656,10864640,"[V f; U (4, f); U (7, y); T (32, c); Hoist_vars [c]; T (7, x); T (3, w);   T (3, h); T (16, c); T (2, f); T (1, y); T (1, c); T (8, f); T (2, c)]"
34.0,6980614,3392313,17350656,10864640,"[V f; U (4, f); U (7, y); T (32, c); Hoist_vars [c]; T (7, x); T (3, w);   T (3, h); T (16, c); T (1, f); T (1, y); T (1, c); T (16, f); T (2, c)]"
35.6,6981751,3307358,17350656,9720832,"[V f; U (4, f); U (7, y); T (32, c); Hoist_vars [c]; T (7, x); T (3, w);   T (3, h); T (8, c); T (16, f); T (1, y); T (2, c); T (1, f); T (2, c)]"
36.6,6967080,3287660,17350656,9803776,"[V f; U (4, f); U (7, y); T (32, c); Hoist_vars [c]; T (7, x); T (3, w);   T (3, h); T (8, c); T (8, f); T (1, y); T (2, c); T (2, f); T (2, c)]"
34.3,6989503,3387739,17350656,9969664,"[V f; U (4, f); U (7, y); T (32, c); Hoist_vars [c]; T (7, x); T (3, w);   T (3, h); T (8, c); T (4, f); T (1, y); T (2, c); T (4, f); T (2, c)]"
34.7,6997562,3367792,17350656,10301440,"[V f; U (4, f); U (7, y); T (32, c); Hoist_vars [c]; T (7, x); T (3, w);   T (3, h); T (8, c); T (2, f); T (1, y); T (2, c); T (8, f); T (2, c)]"
33.4,7002949,3348796,17350656,10864640,"[V f; U (4, f); U (7, y); T (32, c); Hoist_vars [c]; T (7, x); T (3, w);   T (3, h); T (8, c); T (1, f); T (1, y); T (2, c); T (16, f); T (2, c)]"
36.1,6990096,3352204,17350656,9921536,"[V f; U (4, f); U (7, y); T (32, c); Hoist_vars [c]; T (7, x); T (3, w);   T (3, h); T (4, c); T (16, f); T (1, y); T (4, c); T (1, f); T (2, c)]"
37.1,6982262,3345696,17350656,10004480,"[V f; U (4, f); U (7, y); T (32, c); Hoist_vars [c]; T (7, x); T (3, w);   T (3, h); T (4, c); T (8, f); T (1, y); T (4, c); T (2, f); T (2, c)]"
35.0,6989584,3366681,17350656,10170368,"[V f; U (4, f); U (7, y); T (32, c); Hoist_vars [c]; T (7, x); T (3, w);   T (3, h); T (4, c); T (4, f); T (1, y); T (4, c); T (4, f); T (2, c)]"
34.5,7006453,3380057,17350656,10201088,"[V f; U (4, f); U (7, y); T (32, c); Hoist_vars [c]; T (7, x); T (3, w);   T (3, h); T (4, c); T (2, f); T (1, y); T (4, c); T (8, f); T (2, c)]"
33.5,6992307,3354738,17350656,10864640,"[V f; U (4, f); U (7, y); T (32, c); Hoist_vars [c]; T (7, x); T (3, w);   T (3, h); T (4, c); T (1, f); T (1, y); T (4, c); T (16, f); T (2, c)]"
36.9,6965062,3140702,17350656,10322944,"[V f; U (4, f); U (7, y); T (32, c); Hoist_vars [c]; T (7, x); T (3, w);   T (3, h); T (2, c); T (16, f); T (1, y); T (8, c); T (1, f); T (2, c)]"
37.7,6967198,3088912,17350656,10405888,"[V f; U (4, f); U (7, y); T (32, c); Hoist_vars [c]; T (7, x); T (3, w);   T (3, h); T (2, c); T (8, f); T (1, y); T (8, c); T (2, f); T (2, c)]"
36.5,6963399,3230324,17350656,9869312,"[V f; U (4, f); U (7, y); T (32, c); Hoist_vars [c]; T (7, x); T (3, w);   T (3, h); T (2, c); T (4, f); T (1, y); T (8, c); T (4, f); T (2, c)]"
34.9,6948582,3305825,17350656,10201088,"[V f; U (4, f); U (7, y); T (32, c); Hoist_vars [c]; T (7, x); T (3, w);   T (3, h); T (2, c); T (2, f); T (1, y); T (8, c); T (8, f); T (2, c)]"
33.0,6977437,3389482,17350656,10864640,"[V f; U (4, f); U (7, y); T (32, c); Hoist_vars [c]; T (7, x); T (3, w);   T (3, h); T (2, c); T (1, f); T (1, y); T (8, c); T (16, f); T (2, c)]"
44.4,6969743,2097049,17350656,11125760,"[V f; U (4, f); U (7, y); T (32, c); Hoist_vars [c]; T (7, x); T (3, w);   T (3, h); T (1, c); T (16, f); T (1, y); T (16, c); T (1, f); T (2, c)]"
43.1,6963924,2274057,17350656,9703424,"[V f; U (4, f); U (7, y); T (32, c); Hoist_vars [c]; T (7, x); T (3, w);   T (3, h); T (1, c); T (8, f); T (1, y); T (16, c); T (2, f); T (2, c)]"
39.7,6951884,2507764,17350656,9869312,"[V f; U (4, f); U (7, y); T (32, c); Hoist_vars [c]; T (7, x); T (3, w);   T (3, h); T (1, c); T (4, f); T (1, y); T (16, c); T (4, f); T (2, c)]"
36.6,6971442,2824337,17350656,10201088,"[V f; U (4, f); U (7, y); T (32, c); Hoist_vars [c]; T (7, x); T (3, w);   T (3, h); T (1, c); T (2, f); T (1, y); T (16, c); T (8, f); T (2, c)]"
33.4,7013699,3349708,17350656,10864640,"[V f; U (4, f); U (7, y); T (32, c); Hoist_vars [c]; T (7, x); T (3, w);   T (3, h); T (1, c); T (1, f); T (1, y); T (16, c); T (16, f); T (2, c)]"
36.1,6961106,3322314,17350656,9720832,"[V f; U (4, f); U (7, y); T (32, c); Hoist_vars [c]; T (7, x); T (3, w);   T (3, h); T (8, c); T (16, f); T (1, y); T (1, c); T (1, f); T (4, c)]"
35.0,6976009,3343484,17350656,9803776,"[V f; U (4, f); U (7, y); T (32, c); Hoist_vars [c]; T (7, x); T (3, w);   T (3, h); T (8, c); T (8, f); T (1, y); T (1, c); T (2, f); T (4, c)]"
34.7,6981291,3401724,17350656,9969664,"[V f; U (4, f); U (7, y); T (32, c); Hoist_vars [c]; T (7, x); T (3, w);   T (3, h); T (8, c); T (4, f); T (1, y); T (1, c); T (4, f); T (4, c)]"
34.1,6968099,3334632,17350656,10301440,"[V f; U (4, f); U (7, y); T (32, c); Hoist_vars [c]; T (7, x); T (3, w);   T (3, h); T (8, c); T (2, f); T (1, y); T (1, c); T (8, f); T (4, c)]"
35.3,7015867,3280482,17350656,9720832,"[V f; U (4, f); U (7, y); T (32, c); Hoist_vars [c]; T (7, x); T (3, w);   T (3, h); T (8, c); T (1, f); T (1, y); T (1, c); T (16, f); T (4, c)]"
35.7,6986702,3356499,17350656,9921536,"[V f; U (4, f); U (7, y); T (32, c); Hoist_vars [c]; T (7, x); T (3, w);   T (3, h); T (4, c); T (16, f); T (1, y); T (2, c); T (1, f); T (4, c)]"
36.4,6978452,3293184,17350656,10004480,"[V f; U (4, f); U (7, y); T (32, c); Hoist_vars [c]; T (7, x); T (3, w);   T (3, h); T (4, c); T (8, f); T (1, y); T (2, c); T (2, f); T (4, c)]"
35.0,7008031,3370032,17350656,10170368,"[V f; U (4, f); U (7, y); T (32, c); Hoist_vars [c]; T (7, x); T (3, w);   T (3, h); T (4, c); T (4, f); T (1, y); T (2, c); T (4, f); T (4, c)]"
34.8,7004823,3386501,17350656,10301440,"[V f; U (4, f); U (7, y); T (32, c); Hoist_vars [c]; T (7, x); T (3, w);   T (3, h); T (4, c); T (2, f); T (1, y); T (2, c); T (8, f); T (4, c)]"
35.7,7013190,3409106,17350656,9720832,"[V f; U (4, f); U (7, y); T (32, c); Hoist_vars [c]; T (7, x); T (3, w);   T (3, h); T (4, c); T (1, f); T (1, y); T (2, c); T (16, f); T (4, c)]"
37.8,6968343,3136056,17350656,10322944,"[V f; U (4, f); U (7, y); T (32, c); Hoist_vars [c]; T (7, x); T (3, w);   T (3, h); T (2, c); T (16, f); T (1, y); T (4, c); T (1, f); T (4, c)]"
37.4,6981050,3173621,17350656,10405888,"[V f; U (4, f); U (7, y); T (32, c); Hoist_vars [c]; T (7, x); T (3, w);   T (3, h); T (2, c); T (8, f); T (1, y); T (4, c); T (2, f); T (4, c)]"
37.9,6962127,3217187,17350656,9969664,"[V f; U (4, f); U (7, y); T (32, c); Hoist_vars [c]; T (7, x); T (3, w);   T (3, h); T (2, c); T (4, f); T (1, y); T (4, c); T (4, f); T (4, c)]"
35.8,6964656,3274861,17350656,10301440,"[V f; U (4, f); U (7, y); T (32, c); Hoist_vars [c]; T (7, x); T (3, w);   T (3, h); T (2, c); T (2, f); T (1, y); T (4, c); T (8, f); T (4, c)]"
35.5,7002062,3420381,17350656,9720832,"[V f; U (4, f); U (7, y); T (32, c); Hoist_vars [c]; T (7, x); T (3, w);   T (3, h); T (2, c); T (1, f); T (1, y); T (4, c); T (16, f); T (4, c)]"
44.5,6971923,2116489,17350656,11125760,"[V f; U (4, f); U (7, y); T (32, c); Hoist_vars [c]; T (7, x); T (3, w);   T (3, h); T (1, c); T (16, f); T (1, y); T (8, c); T (1, f); T (4, c)]"
43.6,6954109,2259694,17350656,9803776,"[V f; U (4, f); U (7, y); T (32, c); Hoist_vars [c]; T (7, x); T (3, w);   T (3, h); T (1, c); T (8, f); T (1, y); T (8, c); T (2, f); T (4, c)]"
41.1,6984405,2544340,17350656,9969664,"[V f; U (4, f); U (7, y); T (32, c); Hoist_vars [c]; T (7, x); T (3, w);   T (3, h); T (1, c); T (4, f); T (1, y); T (8, c); T (4, f); T (4, c)]"
37.9,6974083,2862187,17350656,10301440,"[V f; U (4, f); U (7, y); T (32, c); Hoist_vars [c]; T (7, x); T (3, w);   T (3, h); T (1, c); T (2, f); T (1, y); T (8, c); T (8, f); T (4, c)]"
35.0,6973860,3314298,17350656,9720832,"[V f; U (4, f); U (7, y); T (32, c); Hoist_vars [c]; T (7, x); T (3, w);   T (3, h); T (1, c); T (1, f); T (1, y); T (8, c); T (16, f); T (4, c)]"
36.0,6999638,3328989,17350656,9921536,"[V f; U (4, f); U (7, y); T (32, c); Hoist_vars [c]; T (7, x); T (3, w);   T (3, h); T (4, c); T (16, f); T (1, y); T (1, c); T (1, f); T (8, c)]"
35.6,7006064,3350734,17350656,10004480,"[V f; U (4, f); U (7, y); T (32, c); Hoist_vars [c]; T (7, x); T (3, w);   T (3, h); T (4, c); T (8, f); T (1, y); T (1, c); T (2, f); T (8, c)]"
35.5,7005446,3358146,17350656,10170368,"[V f; U (4, f); U (7, y); T (32, c); Hoist_vars [c]; T (7, x); T (3, w);   T (3, h); T (4, c); T (4, f); T (1, y); T (1, c); T (4, f); T (8, c)]"
35.6,6959752,3328368,17350656,9921536,"[V f; U (4, f); U (7, y); T (32, c); Hoist_vars [c]; T (7, x); T (3, w);   T (3, h); T (4, c); T (2, f); T (1, y); T (1, c); T (8, f); T (8, c)]"
35.5,6971500,3339524,17350656,9921536,"[V f; U (4, f); U (7, y); T (32, c); Hoist_vars [c]; T (7, x); T (3, w);   T (3, h); T (4, c); T (1, f); T (1, y); T (1, c); T (16, f); T (8, c)]"
37.1,6970242,3140866,17350656,10322944,"[V f; U (4, f); U (7, y); T (32, c); Hoist_vars [c]; T (7, x); T (3, w);   T (3, h); T (2, c); T (16, f); T (1, y); T (2, c); T (1, f); T (8, c)]"
37.5,6949553,3172151,17350656,10405888,"[V f; U (4, f); U (7, y); T (32, c); Hoist_vars [c]; T (7, x); T (3, w);   T (3, h); T (2, c); T (8, f); T (1, y); T (2, c); T (2, f); T (8, c)]"
37.5,6953720,3193417,17350656,10170368,"[V f; U (4, f); U (7, y); T (32, c); Hoist_vars [c]; T (7, x); T (3, w);   T (3, h); T (2, c); T (4, f); T (1, y); T (2, c); T (4, f); T (8, c)]"
36.3,7003334,3314188,17350656,9921536,"[V f; U (4, f); U (7, y); T (32, c); Hoist_vars [c]; T (7, x); T (3, w);   T (3, h); T (2, c); T (2, f); T (1, y); T (2, c); T (8, f); T (8, c)]"
36.5,6979711,3365913,17350656,9921536,"[V f; U (4, f); U (7, y); T (32, c); Hoist_vars [c]; T (7, x); T (3, w);   T (3, h); T (2, c); T (1, f); T (1, y); T (2, c); T (16, f); T (8, c)]"
44.2,6955615,2097510,17350656,11125760,"[V f; U (4, f); U (7, y); T (32, c); Hoist_vars [c]; T (7, x); T (3, w);   T (3, h); T (1, c); T (16, f); T (1, y); T (4, c); T (1, f); T (8, c)]"
42.6,6986377,2264968,17350656,10004480,"[V f; U (4, f); U (7, y); T (32, c); Hoist_vars [c]; T (7, x); T (3, w);   T (3, h); T (1, c); T (8, f); T (1, y); T (4, c); T (2, f); T (8, c)]"
41.6,6983162,2528417,17350656,10170368,"[V f; U (4, f); U (7, y); T (32, c); Hoist_vars [c]; T (7, x); T (3, w);   T (3, h); T (1, c); T (4, f); T (1, y); T (4, c); T (4, f); T (8, c)]"
38.9,6944242,2827879,17350656,9921536,"[V f; U (4, f); U (7, y); T (32, c); Hoist_vars [c]; T (7, x); T (3, w);   T (3, h); T (1, c); T (2, f); T (1, y); T (4, c); T (8, f); T (8, c)]"
36.2,6999930,3373681,17350656,9921536,"[V f; U (4, f); U (7, y); T (32, c); Hoist_vars [c]; T (7, x); T (3, w);   T (3, h); T (1, c); T (1, f); T (1, y); T (4, c); T (16, f); T (8, c)]"
37.6,6983173,3166712,17350656,10322944,"[V f; U (4, f); U (7, y); T (32, c); Hoist_vars [c]; T (7, x); T (3, w);   T (3, h); T (2, c); T (16, f); T (1, y); T (1, c); T (1, f); T (16, c)]"
38.2,6977753,3187396,17350656,10405888,"[V f; U (4, f); U (7, y); T (32, c); Hoist_vars [c]; T (7, x); T (3, w);   T (3, h); T (2, c); T (8, f); T (1, y); T (1, c); T (2, f); T (16, c)]"
37.4,6952116,3157232,17350656,10322944,"[V f; U (4, f); U (7, y); T (32, c); Hoist_vars [c]; T (7, x); T (3, w);   T (3, h); T (2, c); T (4, f); T (1, y); T (1, c); T (4, f); T (16, c)]"
37.2,6961464,3177988,17350656,10322944,"[V f; U (4, f); U (7, y); T (32, c); Hoist_vars [c]; T (7, x); T (3, w);   T (3, h); T (2, c); T (2, f); T (1, y); T (1, c); T (8, f); T (16, c)]"
37.2,6974190,3160012,17350656,10322944,"[V f; U (4, f); U (7, y); T (32, c); Hoist_vars [c]; T (7, x); T (3, w);   T (3, h); T (2, c); T (1, f); T (1, y); T (1, c); T (16, f); T (16, c)]"
44.0,6968057,2088371,17350656,11125760,"[V f; U (4, f); U (7, y); T (32, c); Hoist_vars [c]; T (7, x); T (3, w);   T (3, h); T (1, c); T (16, f); T (1, y); T (2, c); T (1, f); T (16, c)]"
43.0,6945675,2224598,17350656,10405888,"[V f; U (4, f); U (7, y); T (32, c); Hoist_vars [c]; T (7, x); T (3, w);   T (3, h); T (1, c); T (8, f); T (1, y); T (2, c); T (2, f); T (16, c)]"
40.9,6951807,2470328,17350656,10322944,"[V f; U (4, f); U (7, y); T (32, c); Hoist_vars [c]; T (7, x); T (3, w);   T (3, h); T (1, c); T (4, f); T (1, y); T (2, c); T (4, f); T (16, c)]"
39.1,6955454,2756084,17350656,10322944,"[V f; U (4, f); U (7, y); T (32, c); Hoist_vars [c]; T (7, x); T (3, w);   T (3, h); T (1, c); T (2, f); T (1, y); T (2, c); T (8, f); T (16, c)]"
36.9,6955637,3127783,17350656,10322944,"[V f; U (4, f); U (7, y); T (32, c); Hoist_vars [c]; T (7, x); T (3, w);   T (3, h); T (1, c); T (1, f); T (1, y); T (2, c); T (16, f); T (16, c)]"
45.0,6967849,2084531,17350656,11125760,"[V f; U (4, f); U (7, y); T (32, c); Hoist_vars [c]; T (7, x); T (3, w);   T (3, h); T (1, c); T (16, f); T (1, y); T (1, c); T (1, f); T (32, c)]"
45.3,6953209,2093364,17350656,11125760,"[V f; U (4, f); U (7, y); T (32, c); Hoist_vars [c]; T (7, x); T (3, w);   T (3, h); T (1, c); T (8, f); T (1, y); T (1, c); T (2, f); T (32, c)]"
44.0,6953770,2068516,17350656,11125760,"[V f; U (4, f); U (7, y); T (32, c); Hoist_vars [c]; T (7, x); T (3, w);   T (3, h); T (1, c); T (4, f); T (1, y); T (1, c); T (4, f); T (32, c)]"
44.5,6976661,2040459,17350656,11125760,"[V f; U (4, f); U (7, y); T (32, c); Hoist_vars [c]; T (7, x); T (3, w);   T (3, h); T (1, c); T (2, f); T (1, y); T (1, c); T (8, f); T (32, c)]"
43.5,6972828,2099917,17350656,11125760,"[V f; U (4, f); U (7, y); T (32, c); Hoist_vars [c]; T (7, x); T (3, w);   T (3, h); T (1, c); T (1, f); T (1, y); T (1, c); T (16, f); T (32, c)]"
31.2,5786104,1432461,17350656,10814464,"[V f; U (4, f); U (7, y); U (3, h); T (32, c); Hoist_vars [c]; T (7, x);   T (3, w); T (32, c); T (16, f); T (1, y); T (1, c); T (1, f); T (1, c)]"
30.2,5790571,1447354,17350656,10814464,"[V f; U (4, f); U (7, y); U (3, h); T (32, c); Hoist_vars [c]; T (7, x);   T (3, w); T (32, c); T (8, f); T (1, y); T (1, c); T (2, f); T (1, c)]"
30.2,5793337,1463896,17350656,10814464,"[V f; U (4, f); U (7, y); U (3, h); T (32, c); Hoist_vars [c]; T (7, x);   T (3, w); T (32, c); T (4, f); T (1, y); T (1, c); T (4, f); T (1, c)]"
30.0,5783978,1426129,17350656,10814464,"[V f; U (4, f); U (7, y); U (3, h); T (32, c); Hoist_vars [c]; T (7, x);   T (3, w); T (32, c); T (2, f); T (1, y); T (1, c); T (8, f); T (1, c)]"
30.1,5792591,1490393,17350656,10814464,"[V f; U (4, f); U (7, y); U (3, h); T (32, c); Hoist_vars [c]; T (7, x);   T (3, w); T (32, c); T (1, f); T (1, y); T (1, c); T (16, f); T (1, c)]"
30.5,5786842,1440204,17350656,10864640,"[V f; U (4, f); U (7, y); U (3, h); T (32, c); Hoist_vars [c]; T (7, x);   T (3, w); T (16, c); T (16, f); T (1, y); T (2, c); T (1, f); T (1, c)]"
31.2,5781695,1482767,17350656,10864640,"[V f; U (4, f); U (7, y); U (3, h); T (32, c); Hoist_vars [c]; T (7, x);   T (3, w); T (16, c); T (8, f); T (1, y); T (2, c); T (2, f); T (1, c)]"
31.0,5778286,1434596,17350656,10864640,"[V f; U (4, f); U (7, y); U (3, h); T (32, c); Hoist_vars [c]; T (7, x);   T (3, w); T (16, c); T (4, f); T (1, y); T (2, c); T (4, f); T (1, c)]"
31.1,5778606,1471720,17350656,10864640,"[V f; U (4, f); U (7, y); U (3, h); T (32, c); Hoist_vars [c]; T (7, x);   T (3, w); T (16, c); T (2, f); T (1, y); T (2, c); T (8, f); T (1, c)]"
30.6,5793515,1443676,17350656,10864640,"[V f; U (4, f); U (7, y); U (3, h); T (32, c); Hoist_vars [c]; T (7, x);   T (3, w); T (16, c); T (1, f); T (1, y); T (2, c); T (16, f); T (1, c)]"
32.6,5786686,1483676,17350656,9720832,"[V f; U (4, f); U (7, y); U (3, h); T (32, c); Hoist_vars [c]; T (7, x);   T (3, w); T (8, c); T (16, f); T (1, y); T (4, c); T (1, f); T (1, c)]"
32.4,5780999,1474580,17350656,9803776,"[V f; U (4, f); U (7, y); U (3, h); T (32, c); Hoist_vars [c]; T (7, x);   T (3, w); T (8, c); T (8, f); T (1, y); T (4, c); T (2, f); T (1, c)]"
31.9,5781303,1446762,17350656,9969664,"[V f; U (4, f); U (7, y); U (3, h); T (32, c); Hoist_vars [c]; T (7, x);   T (3, w); T (8, c); T (4, f); T (1, y); T (4, c); T (4, f); T (1, c)]"
31.9,5783190,1447361,17350656,10301440,"[V f; U (4, f); U (7, y); U (3, h); T (32, c); Hoist_vars [c]; T (7, x);   T (3, w); T (8, c); T (2, f); T (1, y); T (4, c); T (8, f); T (1, c)]"
31.2,5780440,1448326,17350656,10814464,"[V f; U (4, f); U (7, y); U (3, h); T (32, c); Hoist_vars [c]; T (7, x);   T (3, w); T (8, c); T (1, f); T (1, y); T (4, c); T (16, f); T (1, c)]"
36.6,5752023,1280195,17350656,9921536,"[V f; U (4, f); U (7, y); U (3, h); T (32, c); Hoist_vars [c]; T (7, x);   T (3, w); T (4, c); T (16, f); T (1, y); T (8, c); T (1, f); T (1, c)]"
36.5,5761385,1291197,17350656,10004480,"[V f; U (4, f); U (7, y); U (3, h); T (32, c); Hoist_vars [c]; T (7, x);   T (3, w); T (4, c); T (8, f); T (1, y); T (8, c); T (2, f); T (1, c)]"
34.2,5765399,1320751,17350656,10170368,"[V f; U (4, f); U (7, y); U (3, h); T (32, c); Hoist_vars [c]; T (7, x);   T (3, w); T (4, c); T (4, f); T (1, y); T (8, c); T (4, f); T (1, c)]"
33.5,5760046,1398703,17350656,10150912,"[V f; U (4, f); U (7, y); U (3, h); T (32, c); Hoist_vars [c]; T (7, x);   T (3, w); T (4, c); T (2, f); T (1, y); T (8, c); T (8, f); T (1, c)]"
31.2,5815018,1447859,17350656,10814464,"[V f; U (4, f); U (7, y); U (3, h); T (32, c); Hoist_vars [c]; T (7, x);   T (3, w); T (4, c); T (1, f); T (1, y); T (8, c); T (16, f); T (1, c)]"
37.5,5781126,1152580,17350656,10322944,"[V f; U (4, f); U (7, y); U (3, h); T (32, c); Hoist_vars [c]; T (7, x);   T (3, w); T (2, c); T (16, f); T (1, y); T (16, c); T (1, f); T (1, c)]"
36.9,5756614,1196200,17350656,10405888,"[V f; U (4, f); U (7, y); U (3, h); T (32, c); Hoist_vars [c]; T (7, x);   T (3, w); T (2, c); T (8, f); T (1, y); T (16, c); T (2, f); T (1, c)]"
34.9,5783759,1208524,17350656,9819136,"[V f; U (4, f); U (7, y); U (3, h); T (32, c); Hoist_vars [c]; T (7, x);   T (3, w); T (2, c); T (4, f); T (1, y); T (16, c); T (4, f); T (1, c)]"
34.1,5770402,1373913,17350656,10150912,"[V f; U (4, f); U (7, y); U (3, h); T (32, c); Hoist_vars [c]; T (7, x);   T (3, w); T (2, c); T (2, f); T (1, y); T (16, c); T (8, f); T (1, c)]"
30.7,5793122,1416681,17350656,10814464,"[V f; U (4, f); U (7, y); U (3, h); T (32, c); Hoist_vars [c]; T (7, x);   T (3, w); T (2, c); T (1, f); T (1, y); T (16, c); T (16, f); T (1, c)]"
38.6,5749892,1001323,17350656,11125760,"[V f; U (4, f); U (7, y); U (3, h); T (32, c); Hoist_vars [c]; T (7, x);   T (3, w); T (1, c); T (16, f); T (1, y); T (32, c); T (1, f); T (1, c)]"
37.5,5765083,1075430,17350656,9653248,"[V f; U (4, f); U (7, y); U (3, h); T (32, c); Hoist_vars [c]; T (7, x);   T (3, w); T (1, c); T (8, f); T (1, y); T (32, c); T (2, f); T (1, c)]"
35.9,5755817,1178927,17350656,9819136,"[V f; U (4, f); U (7, y); U (3, h); T (32, c); Hoist_vars [c]; T (7, x);   T (3, w); T (1, c); T (4, f); T (1, y); T (32, c); T (4, f); T (1, c)]"
33.8,5767850,1319189,17350656,10150912,"[V f; U (4, f); U (7, y); U (3, h); T (32, c); Hoist_vars [c]; T (7, x);   T (3, w); T (1, c); T (2, f); T (1, y); T (32, c); T (8, f); T (1, c)]"
31.5,5786388,1489496,17350656,10814464,"[V f; U (4, f); U (7, y); U (3, h); T (32, c); Hoist_vars [c]; T (7, x);   T (3, w); T (1, c); T (1, f); T (1, y); T (32, c); T (16, f); T (1, c)]"
31.8,5787815,1506859,17350656,10864640,"[V f; U (4, f); U (7, y); U (3, h); T (32, c); Hoist_vars [c]; T (7, x);   T (3, w); T (16, c); T (16, f); T (1, y); T (1, c); T (1, f); T (2, c)]"
31.9,5786763,1449617,17350656,10864640,"[V f; U (4, f); U (7, y); U (3, h); T (32, c); Hoist_vars [c]; T (7, x);   T (3, w); T (16, c); T (8, f); T (1, y); T (1, c); T (2, f); T (2, c)]"
31.4,5789913,1482134,17350656,10864640,"[V f; U (4, f); U (7, y); U (3, h); T (32, c); Hoist_vars [c]; T (7, x);   T (3, w); T (16, c); T (4, f); T (1, y); T (1, c); T (4, f); T (2, c)]"
32.1,5795932,1445525,17350656,10864640,"[V f; U (4, f); U (7, y); U (3, h); T (32, c); Hoist_vars [c]; T (7, x);   T (3, w); T (16, c); T (2, f); T (1, y); T (1, c); T (8, f); T (2, c)]"
31.9,5777961,1426889,17350656,10864640,"[V f; U (4, f); U (7, y); U (3, h); T (32, c); Hoist_vars [c]; T (7, x);   T (3, w); T (16, c); T (1, f); T (1, y); T (1, c); T (16, f); T (2, c)]"
32.5,5780766,1412056,17350656,9720832,"[V f; U (4, f); U (7, y); U (3, h); T (32, c); Hoist_vars [c]; T (7, x);   T (3, w); T (8, c); T (16, f); T (1, y); T (2, c); T (1, f); T (2, c)]"
32.6,5775608,1435398,17350656,9803776,"[V f; U (4, f); U (7, y); U (3, h); T (32, c); Hoist_vars [c]; T (7, x);   T (3, w); T (8, c); T (8, f); T (1, y); T (2, c); T (2, f); T (2, c)]"
32.4,5782026,1447823,17350656,9969664,"[V f; U (4, f); U (7, y); U (3, h); T (32, c); Hoist_vars [c]; T (7, x);   T (3, w); T (8, c); T (4, f); T (1, y); T (2, c); T (4, f); T (2, c)]"
32.0,5789022,1432013,17350656,10301440,"[V f; U (4, f); U (7, y); U (3, h); T (32, c); Hoist_vars [c]; T (7, x);   T (3, w); T (8, c); T (2, f); T (1, y); T (2, c); T (8, f); T (2, c)]"
31.7,5784443,1456977,17350656,10864640,"[V f; U (4, f); U (7, y); U (3, h); T (32, c); Hoist_vars [c]; T (7, x);   T (3, w); T (8, c); T (1, f); T (1, y); T (2, c); T (16, f); T (2, c)]"
36.6,5759831,1284993,17350656,9921536,"[V f; U (4, f); U (7, y); U (3, h); T (32, c); Hoist_vars [c]; T (7, x);   T (3, w); T (4, c); T (16, f); T (1, y); T (4, c); T (1, f); T (2, c)]"
35.3,5758774,1283757,17350656,10004480,"[V f; U (4, f); U (7, y); U (3, h); T (32, c); Hoist_vars [c]; T (7, x);   T (3, w); T (4, c); T (8, f); T (1, y); T (4, c); T (2, f); T (2, c)]"
35.1,5763261,1307234,17350656,10170368,"[V f; U (4, f); U (7, y); U (3, h); T (32, c); Hoist_vars [c]; T (7, x);   T (3, w); T (4, c); T (4, f); T (1, y); T (4, c); T (4, f); T (2, c)]"
33.5,5759975,1383641,17350656,10201088,"[V f; U (4, f); U (7, y); U (3, h); T (32, c); Hoist_vars [c]; T (7, x);   T (3, w); T (4, c); T (2, f); T (1, y); T (4, c); T (8, f); T (2, c)]"
31.7,5786134,1446159,17350656,10864640,"[V f; U (4, f); U (7, y); U (3, h); T (32, c); Hoist_vars [c]; T (7, x);   T (3, w); T (4, c); T (1, f); T (1, y); T (4, c); T (16, f); T (2, c)]"
37.3,5756897,1145536,17350656,10322944,"[V f; U (4, f); U (7, y); U (3, h); T (32, c); Hoist_vars [c]; T (7, x);   T (3, w); T (2, c); T (16, f); T (1, y); T (8, c); T (1, f); T (2, c)]"
37.0,5759493,1185202,17350656,10405888,"[V f; U (4, f); U (7, y); U (3, h); T (32, c); Hoist_vars [c]; T (7, x);   T (3, w); T (2, c); T (8, f); T (1, y); T (8, c); T (2, f); T (2, c)]"
36.0,5758825,1247800,17350656,9869312,"[V f; U (4, f); U (7, y); U (3, h); T (32, c); Hoist_vars [c]; T (7, x);   T (3, w); T (2, c); T (4, f); T (1, y); T (8, c); T (4, f); T (2, c)]"
34.5,5773094,1341566,17350656,10201088,"[V f; U (4, f); U (7, y); U (3, h); T (32, c); Hoist_vars [c]; T (7, x);   T (3, w); T (2, c); T (2, f); T (1, y); T (8, c); T (8, f); T (2, c)]"
31.7,5777257,1484767,17350656,10864640,"[V f; U (4, f); U (7, y); U (3, h); T (32, c); Hoist_vars [c]; T (7, x);   T (3, w); T (2, c); T (1, f); T (1, y); T (8, c); T (16, f); T (2, c)]"
38.6,5753544,1002016,17350656,11125760,"[V f; U (4, f); U (7, y); U (3, h); T (32, c); Hoist_vars [c]; T (7, x);   T (3, w); T (1, c); T (16, f); T (1, y); T (16, c); T (1, f); T (2, c)]"
37.7,5764580,1068787,17350656,9703424,"[V f; U (4, f); U (7, y); U (3, h); T (32, c); Hoist_vars [c]; T (7, x);   T (3, w); T (1, c); T (8, f); T (1, y); T (16, c); T (2, f); T (2, c)]"
35.8,5768891,1167991,17350656,9869312,"[V f; U (4, f); U (7, y); U (3, h); T (32, c); Hoist_vars [c]; T (7, x);   T (3, w); T (1, c); T (4, f); T (1, y); T (16, c); T (4, f); T (2, c)]"
34.6,5778064,1334679,17350656,10201088,"[V f; U (4, f); U (7, y); U (3, h); T (32, c); Hoist_vars [c]; T (7, x);   T (3, w); T (1, c); T (2, f); T (1, y); T (16, c); T (8, f); T (2, c)]"
31.3,5783616,1428359,17350656,10864640,"[V f; U (4, f); U (7, y); U (3, h); T (32, c); Hoist_vars [c]; T (7, x);   T (3, w); T (1, c); T (1, f); T (1, y); T (16, c); T (16, f); T (2, c)]"
32.6,5768640,1451689,17350656,9720832,"[V f; U (4, f); U (7, y); U (3, h); T (32, c); Hoist_vars [c]; T (7, x);   T (3, w); T (8, c); T (16, f); T (1, y); T (1, c); T (1, f); T (4, c)]"
31.5,5787925,1400351,17350656,9803776,"[V f; U (4, f); U (7, y); U (3, h); T (32, c); Hoist_vars [c]; T (7, x);   T (3, w); T (8, c); T (8, f); T (1, y); T (1, c); T (2, f); T (4, c)]"
33.2,5777127,1472249,17350656,9969664,"[V f; U (4, f); U (7, y); U (3, h); T (32, c); Hoist_vars [c]; T (7, x);   T (3, w); T (8, c); T (4, f); T (1, y); T (1, c); T (4, f); T (4, c)]"
32.8,5782498,1430302,17350656,10301440,"[V f; U (4, f); U (7, y); U (3, h); T (32, c); Hoist_vars [c]; T (7, x);   T (3, w); T (8, c); T (2, f); T (1, y); T (1, c); T (8, f); T (4, c)]"
32.7,5778187,1414082,17350656,9720832,"[V f; U (4, f); U (7, y); U (3, h); T (32, c); Hoist_vars [c]; T (7, x);   T (3, w); T (8, c); T (1, f); T (1, y); T (1, c); T (16, f); T (4, c)]"
36.0,5760250,1289830,17350656,9921536,"[V f; U (4, f); U (7, y); U (3, h); T (32, c); Hoist_vars [c]; T (7, x);   T (3, w); T (4, c); T (16, f); T (1, y); T (2, c); T (1, f); T (4, c)]"
34.9,5766606,1278586,17350656,10004480,"[V f; U (4, f); U (7, y); U (3, h); T (32, c); Hoist_vars [c]; T (7, x);   T (3, w); T (4, c); T (8, f); T (1, y); T (2, c); T (2, f); T (4, c)]"
34.8,5758845,1307254,17350656,10170368,"[V f; U (4, f); U (7, y); U (3, h); T (32, c); Hoist_vars [c]; T (7, x);   T (3, w); T (4, c); T (4, f); T (1, y); T (2, c); T (4, f); T (4, c)]"
34.1,5766634,1383950,17350656,10301440,"[V f; U (4, f); U (7, y); U (3, h); T (32, c); Hoist_vars [c]; T (7, x);   T (3, w); T (4, c); T (2, f); T (1, y); T (2, c); T (8, f); T (4, c)]"
32.6,5779920,1457238,17350656,9720832,"[V f; U (4, f); U (7, y); U (3, h); T (32, c); Hoist_vars [c]; T (7, x);   T (3, w); T (4, c); T (1, f); T (1, y); T (2, c); T (16, f); T (4, c)]"
37.9,5751843,1152319,17350656,10322944,"[V f; U (4, f); U (7, y); U (3, h); T (32, c); Hoist_vars [c]; T (7, x);   T (3, w); T (2, c); T (16, f); T (1, y); T (4, c); T (1, f); T (4, c)]"
36.7,5745659,1187421,17350656,10405888,"[V f; U (4, f); U (7, y); U (3, h); T (32, c); Hoist_vars [c]; T (7, x);   T (3, w); T (2, c); T (8, f); T (1, y); T (4, c); T (2, f); T (4, c)]"
35.7,5757523,1270435,17350656,9969664,"[V f; U (4, f); U (7, y); U (3, h); T (32, c); Hoist_vars [c]; T (7, x);   T (3, w); T (2, c); T (4, f); T (1, y); T (4, c); T (4, f); T (4, c)]"
34.9,5773141,1345932,17350656,10301440,"[V f; U (4, f); U (7, y); U (3, h); T (32, c); Hoist_vars [c]; T (7, x);   T (3, w); T (2, c); T (2, f); T (1, y); T (4, c); T (8, f); T (4, c)]"
32.2,5779374,1432313,17350656,9720832,"[V f; U (4, f); U (7, y); U (3, h); T (32, c); Hoist_vars [c]; T (7, x);   T (3, w); T (2, c); T (1, f); T (1, y); T (4, c); T (16, f); T (4, c)]"
38.2,5760128,998011,17350656,11125760,"[V f; U (4, f); U (7, y); U (3, h); T (32, c); Hoist_vars [c]; T (7, x);   T (3, w); T (1, c); T (16, f); T (1, y); T (8, c); T (1, f); T (4, c)]"
36.9,5739931,1065606,17350656,9803776,"[V f; U (4, f); U (7, y); U (3, h); T (32, c); Hoist_vars [c]; T (7, x);   T (3, w); T (1, c); T (8, f); T (1, y); T (8, c); T (2, f); T (4, c)]"
36.4,5763174,1184562,17350656,9969664,"[V f; U (4, f); U (7, y); U (3, h); T (32, c); Hoist_vars [c]; T (7, x);   T (3, w); T (1, c); T (4, f); T (1, y); T (8, c); T (4, f); T (4, c)]"
34.9,5768673,1303771,17350656,10301440,"[V f; U (4, f); U (7, y); U (3, h); T (32, c); Hoist_vars [c]; T (7, x);   T (3, w); T (1, c); T (2, f); T (1, y); T (8, c); T (8, f); T (4, c)]"
32.7,5780281,1464592,17350656,9720832,"[V f; U (4, f); U (7, y); U (3, h); T (32, c); Hoist_vars [c]; T (7, x);   T (3, w); T (1, c); T (1, f); T (1, y); T (8, c); T (16, f); T (4, c)]"
35.7,5763038,1312422,17350656,9921536,"[V f; U (4, f); U (7, y); U (3, h); T (32, c); Hoist_vars [c]; T (7, x);   T (3, w); T (4, c); T (16, f); T (1, y); T (1, c); T (1, f); T (8, c)]"
35.7,5759690,1268593,17350656,10004480,"[V f; U (4, f); U (7, y); U (3, h); T (32, c); Hoist_vars [c]; T (7, x);   T (3, w); T (4, c); T (8, f); T (1, y); T (1, c); T (2, f); T (8, c)]"
36.3,5764914,1278526,17350656,10170368,"[V f; U (4, f); U (7, y); U (3, h); T (32, c); Hoist_vars [c]; T (7, x);   T (3, w); T (4, c); T (4, f); T (1, y); T (1, c); T (4, f); T (8, c)]"
36.0,5766916,1274271,17350656,9921536,"[V f; U (4, f); U (7, y); U (3, h); T (32, c); Hoist_vars [c]; T (7, x);   T (3, w); T (4, c); T (2, f); T (1, y); T (1, c); T (8, f); T (8, c)]"
36.4,5767953,1291974,17350656,9921536,"[V f; U (4, f); U (7, y); U (3, h); T (32, c); Hoist_vars [c]; T (7, x);   T (3, w); T (4, c); T (1, f); T (1, y); T (1, c); T (16, f); T (8, c)]"
37.9,5757969,1154010,17350656,10322944,"[V f; U (4, f); U (7, y); U (3, h); T (32, c); Hoist_vars [c]; T (7, x);   T (3, w); T (2, c); T (16, f); T (1, y); T (2, c); T (1, f); T (8, c)]"
37.6,5762759,1179755,17350656,10405888,"[V f; U (4, f); U (7, y); U (3, h); T (32, c); Hoist_vars [c]; T (7, x);   T (3, w); T (2, c); T (8, f); T (1, y); T (2, c); T (2, f); T (8, c)]"
36.8,5759257,1224736,17350656,10170368,"[V f; U (4, f); U (7, y); U (3, h); T (32, c); Hoist_vars [c]; T (7, x);   T (3, w); T (2, c); T (4, f); T (1, y); T (2, c); T (4, f); T (8, c)]"
36.7,5757015,1299240,17350656,9921536,"[V f; U (4, f); U (7, y); U (3, h); T (32, c); Hoist_vars [c]; T (7, x);   T (3, w); T (2, c); T (2, f); T (1, y); T (2, c); T (8, f); T (8, c)]"
36.2,5763496,1290018,17350656,9921536,"[V f; U (4, f); U (7, y); U (3, h); T (32, c); Hoist_vars [c]; T (7, x);   T (3, w); T (2, c); T (1, f); T (1, y); T (2, c); T (16, f); T (8, c)]"
38.6,5756436,1002501,17350656,11125760,"[V f; U (4, f); U (7, y); U (3, h); T (32, c); Hoist_vars [c]; T (7, x);   T (3, w); T (1, c); T (16, f); T (1, y); T (4, c); T (1, f); T (8, c)]"
38.4,5759753,1076033,17350656,10004480,"[V f; U (4, f); U (7, y); U (3, h); T (32, c); Hoist_vars [c]; T (7, x);   T (3, w); T (1, c); T (8, f); T (1, y); T (4, c); T (2, f); T (8, c)]"
37.5,5752478,1157702,17350656,10170368,"[V f; U (4, f); U (7, y); U (3, h); T (32, c); Hoist_vars [c]; T (7, x);   T (3, w); T (1, c); T (4, f); T (1, y); T (4, c); T (4, f); T (8, c)]"
37.0,5754172,1267006,17350656,9921536,"[V f; U (4, f); U (7, y); U (3, h); T (32, c); Hoist_vars [c]; T (7, x);   T (3, w); T (1, c); T (2, f); T (1, y); T (4, c); T (8, f); T (8, c)]"
36.4,5769636,1280897,17350656,9921536,"[V f; U (4, f); U (7, y); U (3, h); T (32, c); Hoist_vars [c]; T (7, x);   T (3, w); T (1, c); T (1, f); T (1, y); T (4, c); T (16, f); T (8, c)]"
37.9,5775090,1144905,17350656,10322944,"[V f; U (4, f); U (7, y); U (3, h); T (32, c); Hoist_vars [c]; T (7, x);   T (3, w); T (2, c); T (16, f); T (1, y); T (1, c); T (1, f); T (16, c)]"
37.5,5757952,1147904,17350656,10405888,"[V f; U (4, f); U (7, y); U (3, h); T (32, c); Hoist_vars [c]; T (7, x);   T (3, w); T (2, c); T (8, f); T (1, y); T (1, c); T (2, f); T (16, c)]"
37.6,5754135,1136705,17350656,10322944,"[V f; U (4, f); U (7, y); U (3, h); T (32, c); Hoist_vars [c]; T (7, x);   T (3, w); T (2, c); T (4, f); T (1, y); T (1, c); T (4, f); T (16, c)]"
37.8,5755687,1132835,17350656,10322944,"[V f; U (4, f); U (7, y); U (3, h); T (32, c); Hoist_vars [c]; T (7, x);   T (3, w); T (2, c); T (2, f); T (1, y); T (1, c); T (8, f); T (16, c)]"
37.7,5787455,1149472,17350656,10322944,"[V f; U (4, f); U (7, y); U (3, h); T (32, c); Hoist_vars [c]; T (7, x);   T (3, w); T (2, c); T (1, f); T (1, y); T (1, c); T (16, f); T (16, c)]"
38.0,5757503,1016778,17350656,11125760,"[V f; U (4, f); U (7, y); U (3, h); T (32, c); Hoist_vars [c]; T (7, x);   T (3, w); T (1, c); T (16, f); T (1, y); T (2, c); T (1, f); T (16, c)]"
38.7,5761436,1047068,17350656,10405888,"[V f; U (4, f); U (7, y); U (3, h); T (32, c); Hoist_vars [c]; T (7, x);   T (3, w); T (1, c); T (8, f); T (1, y); T (2, c); T (2, f); T (16, c)]"
38.2,5755127,1106796,17350656,10322944,"[V f; U (4, f); U (7, y); U (3, h); T (32, c); Hoist_vars [c]; T (7, x);   T (3, w); T (1, c); T (4, f); T (1, y); T (2, c); T (4, f); T (16, c)]"
38.0,5748539,1144105,17350656,10322944,"[V f; U (4, f); U (7, y); U (3, h); T (32, c); Hoist_vars [c]; T (7, x);   T (3, w); T (1, c); T (2, f); T (1, y); T (2, c); T (8, f); T (16, c)]"
37.4,5762246,1156116,17350656,10322944,"[V f; U (4, f); U (7, y); U (3, h); T (32, c); Hoist_vars [c]; T (7, x);   T (3, w); T (1, c); T (1, f); T (1, y); T (2, c); T (16, f); T (16, c)]"
39.1,5758083,1007331,17350656,11125760,"[V f; U (4, f); U (7, y); U (3, h); T (32, c); Hoist_vars [c]; T (7, x);   T (3, w); T (1, c); T (16, f); T (1, y); T (1, c); T (1, f); T (32, c)]"
38.7,5766042,1007052,17350656,11125760,"[V f; U (4, f); U (7, y); U (3, h); T (32, c); Hoist_vars [c]; T (7, x);   T (3, w); T (1, c); T (8, f); T (1, y); T (1, c); T (2, f); T (32, c)]"
38.6,5753486,1015041,17350656,11125760,"[V f; U (4, f); U (7, y); U (3, h); T (32, c); Hoist_vars [c]; T (7, x);   T (3, w); T (1, c); T (4, f); T (1, y); T (1, c); T (4, f); T (32, c)]"
39.0,5763831,1008530,17350656,11125760,"[V f; U (4, f); U (7, y); U (3, h); T (32, c); Hoist_vars [c]; T (7, x);   T (3, w); T (1, c); T (2, f); T (1, y); T (1, c); T (8, f); T (32, c)]"
38.9,5751473,1000623,17350656,11125760,"[V f; U (4, f); U (7, y); U (3, h); T (32, c); Hoist_vars [c]; T (7, x);   T (3, w); T (1, c); T (1, f); T (1, y); T (1, c); T (16, f); T (32, c)]"
